<?xml version='1.0' encoding='utf-8'?>
<svg xmlns="http://www.w3.org/2000/svg" xmlns:xlink="http://www.w3.org/1999/xlink" id="chart-fbd6ac2d-83ec-482b-8403-7370166e8a2d" class="pygal-chart" viewBox="0 0 800 600"><!--Generated with pygal 3.0.0 (lxml) ©Kozea 2012-2016 on 2022-04-25--><!--http://pygal.org--><!--http://github.com/Kozea/pygal--><defs><style type="text/css">#chart-fbd6ac2d-83ec-482b-8403-7370166e8a2d{-webkit-user-select:none;-webkit-font-smoothing:antialiased;font-family:FreeSans}#chart-fbd6ac2d-83ec-482b-8403-7370166e8a2d .title{font-family:FreeSans;font-size:18px}#chart-fbd6ac2d-83ec-482b-8403-7370166e8a2d .legends .legend text{font-family:FreeSans;font-size:14px}#chart-fbd6ac2d-83ec-482b-8403-7370166e8a2d .axis text{font-family:FreeSans;font-size:12px}#chart-fbd6ac2d-83ec-482b-8403-7370166e8a2d .axis text.major{font-family:FreeSans;font-size:12px}#chart-fbd6ac2d-83ec-482b-8403-7370166e8a2d .text-overlay text.value{font-family:FreeSans;font-size:12px}#chart-fbd6ac2d-83ec-482b-8403-7370166e8a2d .text-overlay text.label{font-family:FreeSans;font-size:10px}#chart-fbd6ac2d-83ec-482b-8403-7370166e8a2d .tooltip{font-family:FreeSans;font-size:12px}#chart-fbd6ac2d-83ec-482b-8403-7370166e8a2d text.no_data{font-family:FreeSans;font-size:64px}
#chart-fbd6ac2d-83ec-482b-8403-7370166e8a2d{background-color:white}#chart-fbd6ac2d-83ec-482b-8403-7370166e8a2d path,#chart-fbd6ac2d-83ec-482b-8403-7370166e8a2d line,#chart-fbd6ac2d-83ec-482b-8403-7370166e8a2d rect,#chart-fbd6ac2d-83ec-482b-8403-7370166e8a2d circle{-webkit-transition:150ms;-moz-transition:150ms;transition:150ms}#chart-fbd6ac2d-83ec-482b-8403-7370166e8a2d .graph &gt; .background{fill:white}#chart-fbd6ac2d-83ec-482b-8403-7370166e8a2d .plot &gt; .background{fill:white}#chart-fbd6ac2d-83ec-482b-8403-7370166e8a2d .graph{fill:rgba(0,0,0,.87)}#chart-fbd6ac2d-83ec-482b-8403-7370166e8a2d text.no_data{fill:rgba(0,0,0,1)}#chart-fbd6ac2d-83ec-482b-8403-7370166e8a2d .title{fill:rgba(0,0,0,1)}#chart-fbd6ac2d-83ec-482b-8403-7370166e8a2d .legends .legend text{fill:rgba(0,0,0,.87)}#chart-fbd6ac2d-83ec-482b-8403-7370166e8a2d .legends .legend:hover text{fill:rgba(0,0,0,1)}#chart-fbd6ac2d-83ec-482b-8403-7370166e8a2d .axis .line{stroke:rgba(0,0,0,1)}#chart-fbd6ac2d-83ec-482b-8403-7370166e8a2d .axis .guide.line{stroke:rgba(0,0,0,.54)}#chart-fbd6ac2d-83ec-482b-8403-7370166e8a2d .axis .major.line{stroke:rgba(0,0,0,.87)}#chart-fbd6ac2d-83ec-482b-8403-7370166e8a2d .axis text.major{fill:rgba(0,0,0,1)}#chart-fbd6ac2d-83ec-482b-8403-7370166e8a2d .axis.y .guides:hover .guide.line,#chart-fbd6ac2d-83ec-482b-8403-7370166e8a2d .line-graph .axis.x .guides:hover .guide.line,#chart-fbd6ac2d-83ec-482b-8403-7370166e8a2d .stackedline-graph .axis.x .guides:hover .guide.line,#chart-fbd6ac2d-83ec-482b-8403-7370166e8a2d .xy-graph .axis.x .guides:hover .guide.line{stroke:rgba(0,0,0,1)}#chart-fbd6ac2d-83ec-482b-8403-7370166e8a2d .axis .guides:hover text{fill:rgba(0,0,0,1)}#chart-fbd6ac2d-83ec-482b-8403-7370166e8a2d .reactive{fill-opacity:.7;stroke-opacity:.8;stroke-width:1}#chart-fbd6ac2d-83ec-482b-8403-7370166e8a2d .ci{stroke:rgba(0,0,0,.87)}#chart-fbd6ac2d-83ec-482b-8403-7370166e8a2d .reactive.active,#chart-fbd6ac2d-83ec-482b-8403-7370166e8a2d .active .reactive{fill-opacity:0.2;stroke-opacity:.9;stroke-width:4}#chart-fbd6ac2d-83ec-482b-8403-7370166e8a2d .ci .reactive.active{stroke-width:1.5}#chart-fbd6ac2d-83ec-482b-8403-7370166e8a2d .series text{fill:rgba(0,0,0,1)}#chart-fbd6ac2d-83ec-482b-8403-7370166e8a2d .tooltip rect{fill:white;stroke:rgba(0,0,0,1);-webkit-transition:opacity 150ms;-moz-transition:opacity 150ms;transition:opacity 150ms}#chart-fbd6ac2d-83ec-482b-8403-7370166e8a2d .tooltip .label{fill:rgba(0,0,0,.87)}#chart-fbd6ac2d-83ec-482b-8403-7370166e8a2d .tooltip .label{fill:rgba(0,0,0,.87)}#chart-fbd6ac2d-83ec-482b-8403-7370166e8a2d .tooltip .legend{font-size:.8em;fill:rgba(0,0,0,.54)}#chart-fbd6ac2d-83ec-482b-8403-7370166e8a2d .tooltip .x_label{font-size:.6em;fill:rgba(0,0,0,1)}#chart-fbd6ac2d-83ec-482b-8403-7370166e8a2d .tooltip .xlink{font-size:.5em;text-decoration:underline}#chart-fbd6ac2d-83ec-482b-8403-7370166e8a2d .tooltip .value{font-size:1.5em}#chart-fbd6ac2d-83ec-482b-8403-7370166e8a2d .bound{font-size:.5em}#chart-fbd6ac2d-83ec-482b-8403-7370166e8a2d .max-value{font-size:.75em;fill:rgba(0,0,0,.54)}#chart-fbd6ac2d-83ec-482b-8403-7370166e8a2d .map-element{fill:white;stroke:rgba(0,0,0,.54) !important}#chart-fbd6ac2d-83ec-482b-8403-7370166e8a2d .map-element .reactive{fill-opacity:inherit;stroke-opacity:inherit}#chart-fbd6ac2d-83ec-482b-8403-7370166e8a2d .color-0,#chart-fbd6ac2d-83ec-482b-8403-7370166e8a2d .color-0 a:visited{stroke:#f44336;fill:#f44336}#chart-fbd6ac2d-83ec-482b-8403-7370166e8a2d .color-1,#chart-fbd6ac2d-83ec-482b-8403-7370166e8a2d .color-1 a:visited{stroke:#3f51b5;fill:#3f51b5}#chart-fbd6ac2d-83ec-482b-8403-7370166e8a2d .color-2,#chart-fbd6ac2d-83ec-482b-8403-7370166e8a2d .color-2 a:visited{stroke:#009688;fill:#009688}#chart-fbd6ac2d-83ec-482b-8403-7370166e8a2d .color-3,#chart-fbd6ac2d-83ec-482b-8403-7370166e8a2d .color-3 a:visited{stroke:#ffc107;fill:#ffc107}#chart-fbd6ac2d-83ec-482b-8403-7370166e8a2d .color-4,#chart-fbd6ac2d-83ec-482b-8403-7370166e8a2d .color-4 a:visited{stroke:#ff5722;fill:#ff5722}#chart-fbd6ac2d-83ec-482b-8403-7370166e8a2d .color-5,#chart-fbd6ac2d-83ec-482b-8403-7370166e8a2d .color-5 a:visited{stroke:#9c27b0;fill:#9c27b0}#chart-fbd6ac2d-83ec-482b-8403-7370166e8a2d .color-6,#chart-fbd6ac2d-83ec-482b-8403-7370166e8a2d .color-6 a:visited{stroke:#03a9f4;fill:#03a9f4}#chart-fbd6ac2d-83ec-482b-8403-7370166e8a2d .color-7,#chart-fbd6ac2d-83ec-482b-8403-7370166e8a2d .color-7 a:visited{stroke:#8bc34a;fill:#8bc34a}#chart-fbd6ac2d-83ec-482b-8403-7370166e8a2d .color-8,#chart-fbd6ac2d-83ec-482b-8403-7370166e8a2d .color-8 a:visited{stroke:#ff9800;fill:#ff9800}#chart-fbd6ac2d-83ec-482b-8403-7370166e8a2d .color-9,#chart-fbd6ac2d-83ec-482b-8403-7370166e8a2d .color-9 a:visited{stroke:#e91e63;fill:#e91e63}#chart-fbd6ac2d-83ec-482b-8403-7370166e8a2d .color-10,#chart-fbd6ac2d-83ec-482b-8403-7370166e8a2d .color-10 a:visited{stroke:#2196f3;fill:#2196f3}#chart-fbd6ac2d-83ec-482b-8403-7370166e8a2d .color-11,#chart-fbd6ac2d-83ec-482b-8403-7370166e8a2d .color-11 a:visited{stroke:#4caf50;fill:#4caf50}#chart-fbd6ac2d-83ec-482b-8403-7370166e8a2d .color-12,#chart-fbd6ac2d-83ec-482b-8403-7370166e8a2d .color-12 a:visited{stroke:#ffeb3b;fill:#ffeb3b}#chart-fbd6ac2d-83ec-482b-8403-7370166e8a2d .color-13,#chart-fbd6ac2d-83ec-482b-8403-7370166e8a2d .color-13 a:visited{stroke:#673ab7;fill:#673ab7}#chart-fbd6ac2d-83ec-482b-8403-7370166e8a2d .color-14,#chart-fbd6ac2d-83ec-482b-8403-7370166e8a2d .color-14 a:visited{stroke:#00bcd4;fill:#00bcd4}#chart-fbd6ac2d-83ec-482b-8403-7370166e8a2d .color-15,#chart-fbd6ac2d-83ec-482b-8403-7370166e8a2d .color-15 a:visited{stroke:#cddc39;fill:#cddc39}#chart-fbd6ac2d-83ec-482b-8403-7370166e8a2d .color-16,#chart-fbd6ac2d-83ec-482b-8403-7370166e8a2d .color-16 a:visited{stroke:#9e9e9e;fill:#9e9e9e}#chart-fbd6ac2d-83ec-482b-8403-7370166e8a2d .color-17,#chart-fbd6ac2d-83ec-482b-8403-7370166e8a2d .color-17 a:visited{stroke:#607d8b;fill:#607d8b}#chart-fbd6ac2d-83ec-482b-8403-7370166e8a2d .color-18,#chart-fbd6ac2d-83ec-482b-8403-7370166e8a2d .color-18 a:visited{stroke:#cb180b;fill:#cb180b}#chart-fbd6ac2d-83ec-482b-8403-7370166e8a2d .color-19,#chart-fbd6ac2d-83ec-482b-8403-7370166e8a2d .color-19 a:visited{stroke:#293577;fill:#293577}#chart-fbd6ac2d-83ec-482b-8403-7370166e8a2d .color-20,#chart-fbd6ac2d-83ec-482b-8403-7370166e8a2d .color-20 a:visited{stroke:#00423c;fill:#00423c}#chart-fbd6ac2d-83ec-482b-8403-7370166e8a2d .color-21,#chart-fbd6ac2d-83ec-482b-8403-7370166e8a2d .color-21 a:visited{stroke:#b28500;fill:#b28500}#chart-fbd6ac2d-83ec-482b-8403-7370166e8a2d .color-22,#chart-fbd6ac2d-83ec-482b-8403-7370166e8a2d .color-22 a:visited{stroke:#cd3100;fill:#cd3100}#chart-fbd6ac2d-83ec-482b-8403-7370166e8a2d .color-23,#chart-fbd6ac2d-83ec-482b-8403-7370166e8a2d .color-23 a:visited{stroke:#5f186b;fill:#5f186b}#chart-fbd6ac2d-83ec-482b-8403-7370166e8a2d .color-24,#chart-fbd6ac2d-83ec-482b-8403-7370166e8a2d .color-24 a:visited{stroke:#026fa1;fill:#026fa1}#chart-fbd6ac2d-83ec-482b-8403-7370166e8a2d .color-25,#chart-fbd6ac2d-83ec-482b-8403-7370166e8a2d .color-25 a:visited{stroke:#608b2e;fill:#608b2e}#chart-fbd6ac2d-83ec-482b-8403-7370166e8a2d .color-26,#chart-fbd6ac2d-83ec-482b-8403-7370166e8a2d .color-26 a:visited{stroke:#ab6600;fill:#ab6600}#chart-fbd6ac2d-83ec-482b-8403-7370166e8a2d .color-27,#chart-fbd6ac2d-83ec-482b-8403-7370166e8a2d .color-27 a:visited{stroke:#a31042;fill:#a31042}#chart-fbd6ac2d-83ec-482b-8403-7370166e8a2d .color-28,#chart-fbd6ac2d-83ec-482b-8403-7370166e8a2d .color-28 a:visited{stroke:#0a6ab6;fill:#0a6ab6}#chart-fbd6ac2d-83ec-482b-8403-7370166e8a2d .color-29,#chart-fbd6ac2d-83ec-482b-8403-7370166e8a2d .color-29 a:visited{stroke:#337435;fill:#337435}#chart-fbd6ac2d-83ec-482b-8403-7370166e8a2d .color-30,#chart-fbd6ac2d-83ec-482b-8403-7370166e8a2d .color-30 a:visited{stroke:#e6ce00;fill:#e6ce00}#chart-fbd6ac2d-83ec-482b-8403-7370166e8a2d .color-31,#chart-fbd6ac2d-83ec-482b-8403-7370166e8a2d .color-31 a:visited{stroke:#432677;fill:#432677}#chart-fbd6ac2d-83ec-482b-8403-7370166e8a2d .color-32,#chart-fbd6ac2d-83ec-482b-8403-7370166e8a2d .color-32 a:visited{stroke:#007180;fill:#007180}#chart-fbd6ac2d-83ec-482b-8403-7370166e8a2d .color-33,#chart-fbd6ac2d-83ec-482b-8403-7370166e8a2d .color-33 a:visited{stroke:#97a41d;fill:#97a41d}#chart-fbd6ac2d-83ec-482b-8403-7370166e8a2d .color-34,#chart-fbd6ac2d-83ec-482b-8403-7370166e8a2d .color-34 a:visited{stroke:#747474;fill:#747474}#chart-fbd6ac2d-83ec-482b-8403-7370166e8a2d .color-35,#chart-fbd6ac2d-83ec-482b-8403-7370166e8a2d .color-35 a:visited{stroke:#3e5059;fill:#3e5059}#chart-fbd6ac2d-83ec-482b-8403-7370166e8a2d .color-36,#chart-fbd6ac2d-83ec-482b-8403-7370166e8a2d .color-36 a:visited{stroke:#7b0f07;fill:#7b0f07}#chart-fbd6ac2d-83ec-482b-8403-7370166e8a2d .color-37,#chart-fbd6ac2d-83ec-482b-8403-7370166e8a2d .color-37 a:visited{stroke:#141938;fill:#141938}#chart-fbd6ac2d-83ec-482b-8403-7370166e8a2d .color-38,#chart-fbd6ac2d-83ec-482b-8403-7370166e8a2d .color-38 a:visited{stroke:#000000;fill:#000000}#chart-fbd6ac2d-83ec-482b-8403-7370166e8a2d .color-39,#chart-fbd6ac2d-83ec-482b-8403-7370166e8a2d .color-39 a:visited{stroke:#5e4600;fill:#5e4600}#chart-fbd6ac2d-83ec-482b-8403-7370166e8a2d .color-40,#chart-fbd6ac2d-83ec-482b-8403-7370166e8a2d .color-40 a:visited{stroke:#791d00;fill:#791d00}#chart-fbd6ac2d-83ec-482b-8403-7370166e8a2d .color-41,#chart-fbd6ac2d-83ec-482b-8403-7370166e8a2d .color-41 a:visited{stroke:#220826;fill:#220826}#chart-fbd6ac2d-83ec-482b-8403-7370166e8a2d .color-42,#chart-fbd6ac2d-83ec-482b-8403-7370166e8a2d .color-42 a:visited{stroke:#01364e;fill:#01364e}#chart-fbd6ac2d-83ec-482b-8403-7370166e8a2d .color-43,#chart-fbd6ac2d-83ec-482b-8403-7370166e8a2d .color-43 a:visited{stroke:#344c19;fill:#344c19}#chart-fbd6ac2d-83ec-482b-8403-7370166e8a2d .color-44,#chart-fbd6ac2d-83ec-482b-8403-7370166e8a2d .color-44 a:visited{stroke:#573400;fill:#573400}#chart-fbd6ac2d-83ec-482b-8403-7370166e8a2d .color-45,#chart-fbd6ac2d-83ec-482b-8403-7370166e8a2d .color-45 a:visited{stroke:#560823;fill:#560823}#chart-fbd6ac2d-83ec-482b-8403-7370166e8a2d .color-46,#chart-fbd6ac2d-83ec-482b-8403-7370166e8a2d .color-46 a:visited{stroke:#063b66;fill:#063b66}#chart-fbd6ac2d-83ec-482b-8403-7370166e8a2d .color-47,#chart-fbd6ac2d-83ec-482b-8403-7370166e8a2d .color-47 a:visited{stroke:#193a1a;fill:#193a1a}#chart-fbd6ac2d-83ec-482b-8403-7370166e8a2d .color-48,#chart-fbd6ac2d-83ec-482b-8403-7370166e8a2d .color-48 a:visited{stroke:#928300;fill:#928300}#chart-fbd6ac2d-83ec-482b-8403-7370166e8a2d .color-49,#chart-fbd6ac2d-83ec-482b-8403-7370166e8a2d .color-49 a:visited{stroke:#1f1137;fill:#1f1137}#chart-fbd6ac2d-83ec-482b-8403-7370166e8a2d .text-overlay .color-0 text{fill:black}#chart-fbd6ac2d-83ec-482b-8403-7370166e8a2d .text-overlay .color-1 text{fill:black}#chart-fbd6ac2d-83ec-482b-8403-7370166e8a2d .text-overlay .color-2 text{fill:black}#chart-fbd6ac2d-83ec-482b-8403-7370166e8a2d .text-overlay .color-3 text{fill:black}#chart-fbd6ac2d-83ec-482b-8403-7370166e8a2d .text-overlay .color-4 text{fill:black}#chart-fbd6ac2d-83ec-482b-8403-7370166e8a2d .text-overlay .color-5 text{fill:black}#chart-fbd6ac2d-83ec-482b-8403-7370166e8a2d .text-overlay .color-6 text{fill:black}#chart-fbd6ac2d-83ec-482b-8403-7370166e8a2d .text-overlay .color-7 text{fill:black}#chart-fbd6ac2d-83ec-482b-8403-7370166e8a2d .text-overlay .color-8 text{fill:black}#chart-fbd6ac2d-83ec-482b-8403-7370166e8a2d .text-overlay .color-9 text{fill:black}#chart-fbd6ac2d-83ec-482b-8403-7370166e8a2d .text-overlay .color-10 text{fill:black}#chart-fbd6ac2d-83ec-482b-8403-7370166e8a2d .text-overlay .color-11 text{fill:black}#chart-fbd6ac2d-83ec-482b-8403-7370166e8a2d .text-overlay .color-12 text{fill:black}#chart-fbd6ac2d-83ec-482b-8403-7370166e8a2d .text-overlay .color-13 text{fill:black}#chart-fbd6ac2d-83ec-482b-8403-7370166e8a2d .text-overlay .color-14 text{fill:black}#chart-fbd6ac2d-83ec-482b-8403-7370166e8a2d .text-overlay .color-15 text{fill:black}#chart-fbd6ac2d-83ec-482b-8403-7370166e8a2d .text-overlay .color-16 text{fill:black}#chart-fbd6ac2d-83ec-482b-8403-7370166e8a2d .text-overlay .color-17 text{fill:black}#chart-fbd6ac2d-83ec-482b-8403-7370166e8a2d .text-overlay .color-18 text{fill:black}#chart-fbd6ac2d-83ec-482b-8403-7370166e8a2d .text-overlay .color-19 text{fill:black}#chart-fbd6ac2d-83ec-482b-8403-7370166e8a2d .text-overlay .color-20 text{fill:white}#chart-fbd6ac2d-83ec-482b-8403-7370166e8a2d .text-overlay .color-21 text{fill:black}#chart-fbd6ac2d-83ec-482b-8403-7370166e8a2d .text-overlay .color-22 text{fill:black}#chart-fbd6ac2d-83ec-482b-8403-7370166e8a2d .text-overlay .color-23 text{fill:black}#chart-fbd6ac2d-83ec-482b-8403-7370166e8a2d .text-overlay .color-24 text{fill:black}#chart-fbd6ac2d-83ec-482b-8403-7370166e8a2d .text-overlay .color-25 text{fill:black}#chart-fbd6ac2d-83ec-482b-8403-7370166e8a2d .text-overlay .color-26 text{fill:black}#chart-fbd6ac2d-83ec-482b-8403-7370166e8a2d .text-overlay .color-27 text{fill:black}#chart-fbd6ac2d-83ec-482b-8403-7370166e8a2d .text-overlay .color-28 text{fill:black}#chart-fbd6ac2d-83ec-482b-8403-7370166e8a2d .text-overlay .color-29 text{fill:black}#chart-fbd6ac2d-83ec-482b-8403-7370166e8a2d .text-overlay .color-30 text{fill:black}#chart-fbd6ac2d-83ec-482b-8403-7370166e8a2d .text-overlay .color-31 text{fill:black}#chart-fbd6ac2d-83ec-482b-8403-7370166e8a2d .text-overlay .color-32 text{fill:black}#chart-fbd6ac2d-83ec-482b-8403-7370166e8a2d .text-overlay .color-33 text{fill:black}#chart-fbd6ac2d-83ec-482b-8403-7370166e8a2d .text-overlay .color-34 text{fill:black}#chart-fbd6ac2d-83ec-482b-8403-7370166e8a2d .text-overlay .color-35 text{fill:black}#chart-fbd6ac2d-83ec-482b-8403-7370166e8a2d .text-overlay .color-36 text{fill:black}#chart-fbd6ac2d-83ec-482b-8403-7370166e8a2d .text-overlay .color-37 text{fill:white}#chart-fbd6ac2d-83ec-482b-8403-7370166e8a2d .text-overlay .color-38 text{fill:white}#chart-fbd6ac2d-83ec-482b-8403-7370166e8a2d .text-overlay .color-39 text{fill:black}#chart-fbd6ac2d-83ec-482b-8403-7370166e8a2d .text-overlay .color-40 text{fill:black}#chart-fbd6ac2d-83ec-482b-8403-7370166e8a2d .text-overlay .color-41 text{fill:white}#chart-fbd6ac2d-83ec-482b-8403-7370166e8a2d .text-overlay .color-42 text{fill:white}#chart-fbd6ac2d-83ec-482b-8403-7370166e8a2d .text-overlay .color-43 text{fill:black}#chart-fbd6ac2d-83ec-482b-8403-7370166e8a2d .text-overlay .color-44 text{fill:white}#chart-fbd6ac2d-83ec-482b-8403-7370166e8a2d .text-overlay .color-45 text{fill:black}#chart-fbd6ac2d-83ec-482b-8403-7370166e8a2d .text-overlay .color-46 text{fill:black}#chart-fbd6ac2d-83ec-482b-8403-7370166e8a2d .text-overlay .color-47 text{fill:white}#chart-fbd6ac2d-83ec-482b-8403-7370166e8a2d .text-overlay .color-48 text{fill:black}#chart-fbd6ac2d-83ec-482b-8403-7370166e8a2d .text-overlay .color-49 text{fill:white}
#chart-fbd6ac2d-83ec-482b-8403-7370166e8a2d text.no_data{text-anchor:middle}#chart-fbd6ac2d-83ec-482b-8403-7370166e8a2d .guide.line{fill:none}#chart-fbd6ac2d-83ec-482b-8403-7370166e8a2d .centered{text-anchor:middle}#chart-fbd6ac2d-83ec-482b-8403-7370166e8a2d .title{text-anchor:middle}#chart-fbd6ac2d-83ec-482b-8403-7370166e8a2d .legends .legend text{fill-opacity:1}#chart-fbd6ac2d-83ec-482b-8403-7370166e8a2d .axis.x text{text-anchor:middle}#chart-fbd6ac2d-83ec-482b-8403-7370166e8a2d .axis.x:not(.web) text[transform]{text-anchor:start}#chart-fbd6ac2d-83ec-482b-8403-7370166e8a2d .axis.x:not(.web) text[transform].backwards{text-anchor:end}#chart-fbd6ac2d-83ec-482b-8403-7370166e8a2d .axis.y text{text-anchor:end}#chart-fbd6ac2d-83ec-482b-8403-7370166e8a2d .axis.y text[transform].backwards{text-anchor:start}#chart-fbd6ac2d-83ec-482b-8403-7370166e8a2d .axis.y2 text{text-anchor:start}#chart-fbd6ac2d-83ec-482b-8403-7370166e8a2d .axis.y2 text[transform].backwards{text-anchor:end}#chart-fbd6ac2d-83ec-482b-8403-7370166e8a2d .axis .guide.line{stroke-dasharray:4,4;stroke:black}#chart-fbd6ac2d-83ec-482b-8403-7370166e8a2d .axis .major.guide.line{stroke-dasharray:6,6;stroke:black}#chart-fbd6ac2d-83ec-482b-8403-7370166e8a2d .horizontal .axis.y .guide.line,#chart-fbd6ac2d-83ec-482b-8403-7370166e8a2d .horizontal .axis.y2 .guide.line,#chart-fbd6ac2d-83ec-482b-8403-7370166e8a2d .vertical .axis.x .guide.line{opacity:0}#chart-fbd6ac2d-83ec-482b-8403-7370166e8a2d .horizontal .axis.always_show .guide.line,#chart-fbd6ac2d-83ec-482b-8403-7370166e8a2d .vertical .axis.always_show .guide.line{opacity:1 !important}#chart-fbd6ac2d-83ec-482b-8403-7370166e8a2d .axis.y .guides:hover .guide.line,#chart-fbd6ac2d-83ec-482b-8403-7370166e8a2d .axis.y2 .guides:hover .guide.line,#chart-fbd6ac2d-83ec-482b-8403-7370166e8a2d .axis.x .guides:hover .guide.line{opacity:1}#chart-fbd6ac2d-83ec-482b-8403-7370166e8a2d .axis .guides:hover text{opacity:1}#chart-fbd6ac2d-83ec-482b-8403-7370166e8a2d .nofill{fill:none}#chart-fbd6ac2d-83ec-482b-8403-7370166e8a2d .subtle-fill{fill-opacity:.2}#chart-fbd6ac2d-83ec-482b-8403-7370166e8a2d .dot{stroke-width:1px;fill-opacity:1;stroke-opacity:1}#chart-fbd6ac2d-83ec-482b-8403-7370166e8a2d .dot.active{stroke-width:5px}#chart-fbd6ac2d-83ec-482b-8403-7370166e8a2d .dot.negative{fill:transparent}#chart-fbd6ac2d-83ec-482b-8403-7370166e8a2d text,#chart-fbd6ac2d-83ec-482b-8403-7370166e8a2d tspan{stroke:none !important}#chart-fbd6ac2d-83ec-482b-8403-7370166e8a2d .series text.active{opacity:1}#chart-fbd6ac2d-83ec-482b-8403-7370166e8a2d .tooltip rect{fill-opacity:.95;stroke-width:.5}#chart-fbd6ac2d-83ec-482b-8403-7370166e8a2d .tooltip text{fill-opacity:1}#chart-fbd6ac2d-83ec-482b-8403-7370166e8a2d .showable{visibility:hidden}#chart-fbd6ac2d-83ec-482b-8403-7370166e8a2d .showable.shown{visibility:visible}#chart-fbd6ac2d-83ec-482b-8403-7370166e8a2d .gauge-background{fill:rgba(229,229,229,1);stroke:none}#chart-fbd6ac2d-83ec-482b-8403-7370166e8a2d .bg-lines{stroke:white;stroke-width:2px}</style><script type="text/javascript">window.pygal = window.pygal || {};window.pygal.config = window.pygal.config || {};window.pygal.config['fbd6ac2d-83ec-482b-8403-7370166e8a2d'] = {"allow_interruptions": false, "box_mode": "extremes", "classes": ["pygal-chart"], "css": ["file://style.css", "file://graph.css"], "defs": [], "disable_xml_declaration": false, "dots_size": 2.5, "dynamic_print_values": false, "explicit_size": false, "fill": false, "force_uri_protocol": "https", "formatter": null, "half_pie": false, "height": 600, "include_x_axis": false, "inner_radius": 0, "interpolate": null, "interpolation_parameters": {}, "interpolation_precision": 250, "inverse_y_axis": false, "js": ["//kozea.github.io/pygal.js/2.0.x/pygal-tooltips.min.js"], "legend_at_bottom": false, "legend_at_bottom_columns": null, "legend_box_size": 12, "logarithmic": false, "margin": 20, "margin_bottom": null, "margin_left": null, "margin_right": null, "margin_top": null, "max_scale": 16, "min_scale": 4, "missing_value_fill_truncation": "x", "no_data_text": "No data", "no_prefix": false, "order_min": null, "pretty_print": false, "print_labels": true, "print_values": false, "print_values_position": "center", "print_zeroes": true, "range": [-1.0185185185185188, 1.0352941176470587], "rounded_bars": null, "secondary_range": null, "show_dots": true, "show_legend": false, "show_minor_x_labels": true, "show_minor_y_labels": true, "show_only_major_dots": false, "show_x_guides": true, "show_x_labels": true, "show_y_guides": false, "show_y_labels": true, "spacing": 10, "stack_from_top": false, "strict": false, "stroke": true, "stroke_style": null, "style": {"background": "white", "ci_colors": [], "colors": ["#F44336", "#3F51B5", "#009688", "#FFC107", "#FF5722", "#9C27B0", "#03A9F4", "#8BC34A", "#FF9800", "#E91E63", "#2196F3", "#4CAF50", "#FFEB3B", "#673AB7", "#00BCD4", "#CDDC39", "#9E9E9E", "#607D8B"], "dot_opacity": "1", "font_family": "FreeSans", "foreground": "rgba(0, 0, 0, .87)", "foreground_strong": "rgba(0, 0, 0, 1)", "foreground_subtle": "rgba(0, 0, 0, .54)", "guide_stroke_color": "black", "guide_stroke_dasharray": "4,4", "label_font_family": "FreeSans", "label_font_size": 12, "legend_font_family": "FreeSans", "legend_font_size": 14, "major_guide_stroke_color": "black", "major_guide_stroke_dasharray": "6,6", "major_label_font_family": "FreeSans", "major_label_font_size": 12, "major_value_font_size": 12, "no_data_font_family": "FreeSans", "no_data_font_size": 64, "opacity": ".7", "opacity_hover": 0.2, "plot_background": "white", "stroke_opacity": ".8", "stroke_opacity_hover": ".9", "stroke_width": "1", "stroke_width_hover": "4", "title_font_family": "FreeSans", "title_font_size": 18, "tooltip_font_family": "FreeSans", "tooltip_font_size": 12, "transition": "150ms", "value_background": "rgba(229, 229, 229, 1)", "value_colors": [], "value_font_family": "FreeSans", "value_font_size": 12, "value_label_font_family": "FreeSans", "value_label_font_size": 10}, "title": "Contrastive Analysis with tf_idf\n(PubDept_Haut-Rhin-Bas-Rhin)", "tooltip_border_radius": 0, "tooltip_fancy_mode": true, "truncate_label": null, "truncate_legend": null, "width": 800, "x_label_rotation": 0, "x_labels": null, "x_labels_major": null, "x_labels_major_count": null, "x_labels_major_every": null, "x_title": "Parameters: tf_idf-text-words-all", "xrange": null, "y_label_rotation": 0, "y_labels": null, "y_labels_major": null, "y_labels_major_count": null, "y_labels_major_every": null, "y_title": "25 distinctive features", "zero": 0, "legends": ["het", "ze", "uff", "schun", "vun", "ja", "da\u00df", "hab", "kann", "hesch", "for", "wurd", "han", "saat", "kummt", "denne", "diss", "w\u00e4re", "guet", "frau", "saa", "ken", "daa", "w\u00e4r", "alli", "s\u00e0h", "hat", "nimmig", "fra\u00fc", "w\u00e0r", "ebbes", "gla\u00fcb", "th\u00e0t", "dr", "w\u00e0nn", "s\u00e0it", "ass", "gsi", "kunnt", "ha", "ka", "ku", "vo", "d\u00e0", "kei", "scho", "h\u00e0n", "nitt", "mr", "fir"]}</script><script type="text/javascript" xlink:href="https://kozea.github.io/pygal.js/2.0.x/pygal-tooltips.min.js"/></defs><title>Contrastive Analysis with tf_idf
(PubDept_Haut-Rhin-Bas-Rhin)</title><g class="graph horizontalbar-graph horizontal"><rect x="0" y="0" width="800" height="600" class="background"/><g transform="translate(48, 76)" class="plot"><rect x="0" y="0" width="732" height="454" class="background"/><g class="axis x always_show"><g class="guides"><path d="M20.423261 0.000000 v454.000000" class="major guide line"/><text x="20.42326052011008" y="470.0" class="major">-1</text></g><g class="guides"><path d="M88.963705 0.000000 v454.000000" class="guide line"/><text x="88.96370490652878" y="470.0" class="">-0.8</text></g><g class="guides"><path d="M157.504149 0.000000 v454.000000" class="guide line"/><text x="157.5041492929475" y="470.0" class="">-0.6</text></g><g class="guides"><path d="M226.044594 0.000000 v454.000000" class="guide line"/><text x="226.0445936793662" y="470.0" class="">-0.4</text></g><g class="guides"><path d="M294.585038 0.000000 v454.000000" class="guide line"/><text x="294.5850380657849" y="470.0" class="">-0.2</text></g><g class="guides"><path d="M363.125482 0.000000 v454.000000" class="axis major line"/><text x="363.1254824522036" y="470.0" class="major">0</text></g><g class="guides"><path d="M431.665927 0.000000 v454.000000" class="guide line"/><text x="431.6659268386223" y="470.0" class="">0.2</text></g><g class="guides"><path d="M500.206371 0.000000 v454.000000" class="guide line"/><text x="500.20637122504104" y="470.0" class="">0.4</text></g><g class="guides"><path d="M568.746816 0.000000 v454.000000" class="guide line"/><text x="568.7468156114597" y="470.0" class="">0.6</text></g><g class="guides"><path d="M637.287260 0.000000 v454.000000" class="guide line"/><text x="637.2872599978784" y="470.0" class="">0.8</text></g><g class="guides"><path d="M705.827704 0.000000 v454.000000" class="major guide line"/><text x="705.8277043842971" y="470.0" class="major">1</text></g></g><g class="series serie-49 color-49"><g class="bars"><g class="bar" style="fill: #60799f; stroke: #60799f"><desc class="label">fir</desc><rect x="45.80861029285771" y="411.8548307692308" rx="0" ry="0" width="317.31687215934585" height="6.761107692307691" class="rect reactive tooltip-trigger"/><desc class="value">-0.9259259259</desc><desc class="x centered">204.46704637253063</desc><desc class="y centered">415.2353846153846</desc></g></g></g><g class="series serie-48 color-48"><g class="bars"><g class="bar" style="fill: #60799f; stroke: #60799f"><desc class="label">mr</desc><rect x="60.328655043943876" y="404.1717538461539" rx="0" ry="0" width="302.79682740825973" height="6.761107692307691" class="rect reactive tooltip-trigger"/><desc class="value">-0.8835566507</desc><desc class="x centered">211.72706874807375</desc><desc class="y centered">407.5523076923077</desc></g></g></g><g class="series serie-47 color-47"><g class="bars"><g class="bar" style="fill: #60799f; stroke: #60799f"><desc class="label">nitt</desc><rect x="75.59006557056499" y="396.4886769230769" rx="0" ry="0" width="287.5354168816386" height="6.761107692307691" class="rect reactive tooltip-trigger"/><desc class="value">-0.8390240812</desc><desc class="x centered">219.35777401138427</desc><desc class="y centered">399.86923076923074</desc></g></g></g><g class="series serie-46 color-46"><g class="bars"><g class="bar" style="fill: #60799f; stroke: #60799f"><desc class="label">hàn</desc><rect x="77.34806906009649" y="388.8056" rx="0" ry="0" width="285.77741339210706" height="6.761107692307691" class="rect reactive tooltip-trigger"/><desc class="value">-0.8338942531</desc><desc class="x centered">220.23677575615002</desc><desc class="y centered">392.18615384615384</desc></g></g></g><g class="series serie-45 color-45"><g class="bars"><g class="bar" style="fill: #60799f; stroke: #60799f"><desc class="label">scho</desc><rect x="85.97223104509516" y="381.1225230769231" rx="0" ry="0" width="277.1532514071084" height="6.761107692307691" class="rect reactive tooltip-trigger"/><desc class="value">-0.8087290764</desc><desc class="x centered">224.54885674864937</desc><desc class="y centered">384.5030769230769</desc></g></g></g><g class="series serie-44 color-44"><g class="bars"><g class="bar" style="fill: #60799f; stroke: #60799f"><desc class="label">kei</desc><rect x="98.42845443314481" y="373.4394461538462" rx="0" ry="0" width="264.6970280190588" height="6.761107692307691" class="rect reactive tooltip-trigger"/><desc class="value">-0.7723820013</desc><desc class="x centered">230.77696844267422</desc><desc class="y centered">376.82</desc></g></g></g><g class="series serie-43 color-43"><g class="bars"><g class="bar" style="fill: #60799f; stroke: #60799f"><desc class="label">dà</desc><rect x="103.5110848388106" y="365.7563692307692" rx="0" ry="0" width="259.61439761339295" height="6.761107692307691" class="rect reactive tooltip-trigger"/><desc class="value">-0.7575509612</desc><desc class="x centered">233.31828364550708</desc><desc class="y centered">369.13692307692304</desc></g></g></g><g class="series serie-42 color-42"><g class="bars"><g class="bar" style="fill: #60799f; stroke: #60799f"><desc class="label">vo</desc><rect x="129.85936778003307" y="358.0732923076923" rx="0" ry="0" width="233.26611467217052" height="6.761107692307691" class="rect reactive tooltip-trigger"/><desc class="value">-0.6806670624</desc><desc class="x centered">246.49242511611834</desc><desc class="y centered">361.45384615384614</desc></g></g></g><g class="series serie-41 color-41"><g class="bars"><g class="bar" style="fill: #60799f; stroke: #60799f"><desc class="label">ku</desc><rect x="130.49936349826316" y="350.3902153846154" rx="0" ry="0" width="232.62611895394042" height="6.761107692307691" class="rect reactive tooltip-trigger"/><desc class="value">-0.6787995644</desc><desc class="x centered">246.81242297523337</desc><desc class="y centered">353.7707692307692</desc></g></g></g><g class="series serie-40 color-40"><g class="bars"><g class="bar" style="fill: #60799f; stroke: #60799f"><desc class="label">ka</desc><rect x="133.60266657705327" y="342.7071384615385" rx="0" ry="0" width="229.52281587515031" height="6.761107692307691" class="rect reactive tooltip-trigger"/><desc class="value">-0.669744172</desc><desc class="x centered">248.36407451462844</desc><desc class="y centered">346.0876923076923</desc></g></g></g><g class="series serie-39 color-39"><g class="bars"><g class="bar" style="fill: #60799f; stroke: #60799f"><desc class="label">ha</desc><rect x="134.6228792428989" y="335.0240615384616" rx="0" ry="0" width="228.50260320930468" height="6.761107692307691" class="rect reactive tooltip-trigger"/><desc class="value">-0.6667672066</desc><desc class="x centered">248.87418084755126</desc><desc class="y centered">338.4046153846154</desc></g></g></g><g class="series serie-38 color-38"><g class="bars"><g class="bar" style="fill: #60799f; stroke: #60799f"><desc class="label">kunnt</desc><rect x="143.02855852568732" y="327.3409846153846" rx="0" ry="0" width="220.09692392651627" height="6.761107692307691" class="rect reactive tooltip-trigger"/><desc class="value">-0.6422395591</desc><desc class="x centered">253.07702048894544</desc><desc class="y centered">330.72153846153844</desc></g></g></g><g class="series serie-37 color-37"><g class="bars"><g class="bar" style="fill: #60799f; stroke: #60799f"><desc class="label">gsi</desc><rect x="143.9986316680284" y="319.6579076923077" rx="0" ry="0" width="219.1268507841752" height="6.761107692307691" class="rect reactive tooltip-trigger"/><desc class="value">-0.6394089001</desc><desc class="x centered">253.562057060116</desc><desc class="y centered">323.0384615384615</desc></g></g></g><g class="series serie-36 color-36"><g class="bars"><g class="bar" style="fill: #60799f; stroke: #60799f"><desc class="label">ass</desc><rect x="149.1706663687867" y="311.9748307692308" rx="0" ry="0" width="213.9548160834169" height="6.761107692307691" class="rect reactive tooltip-trigger"/><desc class="value">-0.6243169796</desc><desc class="x centered">256.14807441049516</desc><desc class="y centered">315.3553846153846</desc></g></g></g><g class="series serie-35 color-35"><g class="bars"><g class="bar" style="fill: #60799f; stroke: #60799f"><desc class="label">sàit</desc><rect x="154.007626013394" y="304.2917538461539" rx="0" ry="0" width="209.11785643880958" height="6.761107692307691" class="rect reactive tooltip-trigger"/><desc class="value">-0.6102028031</desc><desc class="x centered">258.5665542327988</desc><desc class="y centered">307.6723076923077</desc></g></g></g><g class="series serie-34 color-34"><g class="bars"><g class="bar" style="fill: #60799f; stroke: #60799f"><desc class="label">wànn</desc><rect x="159.73146016442203" y="296.6086769230769" rx="0" ry="0" width="203.39402228778155" height="6.761107692307691" class="rect reactive tooltip-trigger"/><desc class="value">-0.5935007399</desc><desc class="x centered">261.4284713083128</desc><desc class="y centered">299.98923076923074</desc></g></g></g><g class="series serie-33 color-33"><g class="bars"><g class="bar" style="fill: #60799f; stroke: #60799f"><desc class="label">dr</desc><rect x="162.18559881114666" y="288.92560000000003" rx="0" ry="0" width="200.93988364105692" height="6.761107692307691" class="rect reactive tooltip-trigger"/><desc class="value">-0.5863395997</desc><desc class="x centered">262.65554063167514</desc><desc class="y centered">292.30615384615385</desc></g></g></g><g class="series serie-32 color-32"><g class="bars"><g class="bar" style="fill: #60799f; stroke: #60799f"><desc class="label">thàt</desc><rect x="162.907005906585" y="281.2425230769231" rx="0" ry="0" width="200.21847654561859" height="6.761107692307691" class="rect reactive tooltip-trigger"/><desc class="value">-0.5842345445</desc><desc class="x centered">263.0162441793943</desc><desc class="y centered">284.6230769230769</desc></g></g></g><g class="series serie-31 color-31"><g class="bars"><g class="bar" style="fill: #60799f; stroke: #60799f"><desc class="label">glaüb</desc><rect x="165.8928959044631" y="273.5594461538462" rx="0" ry="0" width="197.23258654774048" height="6.761107692307691" class="rect reactive tooltip-trigger"/><desc class="value">-0.5755217618</desc><desc class="x centered">264.5091891783334</desc><desc class="y centered">276.94</desc></g></g></g><g class="series serie-30 color-30"><g class="bars"><g class="bar" style="fill: #60799f; stroke: #60799f"><desc class="label">ebbes</desc><rect x="169.79350015082778" y="265.8763692307693" rx="0" ry="0" width="193.3319823013758" height="6.761107692307691" class="rect reactive tooltip-trigger"/><desc class="value">-0.5641398565</desc><desc class="x centered">266.4594913015157</desc><desc class="y centered">269.2569230769231</desc></g></g></g><g class="series serie-29 color-29"><g class="bars"><g class="bar" style="fill: #60799f; stroke: #60799f"><desc class="label">wàr</desc><rect x="171.75528545167998" y="258.19329230769233" rx="0" ry="0" width="191.3701970005236" height="6.761107692307691" class="rect reactive tooltip-trigger"/><desc class="value">-0.5584153961</desc><desc class="x centered">267.4403839519418</desc><desc class="y centered">261.57384615384615</desc></g></g></g><g class="series serie-28 color-28"><g class="bars"><g class="bar" style="fill: #60799f; stroke: #60799f"><desc class="label">fraü</desc><rect x="173.96686764377776" y="250.51021538461538" rx="0" ry="0" width="189.15861480842582" height="6.761107692307691" class="rect reactive tooltip-trigger"/><desc class="value">-0.5519620321</desc><desc class="x centered">268.5461750479907</desc><desc class="y centered">253.89076923076922</desc></g></g></g><g class="series serie-27 color-27"><g class="bars"><g class="bar" style="fill: #60799f; stroke: #60799f"><desc class="label">nimmig</desc><rect x="175.70683518490196" y="242.8271384615385" rx="0" ry="0" width="187.41864726730162" height="6.761107692307691" class="rect reactive tooltip-trigger"/><desc class="value">-0.5468848326</desc><desc class="x centered">269.4161588185528</desc><desc class="y centered">246.20769230769235</desc></g></g></g><g class="series serie-26 color-26"><g class="bars"><g class="bar" style="fill: #60799f; stroke: #60799f"><desc class="label">hat</desc><rect x="176.65950440867496" y="235.14406153846159" rx="0" ry="0" width="186.46597804352862" height="6.761107692307691" class="rect reactive tooltip-trigger"/><desc class="value">-0.5441049579</desc><desc class="x centered">269.8924934304393</desc><desc class="y centered">238.52461538461543</desc></g></g></g><g class="series serie-25 color-25"><g class="bars"><g class="bar" style="fill: #60799f; stroke: #60799f"><desc class="label">sàh</desc><rect x="180.09204252184165" y="227.46098461538466" rx="0" ry="0" width="183.03343993036194" height="6.761107692307691" class="rect reactive tooltip-trigger"/><desc class="value">-0.5340888626</desc><desc class="x centered">271.6087624870226</desc><desc class="y centered">230.8415384615385</desc></g></g></g><g class="series serie-24 color-24"><g class="bars"><g class="bar" style="fill: #29a329; stroke: #29a329"><desc class="label">alli</desc><rect x="363.1254824522036" y="219.77790769230774" rx="0" ry="0" width="242.52122464406335" height="6.761107692307691" class="rect reactive tooltip-trigger"/><desc class="value">0.707673336</desc><desc class="x centered">484.3860947742353</desc><desc class="y centered">223.15846153846158</desc></g></g></g><g class="series serie-23 color-23"><g class="bars"><g class="bar" style="fill: #29a329; stroke: #29a329"><desc class="label">wär</desc><rect x="363.1254824522036" y="212.0948307692308" rx="0" ry="0" width="243.1478219573102" height="6.761107692307691" class="rect reactive tooltip-trigger"/><desc class="value">0.7095017376</desc><desc class="x centered">484.69939343085866</desc><desc class="y centered">215.47538461538466</desc></g></g></g><g class="series serie-22 color-22"><g class="bars"><g class="bar" style="fill: #29a329; stroke: #29a329"><desc class="label">daa</desc><rect x="363.1254824522036" y="204.4117538461539" rx="0" ry="0" width="244.39261716629466" height="6.761107692307691" class="rect reactive tooltip-trigger"/><desc class="value">0.7131340316</desc><desc class="x centered">485.3217910353509</desc><desc class="y centered">207.79230769230776</desc></g></g></g><g class="series serie-21 color-21"><g class="bars"><g class="bar" style="fill: #29a329; stroke: #29a329"><desc class="label">ken</desc><rect x="363.1254824522036" y="196.728676923077" rx="0" ry="0" width="245.2365803628856" height="6.761107692307691" class="rect reactive tooltip-trigger"/><desc class="value">0.7155967037</desc><desc class="x centered">485.74377263364636</desc><desc class="y centered">200.10923076923083</desc></g></g></g><g class="series serie-20 color-20"><g class="bars"><g class="bar" style="fill: #29a329; stroke: #29a329"><desc class="label">saa</desc><rect x="363.1254824522036" y="189.04560000000006" rx="0" ry="0" width="246.3390164393897" height="6.761107692307691" class="rect reactive tooltip-trigger"/><desc class="value">0.7188135958</desc><desc class="x centered">486.2949906718984</desc><desc class="y centered">192.4261538461539</desc></g></g></g><g class="series serie-19 color-19"><g class="bars"><g class="bar" style="fill: #29a329; stroke: #29a329"><desc class="label">frau</desc><rect x="363.1254824522036" y="181.36252307692314" rx="0" ry="0" width="247.0199353228507" height="6.761107692307691" class="rect reactive tooltip-trigger"/><desc class="value">0.720800507</desc><desc class="x centered">486.63545011362896</desc><desc class="y centered">184.74307692307698</desc></g></g></g><g class="series serie-18 color-18"><g class="bars"><g class="bar" style="fill: #29a329; stroke: #29a329"><desc class="label">guet</desc><rect x="363.1254824522036" y="173.67944615384621" rx="0" ry="0" width="247.28954943487253" height="6.761107692307691" class="rect reactive tooltip-trigger"/><desc class="value">0.721587237</desc><desc class="x centered">486.7702571696399</desc><desc class="y centered">177.06000000000006</desc></g></g></g><g class="series serie-17 color-17"><g class="bars"><g class="bar" style="fill: #29a329; stroke: #29a329"><desc class="label">wäre</desc><rect x="363.1254824522036" y="165.9963692307693" rx="0" ry="0" width="251.73796244178544" height="6.761107692307691" class="rect reactive tooltip-trigger"/><desc class="value">0.7345676402</desc><desc class="x centered">488.99446367309633</desc><desc class="y centered">169.37692307692313</desc></g></g></g><g class="series serie-16 color-16"><g class="bars"><g class="bar" style="fill: #29a329; stroke: #29a329"><desc class="label">diss</desc><rect x="363.1254824522036" y="158.31329230769236" rx="0" ry="0" width="252.4856898957982" height="6.761107692307691" class="rect reactive tooltip-trigger"/><desc class="value">0.7367494978</desc><desc class="x centered">489.36832740010266</desc><desc class="y centered">161.6938461538462</desc></g></g></g><g class="series serie-15 color-15"><g class="bars"><g class="bar" style="fill: #29a329; stroke: #29a329"><desc class="label">denne</desc><rect x="363.1254824522036" y="150.63021538461547" rx="0" ry="0" width="257.9590693759756" height="6.761107692307691" class="rect reactive tooltip-trigger"/><desc class="value">0.7527207379</desc><desc class="x centered">492.1050171401914</desc><desc class="y centered">154.0107692307693</desc></g></g></g><g class="series serie-14 color-14"><g class="bars"><g class="bar" style="fill: #29a329; stroke: #29a329"><desc class="label">kummt</desc><rect x="363.1254824522036" y="142.94713846153851" rx="0" ry="0" width="258.2722029291048" height="6.761107692307691" class="rect reactive tooltip-trigger"/><desc class="value">0.753634457</desc><desc class="x centered">492.26158391675597</desc><desc class="y centered">146.32769230769236</desc></g></g></g><g class="series serie-13 color-13"><g class="bars"><g class="bar" style="fill: #29a329; stroke: #29a329"><desc class="label">saat</desc><rect x="363.1254824522036" y="135.26406153846162" rx="0" ry="0" width="258.99046381196996" height="6.761107692307691" class="rect reactive tooltip-trigger"/><desc class="value">0.7557303316</desc><desc class="x centered">492.6207143581886</desc><desc class="y centered">138.64461538461546</desc></g></g></g><g class="series serie-12 color-12"><g class="bars"><g class="bar" style="fill: #29a329; stroke: #29a329"><desc class="label">han</desc><rect x="363.1254824522036" y="127.58098461538466" rx="0" ry="0" width="260.12072939617" height="6.761107692307691" class="rect reactive tooltip-trigger"/><desc class="value">0.7590284298</desc><desc class="x centered">493.1858471502886</desc><desc class="y centered">130.9615384615385</desc></g></g></g><g class="series serie-11 color-11"><g class="bars"><g class="bar" style="fill: #29a329; stroke: #29a329"><desc class="label">wurd</desc><rect x="363.1254824522036" y="119.89790769230775" rx="0" ry="0" width="260.4537188733589" height="6.761107692307691" class="rect reactive tooltip-trigger"/><desc class="value">0.7600000881</desc><desc class="x centered">493.3523418888831</desc><desc class="y centered">123.2784615384616</desc></g></g></g><g class="series serie-10 color-10"><g class="bars"><g class="bar" style="fill: #29a329; stroke: #29a329"><desc class="label">for</desc><rect x="363.1254824522036" y="112.2148307692308" rx="0" ry="0" width="275.6453375693233" height="6.761107692307691" class="rect reactive tooltip-trigger"/><desc class="value">0.8043290061</desc><desc class="x centered">500.9481512368652</desc><desc class="y centered">115.59538461538465</desc></g></g></g><g class="series serie-9 color-9"><g class="bars"><g class="bar" style="fill: #29a329; stroke: #29a329"><desc class="label">hesch</desc><rect x="363.1254824522036" y="104.5317538461539" rx="0" ry="0" width="276.53432470530475" height="6.761107692307691" class="rect reactive tooltip-trigger"/><desc class="value">0.8069230574</desc><desc class="x centered">501.392644804856</desc><desc class="y centered">107.91230769230775</desc></g></g></g><g class="series serie-8 color-8"><g class="bars"><g class="bar" style="fill: #29a329; stroke: #29a329"><desc class="label">kann</desc><rect x="363.1254824522036" y="96.84867692307695" rx="0" ry="0" width="276.9354336224739" height="6.761107692307691" class="rect reactive tooltip-trigger"/><desc class="value">0.8080934873</desc><desc class="x centered">501.5931992634405</desc><desc class="y centered">100.2292307692308</desc></g></g></g><g class="series serie-7 color-7"><g class="bars"><g class="bar" style="fill: #29a329; stroke: #29a329"><desc class="label">hab</desc><rect x="363.1254824522036" y="89.16560000000005" rx="0" ry="0" width="284.45541701839755" height="6.761107692307691" class="rect reactive tooltip-trigger"/><desc class="value">0.8300366873</desc><desc class="x centered">505.35319096140233</desc><desc class="y centered">92.5461538461539</desc></g></g></g><g class="series serie-6 color-6"><g class="bars"><g class="bar" style="fill: #29a329; stroke: #29a329"><desc class="label">daß</desc><rect x="363.1254824522036" y="81.48252307692316" rx="0" ry="0" width="287.3572133902106" height="6.761107692307691" class="rect reactive tooltip-trigger"/><desc class="value">0.8385040861</desc><desc class="x centered">506.8040891473089</desc><desc class="y centered">84.863076923077</desc></g></g></g><g class="series serie-5 color-5"><g class="bars"><g class="bar" style="fill: #29a329; stroke: #29a329"><desc class="label">ja</desc><rect x="363.1254824522036" y="73.7994461538462" rx="0" ry="0" width="288.59649282767083" height="6.761107692307691" class="rect reactive tooltip-trigger"/><desc class="value">0.8421202851</desc><desc class="x centered">507.423728866039</desc><desc class="y centered">77.18000000000005</desc></g></g></g><g class="series serie-4 color-4"><g class="bars"><g class="bar" style="fill: #29a329; stroke: #29a329"><desc class="label">vun</desc><rect x="363.1254824522036" y="66.11636923076931" rx="0" ry="0" width="289.8318455203727" height="6.761107692307691" class="rect reactive tooltip-trigger"/><desc class="value">0.8457250259</desc><desc class="x centered">508.0414052123899</desc><desc class="y centered">69.49692307692315</desc></g></g></g><g class="series serie-3 color-3"><g class="bars"><g class="bar" style="fill: #29a329; stroke: #29a329"><desc class="label">schun</desc><rect x="363.1254824522036" y="58.433292307692355" rx="0" ry="0" width="294.78760985187677" height="6.761107692307691" class="rect reactive tooltip-trigger"/><desc class="value">0.8601858727</desc><desc class="x centered">510.51928737814194</desc><desc class="y centered">61.8138461538462</desc></g></g></g><g class="series serie-2 color-2"><g class="bars"><g class="bar" style="fill: #29a329; stroke: #29a329"><desc class="label">uff</desc><rect x="363.1254824522036" y="50.75021538461546" rx="0" ry="0" width="302.32242352914824" height="6.761107692307691" class="rect reactive tooltip-trigger"/><desc class="value">0.8821723472</desc><desc class="x centered">514.2866942167777</desc><desc class="y centered">54.1307692307693</desc></g></g></g><g class="series serie-1 color-1"><g class="bars"><g class="bar" style="fill: #29a329; stroke: #29a329"><desc class="label">ze</desc><rect x="363.1254824522036" y="43.067138461538505" rx="0" ry="0" width="313.3491597261224" height="6.761107692307691" class="rect reactive tooltip-trigger"/><desc class="value">0.9143481999</desc><desc class="x centered">519.8000623152648</desc><desc class="y centered">46.44769230769235</desc></g></g></g><g class="series serie-0 color-0"><g class="bars"><g class="bar" style="fill: #29a329; stroke: #29a329"><desc class="label">het</desc><rect x="363.1254824522036" y="35.38406153846161" rx="0" ry="0" width="322.54326770079393" height="6.761107692307691" class="rect reactive tooltip-trigger"/><desc class="value">0.9411764706</desc><desc class="x centered">524.3971163026006</desc><desc class="y centered">38.76461538461545</desc></g></g></g></g><g class="titles"><text x="400.0" y="28" class="title plot_title">Contrastive Analysis with tf_idf</text><text x="400.0" y="56" class="title plot_title">(PubDept_Haut-Rhin-Bas-Rhin)</text><text x="414.0" y="580" class="title">Parameters: tf_idf-text-words-all</text><text x="0" y="331.0" class="title" transform="rotate(-90 0.000000 303.000000)">25 distinctive features</text></g><g transform="translate(48, 76)" class="plot overlay"><g class="series serie-49 color-49"/><g class="series serie-48 color-48"/><g class="series serie-47 color-47"/><g class="series serie-46 color-46"/><g class="series serie-45 color-45"/><g class="series serie-44 color-44"/><g class="series serie-43 color-43"/><g class="series serie-42 color-42"/><g class="series serie-41 color-41"/><g class="series serie-40 color-40"/><g class="series serie-39 color-39"/><g class="series serie-38 color-38"/><g class="series serie-37 color-37"/><g class="series serie-36 color-36"/><g class="series serie-35 color-35"/><g class="series serie-34 color-34"/><g class="series serie-33 color-33"/><g class="series serie-32 color-32"/><g class="series serie-31 color-31"/><g class="series serie-30 color-30"/><g class="series serie-29 color-29"/><g class="series serie-28 color-28"/><g class="series serie-27 color-27"/><g class="series serie-26 color-26"/><g class="series serie-25 color-25"/><g class="series serie-24 color-24"/><g class="series serie-23 color-23"/><g class="series serie-22 color-22"/><g class="series serie-21 color-21"/><g class="series serie-20 color-20"/><g class="series serie-19 color-19"/><g class="series serie-18 color-18"/><g class="series serie-17 color-17"/><g class="series serie-16 color-16"/><g class="series serie-15 color-15"/><g class="series serie-14 color-14"/><g class="series serie-13 color-13"/><g class="series serie-12 color-12"/><g class="series serie-11 color-11"/><g class="series serie-10 color-10"/><g class="series serie-9 color-9"/><g class="series serie-8 color-8"/><g class="series serie-7 color-7"/><g class="series serie-6 color-6"/><g class="series serie-5 color-5"/><g class="series serie-4 color-4"/><g class="series serie-3 color-3"/><g class="series serie-2 color-2"/><g class="series serie-1 color-1"/><g class="series serie-0 color-0"/></g><g transform="translate(48, 76)" class="plot text-overlay"><g class="series serie-49 color-49"><text x="204.46704637253063" y="419.2353846153846" class="label">fir</text></g><g class="series serie-48 color-48"><text x="211.72706874807375" y="411.5523076923077" class="label">mr</text></g><g class="series serie-47 color-47"><text x="219.35777401138427" y="403.86923076923074" class="label">nitt</text></g><g class="series serie-46 color-46"><text x="220.23677575615002" y="396.18615384615384" class="label">hàn</text></g><g class="series serie-45 color-45"><text x="224.54885674864937" y="388.5030769230769" class="label">scho</text></g><g class="series serie-44 color-44"><text x="230.77696844267422" y="380.82" class="label">kei</text></g><g class="series serie-43 color-43"><text x="233.31828364550708" y="373.13692307692304" class="label">dà</text></g><g class="series serie-42 color-42"><text x="246.49242511611834" y="365.45384615384614" class="label">vo</text></g><g class="series serie-41 color-41"><text x="246.81242297523337" y="357.7707692307692" class="label">ku</text></g><g class="series serie-40 color-40"><text x="248.36407451462844" y="350.0876923076923" class="label">ka</text></g><g class="series serie-39 color-39"><text x="248.87418084755126" y="342.4046153846154" class="label">ha</text></g><g class="series serie-38 color-38"><text x="253.07702048894544" y="334.72153846153844" class="label">kunnt</text></g><g class="series serie-37 color-37"><text x="253.562057060116" y="327.0384615384615" class="label">gsi</text></g><g class="series serie-36 color-36"><text x="256.14807441049516" y="319.3553846153846" class="label">ass</text></g><g class="series serie-35 color-35"><text x="258.5665542327988" y="311.6723076923077" class="label">sàit</text></g><g class="series serie-34 color-34"><text x="261.4284713083128" y="303.98923076923074" class="label">wànn</text></g><g class="series serie-33 color-33"><text x="262.65554063167514" y="296.30615384615385" class="label">dr</text></g><g class="series serie-32 color-32"><text x="263.0162441793943" y="288.6230769230769" class="label">thàt</text></g><g class="series serie-31 color-31"><text x="264.5091891783334" y="280.94" class="label">glaüb</text></g><g class="series serie-30 color-30"><text x="266.4594913015157" y="273.2569230769231" class="label">ebbes</text></g><g class="series serie-29 color-29"><text x="267.4403839519418" y="265.57384615384615" class="label">wàr</text></g><g class="series serie-28 color-28"><text x="268.5461750479907" y="257.89076923076925" class="label">fraü</text></g><g class="series serie-27 color-27"><text x="269.4161588185528" y="250.20769230769235" class="label">nimmig</text></g><g class="series serie-26 color-26"><text x="269.8924934304393" y="242.52461538461543" class="label">hat</text></g><g class="series serie-25 color-25"><text x="271.6087624870226" y="234.8415384615385" class="label">sàh</text></g><g class="series serie-24 color-24"><text x="484.3860947742353" y="227.15846153846158" class="label">alli</text></g><g class="series serie-23 color-23"><text x="484.69939343085866" y="219.47538461538466" class="label">wär</text></g><g class="series serie-22 color-22"><text x="485.3217910353509" y="211.79230769230776" class="label">daa</text></g><g class="series serie-21 color-21"><text x="485.74377263364636" y="204.10923076923083" class="label">ken</text></g><g class="series serie-20 color-20"><text x="486.2949906718984" y="196.4261538461539" class="label">saa</text></g><g class="series serie-19 color-19"><text x="486.63545011362896" y="188.74307692307698" class="label">frau</text></g><g class="series serie-18 color-18"><text x="486.7702571696399" y="181.06000000000006" class="label">guet</text></g><g class="series serie-17 color-17"><text x="488.99446367309633" y="173.37692307692313" class="label">wäre</text></g><g class="series serie-16 color-16"><text x="489.36832740010266" y="165.6938461538462" class="label">diss</text></g><g class="series serie-15 color-15"><text x="492.1050171401914" y="158.0107692307693" class="label">denne</text></g><g class="series serie-14 color-14"><text x="492.26158391675597" y="150.32769230769236" class="label">kummt</text></g><g class="series serie-13 color-13"><text x="492.6207143581886" y="142.64461538461546" class="label">saat</text></g><g class="series serie-12 color-12"><text x="493.1858471502886" y="134.9615384615385" class="label">han</text></g><g class="series serie-11 color-11"><text x="493.3523418888831" y="127.2784615384616" class="label">wurd</text></g><g class="series serie-10 color-10"><text x="500.9481512368652" y="119.59538461538465" class="label">for</text></g><g class="series serie-9 color-9"><text x="501.392644804856" y="111.91230769230775" class="label">hesch</text></g><g class="series serie-8 color-8"><text x="501.5931992634405" y="104.2292307692308" class="label">kann</text></g><g class="series serie-7 color-7"><text x="505.35319096140233" y="96.5461538461539" class="label">hab</text></g><g class="series serie-6 color-6"><text x="506.8040891473089" y="88.863076923077" class="label">daß</text></g><g class="series serie-5 color-5"><text x="507.423728866039" y="81.18000000000005" class="label">ja</text></g><g class="series serie-4 color-4"><text x="508.0414052123899" y="73.49692307692315" class="label">vun</text></g><g class="series serie-3 color-3"><text x="510.51928737814194" y="65.8138461538462" class="label">schun</text></g><g class="series serie-2 color-2"><text x="514.2866942167777" y="58.1307692307693" class="label">uff</text></g><g class="series serie-1 color-1"><text x="519.8000623152648" y="50.44769230769235" class="label">ze</text></g><g class="series serie-0 color-0"><text x="524.3971163026006" y="42.76461538461545" class="label">het</text></g></g><g transform="translate(48, 76)" class="plot tooltip-overlay"><g transform="translate(0 0)" style="opacity: 0" class="tooltip"><rect rx="0" ry="0" width="0" height="0" class="tooltip-box"/><g class="text"/></g></g></g></svg>