0,1,2,3,4,5,6,7,8,9,10,11,12,13,14,15,16,17,18,19,20,21,22,23,24,25,26,27,28,29,30,31,32,33,34,35
prec,,,,,,,,,,,,,,,,,,,,,,,,,,,,,,,,,,,
steht,stad,stadt,,,,,,,,,,,,,,,,,,,,,,,,,,,,,,,,,
hloo,llen,llio,hlaa,luej,hlich,leij,leich,lüej,laaue,lier,lich,ller,laau,,,,,,,,,,,,,,,,,,,,,,
_luej,_lüej,_lue,_l'a,_lau,_lie,_leij,_lej,_lei,,,,,,,,,,,,,,,,,,,,,,,,,,,
ller_,lie_,lli_,lich_,llen_,len_,luej_,lle_,ler_,,,,,,,,,,,,,,,,,,,,,,,,,,,
hesc,,,,,,,,,,,,,,,,,,,,,,,,,,,,,,,,,,,
_hesc,,,,,,,,,,,,,,,,,,,,,,,,,,,,,,,,,,,
hoor,heur,here,hyroo,hier,hiero,hare,hyro,hoch,höre,herre,heer,,,,,,,,,,,,,,,,,,,,,,,,
_hyr,_heer,_hör,_hyro,_here,_höre,_hoch,_her,_hier,_hoor,_hor,,,,,,,,,,,,,,,,,,,,,,,,,
hoor_,here_,hör_,hier_,hoch_,,,,,,,,,,,,,,,,,,,,,,,,,,,,,,,
alic,eilig,ilige,alice,ilig,,,,,,,,,,,,,,,,,,,,,,,,,,,,,,,
_zyt,_zytt,_zitt,,,,,,,,,,,,,,,,,,,,,,,,,,,,,,,,,
zitt_,tzt_,zytt_,,,,,,,,,,,,,,,,,,,,,,,,,,,,,,,,,
rige,röuje,rjer,ruehj,,,,,,,,,,,,,,,,,,,,,,,,,,,,,,,,
rjer_,rje_,,,,,,,,,,,,,,,,,,,,,,,,,,,,,,,,,,
präs,paris,,,,,,,,,,,,,,,,,,,,,,,,,,,,,,,,,,
uric,erik,erci,eruck,aric,eric,arik,arig,eruc,erruc,erec,,,,,,,,,,,,,,,,,,,,,,,,,
ark_,arig_,erci_,,,,,,,,,,,,,,,,,,,,,,,,,,,,,,,,,
icker,,,,,,,,,,,,,,,,,,,,,,,,,,,,,,,,,,,
jour,jere,,,,,,,,,,,,,,,,,,,,,,,,,,,,,,,,,,
jer_,jour_,,,,,,,,,,,,,,,,,,,,,,,,,,,,,,,,,,
spit,spoot,,,,,,,,,,,,,,,,,,,,,,,,,,,,,,,,,,
c'est,gscht,c'est,,,,,,,,,,,,,,,,,,,,,,,,,,,,,,,,,
leje,,,,,,,,,,,,,,,,,,,,,,,,,,,,,,,,,,,
lber,lieb,laab,liebe,laub,,,,,,,,,,,,,,,,,,,,,,,,,,,,,,,
lieb_,laub_,laab_,,,,,,,,,,,,,,,,,,,,,,,,,,,,,,,,,
hwer,hwej,wich,wwer,,,,,,,,,,,,,,,,,,,,,,,,,,,,,,,,
_vou,_waj,_weh,_wah,_wüe,_vee,_wai,_voi,_wäj,_wer,_wie,_wen,_wich,,,,,,,,,,,,,,,,,,,,,,,
wäj_,waj_,wwe_,wich_,wei_,wie_,weh_,wwer_,,,,,,,,,,,,,,,,,,,,,,,,,,,,
anfan,ewahn,offen,,,,,,,,,,,,,,,,,,,,,,,,,,,,,,,,,
edel,aidel,idel,etli,aidl,,,,,,,,,,,,,,,,,,,,,,,,,,,,,,,
utsch,itsch,ätsch,,,,,,,,,,,,,,,,,,,,,,,,,,,,,,,,,
üscht,isdi,isti,ischt,esda,oscht,esta,ichti,eicht,echt,uste,escht,uscht,ycht,ascht,,,,,,,,,,,,,,,,,,,,,
est_,echt_,icht_,ist_,,,,,,,,,,,,,,,,,,,,,,,,,,,,,,,,
hier,hueh,heen,heer,,,,,,,,,,,,,,,,,,,,,,,,,,,,,,,,
_hoo,_heu,_hah,_hie,_heer,_hen,_hai,_hee,_haa,_her,_hier,_hau,,,,,,,,,,,,,,,,,,,,,,,,
hier_,heen_,hen_,,,,,,,,,,,,,,,,,,,,,,,,,,,,,,,,,
dhädd,teht,thät,tout,dheit,dent,duet,dida,dhäd,dant,tadt,,,,,,,,,,,,,,,,,,,,,,,,,
_tät,_dät,_dit,_dhäd,_thät,_tod,_duet,,,,,,,,,,,,,,,,,,,,,,,,,,,,,
dät_,tout_,teht_,thät_,tät_,dent_,tadt_,duet_,,,,,,,,,,,,,,,,,,,,,,,,,,,,
hunn,hinne,hinn,henn,heen,,,,,,,,,,,,,,,,,,,,,,,,,,,,,,,
_han,_hinn,_hen,_hän,_henn,,,,,,,,,,,,,,,,,,,,,,,,,,,,,,,
henn_,heen_,hen_,hun_,han_,hon_,hin_,,,,,,,,,,,,,,,,,,,,,,,,,,,,,
bliew,,,,,,,,,,,,,,,,,,,,,,,,,,,,,,,,,,,
awwe,iewi,ewah,aawe,üwer,evoi,ewie,über,awwer,ewäj,iwwe,üewe,uewer,ewer,üewer,eben,ewwer,iewer,iewe,aber,iebe,auwe,ewwe,aben,aube,uewe,ouve,,,,,,,,,
_aww,_ave,_awwe,_üew,_aber,_uew,_uewe,_üwe,_übe,_über,_üwer,_aw',_abe,_iew,_üewe,,,,,,,,,,,,,,,,,,,,,
auwe_,ive_,ewer_,üwer_,awe_,iwwe_,ewäj_,ewi_,iewe_,iewi_,eben_,äwe_,avo_,awi_,aawe_,ewwe_,ebe_,abe_,uwe_,ewe_,aben_,aber_,,,,,,,,,,,,,,
ehrl,ierl,erlie,ierli,erlau,eral,erla,erlä,erli,erle,,,,,,,,,,,,,,,,,,,,,,,,,,
ttsc,tisc,disc,,,,,,,,,,,,,,,,,,,,,,,,,,,,,,,,,
_disc,,,,,,,,,,,,,,,,,,,,,,,,,,,,,,,,,,,
athi,,,,,,,,,,,,,,,,,,,,,,,,,,,,,,,,,,,
ente,etter,itte,atio,ueder,ainte,eute,idder,ueti,odde,eider,uede,ider,odder,edde,edie,adde,eden,aint,aide,idda,ueter,ätte,eijt,idde,eidi,ient,adder,adie,ette,uete,ytte,edder,adier,iden,itter
_ent,_odde,_odd,_int,,,,,,,,,,,,,,,,,,,,,,,,,,,,,,,,
ytt_,ijt_,idde_,ade_,ied_,ette_,ute_,uete_,aat_,eit_,uet_,ett_,adt_,ote_,itte_,ütt_,ant_,äte_,eti_,out_,ider_,ueti_,ent_,aid_,oot_,ient_,ejt_,edde_,ente_,ott_,iet_,edd_,eijt_,,,
grif,griff,,,,,,,,,,,,,,,,,,,,,,,,,,,,,,,,,,
heime,,,,,,,,,,,,,,,,,,,,,,,,,,,,,,,,,,,
ebro,aber,über,,,,,,,,,,,,,,,,,,,,,,,,,,,,,,,,,
dran,drinn,tern,tron,,,,,,,,,,,,,,,,,,,,,,,,,,,,,,,,
_dran,,,,,,,,,,,,,,,,,,,,,,,,,,,,,,,,,,,
dran_,tron_,,,,,,,,,,,,,,,,,,,,,,,,,,,,,,,,,,
ques,gewis,gewiß,,,,,,,,,,,,,,,,,,,,,,,,,,,,,,,,,
bscht,,,,,,,,,,,,,,,,,,,,,,,,,,,,,,,,,,,
_seel,_sel,_sol,_soll,_säl,_söl,_söll,,,,,,,,,,,,,,,,,,,,,,,,,,,,,
ssel_,sel_,soll_,sell_,sele_,,,,,,,,,,,,,,,,,,,,,,,,,,,,,,,
elter,,,,,,,,,,,,,,,,,,,,,,,,,,,,,,,,,,,
ansc,iensc,annsc,ensc,,,,,,,,,,,,,,,,,,,,,,,,,,,,,,,,
ran_,ron_,ren_,,,,,,,,,,,,,,,,,,,,,,,,,,,,,,,,,
herrs,hochz,herz,hors,,,,,,,,,,,,,,,,,,,,,,,,,,,,,,,,
_herz,,,,,,,,,,,,,,,,,,,,,,,,,,,,,,,,,,,
erstä,,,,,,,,,,,,,,,,,,,,,,,,,,,,,,,,,,,
side,hste,'saat,siden,'saat,saat,,,,,,,,,,,,,,,,,,,,,,,,,,,,,,
_saat,_set,,,,,,,,,,,,,,,,,,,,,,,,,,,,,,,,,,
hst_,saat_,,,,,,,,,,,,,,,,,,,,,,,,,,,,,,,,,,
vadde,ftig,vadd,,,,,,,,,,,,,,,,,,,,,,,,,,,,,,,,,
_vad,_vadd,,,,,,,,,,,,,,,,,,,,,,,,,,,,,,,,,,
fft_,,,,,,,,,,,,,,,,,,,,,,,,,,,,,,,,,,,
ummer,emme,einm,omen,emoi,emoo,ommen,umme,emen,amen,emei,eime,ommi,omme,amme,,,,,,,,,,,,,,,,,,,,,
_emoo,_einm,,,,,,,,,,,,,,,,,,,,,,,,,,,,,,,,,,
emme_,omm_,umme_,amme_,uem_,aam_,immi_,omme_,aim_,emm_,,,,,,,,,,,,,,,,,,,,,,,,,,
_jean,,,,,,,,,,,,,,,,,,,,,,,,,,,,,,,,,,,
papa,babb,babe,babbe,,,,,,,,,,,,,,,,,,,,,,,,,,,,,,,,
_pap,_babe,_papa,_bab,_babb,,,,,,,,,,,,,,,,,,,,,,,,,,,,,,,
papa_,babe_,,,,,,,,,,,,,,,,,,,,,,,,,,,,,,,,,,
chmu,chäm,scham,schm,chmi,cham,schme,schmi,schäm,chem,chme,,,,,,,,,,,,,,,,,,,,,,,,,
nser,nsieu,nsie,,,,,,,,,,,,,,,,,,,,,,,,,,,,,,,,,
_nuß,_nüs,,,,,,,,,,,,,,,,,,,,,,,,,,,,,,,,,,
nes_,nas_,nis_,nüs_,,,,,,,,,,,,,,,,,,,,,,,,,,,,,,,,
ment,mant,mand,,,,,,,,,,,,,,,,,,,,,,,,,,,,,,,,,
umpe,ampe,,,,,,,,,,,,,,,,,,,,,,,,,,,,,,,,,,
rrsch,rsch,rech,reche,rasch,reich,rscha,rche,rsche,rich,resch,,,,,,,,,,,,,,,,,,,,,,,,,
hten,dine,dini,dien,diner,dinn,denne,tten,denn,diene,tehn,ttun,tion,,,,,,,,,,,,,,,,,,,,,,,
_den,_don,_dinn,_dini,_dine,_denn,_dien,,,,,,,,,,,,,,,,,,,,,,,,,,,,,
din_,den_,tehn_,don_,ten_,tion_,dini_,,,,,,,,,,,,,,,,,,,,,,,,,,,,,
männ,männe,müen,mini,myni,main,mmen,miner,minn,maan,muehn,meine,myne,mann,,,,,,,,,,,,,,,,,,,,,,
_min,_minn,_mein,_müen,_mini,_männ,_myn,_mon,_mann,_man,_myni,_maan,_män,_myne,,,,,,,,,,,,,,,,,,,,,,
min_,mon_,myn_,mann_,müen_,myni_,man_,mein_,men_,mini_,mmen_,,,,,,,,,,,,,,,,,,,,,,,,,
rwei,riewe,revo,hriew,riww,rüwe,riew,riwwe,revoi,ravo,,,,,,,,,,,,,,,,,,,,,,,,,,
ravo_,,,,,,,,,,,,,,,,,,,,,,,,,,,,,,,,,,,
cousi,cous,g'si,g'saa,gseh,g'sa,ches,g'sa,g'saa,c'es,gsich,chse,c'es,gsaa,g'si,gess,,,,,,,,,,,,,,,,,,,,
_gseh,_ges,_cas,_gsaa,_c'es,_gse,_g's,_gsa,_gez,_kos,_g'sa,_gsu,_cous,_g'si,_g'sa,_g'si,_c'es,,,,,,,,,,,,,,,,,,,
chse_,chs_,ches_,,,,,,,,,,,,,,,,,,,,,,,,,,,,,,,,,
appe,abbe,iebe,aube,,,,,,,,,,,,,,,,,,,,,,,,,,,,,,,,
_übe,_abe,,,,,,,,,,,,,,,,,,,,,,,,,,,,,,,,,,
ieb_,abb_,abbe_,aab_,upp_,aub_,ebe_,abe_,apa_,,,,,,,,,,,,,,,,,,,,,,,,,,,
üssg,üsge,aisc,aasc,uesc,iehsc,ehsc,,,,,,,,,,,,,,,,,,,,,,,,,,,,,
ntsc,ndsc,,,,,,,,,,,,,,,,,,,,,,,,,,,,,,,,,,
geje,,,,,,,,,,,,,,,,,,,,,,,,,,,,,,,,,,,
_geje,,,,,,,,,,,,,,,,,,,,,,,,,,,,,,,,,,,
geje_,,,,,,,,,,,,,,,,,,,,,,,,,,,,,,,,,,,
grun,grin,kran,gran,,,,,,,,,,,,,,,,,,,,,,,,,,,,,,,,
_gran,_kran,_grin,,,,,,,,,,,,,,,,,,,,,,,,,,,,,,,,,
chte,g'het,katt,chde,geden,g'het,gede,geda,chad,gitt,gott,ghet,chti,gueti,keit,chied,ghett,hkeit,guete,kter,guet,ktio,,,,,,,,,,,,,,
_get,_gut,_gede,_ghet,_got,_katt,_geda,_kat,_gitt,_gott,_guet,_ged,,,,,,,,,,,,,,,,,,,,,,,,
kter_,ghet_,gut_,keit_,chti_,katt_,chte_,gitt_,cht_,guet_,gott_,,,,,,,,,,,,,,,,,,,,,,,,,
ller,liere,lier,,,,,,,,,,,,,,,,,,,,,,,,,,,,,,,,,
ller_,ler_,,,,,,,,,,,,,,,,,,,,,,,,,,,,,,,,,,
gemac,,,,,,,,,,,,,,,,,,,,,,,,,,,,,,,,,,,
gene,chon,genue,genn,könn,chien,köen,chnu,cheen,chne,kaan,chan,köenn,chen,kein,kann,chun,gehn,könne,genu,gänn,chni,,,,,,,,,,,,,,
_gehn,_con,_gänn,_ken,_kin,_kann,_kaan,_kne,_kan,_genu,_genn,_köen,_kön,_könn,_kein,_can,_gen,_gän,,,,,,,,,,,,,,,,,,
ken_,gänn_,gän_,kein_,chon_,genn_,gen_,kaan_,chun_,gehn_,kann_,chen_,,,,,,,,,,,,,,,,,,,,,,,,
witte,widd,weit,wett,vadde,wette,vadd,widde,witt,,,,,,,,,,,,,,,,,,,,,,,,,,,
_wett,_widd,_witt,_wet,_vad,_vadd,_wid,,,,,,,,,,,,,,,,,,,,,,,,,,,,,
witt_,weit_,,,,,,,,,,,,,,,,,,,,,,,,,,,,,,,,,,
glauw,,,,,,,,,,,,,,,,,,,,,,,,,,,,,,,,,,,
chtel,,,,,,,,,,,,,,,,,,,,,,,,,,,,,,,,,,,
maac,,,,,,,,,,,,,,,,,,,,,,,,,,,,,,,,,,,
_möc,,,,,,,,,,,,,,,,,,,,,,,,,,,,,,,,,,,
reck,rruck,rrgo,hrec,reic,rige,rruc,rooc,hreck,,,,,,,,,,,,,,,,,,,,,,,,,,,
_räc,,,,,,,,,,,,,,,,,,,,,,,,,,,,,,,,,,,
rik_,rci_,,,,,,,,,,,,,,,,,,,,,,,,,,,,,,,,,,
iewi,ewah,evoi,ewie,iffe,offen,ewäj,oofe,üewe,einf,offe,uffe,iewe,auwe,aufe,awich,infa,einfa,effe,uewe,anfa,ouve,,,,,,,,,,,,,,
_ave,_üew,_anf,_uew,_einf,_uewe,_üwe,_uff,_auf,_off,_offe,_anfa,_aff,_enf,_iew,_üewe,,,,,,,,,,,,,,,,,,,,
auwe_,offe_,uff_,ive_,ufe_,ewäj_,aufe_,ewi_,iewe_,iff_,iewi_,ünf_,äwe_,avo_,awi_,auf_,uwe_,ewe_,,,,,,,,,,,,,,,,,,
etra,etter,ueder,idder,eider,ider,entr,entre,odder,ueter,adder,edder,atür,adier,itter,,,,,,,,,,,,,,,,,,,,,
_entr,,,,,,,,,,,,,,,,,,,,,,,,,,,,,,,,,,,
ider_,,,,,,,,,,,,,,,,,,,,,,,,,,,,,,,,,,,
hlic,lüeck,lucie,leic,luci,lüec,lück,lice,,,,,,,,,,,,,,,,,,,,,,,,,,,,
_lac,_luci,_luc,,,,,,,,,,,,,,,,,,,,,,,,,,,,,,,,,
lück_,lice_,,,,,,,,,,,,,,,,,,,,,,,,,,,,,,,,,,
noch,noche,nurr,näch,nn'r,nner,nere,nooch,,,,,,,,,,,,,,,,,,,,,,,,,,,,
_näch,_nurr,,,,,,,,,,,,,,,,,,,,,,,,,,,,,,,,,,
nurr_,ner_,nere_,nach_,n'r_,nner_,n'r_,nn'r_,,,,,,,,,,,,,,,,,,,,,,,,,,,,
tens,diens,,,,,,,,,,,,,,,,,,,,,,,,,,,,,,,,,,
üewer,evoir,iewer,üwer,uewer,ewer,,,,,,,,,,,,,,,,,,,,,,,,,,,,,,
_üwer,,,,,,,,,,,,,,,,,,,,,,,,,,,,,,,,,,,
ewer_,üwer_,,,,,,,,,,,,,,,,,,,,,,,,,,,,,,,,,,
gewo,chwo,gewe,chwej,gewa,gewi,chwa,chwe,gebi,gebe,gewah,,,,,,,,,,,,,,,,,,,,,,,,,
_que,_gewi,_gew,_gewa,_gewe,,,,,,,,,,,,,,,,,,,,,,,,,,,,,,,
bert,pard,pardo,,,,,,,,,,,,,,,,,,,,,,,,,,,,,,,,,
_part,_pard,,,,,,,,,,,,,,,,,,,,,,,,,,,,,,,,,,
müen,müeh,mier,mueh,mmen,,,,,,,,,,,,,,,,,,,,,,,,,,,,,,,
_mai,_müen,_mue,_maa,_mueh,_mee,_müeh,_mer,_möj,,,,,,,,,,,,,,,,,,,,,,,,,,,
mier_,mer_,men_,mme_,müen_,mmi_,mmen_,,,,,,,,,,,,,,,,,,,,,,,,,,,,,
pete,bade,peter,bitte,bede,poot,beden,peti,bitt,,,,,,,,,,,,,,,,,,,,,,,,,,,
_bet,_bitt,_bit,_bod,_pat,_bede,_bed,,,,,,,,,,,,,,,,,,,,,,,,,,,,,
bitt_,,,,,,,,,,,,,,,,,,,,,,,,,,,,,,,,,,,
kanns,,,,,,,,,,,,,,,,,,,,,,,,,,,,,,,,,,,
chsc,gsic,kosc,gesc,g'sc,,,,,,,,,,,,,,,,,,,,,,,,,,,,,,,
_gsic,_gesc,_g'sc,_kosc,_gsc,,,,,,,,,,,,,,,,,,,,,,,,,,,,,,,
lder,,,,,,,,,,,,,,,,,,,,,,,,,,,,,,,,,,,
ännel,,,,,,,,,,,,,,,,,,,,,,,,,,,,,,,,,,,
schl,chli,chlaa,chloo,chel,chlu,schel,schlu,schli,chla,chlo,,,,,,,,,,,,,,,,,,,,,,,,,
gell,chlaa,geleh,gela,glüe,chloo,glau,gele,klei,chlo,glaa,chlu,klich,gelo,ckel,cile,ckle,chli,chel,chla,,,,,,,,,,,,,,,,
_kla,_glau,_gell,_gel,_gol,_gly,_gele,_kle,_glüe,_glaa,_glü,,,,,,,,,,,,,,,,,,,,,,,,,
gell_,chel_,kel_,kle_,cile_,ckel_,,,,,,,,,,,,,,,,,,,,,,,,,,,,,,
ardo,orde,oocht,ächti,eredd,ierot,erte,ucht,ächt,erot,artig,orte,aacht,erad,erdi,öcht,ehrt,eert,erden,ered,yroot,arti,,,,,,,,,,,,,,
_ord,_art,,,,,,,,,,,,,,,,,,,,,,,,,,,,,,,,,,
ärd_,ächt_,öcht_,orte_,urd_,irot_,ocht_,ort_,eert_,ucht_,irt_,art_,erti_,,,,,,,,,,,,,,,,,,,,,,,
ademo,adam,adem,,,,,,,,,,,,,,,,,,,,,,,,,,,,,,,,,
hter,hten,dhei,dier,dien,dder,dhue,tter,dieu,tier,tten,dhüe,dich,'het,'het,,,,,,,,,,,,,,,,,,,,,
_dhä,_den,_dich,_dhü,_dieu,_dhue,_tou,_doo,_dei,_thä,_daa,_the,_deu,_due,_die,_dhüe,_dien,_düe,_dhu,,,,,,,,,,,,,,,,,
dich_,dde_,den_,tte_,die_,dieu_,hter_,ten_,daa_,düe_,der_,tier_,dder_,hte_,hti_,,,,,,,,,,,,,,,,,,,,,
vers,v'rs,warz,vors,wurs,wers,,,,,,,,,,,,,,,,,,,,,,,,,,,,,,
_vors,_v'rs,_wurs,,,,,,,,,,,,,,,,,,,,,,,,,,,,,,,,,
eleh,eilig,öjli,ollen,ilie,illio,aller,oilà,ellei,eili,ille,elie,olle,ölle,eile,elen,elle,üller,ähle,ilig,alli,elei,ülle,eller,,,,,,,,,,,,
_ell,_alli,_ali,_ele,_elle,,,,,,,,,,,,,,,,,,,,,,,,,,,,,,,
ille_,äll_,eel_,aul_,ehl_,iel_,oilà_,oll_,ölle_,ool_,olle_,öll_,alli_,ilà_,uel_,ell_,,,,,,,,,,,,,,,,,,,,
gfall,gfal,,,,,,,,,,,,,,,,,,,,,,,,,,,,,,,,,,
infac,ewec,uffge,eweck,uffg,awic,,,,,,,,,,,,,,,,,,,,,,,,,,,,,,
_ewec,_uffg,,,,,,,,,,,,,,,,,,,,,,,,,,,,,,,,,,
tück,dige,tige,htige,tecke,,,,,,,,,,,,,,,,,,,,,,,,,,,,,,,
_dok,_dic,,,,,,,,,,,,,,,,,,,,,,,,,,,,,,,,,,
lewy,lauw,liewi,llewä,lewä,lauwe,llewy,lewäj,läwe,liebe,,,,,,,,,,,,,,,,,,,,,,,,,,
_läwe,_läw,,,,,,,,,,,,,,,,,,,,,,,,,,,,,,,,,,
läwe_,,,,,,,,,,,,,,,,,,,,,,,,,,,,,,,,,,,
ewyl,üwel,ewel,,,,,,,,,,,,,,,,,,,,,,,,,,,,,,,,,
ewel_,ewyl_,,,,,,,,,,,,,,,,,,,,,,,,,,,,,,,,,,
_pfe,_pfi,,,,,,,,,,,,,,,,,,,,,,,,,,,,,,,,,,
pfe_,,,,,,,,,,,,,,,,,,,,,,,,,,,,,,,,,,,
chie,köen,hkei,chei,chue,cker,chee,g'he,,,,,,,,,,,,,,,,,,,,,,,,,,,,
_c'e,_kaa,_gue,_ghe,_cou,_g'he,_gej,_g'h,_che,_cha,_köe,_ken,_kau,_gau,_köen,_ger,_c'e,_gen,,,,,,,,,,,,,,,,,,
ken_,che_,chi_,cie_,gen_,ker_,cker_,,,,,,,,,,,,,,,,,,,,,,,,,,,,,
iner,yner,inere,aner,inner,ener,,,,,,,,,,,,,,,,,,,,,,,,,,,,,,
ener_,,,,,,,,,,,,,,,,,,,,,,,,,,,,,,,,,,,
chnel,,,,,,,,,,,,,,,,,,,,,,,,,,,,,,,,,,,
alten,elter,ellt,elte,elde,alti,,,,,,,,,,,,,,,,,,,,,,,,,,,,,,
_alti,_elt,,,,,,,,,,,,,,,,,,,,,,,,,,,,,,,,,,
elt_,ild_,elte_,alti_,eld_,ellt_,,,,,,,,,,,,,,,,,,,,,,,,,,,,,,
gelt,gold,,,,,,,,,,,,,,,,,,,,,,,,,,,,,,,,,,
_gelt,_gold,,,,,,,,,,,,,,,,,,,,,,,,,,,,,,,,,,
hell,heili,heil,,,,,,,,,,,,,,,,,,,,,,,,,,,,,,,,,
_heil,_hel,_hol,,,,,,,,,,,,,,,,,,,,,,,,,,,,,,,,,
hol_,hel_,,,,,,,,,,,,,,,,,,,,,,,,,,,,,,,,,,
glauw,,,,,,,,,,,,,,,,,,,,,,,,,,,,,,,,,,,
wurum,werum,,,,,,,,,,,,,,,,,,,,,,,,,,,,,,,,,,
gewo,gewe,gewa,kauf,g'fa,chaf,chäf,gewi,gewah,,,,,,,,,,,,,,,,,,,,,,,,,,,
_g'f,_gewa,_gewe,_gewi,_gew,_kauf,_gfa,,,,,,,,,,,,,,,,,,,,,,,,,,,,,
verli,werl,,,,,,,,,,,,,,,,,,,,,,,,,,,,,,,,,,
_vum,_fam,_fami,,,,,,,,,,,,,,,,,,,,,,,,,,,,,,,,,
vum_,,,,,,,,,,,,,,,,,,,,,,,,,,,,,,,,,,,
lzer,lize,,,,,,,,,,,,,,,,,,,,,,,,,,,,,,,,,,
lzer_,,,,,,,,,,,,,,,,,,,,,,,,,,,,,,,,,,,
rzig,rzue,ritz,,,,,,,,,,,,,,,,,,,,,,,,,,,,,,,,,
ritz_,rez_,rzue_,,,,,,,,,,,,,,,,,,,,,,,,,,,,,,,,,
drüs,drüss,ters,tters,troß,,,,,,,,,,,,,,,,,,,,,,,,,,,,,,,
_drüs,,,,,,,,,,,,,,,,,,,,,,,,,,,,,,,,,,,
_jea,_jeh,,,,,,,,,,,,,,,,,,,,,,,,,,,,,,,,,,
isdir,,,,,,,,,,,,,,,,,,,,,,,,,,,,,,,,,,,
schäf,schaf,chäf,chaf,,,,,,,,,,,,,,,,,,,,,,,,,,,,,,,,
paul,ball,poli,blie,ppel,blue,bele,bbel,,,,,,,,,,,,,,,,,,,,,,,,,,,,
_plä,_paul,_bel,_blie,_bal,_ble,_blo,_bil,_blue,_blu,_ball,_poli,_pol,,,,,,,,,,,,,,,,,,,,,,,
pel_,paul_,ble_,ball_,bel_,,,,,,,,,,,,,,,,,,,,,,,,,,,,,,,
röüj,raue,röuj,hrie,rich,rien,hren,riej,rier,rueh,reij,reich,rhau,,,,,,,,,,,,,,,,,,,,,,,
_ren,_rue,_rei,_rueh,,,,,,,,,,,,,,,,,,,,,,,,,,,,,,,,
rich_,rau_,rri_,rie_,rej_,ren_,hri_,reij_,rre_,,,,,,,,,,,,,,,,,,,,,,,,,,,
okte,okter,akter,uckt,akte,akti,,,,,,,,,,,,,,,,,,,,,,,,,,,,,,
uckt_,ekt_,,,,,,,,,,,,,,,,,,,,,,,,,,,,,,,,,,
_mol,_mal,_möjl,_mül,_müll,,,,,,,,,,,,,,,,,,,,,,,,,,,,,,,
mal_,mül_,mool_,,,,,,,,,,,,,,,,,,,,,,,,,,,,,,,,,
_mame,_mam,_mamm,_mom,_mome,_mama,,,,,,,,,,,,,,,,,,,,,,,,,,,,,,
mame_,,,,,,,,,,,,,,,,,,,,,,,,,,,,,,,,,,,
dierl,,,,,,,,,,,,,,,,,,,,,,,,,,,,,,,,,,,
llein,lonn,llen,llun,lein,llion,lion,,,,,,,,,,,,,,,,,,,,,,,,,,,,,
_lan,_lon,_lonn,,,,,,,,,,,,,,,,,,,,,,,,,,,,,,,,,
lon_,llen_,len_,lein_,län_,lonn_,,,,,,,,,,,,,,,,,,,,,,,,,,,,,,
schun,chon,chne,schen,chun,schon,schn,schan,chan,schni,schne,chni,chnu,,,,,,,,,,,,,,,,,,,,,,,
chun_,chon_,,,,,,,,,,,,,,,,,,,,,,,,,,,,,,,,,,
rumm,rmäi,,,,,,,,,,,,,,,,,,,,,,,,,,,,,,,,,,
gered,grede,gret,karte,gred,kart,,,,,,,,,,,,,,,,,,,,,,,,,,,,,,
_gred,_gret,_kart,,,,,,,,,,,,,,,,,,,,,,,,,,,,,,,,,
egen,ücke,agen,icker,icke,üeck,ecke,ucie,ucke,,,,,,,,,,,,,,,,,,,,,,,,,,,
_auc,_ejc,_aug,_euc,,,,,,,,,,,,,,,,,,,,,,,,,,,,,,,,
ück_,agen_,igen_,ecke_,üeck_,eck_,ucie_,ock_,igi_,egen_,ice_,,,,,,,,,,,,,,,,,,,,,,,,,
schb,spoo,sper,schp,,,,,,,,,,,,,,,,,,,,,,,,,,,,,,,,
_spe,_spoo,_spa,,,,,,,,,,,,,,,,,,,,,,,,,,,,,,,,,
rächt,,,,,,,,,,,,,,,,,,,,,,,,,,,,,,,,,,,
lung,lunge,,,,,,,,,,,,,,,,,,,,,,,,,,,,,,,,,,
lung_,,,,,,,,,,,,,,,,,,,,,,,,,,,,,,,,,,,
ückli,ickel,eckl,eckli,ückl,,,,,,,,,,,,,,,,,,,,,,,,,,,,,,,
baro,bren,brue,paar,pari,bier,pper,,,,,,,,,,,,,,,,,,,,,,,,,,,,,
_bar,_par,_bier,_baro,_per,_pari,_bre,_bren,_bür,_ber,_pri,_pro,_bra,_bru,_bur,_prä,,,,,,,,,,,,,,,,,,,,
per_,par_,,,,,,,,,,,,,,,,,,,,,,,,,,,,,,,,,,
schue,chie,hsch,schä,schen,chee,'sch,ssch,chei,schei,sch',chue,schee,scher,sche,schie,chen,schu,cher,cheen,chien,,,,,,,,,,,,,,,
_che,_scha,_cha,_schu,_sche,_schä,,,,,,,,,,,,,,,,,,,,,,,,,,,,,,
che_,chi_,'sch_,sche_,cher_,schi_,chen_,hsch_,,,,,,,,,,,,,,,,,,,,,,,,,,,,
entr,entre,inder,,,,,,,,,,,,,,,,,,,,,,,,,,,,,,,,,
_entr,,,,,,,,,,,,,,,,,,,,,,,,,,,,,,,,,,,
ewahn,,,,,,,,,,,,,,,,,,,,,,,,,,,,,,,,,,,
dokte,dokt,,,,,,,,,,,,,,,,,,,,,,,,,,,,,,,,,,
ffer,führ,fach,freu,früe,fräu,füehr,vere,fröuj,fröu,frej,verru,fröü,fahre,verr,frai,fröüj,voir,frau,,,,,,,,,,,,,,,,,
_für,_frä,_fahr,_freu,_frai,_verr,_fra,_frau,_v'r,_fräu,_fröu,_frö,_vere,_for,_frü,_früe,_fer,,,,,,,,,,,,,,,,,,,
voir_,für_,fach_,frau_,for_,ffer_,fur_,,,,,,,,,,,,,,,,,,,,,,,,,,,,,
aupt,iebt,,,,,,,,,,,,,,,,,,,,,,,,,,,,,,,,,,
upt_,aupt_,ebt_,iebt_,,,,,,,,,,,,,,,,,,,,,,,,,,,,,,,,
glaab,glaub,,,,,,,,,,,,,,,,,,,,,,,,,,,,,,,,,,
warz,,,,,,,,,,,,,,,,,,,,,,,,,,,,,,,,,,,
fritz,,,,,,,,,,,,,,,,,,,,,,,,,,,,,,,,,,,
hrlic,rlic,,,,,,,,,,,,,,,,,,,,,,,,,,,,,,,,,,
gsche,g'sch,ksch,gsch,gesch,kosch,chsch,gschi,,,,,,,,,,,,,,,,,,,,,,,,,,,,
rooch,roche,rier,räch,,,,,,,,,,,,,,,,,,,,,,,,,,,,,,,,
_räch,,,,,,,,,,,,,,,,,,,,,,,,,,,,,,,,,,,
merc,merci,mark,,,,,,,,,,,,,,,,,,,,,,,,,,,,,,,,,
_merc,_mark,,,,,,,,,,,,,,,,,,,,,,,,,,,,,,,,,,
rung,,,,,,,,,,,,,,,,,,,,,,,,,,,,,,,,,,,
sech,sachs,sich,sisch,sechs,,,,,,,,,,,,,,,,,,,,,,,,,,,,,,,
_sech,,,,,,,,,,,,,,,,,,,,,,,,,,,,,,,,,,,
marie,meri,möch,merr,mier,maach,mari,,,,,,,,,,,,,,,,,,,,,,,,,,,,,
_mar,_m'r,_m'r,_merr,_mari,_mer,_möch,_m'r,,,,,,,,,,,,,,,,,,,,,,,,,,,,
mer_,m'r_,merr_,m'r_,mier_,m'r_,,,,,,,,,,,,,,,,,,,,,,,,,,,,,,
nhei,nnen,nner,nich,hnen,,,,,,,,,,,,,,,,,,,,,,,,,,,,,,,
_'ne,_nej,_noo,_nich,_nou,_'ne,_nee,_naa,,,,,,,,,,,,,,,,,,,,,,,,,,,,
nnen_,noh_,nue_,'ne_,nni_,ner_,nner_,nen_,hnen_,nne_,nee_,'ne_,,,,,,,,,,,,,,,,,,,,,,,,
ngt_,,,,,,,,,,,,,,,,,,,,,,,,,,,,,,,,,,,
nein,hnun,nnen,hnen,naan,,,,,,,,,,,,,,,,,,,,,,,,,,,,,,,
_nin,_non,_nein,_nyn,_naan,,,,,,,,,,,,,,,,,,,,,,,,,,,,,,,
hnen_,nun_,nnen_,nein_,nin_,naan_,nen_,,,,,,,,,,,,,,,,,,,,,,,,,,,,,
insi,onsi,ünser,anns,aans,unser,ünse,unse,onsie,,,,,,,,,,,,,,,,,,,,,,,,,,,
_uns,_anz,_üns,_ünse,_unse,,,,,,,,,,,,,,,,,,,,,,,,,,,,,,,
inz_,anz_,uns_,ans_,,,,,,,,,,,,,,,,,,,,,,,,,,,,,,,,
hawi,hoffe,hoff,,,,,,,,,,,,,,,,,,,,,,,,,,,,,,,,,
chtel,stall,stal,,,,,,,,,,,,,,,,,,,,,,,,,,,,,,,,,
namm,numme,nemm,namme,nehm,nemme,numm,,,,,,,,,,,,,,,,,,,,,,,,,,,,,
_nem,_num,_nemm,_numm,_näm,_namm,,,,,,,,,,,,,,,,,,,,,,,,,,,,,,
nim_,nem_,,,,,,,,,,,,,,,,,,,,,,,,,,,,,,,,,,
fasc,fesc,,,,,,,,,,,,,,,,,,,,,,,,,,,,,,,,,,
chor,chre,scher,chrie,schr,,,,,,,,,,,,,,,,,,,,,,,,,,,,,,,
ebbs,iebs,,,,,,,,,,,,,,,,,,,,,,,,,,,,,,,,,,
_ebs,_ebbs,,,,,,,,,,,,,,,,,,,,,,,,,,,,,,,,,,
chung,gung,chenk,,,,,,,,,,,,,,,,,,,,,,,,,,,,,,,,,
rüsse,reise,ressi,rüss,roße,reis,ress,rose,resse,,,,,,,,,,,,,,,,,,,,,,,,,,,
_res,_ros,,,,,,,,,,,,,,,,,,,,,,,,,,,,,,,,,,
suec,,,,,,,,,,,,,,,,,,,,,,,,,,,,,,,,,,,
_sec,_sac,_suec,_sic,_sog,,,,,,,,,,,,,,,,,,,,,,,,,,,,,,,
sig_,,,,,,,,,,,,,,,,,,,,,,,,,,,,,,,,,,,
fsch,fesch,fasch,,,,,,,,,,,,,,,,,,,,,,,,,,,,,,,,,
chaft,chäft,,,,,,,,,,,,,,,,,,,,,,,,,,,,,,,,,,
lewyl,,,,,,,,,,,,,,,,,,,,,,,,,,,,,,,,,,,
fehlt,feld,,,,,,,,,,,,,,,,,,,,,,,,,,,,,,,,,,
hoos,heiß,haus,hies,hoose,hoss,hüss,hosse,,,,,,,,,,,,,,,,,,,,,,,,,,,,
_hoos,_hes,_heiß,_hoss,_hüss,_hos,,,,,,,,,,,,,,,,,,,,,,,,,,,,,,
hüss_,hes_,,,,,,,,,,,,,,,,,,,,,,,,,,,,,,,,,,
chre,krie,chrie,cher,chor,geri,gere,cker,kriej,krei,,,,,,,,,,,,,,,,,,,,,,,,,,
_grö,_krä,_gere,_gru,_krie,_kir,_kri,_krei,_kar,_gro,_kur,_gri,_grü,_geri,_ger,_kre,,,,,,,,,,,,,,,,,,,,
cher_,ker_,cker_,,,,,,,,,,,,,,,,,,,,,,,,,,,,,,,,,
htel,tall,tler,tlich,ddel,tille,teil,dlich,dele,ttel,,,,,,,,,,,,,,,,,,,,,,,,,,
ddel_,htel_,tel_,tler_,del_,ttel_,tli_,,,,,,,,,,,,,,,,,,,,,,,,,,,,,
tsch,dsch,tsche,dich,disch,,,,,,,,,,,,,,,,,,,,,,,,,,,,,,,
voll,wöll,wahl,wiel,voilà,wölle,woll,voil,wille,,,,,,,,,,,,,,,,,,,,,,,,,,,
_voil,_vil,_wahl,_wöl,_wol,_woll,_wöll,_vol,_vel,,,,,,,,,,,,,,,,,,,,,,,,,,,
voll_,wyl_,wiel_,wel_,,,,,,,,,,,,,,,,,,,,,,,,,,,,,,,,
nnel,nlich,hnel,nell,hnell,,,,,,,,,,,,,,,,,,,,,,,,,,,,,,,
nell_,nnel_,nel_,,,,,,,,,,,,,,,,,,,,,,,,,,,,,,,,,
tret,dort,docht,,,,,,,,,,,,,,,,,,,,,,,,,,,,,,,,,
_dort,,,,,,,,,,,,,,,,,,,,,,,,,,,,,,,,,,,
dort_,,,,,,,,,,,,,,,,,,,,,,,,,,,,,,,,,,,
hter,dier,deri,dder,duri,drej,dire,teri,traa,tter,tier,tiere,dere,trie,ttere,tere,,,,,,,,,,,,,,,,,,,,
_duri,_dere,_dor,_drü,_tre,_tro,_d'r,_drej,_dre,_d'r,_dir,_dro,_d'r,,,,,,,,,,,,,,,,,,,,,,,
d'r_,t'r_,t'r_,tre_,hter_,deri_,d'r_,der_,dir_,dder_,tier_,dere_,d'r_,,,,,,,,,,,,,,,,,,,,,,,
icher,ösch,iche,eche,ächs,ische,ichs,eich,esche,eiche,usch,äsch,uesch,äisch,isch',esch,osch,ichen,achs,ejch,üsch,aisch,echs,achse,ichi,aasch,ehsch,,,,,,,,,
_ejch,,,,,,,,,,,,,,,,,,,,,,,,,,,,,,,,,,,
esch_,echs_,ejch_,ichi_,ych_,ech_,,,,,,,,,,,,,,,,,,,,,,,,,,,,,,
wasse,weiß,vous,wais,wies,wass,,,,,,,,,,,,,,,,,,,,,,,,,,,,,,
_weiß,_vous,_wass,_wais,,,,,,,,,,,,,,,,,,,,,,,,,,,,,,,,
wiß_,weiß_,vous_,,,,,,,,,,,,,,,,,,,,,,,,,,,,,,,,,
aawe,öuje,öüje,eije,uehj,üehj,ehje,öije,ejer,äuje,ueje,,,,,,,,,,,,,,,,,,,,,,,,,
eije_,eje_,ehj_,öje_,aje_,awe_,uehj_,üje_,ueje_,uje_,ije_,öuje_,igi_,aawe_,äje_,öüje_,äuje_,,,,,,,,,,,,,,,,,,,
lewyl,,,,,,,,,,,,,,,,,,,,,,,,,,,,,,,,,,,
bick,beku,bicke,,,,,,,,,,,,,,,,,,,,,,,,,,,,,,,,,
_beku,_bek,,,,,,,,,,,,,,,,,,,,,,,,,,,,,,,,,,
aiss,uess,ousi,üsie,oise,üsse,asser,üsier,oose,issio,iehs,osse,assi,issen,issi,aise,esse,isse,eser,eise,essi,iese,,,,,,,,,,,,,,
_ues,_ess,_üss,_aus,,,,,,,,,,,,,,,,,,,,,,,,,,,,,,,,
ois_,üss_,osse_,eiß_,uess_,ous_,aus_,ese_,eis_,uss_,üeß_,üsse_,ies_,ueß_,ais_,,,,,,,,,,,,,,,,,,,,,
machs,msch,mmsch,,,,,,,,,,,,,,,,,,,,,,,,,,,,,,,,,
msch_,,,,,,,,,,,,,,,,,,,,,,,,,,,,,,,,,,,
wesc,,,,,,,,,,,,,,,,,,,,,,,,,,,,,,,,,,,
ndli,ndel,,,,,,,,,,,,,,,,,,,,,,,,,,,,,,,,,,
händ,hunde,hund,,,,,,,,,,,,,,,,,,,,,,,,,,,,,,,,,
_händ,_hund,,,,,,,,,,,,,,,,,,,,,,,,,,,,,,,,,,
hwin,wenn,wahn,,,,,,,,,,,,,,,,,,,,,,,,,,,,,,,,,
_win,_wenn,_von,_wen,_vun,,,,,,,,,,,,,,,,,,,,,,,,,,,,,,,
wahn_,von_,wenn_,vun_,,,,,,,,,,,,,,,,,,,,,,,,,,,,,,,,
verk,vorg,,,,,,,,,,,,,,,,,,,,,,,,,,,,,,,,,,
_verk,,,,,,,,,,,,,,,,,,,,,,,,,,,,,,,,,,,
inger,,,,,,,,,,,,,,,,,,,,,,,,,,,,,,,,,,,
hrli,rlau,rlie,rlich,,,,,,,,,,,,,,,,,,,,,,,,,,,,,,,,
rli_,rel_,rle_,,,,,,,,,,,,,,,,,,,,,,,,,,,,,,,,,
gend,kind,könnt,kinde,,,,,,,,,,,,,,,,,,,,,,,,,,,,,,,,
lückl,,,,,,,,,,,,,,,,,,,,,,,,,,,,,,,,,,,
kommi,cami,chmi,komm,gemei,chem,komme,chmu,chme,chäm,kumme,comm,geme,kumm,cham,gema,,,,,,,,,,,,,,,,,,,,
_cami,_gema,_geme,_kum,_kumm,_com,_comm,_cam,_gem,_kom,_komm,,,,,,,,,,,,,,,,,,,,,,,,,
komm_,,,,,,,,,,,,,,,,,,,,,,,,,,,,,,,,,,,
rote,raid,runt,redd,rden,rtie,ridd,runte,redde,root,rett,rten,ridde,,,,,,,,,,,,,,,,,,,,,,,
_redd,,,,,,,,,,,,,,,,,,,,,,,,,,,,,,,,,,,
rti_,hrt_,rote_,redd_,rden_,rdi_,raid_,rot_,,,,,,,,,,,,,,,,,,,,,,,,,,,,
ttung,denke,denk,dung,,,,,,,,,,,,,,,,,,,,,,,,,,,,,,,,
_denk,,,,,,,,,,,,,,,,,,,,,,,,,,,,,,,,,,,
dank_,denk_,dung_,,,,,,,,,,,,,,,,,,,,,,,,,,,,,,,,,
nadie,nden,ndig,nnte,nett,nten,nadi,nied,,,,,,,,,,,,,,,,,,,,,,,,,,,,
_nad,_nadi,_net,_nett,,,,,,,,,,,,,,,,,,,,,,,,,,,,,,,,
ndi_,nit_,nnte_,nden_,,,,,,,,,,,,,,,,,,,,,,,,,,,,,,,,
ooch,eere,öche,yroo,ierer,üehr,ieren,iero,arich,eure,euch,urre,erru,uech,erer,erie,urich,erich,arig,arre,aach,ieur,arie,orre,ueche,auch,erei,eren,oche,erre,achen,ihri,,,,
_ehre,_och,_ihri,_ier,_auch,_euch,_eri,_ari,_erü,_ehr,_arig,_arr,_eru,,,,,,,,,,,,,,,,,,,,,,,
arie_,eri_,ère_,ero_,ihri_,oche_,oir_,uech_,uch_,ere_,oor_,eren_,euch_,orre_,ieur_,erre_,ooch_,uer_,eur_,auch_,urr_,our_,äre_,eere_,eer_,arig_,urre_,ahre_,yer_,aar_,erer_,ier_,ach_,,,
druff,trüwe,trüw,,,,,,,,,,,,,,,,,,,,,,,,,,,,,,,,,
derf_,,,,,,,,,,,,,,,,,,,,,,,,,,,,,,,,,,,
hmelz,melz,,,,,,,,,,,,,,,,,,,,,,,,,,,,,,,,,,
maid,midd,mant,medi,maide,made,mued,mada,ment,,,,,,,,,,,,,,,,,,,,,,,,,,,
_mid,_mued,_mad,_maid,_made,_mada,_mat,_mit,,,,,,,,,,,,,,,,,,,,,,,,,,,,
viert,wirt,ward,würd,wärd,wurd,wert,hwart,,,,,,,,,,,,,,,,,,,,,,,,,,,,
_wärd,_wurd,_wert,,,,,,,,,,,,,,,,,,,,,,,,,,,,,,,,,
wärd_,wart_,wurd_,,,,,,,,,,,,,,,,,,,,,,,,,,,,,,,,,
awwer,ewwer,evoir,aw'r,,,,,,,,,,,,,,,,,,,,,,,,,,,,,,,,
_aw'r,,,,,,,,,,,,,,,,,,,,,,,,,,,,,,,,,,,
aw'r_,,,,,,,,,,,,,,,,,,,,,,,,,,,,,,,,,,,
spro,spre,sper,,,,,,,,,,,,,,,,,,,,,,,,,,,,,,,,,
lebt,liebt,lpete,lpet,,,,,,,,,,,,,,,,,,,,,,,,,,,,,,,,
itsc,ätsc,utsc,,,,,,,,,,,,,,,,,,,,,,,,,,,,,,,,,
ffen,füeh,ffer,,,,,,,,,,,,,,,,,,,,,,,,,,,,,,,,,
_vou,_feh,_voi,_vee,_fue,_fer,,,,,,,,,,,,,,,,,,,,,,,,,,,,,,
fen_,ffe_,ffer_,,,,,,,,,,,,,,,,,,,,,,,,,,,,,,,,,
fund,,,,,,,,,,,,,,,,,,,,,,,,,,,,,,,,,,,
chke,gkei,chak,chkei,,,,,,,,,,,,,,,,,,,,,,,,,,,,,,,,
_gek,,,,,,,,,,,,,,,,,,,,,,,,,,,,,,,,,,,
sion,seine,sehne,'sin,sohn,'sin,sini,sähn,ssion,sehn,sein,ssen,,,,,,,,,,,,,,,,,,,,,,,,
_sin,_syn,_sohn,_sehn,_sein,_son,_sini,,,,,,,,,,,,,,,,,,,,,,,,,,,,,
sini_,sähn_,sion_,'sin_,sehn_,syn_,sohn_,sein_,sin_,'sin_,ssen_,sen_,,,,,,,,,,,,,,,,,,,,,,,,
dant,tänd,tand,dent,tande,,,,,,,,,,,,,,,,,,,,,,,,,,,,,,,
dent_,,,,,,,,,,,,,,,,,,,,,,,,,,,,,,,,,,,
nicht,,,,,,,,,,,,,,,,,,,,,,,,,,,,,,,,,,,
aris,errs,ochz,ersi,erse,erüss,eres,erüs,,,,,,,,,,,,,,,,,,,,,,,,,,,,
_urs,_erüs,,,,,,,,,,,,,,,,,,,,,,,,,,,,,,,,,,
erüs_,erz_,urs_,eres_,ers_,aris_,,,,,,,,,,,,,,,,,,,,,,,,,,,,,,
wäje,waje,weje,,,,,,,,,,,,,,,,,,,,,,,,,,,,,,,,,
_waje,_wäje,,,,,,,,,,,,,,,,,,,,,,,,,,,,,,,,,,
waje_,wäje_,,,,,,,,,,,,,,,,,,,,,,,,,,,,,,,,,,
vors,v'rs,vers,,,,,,,,,,,,,,,,,,,,,,,,,,,,,,,,,
_vors,_v'rs,,,,,,,,,,,,,,,,,,,,,,,,,,,,,,,,,,
chte,chter,chad,schad,stie,sten,chde,scht,chied,steh,chten,'est,'est,chti,schte,hscht,staa,,,,,,,,,,,,,,,,,,,
_ste,_stei,_stü,_sta,_ster,_sto,_steh,,,,,,,,,,,,,,,,,,,,,,,,,,,,,
cht_,'est_,'est_,chti_,chte_,sten_,sti_,scht_,,,,,,,,,,,,,,,,,,,,,,,,,,,,
angen,inge,unke,ance,inig,ungen,änge,enke,inger,,,,,,,,,,,,,,,,,,,,,,,,,,,
_unk,_ange,_ing,_inge,_ang,_unke,,,,,,,,,,,,,,,,,,,,,,,,,,,,,,
ank_,enke_,ance_,unke_,ung_,enk_,,,,,,,,,,,,,,,,,,,,,,,,,,,,,,
eifel,ewyl,ifel,üwel,ewel,,,,,,,,,,,,,,,,,,,,,,,,,,,,,,,
ewel_,ewyl_,,,,,,,,,,,,,,,,,,,,,,,,,,,,,,,,,,
sind,,,,,,,,,,,,,,,,,,,,,,,,,,,,,,,,,,,
_zwä,_zwäi,_zwa,,,,,,,,,,,,,,,,,,,,,,,,,,,,,,,,,
lend,land,,,,,,,,,,,,,,,,,,,,,,,,,,,,,,,,,,
liet,lytt,luet,lett,lder,litt,lten,latt,,,,,,,,,,,,,,,,,,,,,,,,,,,,
_lytt,_litt,_lyt,,,,,,,,,,,,,,,,,,,,,,,,,,,,,,,,,
llt_,lytt_,lten_,lde_,litt_,lte_,lti_,lyt_,,,,,,,,,,,,,,,,,,,,,,,,,,,,
ngel,nkel,nglü,,,,,,,,,,,,,,,,,,,,,,,,,,,,,,,,,
nkel_,,,,,,,,,,,,,,,,,,,,,,,,,,,,,,,,,,,
egen,agen,,,,,,,,,,,,,,,,,,,,,,,,,,,,,,,,,,
lewy,hloof,lauw,liewi,llewä,lewä,lauwe,laufe,llewy,lauf,lewäj,läwe,loof,,,,,,,,,,,,,,,,,,,,,,,
_luf,_läwe,_lauf,_läw,,,,,,,,,,,,,,,,,,,,,,,,,,,,,,,,
lfe_,läwe_,,,,,,,,,,,,,,,,,,,,,,,,,,,,,,,,,,
zamm,zuem,zamme,,,,,,,,,,,,,,,,,,,,,,,,,,,,,,,,,
_zam,_zuem,_zamm,,,,,,,,,,,,,,,,,,,,,,,,,,,,,,,,,
zuem_,,,,,,,,,,,,,,,,,,,,,,,,,,,,,,,,,,,
trüwe,trüw,,,,,,,,,,,,,,,,,,,,,,,,,,,,,,,,,,
heid,hytt,heidi,hett,hätte,hädd,heit,huet,hied,,,,,,,,,,,,,,,,,,,,,,,,,,,
_hytt,_heid,_het,_hett,_hitt,_hyt,,,,,,,,,,,,,,,,,,,,,,,,,,,,,,
het_,hät_,hyt_,huet_,hitt_,hett_,hytt_,heit_,,,,,,,,,,,,,,,,,,,,,,,,,,,,
wald,welt,,,,,,,,,,,,,,,,,,,,,,,,,,,,,,,,,,
_wald,_welt,,,,,,,,,,,,,,,,,,,,,,,,,,,,,,,,,,
wend,wund,,,,,,,,,,,,,,,,,,,,,,,,,,,,,,,,,,
möcht,,,,,,,,,,,,,,,,,,,,,,,,,,,,,,,,,,,
ehei,ehen,,,,,,,,,,,,,,,,,,,,,,,,,,,,,,,,,,
_oho,,,,,,,,,,,,,,,,,,,,,,,,,,,,,,,,,,,
oho_,ehen_,,,,,,,,,,,,,,,,,,,,,,,,,,,,,,,,,,
ssio,ss-e,säuj,sich,ssen,'saa,saaue,sier,saau,sieu,sser,ssie,'saa,,,,,,,,,,,,,,,,,,,,,,,
_see,_saa,_soh,_sej,_ser,_sie,_saau,_säh,_säuj,_seh,_sue,_sai,,,,,,,,,,,,,,,,,,,,,,,,
ssi_,hse_,sie_,ssen_,sen_,sig_,sej_,saa_,,,,,,,,,,,,,,,,,,,,,,,,,,,,
rennt,runte,rund,rand,runt,,,,,,,,,,,,,,,,,,,,,,,,,,,,,,,
bier,pper,,,,,,,,,,,,,,,,,,,,,,,,,,,,,,,,,,
_bue,_bier,_per,_bie,_baa,_büe,_ber,_pau,,,,,,,,,,,,,,,,,,,,,,,,,,,,
bbe_,bei_,ben_,per_,bie_,bue_,,,,,,,,,,,,,,,,,,,,,,,,,,,,,,
urum,erme,erum,ermäi,erma,ermä,,,,,,,,,,,,,,,,,,,,,,,,,,,,,,
_erum,,,,,,,,,,,,,,,,,,,,,,,,,,,,,,,,,,,
erum_,urum_,,,,,,,,,,,,,,,,,,,,,,,,,,,,,,,,,,
hesch,,,,,,,,,,,,,,,,,,,,,,,,,,,,,,,,,,,
wesch,wich,,,,,,,,,,,,,,,,,,,,,,,,,,,,,,,,,,
_jed,,,,,,,,,,,,,,,,,,,,,,,,,,,,,,,,,,,
ervi,arwei,,,,,,,,,,,,,,,,,,,,,,,,,,,,,,,,,,
inz_,anz_,,,,,,,,,,,,,,,,,,,,,,,,,,,,,,,,,,
herz,herze,hochz,,,,,,,,,,,,,,,,,,,,,,,,,,,,,,,,,
_herz,,,,,,,,,,,,,,,,,,,,,,,,,,,,,,,,,,,
flie,voll,fäll,flich,voilà,falle,voil,fehl,,,,,,,,,,,,,,,,,,,,,,,,,,,,
_fli,_voil,_vil,_fal,_vol,_vel,_fil,_fle,_fall,,,,,,,,,,,,,,,,,,,,,,,,,,,
voll_,fel_,fle_,,,,,,,,,,,,,,,,,,,,,,,,,,,,,,,,,
eroth,,,,,,,,,,,,,,,,,,,,,,,,,,,,,,,,,,,
edan,eden,iden,ation,,,,,,,,,,,,,,,,,,,,,,,,,,,,,,,,
hawi,haben,habe,,,,,,,,,,,,,,,,,,,,,,,,,,,,,,,,,
_haw,_hawi,_habe,,,,,,,,,,,,,,,,,,,,,,,,,,,,,,,,,
helfe,helf,,,,,,,,,,,,,,,,,,,,,,,,,,,,,,,,,,
_fün,_vun,_von,_fan,,,,,,,,,,,,,,,,,,,,,,,,,,,,,,,,
angt,enkt,,,,,,,,,,,,,,,,,,,,,,,,,,,,,,,,,,
enkt_,angt_,,,,,,,,,,,,,,,,,,,,,,,,,,,,,,,,,,
ings,ungs,,,,,,,,,,,,,,,,,,,,,,,,,,,,,,,,,,
aane,inner,aine,onne,eini,ihnen,iner,yner,önne,enne,inig,anne,uehn,enue,eann,ehne,öenn,üehn,inen,ione,eene,eanne,aner,inne,einen,enni,ener,inni,öenne,,,,,,,
_ann,_aan,_eine,_inn,_anne,_unn,_inne,_une,_eini,,,,,,,,,,,,,,,,,,,,,,,,,,,
eini_,yne_,eni_,een_,ehn_,ener_,uen_,önne_,ehne_,ean_,yni_,ione_,enue_,inne_,ähn_,onn_,anne_,aan_,inen_,enne_,unn_,inni_,ein_,ahn_,ain_,ohn_,ion_,ann_,une_,uehn_,ini_,,,,,
ules,ells,olls,,,,,,,,,,,,,,,,,,,,,,,,,,,,,,,,,
_als,,,,,,,,,,,,,,,,,,,,,,,,,,,,,,,,,,,
olz_,els_,als_,ules_,,,,,,,,,,,,,,,,,,,,,,,,,,,,,,,,
hört,,,,,,,,,,,,,,,,,,,,,,,,,,,,,,,,,,,
stic,stück,stüc,,,,,,,,,,,,,,,,,,,,,,,,,,,,,,,,,
bliew,,,,,,,,,,,,,,,,,,,,,,,,,,,,,,,,,,,
säuje,saawe,,,,,,,,,,,,,,,,,,,,,,,,,,,,,,,,,,
_bin,_bon,,,,,,,,,,,,,,,,,,,,,,,,,,,,,,,,,,
ben_,bin_,bon_,,,,,,,,,,,,,,,,,,,,,,,,,,,,,,,,,
verk,vorg,,,,,,,,,,,,,,,,,,,,,,,,,,,,,,,,,,
_verk,,,,,,,,,,,,,,,,,,,,,,,,,,,,,,,,,,,
tlic,dlic,,,,,,,,,,,,,,,,,,,,,,,,,,,,,,,,,,
demo,demoi,dumme,,,,,,,,,,,,,,,,,,,,,,,,,,,,,,,,,
_dim,_dem,,,,,,,,,,,,,,,,,,,,,,,,,,,,,,,,,,
dem_,dim_,dam_,,,,,,,,,,,,,,,,,,,,,,,,,,,,,,,,,
ommt,ummt,oment,ement,,,,,,,,,,,,,,,,,,,,,,,,,,,,,,,,
ommt_,ummt_,,,,,,,,,,,,,,,,,,,,,,,,,,,,,,,,,,
strü,stro,sdir,stri,stra,,,,,,,,,,,,,,,,,,,,,,,,,,,,,,,
_str,_ster,_strü,_stro,,,,,,,,,,,,,,,,,,,,,,,,,,,,,,,,
hafte,hafft,häft,haft,,,,,,,,,,,,,,,,,,,,,,,,,,,,,,,,
verli,,,,,,,,,,,,,,,,,,,,,,,,,,,,,,,,,,,
erne,eren,eran,ieren,aron,erin,erun,achen,,,,,,,,,,,,,,,,,,,,,,,,,,,,
ern_,erin_,eren_,,,,,,,,,,,,,,,,,,,,,,,,,,,,,,,,,
elan,ollen,elen,,,,,,,,,,,,,,,,,,,,,,,,,,,,,,,,,
zelle,zell,,,,,,,,,,,,,,,,,,,,,,,,,,,,,,,,,,
_zell,_zel,,,,,,,,,,,,,,,,,,,,,,,,,,,,,,,,,,
zell_,zel_,,,,,,,,,,,,,,,,,,,,,,,,,,,,,,,,,,
chste,g'st,gsaat,chst,,,,,,,,,,,,,,,,,,,,,,,,,,,,,,,,
eweck,ewec,awic,,,,,,,,,,,,,,,,,,,,,,,,,,,,,,,,,
iesel,issel,oisel,isell,isel,,,,,,,,,,,,,,,,,,,,,,,,,,,,,,,
sach,sieur,seri,sehr,sere,suech,sier,sser,,,,,,,,,,,,,,,,,,,,,,,,,,,,
sach_,sehr_,seri_,sere_,s'r_,,,,,,,,,,,,,,,,,,,,,,,,,,,,,,,
meins,mons,monsi,,,,,,,,,,,,,,,,,,,,,,,,,,,,,,,,,
_mons,,,,,,,,,,,,,,,,,,,,,,,,,,,,,,,,,,,
ensch,ansch,anch,,,,,,,,,,,,,,,,,,,,,,,,,,,,,,,,,
weck,,,,,,,,,,,,,,,,,,,,,,,,,,,,,,,,,,,
_wic,,,,,,,,,,,,,,,,,,,,,,,,,,,,,,,,,,,
weck_,,,,,,,,,,,,,,,,,,,,,,,,,,,,,,,,,,,
itzt,etzt,,,,,,,,,,,,,,,,,,,,,,,,,,,,,,,,,,
etzt_,itzt_,,,,,,,,,,,,,,,,,,,,,,,,,,,,,,,,,,
druck,tric,druc,durc,duric,,,,,,,,,,,,,,,,,,,,,,,,,,,,,,,
ets_,itz_,uets_,,,,,,,,,,,,,,,,,,,,,,,,,,,,,,,,,
orsc,errsc,ursc,ersc,,,,,,,,,,,,,,,,,,,,,,,,,,,,,,,,
_jez,,,,,,,,,,,,,,,,,,,,,,,,,,,,,,,,,,,
jez_,,,,,,,,,,,,,,,,,,,,,,,,,,,,,,,,,,,
stehn,stän,sten,,,,,,,,,,,,,,,,,,,,,,,,,,,,,,,,,
elfe,,,,,,,,,,,,,,,,,,,,,,,,,,,,,,,,,,,
cklic,glüec,glück,glüc,glyc,chlic,klic,,,,,,,,,,,,,,,,,,,,,,,,,,,,,
_glyc,_glüc,,,,,,,,,,,,,,,,,,,,,,,,,,,,,,,,,,
prin,bran,baron,bren,brenn,,,,,,,,,,,,,,,,,,,,,,,,,,,,,,,
_prin,_bren,,,,,,,,,,,,,,,,,,,,,,,,,,,,,,,,,,
resc,rrsc,rasc,,,,,,,,,,,,,,,,,,,,,,,,,,,,,,,,,
nderi,ndar,ntre,,,,,,,,,,,,,,,,,,,,,,,,,,,,,,,,,
riewe,revo,hriew,rüwe,ruef,ruff,riew,revoi,ravo,,,,,,,,,,,,,,,,,,,,,,,,,,,
ravo_,ruff_,,,,,,,,,,,,,,,,,,,,,,,,,,,,,,,,,,
nix_,,,,,,,,,,,,,,,,,,,,,,,,,,,,,,,,,,,
verr,wahr,wwer,worre,worr,wera,were,voir,verru,hwar,vere,wäre,wuru,wurr,hwer,weru,,,,,,,,,,,,,,,,,,,,
_wuru,_v'r,_vere,_wär,_weru,_worr,_wur,_wer,_verr,_wurr,_wahr,_wach,_wäre,,,,,,,,,,,,,,,,,,,,,,,
wir_,voir_,w'r_,wäre_,wär_,wwer_,wurr_,wur_,,,,,,,,,,,,,,,,,,,,,,,,,,,,
lisse,leis,liss,lass,losse,,,,,,,,,,,,,,,,,,,,,,,,,,,,,,,
_les,_loß,_liss,,,,,,,,,,,,,,,,,,,,,,,,,,,,,,,,,
los_,loß_,les_,,,,,,,,,,,,,,,,,,,,,,,,,,,,,,,,,
esst,asst,eißt,,,,,,,,,,,,,,,,,,,,,,,,,,,,,,,,,
eißt_,oßt_,eßt_,ißt_,,,,,,,,,,,,,,,,,,,,,,,,,,,,,,,,
ämli,amil,emool,amill,,,,,,,,,,,,,,,,,,,,,,,,,,,,,,,,
lych,lich,lsch,hlich,llsch,leich,liche,lisch,,,,,,,,,,,,,,,,,,,,,,,,,,,,
nooc,ngen,,,,,,,,,,,,,,,,,,,,,,,,,,,,,,,,,,
_nooc,_nic,_näc,,,,,,,,,,,,,,,,,,,,,,,,,,,,,,,,,
nce_,ngen_,,,,,,,,,,,,,,,,,,,,,,,,,,,,,,,,,,
ochz,erzi,ochzi,,,,,,,,,,,,,,,,,,,,,,,,,,,,,,,,,
erze_,erz_,,,,,,,,,,,,,,,,,,,,,,,,,,,,,,,,,,
o-yo,aaue,yo-y,äuej,eich,yo-yo,,,,,,,,,,,,,,,,,,,,,,,,,,,,,,
_yo-,_yo-y,_aue,_ier,_eij,_oui,,,,,,,,,,,,,,,,,,,,,,,,,,,,,,
ueh_,een_,uen_,uej_,ieu_,öuj_,uer_,oui_,o-yo_,aue_,aaue_,üej_,eer_,yer_,ier_,eij_,eau_,,,,,,,,,,,,,,,,,,,
richt,rscht,rsteh,rstä,recht,rsta,,,,,,,,,,,,,,,,,,,,,,,,,,,,,,
chkei,schak,chke,chak,,,,,,,,,,,,,,,,,,,,,,,,,,,,,,,,
_hoc,,,,,,,,,,,,,,,,,,,,,,,,,,,,,,,,,,,
unkel,unglü,angel,,,,,,,,,,,,,,,,,,,,,,,,,,,,,,,,,
brav,prof,bravo,,,,,,,,,,,,,,,,,,,,,,,,,,,,,,,,,
ervi,,,,,,,,,,,,,,,,,,,,,,,,,,,,,,,,,,,
erf_,,,,,,,,,,,,,,,,,,,,,,,,,,,,,,,,,,,
miss,moise,mueß,missi,müeß,muess,mois,mess,mmiss,mäis,mues,mais,mmis,,,,,,,,,,,,,,,,,,,,,,,
_mues,_mas,_müeß,_mes,_mess,_mus,_mueß,_mais,,,,,,,,,,,,,,,,,,,,,,,,,,,,
bild,bluet,,,,,,,,,,,,,,,,,,,,,,,,,,,,,,,,,,
_bild,,,,,,,,,,,,,,,,,,,,,,,,,,,,,,,,,,,
fridd,fort,frid,viert,fraid,ferd,frit,,,,,,,,,,,,,,,,,,,,,,,,,,,,,
_fort,_frit,,,,,,,,,,,,,,,,,,,,,,,,,,,,,,,,,,
fort_,,,,,,,,,,,,,,,,,,,,,,,,,,,,,,,,,,,
elwe,elwer,,,,,,,,,,,,,,,,,,,,,,,,,,,,,,,,,,
chwer,chwej,schwa,schw,chwo,schwo,chwa,schwe,chwe,,,,,,,,,,,,,,,,,,,,,,,,,,,
bisse,biss,bass,,,,,,,,,,,,,,,,,,,,,,,,,,,,,,,,,
_bis,_bas,_pass,_pas,_biss,_bez,_b's,_bes,,,,,,,,,,,,,,,,,,,,,,,,,,,,
bbs_,pas_,,,,,,,,,,,,,,,,,,,,,,,,,,,,,,,,,,
dass,dess,zier,tiss,diss,diese,dies,zeij,,,,,,,,,,,,,,,,,,,,,,,,,,,,
_dis,_zue,_diß,_zeij,_daß,_deß,_dass,_des,_zer,_diss,_dies,,,,,,,,,,,,,,,,,,,,,,,,,
tiss_,diss_,dass_,deß_,daß_,hts_,dies_,zue_,dis_,zer_,tts_,tes_,des_,zig_,diß_,zeh_,,,,,,,,,,,,,,,,,,,,
emach,ummer,,,,,,,,,,,,,,,,,,,,,,,,,,,,,,,,,,
muesc,maisc,mäisc,mmsc,,,,,,,,,,,,,,,,,,,,,,,,,,,,,,,,
nlic,,,,,,,,,,,,,,,,,,,,,,,,,,,,,,,,,,,
emac,,,,,,,,,,,,,,,,,,,,,,,,,,,,,,,,,,,
ente,ainte,ändig,ende,ände,aint,önnte,andi,ient,önnt,inder,ändi,enda,endi,,,,,,,,,,,,,,,,,,,,,,
_ent,_und,_int,,,,,,,,,,,,,,,,,,,,,,,,,,,,,,,,,
end_,önnt_,ande_,ende_,und_,ant_,ent_,ient_,and_,ente_,änd_,,,,,,,,,,,,,,,,,,,,,,,,,
kreis,große,groß,kurz,,,,,,,,,,,,,,,,,,,,,,,,,,,,,,,,
_groß,_kurz,,,,,,,,,,,,,,,,,,,,,,,,,,,,,,,,,,
_vum,,,,,,,,,,,,,,,,,,,,,,,,,,,,,,,,,,,
vum_,,,,,,,,,,,,,,,,,,,,,,,,,,,,,,,,,,,
