Dü	NaN	NaN
,	NaN	NaN
Addes	NaN	NaN
!	NaN	NaN
Hä	NaN	NaN
!	NaN	NaN
Wie	NaN	NaN
hett	NaN	NaN
dir	NaN	NaN
die	NaN	NaN
Risssubb	NaN	NaN
gschmeckt	NaN	NaN
hitt	NaN	NaN
Middaa	NaN	NaN
?	NaN	NaN
Nit	NaN	NaN
zuem	NaN	NaN
Beschte	NaN	NaN
.	NaN	NaN
Sie	NaN	NaN
het	NaN	NaN
starik	NaN	NaN
gebrenzelt	NaN	NaN
.	NaN	NaN
Haha	NaN	NaN
,	NaN	NaN
un	NaN	NaN
diss	NaN	NaN
Kinderstrüempfel	NaN	NaN
wo	NaN	NaN
drinne	NaN	NaN
gschwumme	NaN	NaN
isch	NaN	NaN
,	NaN	NaN
haha	NaN	NaN
.	NaN	NaN
Dis	NaN	NaN
hab	NaN	NaN
ich	NaN	NaN
nit	NaN	NaN
gschbanne	NaN	NaN
.	NaN	NaN
Pfüi	NaN	NaN
Deifel	NaN	NaN
.	NaN	NaN
D'r	NaN	NaN
Maischter	NaN	NaN
hett	NaN	NaN
sichs	NaN	NaN
gemüetlich	NaN	NaN
uff	NaN	NaN
d'r	NaN	NaN
Deller	NaN	NaN
g'schöpft	NaN	NaN
.	NaN	NaN
No	NaN	NaN
maant'r	NaN	NaN
annoch	NaN	NaN
:	NaN	NaN
Agath	NaN	NaN
,	NaN	NaN
ich	NaN	NaN
glaub	NaN	NaN
dü	NaN	NaN
hesch	NaN	NaN
Gänsgries	NaN	NaN
kocht	NaN	NaN
?	NaN	NaN
Haha	NaN	NaN
,	NaN	NaN
ich	NaN	NaN
hab	NaN	NaN
dich	NaN	NaN
jo	NaN	NaN
gschtupft	NaN	NaN
mit-em	NaN	NaN
Fuess	NaN	NaN
,	NaN	NaN
awer	NaN	NaN
…	NaN	NaN
Wenn	NaN	NaN
's	NaN	NaN
an	NaN	NaN
's	NaN	NaN
Esse	NaN	NaN
geht	NaN	NaN
,	NaN	NaN
kenn	NaN	NaN
ich	NaN	NaN
nix	NaN	NaN
.	NaN	NaN
Ja	NaN	NaN
zuem	NaN	NaN
Dunder	NaN	NaN
,	NaN	NaN
d'	NaN	NaN
Maischtere	NaN	NaN
isch	NaN	NaN
doch	NaN	NaN
als	NaN	NaN
Junggsel	NaN	NaN
Köche	NaN	NaN
gsin	NaN	NaN
uff	NaN	NaN
'me	NaN	NaN
grosse	NaN	NaN
Herrschaftsguet	NaN	NaN
.	NaN	NaN
Jo	NaN	NaN
siewe	NaN	NaN
Johr	NaN	NaN
hett	NaN	NaN
sie	NaN	NaN
de	NaN	NaN
Söüi	NaN	NaN
kocht	NaN	NaN
,	NaN	NaN
awer	NaN	NaN
nit	NaN	NaN
in	NaN	NaN
d'r	NaN	NaN
Herrschaft	NaN	NaN
.	NaN	NaN
Wenn	NaN	NaN
ich	NaN	NaN
so	NaN	NaN
e	NaN	NaN
Frau	NaN	NaN
hätt	NaN	NaN
,	NaN	NaN
die	NaN	NaN
dät	NaN	NaN
ich	NaN	NaN
jede	NaN	NaN
Daa	NaN	NaN
verkamisole	NaN	NaN
.	NaN	NaN
Jo	NaN	NaN
,	NaN	NaN
d'r	NaN	NaN
Maischter	NaN	NaN
isch	NaN	NaN
e	NaN	NaN
patentierter	NaN	NaN
Simpel	NaN	NaN
.	NaN	NaN
Wo	NaN	NaN
steckt'r	NaN	NaN
denn	NaN	NaN
?	NaN	NaN
Allez	NaN	NaN
,	NaN	NaN
am	NaN	NaN
heilige	NaN	NaN
Mondaa	NaN	NaN
!	NaN	NaN
Do	NaN	NaN
macht	NaN	NaN
er	NaN	NaN
e	NaN	NaN
Bierreisel	NaN	NaN
,	NaN	NaN
Commissiönle	NaN	NaN
,	NaN	NaN
kauft	NaN	NaN
Loterieloos	NaN	NaN
mit	NaN	NaN
Zahle	NaN	NaN
wo	NaN	NaN
gewinne	NaN	NaN
könnte	NaN	NaN
,	NaN	NaN
waisch	NaN	NaN
so	NaN	NaN
Loos	NaN	NaN
mit	NaN	NaN
3	NaN	NaN
,	NaN	NaN
5	NaN	NaN
,	NaN	NaN
7	NaN	NaN
,	NaN	NaN
9.	NaN	NaN
Der	NaN	NaN
verspielt	NaN	NaN
noch	NaN	NaN
d'	NaN	NaN
ganz	NaN	NaN
Büdik	NaN	NaN
.	NaN	NaN
Wenn'r	NaN	NaN
nume	NaN	NaN
sini	NaN	NaN
Alt	NaN	NaN
zerscht	NaN	NaN
verspiele	NaN	NaN
dät	NaN	NaN
,	NaN	NaN
diss	NaN	NaN
alt	NaN	NaN
Rabbyse	NaN	NaN
.	NaN	NaN
Zaj	NaN	NaN
loss	NaN	NaN
mich	NaN	NaN
au	NaN	NaN
e	NaN	NaN
bissel	NaN	NaN
fümme	NaN	NaN
.	NaN	NaN
Wart	NaN	NaN
noch	NaN	NaN
e	NaN	NaN
Schluck	NaN	NaN
—	NaN	NaN
dä	NaN	NaN
.	NaN	NaN
Dü	NaN	NaN
,	NaN	NaN
Addes	NaN	NaN
,	NaN	NaN
gescht	NaN	NaN
bin	NaN	NaN
ich	NaN	NaN
uff-em	NaN	NaN
Messti	NaN	NaN
gsin	NaN	NaN
un	NaN	NaN
hab	NaN	NaN
gedanzt	NaN	NaN
wie	NaN	NaN
e	NaN	NaN
Lumpe	NaN	NaN
am	NaN	NaN
Stecke	NaN	NaN
.	NaN	NaN
Dü	NaN	NaN
,	NaN	NaN
ächt	NaN	NaN
mit	NaN	NaN
e're	NaN	NaN
gfitzte	NaN	NaN
Schäftelmachere	NaN	NaN
,	NaN	NaN
waisch	NaN	NaN
aani	NaN	NaN
vun	NaN	NaN
unsere	NaN	NaN
Branche	NaN	NaN
.	NaN	NaN
Die	NaN	NaN
soll	NaN	NaN
mich	NaN	NaN
nit	NaN	NaN
gschlüdert	NaN	NaN
han	NaN	NaN
,	NaN	NaN
e	NaN	NaN
Dielewelter	NaN	NaN
nochemol	NaN	NaN
.	NaN	NaN
Un	NaN	NaN
wie	NaN	NaN
der	NaN	NaN
Walzer	NaN	NaN
gschbielt	NaN	NaN
isch	NaN	NaN
worre	NaN	NaN
:	NaN	NaN
«	NaN	NaN
O	NaN	NaN
Susanna	NaN	NaN
,	NaN	NaN
wie	NaN	NaN
bist	NaN	NaN
du	NaN	NaN
doch	NaN	NaN
so	NaN	NaN
schön	NaN	NaN
»	NaN	NaN
,	NaN	NaN
waisch	NaN	NaN
so	NaN	NaN
mit	NaN	NaN
,	NaN	NaN
so	NaN	NaN
ebbs	NaN	NaN
for	NaN	NaN
's	NaN	NaN
Herz	NaN	NaN
,	NaN	NaN
mit	NaN	NaN
Schwung	NaN	NaN
ah	NaN	NaN
,	NaN	NaN
au	NaN	NaN
!	NaN	NaN
Hett	NaN	NaN
dich	NaN	NaN
ebs	NaN	NaN
gschtoche	NaN	NaN
,	NaN	NaN
hä	NaN	NaN
?	NaN	NaN
Un	NaN	NaN
wie	NaN	NaN
mir	NaN	NaN
so	NaN	NaN
im	NaN	NaN
siewete	NaN	NaN
Himmel	NaN	NaN
erumbamble	NaN	NaN
,	NaN	NaN
stellt	NaN	NaN
mir	NaN	NaN
so	NaN	NaN
e	NaN	NaN
Canaille	NaN	NaN
d'r	NaN	NaN
Fuess	NaN	NaN
,	NaN	NaN
mir	NaN	NaN
burzle	NaN	NaN
anne	NaN	NaN
,	NaN	NaN
ich	NaN	NaN
schlaa	NaN	NaN
d'r	NaN	NaN
Schmecker	NaN	NaN
uff	NaN	NaN
d'r	NaN	NaN
Bodde	NaN	NaN
,	NaN	NaN
dass	NaN	NaN
ich	NaN	NaN
d'r	NaN	NaN
Himmel	NaN	NaN
for	NaN	NaN
e	NaN	NaN
Laischte	NaN	NaN
angsehne	NaN	NaN
hab	NaN	NaN
.	NaN	NaN
Haha	NaN	NaN
,	NaN	NaN
gelunge	NaN	NaN
.	NaN	NaN
Do	NaN	NaN
hesch	NaN	NaN
awer	NaN	NaN
gelinzt	NaN	NaN
,	NaN	NaN
hä	NaN	NaN
?	NaN	NaN
Un	NaN	NaN
uewerdäm	NaN	NaN
plumpse	NaN	NaN
noch	NaN	NaN
drej	NaN	NaN
Päärle	NaN	NaN
uff	NaN	NaN
uns	NaN	NaN
.	NaN	NaN
D'r	NaN	NaN
Seilschbanner	NaN	NaN
wo	NaN	NaN
grad	NaN	NaN
kummt	NaN	NaN
mit	NaN	NaN
e	NaN	NaN
me	NaN	NaN
laidsmässige	NaN	NaN
Schbrenzelhafe	NaN	NaN
,	NaN	NaN
wurd	NaN	NaN
au	NaN	NaN
mitgerisse	NaN	NaN
,	NaN	NaN
un	NaN	NaN
in	NaN	NaN
dem	NaN	NaN
Moment	NaN	NaN
bruehlt	NaN	NaN
mini	NaN	NaN
Dülcine	NaN	NaN
Mordio	NaN	NaN
,	NaN	NaN
un	NaN	NaN
der	NaN	NaN
Schbrenzelhafe	NaN	NaN
fallt	NaN	NaN
e're	NaN	NaN
mit-em	NaN	NaN
Spitze	NaN	NaN
direkt	NaN	NaN
in	NaN	NaN
's	NaN	NaN
Müül	NaN	NaN
;	NaN	NaN
sie	NaN	NaN
fangt	NaN	NaN
aan	NaN	NaN
ze	NaN	NaN
gurigle	NaN	NaN
un	NaN	NaN
wär	NaN	NaN
fascht	NaN	NaN
versoffe	NaN	NaN
,	NaN	NaN
wenn	NaN	NaN
sie	NaN	NaN
ken	NaN	NaN
so	NaN	NaN
gueter	NaN	NaN
Zugg	NaN	NaN
hätt	NaN	NaN
ghett	NaN	NaN
.	NaN	NaN
Hahaha	NaN	NaN
!	NaN	NaN
Ich	NaN	NaN
möcht	NaN	NaN
mich	NaN	NaN
wälze	NaN	NaN
.	NaN	NaN
Der	NaN	NaN
Biberon	NaN	NaN
muess	NaN	NaN
e're	NaN	NaN
gschmeckt	NaN	NaN
han	NaN	NaN
.	NaN	NaN
Annoch	NaN	NaN
!	NaN	NaN
Wie	NaN	NaN
der	NaN	NaN
Klumpe	NaN	NaN
luefti	NaN	NaN
isch	NaN	NaN
worre	NaN	NaN
,	NaN	NaN
hab	NaN	NaN
ich	NaN	NaN
mini	NaN	NaN
Dänzere	NaN	NaN
uff	NaN	NaN
d'	NaN	NaN
Baan	NaN	NaN
gschtellt	NaN	NaN
wie	NaN	NaN
e	NaN	NaN
Holzbubb	NaN	NaN
,	NaN	NaN
un	NaN	NaN
üewerdem	NaN	NaN
verliert	NaN	NaN
sie	NaN	NaN
e	NaN	NaN
paar	NaN	NaN
falschi	NaN	NaN
Locke	NaN	NaN
.	NaN	NaN
Ich	NaN	NaN
muess	NaN	NaN
halt	NaN	NaN
lache	NaN	NaN
wie	NaN	NaN
verruckt	NaN	NaN
un	NaN	NaN
wie	NaN	NaN
ich	NaN	NaN
ihri	NaN	NaN
wiss	NaN	NaN
Blouse	NaN	NaN
:	NaN	NaN
betracht	NaN	NaN
,	NaN	NaN
muess	NaN	NaN
ich	NaN	NaN
noch	NaN	NaN
meh	NaN	NaN
lache	NaN	NaN
.	NaN	NaN
Worum	NaN	NaN
?	NaN	NaN
—	NaN	NaN
Pfüi	NaN	NaN
isch	NaN	NaN
der	NaN	NaN
bout	NaN	NaN
räs	NaN	NaN
.	NaN	NaN
Ei	NaN	NaN
ihri	NaN	NaN
Blouse	NaN	NaN
isch	NaN	NaN
rot	NaN	NaN
gedüepfelt	NaN	NaN
gsin	NaN	NaN
,	NaN	NaN
vun	NaN	NaN
minere	NaN	NaN
bluetige	NaN	NaN
Nas	NaN	NaN
,	NaN	NaN
un	NaN	NaN
wie	NaN	NaN
ich	NaN	NaN
so	NaN	NaN
lach	NaN	NaN
,	NaN	NaN
bekumm	NaN	NaN
ich	NaN	NaN
vun	NaN	NaN
dere	NaN	NaN
Jumpfer	NaN	NaN
aani	NaN	NaN
an	NaN	NaN
de	NaN	NaN
Backe	NaN	NaN
,	NaN	NaN
dass	NaN	NaN
mir	NaN	NaN
d'	NaN	NaN
Scharnierle	NaN	NaN
krache	NaN	NaN
.	NaN	NaN
Aa	NaN	NaN
so	NaN	NaN
,	NaN	NaN
saa	NaN	NaN
ich	NaN	NaN
:	NaN	NaN
Dü	NaN	NaN
cheval	NaN	NaN
de	NaN	NaN
carosse	NaN	NaN
,	NaN	NaN
un	NaN	NaN
hab	NaN	NaN
e're	NaN	NaN
e	NaN	NaN
feschti	NaN	NaN
in	NaN	NaN
's	NaN	NaN
Gnick	NaN	NaN
g'schlawe	NaN	NaN
.	NaN	NaN
No	NaN	NaN
hättsch	NaN	NaN
awer	NaN	NaN
sotte	NaN	NaN
sehne	NaN	NaN
Sechs	NaN	NaN
Händ	NaN	NaN
gschbier	NaN	NaN
ich	NaN	NaN
am	NaN	NaN
Hals	NaN	NaN
,	NaN	NaN
es	NaN	NaN
räjt	NaN	NaN
Füschte	NaN	NaN
-	NaN	NaN
paschtete	NaN	NaN
,	NaN	NaN
Tritt	NaN	NaN
,	NaN	NaN
Tüer	NaN	NaN
uff	NaN	NaN
—	NaN	NaN
üewer	NaN	NaN
d'	NaN	NaN
Stross	NaN	NaN
gflöüje	NaN	NaN
saa	NaN	NaN
ich	NaN	NaN
dir	NaN	NaN
,	NaN	NaN
mit-em	NaN	NaN
.	NaN	NaN
Kopf	NaN	NaN
zwische	NaN	NaN
zwai	NaN	NaN
Gartelatte	NaN	NaN
nyngfahre	NaN	NaN
,	NaN	NaN
isch	NaN	NaN
eins	NaN	NaN
gsin	NaN	NaN
,	NaN	NaN
un	NaN	NaN
als	NaN	NaN
uff	NaN	NaN
mich	NaN	NaN
los	NaN	NaN
gebengelt	NaN	NaN
;	NaN	NaN
ich	NaN	NaN
hab	NaN	NaN
e	NaN	NaN
Fackelzugg	NaN	NaN
im	NaN	NaN
Schwarzwald	NaN	NaN
gsehne	NaN	NaN
.	NaN	NaN
—	NaN	NaN
O	NaN	NaN
mini	NaN	NaN
Ribbe	NaN	NaN
,	NaN	NaN
un	NaN	NaN
,	NaN	NaN
un	NaN	NaN
—	NaN	NaN
der	NaN	NaN
do	NaN	NaN
hinte	NaN	NaN
duet	NaN	NaN
mer	NaN	NaN
so	NaN	NaN
weh	NaN	NaN
.	NaN	NaN
Mim	NaN	NaN
Lebdesdaa	NaN	NaN
geh	NaN	NaN
ich	NaN	NaN
uff	NaN	NaN
kene	NaN	NaN
Danz	NaN	NaN
meh	NaN	NaN
.	NaN	NaN
In	NaN	NaN
dim	NaN	NaN
Lädder	NaN	NaN
hätt	NaN	NaN
ich	NaN	NaN
nit	NaN	NaN
wotte	NaN	NaN
stecke	NaN	NaN
.	NaN	NaN
E	NaN	NaN
gschwollener	NaN	NaN
Riecher	NaN	NaN
,	NaN	NaN
verschundeni	NaN	NaN
Krüttblätter	NaN	NaN
,	NaN	NaN
un	NaN	NaN
ich	NaN	NaN
glaab	NaN	NaN
dü	NaN	NaN
hesch	NaN	NaN
sogar	NaN	NaN
noch	NaN	NaN
e	NaN	NaN
blöüjs	NaN	NaN
Fenschter	NaN	NaN
do	NaN	NaN
.	NaN	NaN
Hahaha	NaN	NaN
!	NaN	NaN
Zipfel	NaN	NaN
,	NaN	NaN
was	NaN	NaN
lachsch	NaN	NaN
so	NaN	NaN
dumm	NaN	NaN
?	NaN	NaN
Bie	NaN	NaN
so	NaN	NaN
e're	NaN	NaN
Fuehr	NaN	NaN
hielt	NaN	NaN
mer	NaN	NaN
nit	NaN	NaN
.	NaN	NaN
Dü	NaN	NaN
üewerzweriger	NaN	NaN
Stuehlhooger	NaN	NaN
,	NaN	NaN
ich	NaN	NaN
find	NaN	NaN
nix	NaN	NaN
lächerlichs	NaN	NaN
d'	NaN	NaN
rbie	NaN	NaN
.	NaN	NaN
Dich	NaN	NaN
han	NaN	NaN
sie	NaN	NaN
doppelt	NaN	NaN
gsohlt	NaN	NaN
,	NaN	NaN
gerüeschtert	NaN	NaN
un	NaN	NaN
vorgschueht	NaN	NaN
in	NaN	NaN
aam	NaN	NaN
Düür	NaN	NaN
.	NaN	NaN
Jaja	NaN	NaN
,	NaN	NaN
Eddes	NaN	NaN
,	NaN	NaN
«	NaN	NaN
die	NaN	NaN
Liebe	NaN	NaN
,	NaN	NaN
die	NaN	NaN
Liebe	NaN	NaN
hat	NaN	NaN
manches	NaN	NaN
schon	NaN	NaN
getan	NaN	NaN
»	NaN	NaN
.	NaN	NaN
Haha	NaN	NaN
.	NaN	NaN
Wenn	NaN	NaN
dü	NaN	NaN
jetz	NaN	NaN
nochemol	NaN	NaN
lachsch	NaN	NaN
,	NaN	NaN
werf	NaN	NaN
ich	NaN	NaN
dir	NaN	NaN
e	NaN	NaN
Portion	NaN	NaN
Bodin	NaN	NaN
an	NaN	NaN
de	NaN	NaN
Deide	NaN	NaN
.	NaN	NaN
Geh	NaN	NaN
,	NaN	NaN
mit	NaN	NaN
dir	NaN	NaN
nämm	NaN	NaN
ich	NaN	NaN
's	NaN	NaN
noch	NaN	NaN
uff	NaN	NaN
.	NaN	NaN
Was	NaN	NaN
,	NaN	NaN
dü	NaN	NaN
Häriseel	NaN	NaN
.	NaN	NaN
Dich	NaN	NaN
pack	NaN	NaN
ich	NaN	NaN
wie	NaN	NaN
e	NaN	NaN
Pfund	NaN	NaN
Lumpe	NaN	NaN
.	NaN	NaN
Kumm	NaN	NaN
here	NaN	NaN
,	NaN	NaN
kumm	NaN	NaN
,	NaN	NaN
box	NaN	NaN
,	NaN	NaN
caune	NaN	NaN
,	NaN	NaN
chauson	NaN	NaN
.	NaN	NaN
Au	NaN	NaN
,	NaN	NaN
halt	NaN	NaN
!	NaN	NaN
Gell	NaN	NaN
Männel	NaN	NaN
!	NaN	NaN
Was	NaN	NaN
Güxels	NaN	NaN
,	NaN	NaN
was	NaN	NaN
hesch	NaN	NaN
,	NaN	NaN
haha	NaN	NaN
,	NaN	NaN
het	NaN	NaN
der	NaN	NaN
Mensch	NaN	NaN
e	NaN	NaN
Kisse	NaN	NaN
hinte	NaN	NaN
angebunde	NaN	NaN
.	NaN	NaN
Aha	NaN	NaN
,	NaN	NaN
ich	NaN	NaN
versteh	NaN	NaN
—	NaN	NaN
es	NaN	NaN
isch	NaN	NaN
wäje	NaN	NaN
dere	NaN	NaN
Glanzwichs	NaN	NaN
.	NaN	NaN
Jetz	NaN	NaN
hab	NaN	NaN
ich	NaN	NaN
genue	NaN	NaN
!	NaN	NaN
Bscht	NaN	NaN
!	NaN	NaN
Es	NaN	NaN
kummt	NaN	NaN
ebber	NaN	NaN
.	NaN	NaN
Buschur	NaN	NaN
biesamme	NaN	NaN
.	NaN	NaN
Schaköbel	NaN	NaN
wie	NaN	NaN
sööt	NaN	NaN
mer	NaN	NaN
?	NaN	NaN
Buschur	NaN	NaN
ihr	NaN	NaN
Härre	NaN	NaN
.	NaN	NaN
Bonjour	NaN	NaN
.	NaN	NaN
Isch	NaN	NaN
d'r	NaN	NaN
Mäischter	NaN	NaN
Drohtspitz	NaN	NaN
d'	NaN	NaN
häime	NaN	NaN
?	NaN	NaN
Brüche	NaN	NaN
mir	NaN	NaN
e	NaN	NaN
Maischter	NaN	NaN
wenn	NaN	NaN
mir	NaN	NaN
gsund	NaN	NaN
sin	NaN	NaN
?	NaN	NaN
Do	NaN	NaN
hab	NaN	NaN
ech	NaN	NaN
miner	NaN	NaN
Bueä	NaN	NaN
.	NaN	NaN
D'	NaN	NaN
Miaädder	NaN	NaN
isch	NaN	NaN
om	NaN	NaN
Zischdi	NaN	NaN
schun	NaN	NaN
dogewänn	NaN	NaN
.	NaN	NaN
Er	NaN	NaN
will	NaN	NaN
pardü	NaN	NaN
Schuehmachermäischter	NaN	NaN
wäre	NaN	NaN
.	NaN	NaN
Soso	NaN	NaN
!	NaN	NaN
Na	NaN	NaN
,	NaN	NaN
diss	NaN	NaN
kan'r	NaN	NaN
bie	NaN	NaN
uns	NaN	NaN
wäre	NaN	NaN
.	NaN	NaN
Wie	NaN	NaN
haisch	NaN	NaN
denn	NaN	NaN
Männel	NaN	NaN
?	NaN	NaN
Schaköbel	NaN	NaN
Bieäräschnitz	NaN	NaN
,	NaN	NaN
Härr	NaN	NaN
Mäischter	NaN	NaN
.	NaN	NaN
So	NaN	NaN
isch	NaN	NaN
erächt	NaN	NaN
.	NaN	NaN
Nume	NaN	NaN
nit	NaN	NaN
verschrocke	NaN	NaN
.	NaN	NaN
Er	NaN	NaN
het	NaN	NaN
e	NaN	NaN
gschiede	NaN	NaN
Kopf	NaN	NaN
,	NaN	NaN
d'r	NaN	NaN
Schaköbel	NaN	NaN
.	NaN	NaN
Mer	NaN	NaN
sieht	NaN	NaN
's-	NaN	NaN
em	NaN	NaN
aan	NaN	NaN
,	NaN	NaN
dass'r	NaN	NaN
e	NaN	NaN
gscheider	NaN	NaN
Vadder	NaN	NaN
het	NaN	NaN
.	NaN	NaN
Diss	NaN	NaN
will	NaN	NaN
ich	NaN	NaN
määne	NaN	NaN
.	NaN	NaN
Ech	NaN	NaN
bin	NaN	NaN
in	NaN	NaN
d'r	NaN	NaN
Schuel	NaN	NaN
allewiel	NaN	NaN
in	NaN	NaN
d'r	NaN	NaN
erschte	NaN	NaN
Bank	NaN	NaN
gsässe	NaN	NaN
.	NaN	NaN
Wenn	NaN	NaN
mer	NaN	NaN
hinte	NaN	NaN
anfangt	NaN	NaN
,	NaN	NaN
gelle	NaN	NaN
?	NaN	NaN
Wie	NaN	NaN
määne	NaN	NaN
n'r	NaN	NaN
?	NaN	NaN
D'r	NaN	NaN
Schaköbel	NaN	NaN
het	NaN	NaN
ken	NaN	NaN
Wasser	NaN	NaN
im	NaN	NaN
Kopf	NaN	NaN
,	NaN	NaN
hab	NaN	NaN
ich	NaN	NaN
gsaat	NaN	NaN
.	NaN	NaN
Zäll	NaN	NaN
will	NaN	NaN
ich	NaN	NaN
määne	NaN	NaN
.	NaN	NaN
Vadder	NaN	NaN
Schakob	NaN	NaN
,	NaN	NaN
Ihr	NaN	NaN
könne	NaN	NaN
Euch	NaN	NaN
druff	NaN	NaN
verlonn	NaN	NaN
,	NaN	NaN
Euerer	NaN	NaN
Schaköbel	NaN	NaN
wurd	NaN	NaN
e	NaN	NaN
Schuehküenschtler	NaN	NaN
Nummer	NaN	NaN
pfiff	NaN	NaN
.	NaN	NaN
Un	NaN	NaN
wann'r	NaN	NaN
nit	NaN	NaN
horicht	NaN	NaN
,	NaN	NaN
ziwle	NaN	NaN
n'	NaN	NaN
em	NaN	NaN
härzhaft	NaN	NaN
d'	NaN	NaN
Ohre	NaN	NaN
.	NaN	NaN
's	NaN	NaN
wurd	NaN	NaN
bsorjt	NaN	NaN
,	NaN	NaN
ken	NaN	NaN
Angscht	NaN	NaN
.	NaN	NaN
Un	NaN	NaN
wisse	NaN	NaN
n'r	NaN	NaN
,	NaN	NaN
dass	NaN	NaN
d'r	NaN	NaN
Schaköbel	NaN	NaN
besser	NaN	NaN
lehrt	NaN	NaN
,	NaN	NaN
schicke	NaN	NaN
als	NaN	NaN
ebbs	NaN	NaN
vun	NaN	NaN
e're	NaN	NaN
Söüi	NaN	NaN
—	NaN	NaN
e	NaN	NaN
Schambingel	NaN	NaN
,	NaN	NaN
odder	NaN	NaN
e	NaN	NaN
Köjelhupf	NaN	NaN
,	NaN	NaN
verstehn'r	NaN	NaN
?	NaN	NaN
Diss	NaN	NaN
selle	NaN	NaN
Ihr	NaN	NaN
hön	NaN	NaN
,	NaN	NaN
wann	NaN	NaN
numme	NaN	NaN
d'r	NaN	NaN
Schaköbel	NaN	NaN
eracht	NaN	NaN
wurd	NaN	NaN
.	NaN	NaN
Ich	NaN	NaN
garantier	NaN	NaN
Euch	NaN	NaN
d'	NaN	NaN
rfor	NaN	NaN
,	NaN	NaN
er	NaN	NaN
wurd	NaN	NaN
guet	NaN	NaN
.	NaN	NaN
—	NaN	NaN
Noch	NaN	NaN
ebbs	NaN	NaN
.	NaN	NaN
Sehn'r	NaN	NaN
,	NaN	NaN
so	NaN	NaN
e	NaN	NaN
Ding	NaN	NaN
wie	NaN	NaN
ich	NaN	NaN
aan	NaN	NaN
hab	NaN	NaN
,	NaN	NaN
muehn'r	NaN	NaN
im	NaN	NaN
Schaköbel	NaN	NaN
kaufe	NaN	NaN
.	NaN	NaN
Wisse	NaN	NaN
n'r	NaN	NaN
,	NaN	NaN
es	NaN	NaN
isch	NaN	NaN
wäje	NaN	NaN
de	NaN	NaN
Kräjenaue	NaN	NaN
.	NaN	NaN
Vodder	NaN	NaN
!	NaN	NaN
Vodder	NaN	NaN
!	NaN	NaN
Stille	NaN	NaN
!	NaN	NaN
Was	NaN	NaN
galt	NaN	NaN
so	NaN	NaN
e	NaN	NaN
Sitz	NaN	NaN
?	NaN	NaN
Ha	NaN	NaN
,	NaN	NaN
Aepfel	NaN	NaN
.	NaN	NaN
Vodder	NaN	NaN
!	NaN	NaN
Vodder	NaN	NaN
!	NaN	NaN
Sei	NaN	NaN
nit	NaN	NaN
so	NaN	NaN
vorwitzig	NaN	NaN
.	NaN	NaN
Was	NaN	NaN
galt	NaN	NaN
so	NaN	NaN
e	NaN	NaN
Sitz	NaN	NaN
?	NaN	NaN
Ho	NaN	NaN
,	NaN	NaN
's	NaN	NaN
isch	NaN	NaN
unterschiedlich	NaN	NaN
.	NaN	NaN
Der	NaN	NaN
kummt	NaN	NaN
direkt	NaN	NaN
vun	NaN	NaN
Paris	NaN	NaN
.	NaN	NaN
Awer	NaN	NaN
wil	NaN	NaN
Ihr	NaN	NaN
's	NaN	NaN
sin	NaN	NaN
,	NaN	NaN
na	NaN	NaN
zwanzig	NaN	NaN
Franke	NaN	NaN
.	NaN	NaN
Könne	NaN	NaN
Ihr	NaN	NaN
's	NaN	NaN
nit	NaN	NaN
billiger	NaN	NaN
gänn	NaN	NaN
?	NaN	NaN
Leider	NaN	NaN
nit	NaN	NaN
min	NaN	NaN
Liewer	NaN	NaN
.	NaN	NaN
Prix	NaN	NaN
fixe	NaN	NaN
!	NaN	NaN
Ech	NaN	NaN
mään	NaN	NaN
d'r	NaN	NaN
Schaköbel	NaN	NaN
bringt	NaN	NaN
's	NaN	NaN
ellään	NaN	NaN
ferdig	NaN	NaN
mit	NaN	NaN
sim	NaN	NaN
Sitzlädder	NaN	NaN
.	NaN	NaN
Ja	NaN	NaN
,	NaN	NaN
ech	NaN	NaN
will	NaN	NaN
jetz	NaN	NaN
gehn	NaN	NaN
.	NaN	NaN
Sei	NaN	NaN
brov	NaN	NaN
,	NaN	NaN
Schaköbel	NaN	NaN
,	NaN	NaN
am	NaN	NaN
nächschte	NaN	NaN
Friddi	NaN	NaN
kumm	NaN	NaN
ech	NaN	NaN
widder	NaN	NaN
.	NaN	NaN
Jo	NaN	NaN
Vodder	NaN	NaN
,	NaN	NaN
d'	NaN	NaN
Mieäder	NaN	NaN
sell	NaN	NaN
ö	NaN	NaN
mitkumme	NaN	NaN
,	NaN	NaN
galle	NaN	NaN
.	NaN	NaN
Jo	NaN	NaN
dänn	NaN	NaN
.	NaN	NaN
Adje	NaN	NaN
Schaköbel	NaN	NaN
.	NaN	NaN
Adje	NaN	NaN
Ihr	NaN	NaN
Harre	NaN	NaN
.	NaN	NaN
Was	NaN	NaN
hesch	NaN	NaN
ze	NaN	NaN
suttere	NaN	NaN
?	NaN	NaN
Diner	NaN	NaN
Vadder	NaN	NaN
geht	NaN	NaN
zue	NaN	NaN
d'r	NaN	NaN
Mieädder	NaN	NaN
.	NaN	NaN
—	NaN	NaN
Dü	NaN	NaN
,	NaN	NaN
Addes	NaN	NaN
,	NaN	NaN
er	NaN	NaN
het	NaN	NaN
nit	NaN	NaN
angebisse	NaN	NaN
.	NaN	NaN
Schad	NaN	NaN
!	NaN	NaN
Der	NaN	NaN
Büür	NaN	NaN
schient	NaN	NaN
nit	NaN	NaN
vun	NaN	NaN
Dummkirich	NaN	NaN
ze	NaN	NaN
sin	NaN	NaN
.	NaN	NaN
Awer	NaN	NaN
sini	NaN	NaN
Aepfel	NaN	NaN
han	NaN	NaN
mer-em	NaN	NaN
geraant	NaN	NaN
.	NaN	NaN
Schaköbel	NaN	NaN
,	NaN	NaN
setz	NaN	NaN
dich	NaN	NaN
do	NaN	NaN
here	NaN	NaN
un	NaN	NaN
klopf	NaN	NaN
mer	NaN	NaN
diss	NaN	NaN
Rossledder	NaN	NaN
waich	NaN	NaN
.	NaN	NaN
Siehsch	NaN	NaN
so	NaN	NaN
wurd	NaN	NaN
's	NaN	NaN
gemacht	NaN	NaN
.	NaN	NaN
—	NaN	NaN
Kannsch	NaN	NaN
au	NaN	NaN
Kartes	NaN	NaN
spiele	NaN	NaN
?	NaN	NaN
Nä	NaN	NaN
,	NaN	NaN
ower	NaN	NaN
Nienerstänels	NaN	NaN
un	NaN	NaN
Schworzepeterles	NaN	NaN
.	NaN	NaN
Ha	NaN	NaN
,	NaN	NaN
saftigi	NaN	NaN
Renette	NaN	NaN
.	NaN	NaN
—	NaN	NaN
Schaköbel	NaN	NaN
,	NaN	NaN
klopf	NaN	NaN
,	NaN	NaN
klopf	NaN	NaN
!	NaN	NaN
Saftigi	NaN	NaN
Renette	NaN	NaN
.	NaN	NaN
Hehehe	NaN	NaN
!	NaN	NaN
Werum	NaN	NaN
lachsch	NaN	NaN
denn	NaN	NaN
so	NaN	NaN
dumm	NaN	NaN
?	NaN	NaN
Ei	NaN	NaN
gück	NaN	NaN
do	NaN	NaN
,	NaN	NaN
der	NaN	NaN
Apfeldieb	NaN	NaN
.	NaN	NaN
Addes	NaN	NaN
,	NaN	NaN
gib	NaN	NaN
denne	NaN	NaN
Apfel	NaN	NaN
her	NaN	NaN
.	NaN	NaN
Ich	NaN	NaN
saa	NaN	NaN
dir	NaN	NaN
's	NaN	NaN
in	NaN	NaN
Güetem	NaN	NaN
.	NaN	NaN
Nix	NaN	NaN
ze	NaN	NaN
mache	NaN	NaN
.	NaN	NaN
Hehehe	NaN	NaN
!	NaN	NaN
Na	NaN	NaN
wart	NaN	NaN
,	NaN	NaN
dich	NaN	NaN
box	NaN	NaN
ich	NaN	NaN
zamme	NaN	NaN
,	NaN	NaN
das	NaN	NaN
dir	NaN	NaN
Höre	NaN	NaN
un	NaN	NaN
Sehn	NaN	NaN
vergeht	NaN	NaN
.	NaN	NaN
Ah	NaN	NaN
,	NaN	NaN
dü	NaN	NaN
witt	NaN	NaN
mich	NaN	NaN
zammeboxe	NaN	NaN
!	NaN	NaN
Kumm	NaN	NaN
here	NaN	NaN
,	NaN	NaN
ich	NaN	NaN
bin	NaN	NaN
gerüescht	NaN	NaN
.	NaN	NaN
Schaköbel	NaN	NaN
bass	NaN	NaN
uff	NaN	NaN
,	NaN	NaN
do	NaN	NaN
kannsch	NaN	NaN
ebbs	NaN	NaN
lehre	NaN	NaN
.	NaN	NaN
Wenn	NaN	NaN
d'r	NaN	NaN
Addes	NaN	NaN
bluetig	NaN	NaN
uff-em	NaN	NaN
Bodde	NaN	NaN
lejt	NaN	NaN
,	NaN	NaN
no	NaN	NaN
zählsch	NaN	NaN
langsam	NaN	NaN
bis	NaN	NaN
uff	NaN	NaN
zehn	NaN	NaN
,	NaN	NaN
un	NaN	NaN
wenn'r	NaN	NaN
nimmi	NaN	NaN
uffsteht	NaN	NaN
,	NaN	NaN
ischr	NaN	NaN
knock-out	NaN	NaN
.	NaN	NaN
Ja	NaN	NaN
isch'r	NaN	NaN
derno	NaN	NaN
füddi	NaN	NaN
?	NaN	NaN
Numme	NaN	NaN
halwer	NaN	NaN
.	NaN	NaN
Er	NaN	NaN
hat	NaN	NaN
's	NaN	NaN
Nasebaan	NaN	NaN
gebroche	NaN	NaN
,	NaN	NaN
sechs	NaN	NaN
Zähn	NaN	NaN
fehle	NaN	NaN
n'	NaN	NaN
em	NaN	NaN
,	NaN	NaN
un	NaN	NaN
het	NaN	NaN
e	NaN	NaN
verheiti	NaN	NaN
Kinnlad	NaN	NaN
.	NaN	NaN
Nänä	NaN	NaN
,	NaN	NaN
so	NaN	NaN
Sache	NaN	NaN
kann	NaN	NaN
ech	NaN	NaN
nit	NaN	NaN
sähne	NaN	NaN
.	NaN	NaN
Kumm	NaN	NaN
numme	NaN	NaN
her	NaN	NaN
dü	NaN	NaN
Grossmüül	NaN	NaN
,	NaN	NaN
dich	NaN	NaN
will	NaN	NaN
ich	NaN	NaN
kinnlade	NaN	NaN
.	NaN	NaN
Da	NaN	NaN
do	NaN	NaN
hesch	NaN	NaN
!	NaN	NaN
Un	NaN	NaN
die	NaN	NaN
sitzt	NaN	NaN
!	NaN	NaN
Auweh	NaN	NaN
,	NaN	NaN
harrjeh	NaN	NaN
.	NaN	NaN
Un	NaN	NaN
die	NaN	NaN
saftig	NaN	NaN
Renette	NaN	NaN
schlucksch	NaN	NaN
.	NaN	NaN
Bing	NaN	NaN
!	NaN	NaN
Bonjour	NaN	NaN
Messieurs	NaN	NaN
,	NaN	NaN
Mäischter	NaN	NaN
,	NaN	NaN
do	NaN	NaN
steht	NaN	NaN
Aener	NaN	NaN
.	NaN	NaN
Ar	NaN	NaN
het	NaN	NaN
e	NaN	NaN
Glasschieb	NaN	NaN
im	NaN	NaN
Oeüj	NaN	NaN
!	NaN	NaN
Loss	NaN	NaN
'ne	NaN	NaN
stehn	NaN	NaN
.	NaN	NaN
Bonjour	NaN	NaN
Messieurs	NaN	NaN
.	NaN	NaN
A	NaN	NaN
,	NaN	NaN
bonjour	NaN	NaN
im	NaN	NaN
Herre	NaN	NaN
.	NaN	NaN
Mit	NaN	NaN
was	NaN	NaN
könnt	NaN	NaN
mer	NaN	NaN
Ihne	NaN	NaN
diene	NaN	NaN
?	NaN	NaN
MIRLITON	NaN	NaN
Xavier	NaN	NaN
Mirliton	NaN	NaN
,	NaN	NaN
rentier	NaN	NaN
.	NaN	NaN
Ich	NaN	NaN
hab	NaN	NaN
g'hört	NaN	NaN
,	NaN	NaN
dass	NaN	NaN
bie	NaN	NaN
Ihne	NaN	NaN
elegant	NaN	NaN
gschafft	NaN	NaN
wurd	NaN	NaN
.	NaN	NaN
Hors	NaN	NaN
concour	NaN	NaN
,	NaN	NaN
Monsieur	NaN	NaN
.	NaN	NaN
Sechs	NaN	NaN
goldigi	NaN	NaN
Medaille	NaN	NaN
.	NaN	NaN
Très	NaN	NaN
bien	NaN	NaN
.	NaN	NaN
Je	NaN	NaN
voudrais	NaN	NaN
commander	NaN	NaN
une	NaN	NaN
demi	NaN	NaN
douzaine	NaN	NaN
de	NaN	NaN
chaussures	NaN	NaN
en	NaN	NaN
box-calf	NaN	NaN
extra-fine	NaN	NaN
,	NaN	NaN
et	NaN	NaN
alors	NaN	NaN
deux	NaN	NaN
paires	NaN	NaN
de	NaN	NaN
pantouffles	NaN	NaN
.	NaN	NaN
Avec	NaN	NaN
des	NaN	NaN
Schnällele	NaN	NaN
dran	NaN	NaN
?	NaN	NaN
Non	NaN	NaN
pas	NaN	NaN
des	NaN	NaN
Schnällele	NaN	NaN
.	NaN	NaN
Schaköbel	NaN	NaN
,	NaN	NaN
lang	NaN	NaN
e	NaN	NaN
Stuehl	NaN	NaN
here	NaN	NaN
.	NaN	NaN
Hucke	NaN	NaN
Sie	NaN	NaN
do	NaN	NaN
anne	NaN	NaN
,	NaN	NaN
Monsieur	NaN	NaN
Dürlüdü	NaN	NaN
.	NaN	NaN
Ich	NaN	NaN
will	NaN	NaN
'ne	NaN	NaN
glich	NaN	NaN
's	NaN	NaN
Mess	NaN	NaN
näme	NaN	NaN
,	NaN	NaN
Schaköbel	NaN	NaN
,	NaN	NaN
hol	NaN	NaN
zell	NaN	NaN
Büechel	NaN	NaN
uff	NaN	NaN
d'r	NaN	NaN
Werikbank	NaN	NaN
,	NaN	NaN
dass	NaN	NaN
d'	NaN	NaN
ebbs	NaN	NaN
lehrsch	NaN	NaN
,	NaN	NaN
un	NaN	NaN
zeihj	NaN	NaN
dem	NaN	NaN
Herr	NaN	NaN
d'r	NaN	NaN
Bodin	NaN	NaN
üss	NaN	NaN
,	NaN	NaN
awer	NaN	NaN
sachte	NaN	NaN
.	NaN	NaN
Schick	NaN	NaN
dich	NaN	NaN
e	NaN	NaN
bissele	NaN	NaN
,	NaN	NaN
leste	NaN	NaN
.	NaN	NaN
Eju	NaN	NaN
dann	NaN	NaN
.	NaN	NaN
Gänn	NaN	NaN
Sie	NaN	NaN
doch	NaN	NaN
acht	NaN	NaN
jeune	NaN	NaN
homme	NaN	NaN
,	NaN	NaN
ich	NaN	NaN
bin	NaN	NaN
arig	NaN	NaN
dificile	NaN	NaN
.	NaN	NaN
Dü	NaN	NaN
maansch	NaN	NaN
glab	NaN	NaN
hebsch	NaN	NaN
e	NaN	NaN
'n	NaN	NaN
Ochs	NaN	NaN
am	NaN	NaN
Hinterfüess	NaN	NaN
,	NaN	NaN
dü	NaN	NaN
Dollweck	NaN	NaN
.	NaN	NaN
Hihihi	NaN	NaN
,	NaN	NaN
hühü	NaN	NaN
.	NaN	NaN
Er	NaN	NaN
kritzelt	NaN	NaN
mich	NaN	NaN
.	NaN	NaN
Pack	NaN	NaN
dich	NaN	NaN
.	NaN	NaN
Denne	NaN	NaN
Dirmel	NaN	NaN
kann	NaN	NaN
mer	NaN	NaN
for	NaN	NaN
nix	NaN	NaN
brüche	NaN	NaN
.	NaN	NaN
Hesch	NaN	NaN
's	NaN	NaN
Büechel	NaN	NaN
?	NaN	NaN
Schrieb	NaN	NaN
uff	NaN	NaN
was	NaN	NaN
ich	NaN	NaN
dir	NaN	NaN
saa	NaN	NaN
,	NaN	NaN
O	NaN	NaN
was	NaN	NaN
han	NaN	NaN
Sie	NaN	NaN
e	NaN	NaN
nätts	NaN	NaN
Füessel	NaN	NaN
,	NaN	NaN
Monsieur	NaN	NaN
,	NaN	NaN
grad	NaN	NaN
wie	NaN	NaN
e	NaN	NaN
Hewammehändel	NaN	NaN
.	NaN	NaN
Schaköbel	NaN	NaN
schrieb	NaN	NaN
:	NaN	NaN
45	NaN	NaN
—	NaN	NaN
un	NaN	NaN
30	NaN	NaN
üewer	NaN	NaN
d'r	NaN	NaN
Reje	NaN	NaN
,	NaN	NaN
un	NaN	NaN
25	NaN	NaN
—	NaN	NaN
un	NaN	NaN
12	NaN	NaN
—	NaN	NaN
un	NaN	NaN
10	NaN	NaN
—	NaN	NaN
halt	NaN	NaN
nit	NaN	NaN
10	NaN	NaN
—	NaN	NaN
13.	NaN	NaN
So	NaN	NaN
,	NaN	NaN
Monsieur	NaN	NaN
,	NaN	NaN
's	NaN	NaN
isch	NaN	NaN
g'schehne	NaN	NaN
.	NaN	NaN
Wenn	NaN	NaN
kann	NaN	NaN
ich	NaN	NaN
uff	NaN	NaN
d'	NaN	NaN
Lifferung	NaN	NaN
zähle	NaN	NaN
?	NaN	NaN
So	NaN	NaN
ball	NaN	NaN
wie	NaN	NaN
möjlich	NaN	NaN
.	NaN	NaN
Schaköbel	NaN	NaN
,	NaN	NaN
helf	NaN	NaN
dem	NaN	NaN
Herr	NaN	NaN
d'r	NaN	NaN
Schueh	NaN	NaN
anduehn	NaN	NaN
.	NaN	NaN
Merci	NaN	NaN
,	NaN	NaN
's	NaN	NaN
geht	NaN	NaN
besser	NaN	NaN
ellaan	NaN	NaN
.	NaN	NaN
Eh	NaN	NaN
bien	NaN	NaN
,	NaN	NaN
in	NaN	NaN
acht	NaN	NaN
Daa	NaN	NaN
denk	NaN	NaN
ich	NaN	NaN
.	NaN	NaN
Wie	NaN	NaN
Sie	NaN	NaN
maane	NaN	NaN
.	NaN	NaN
Bonjour	NaN	NaN
.	NaN	NaN
Bonjour	NaN	NaN
Monsieur	NaN	NaN
Dürlüdü	NaN	NaN
.	NaN	NaN
Was	NaN	NaN
diss	NaN	NaN
Renntier	NaN	NaN
sich	NaN	NaN
for	NaN	NaN
e	NaN	NaN
fromage	NaN	NaN
gibt	NaN	NaN
.	NaN	NaN
Dü	NaN	NaN
,	NaN	NaN
Eddes	NaN	NaN
,	NaN	NaN
dem	NaN	NaN
Kerl	NaN	NaN
mache	NaN	NaN
mer	NaN	NaN
Schueh	NaN	NaN
üss	NaN	NaN
Elefanteledder	NaN	NaN
.	NaN	NaN
Schaköbel	NaN	NaN
,	NaN	NaN
diss	NaN	NaN
Büechel	NaN	NaN
here	NaN	NaN
.	NaN	NaN
—	NaN	NaN
Wie	NaN	NaN
,	NaN	NaN
ja	NaN	NaN
—	NaN	NaN
dich	NaN	NaN
solle	NaN	NaN
d'	NaN	NaN
Ente	NaN	NaN
vertrette	NaN	NaN
,	NaN	NaN
dü	NaN	NaN
hesch	NaN	NaN
jo	NaN	NaN
gar	NaN	NaN
nix	NaN	NaN
gschriewe	NaN	NaN
!	NaN	NaN
Hab	NaN	NaN
ich	NaN	NaN
dir	NaN	NaN
nit	NaN	NaN
gsaat	NaN	NaN
dü	NaN	NaN
—	NaN	NaN
e	NaN	NaN
fitzekapores	NaN	NaN
!	NaN	NaN
Ja	NaN	NaN
kannsch	NaN	NaN
denn	NaN	NaN
dü	NaN	NaN
nit	NaN	NaN
schriewe	NaN	NaN
?	NaN	NaN
Doch	NaN	NaN
,	NaN	NaN
ower	NaN	NaN
,	NaN	NaN
ower	NaN	NaN
…	NaN	NaN
Was	NaN	NaN
,	NaN	NaN
ower	NaN	NaN
,	NaN	NaN
ower	NaN	NaN
?	NaN	NaN
Worum	NaN	NaN
hesch	NaN	NaN
nit	NaN	NaN
gschriewe	NaN	NaN
?	NaN	NaN
Am	NaN	NaN
Döö	NaN	NaN
kann	NaN	NaN
ech	NaN	NaN
nit	NaN	NaN
,	NaN	NaN
ech	NaN	NaN
bin	NaN	NaN
in	NaN	NaN
d'	NaN	NaN
Nochtschueal	NaN	NaN
gonge	NaN	NaN
.	NaN	NaN
Haha	NaN	NaN
,	NaN	NaN
der	NaN	NaN
isch	NaN	NaN
sicher	NaN	NaN
d'	NaN	NaN
Schuld	NaN	NaN
,	NaN	NaN
dass	NaN	NaN
d'	NaN	NaN
Frösch	NaN	NaN
ken	NaN	NaN
Wäddel	NaN	NaN
han	NaN	NaN
.	NaN	NaN
Witt	NaN	NaN
dü	NaN	NaN
schnell	NaN	NaN
dem	NaN	NaN
Herrn	NaN	NaN
noochlaufe	NaN	NaN
!	NaN	NaN
Saasch	NaN	NaN
er	NaN	NaN
het	NaN	NaN
ebbs	NaN	NaN
vergesse	NaN	NaN
.	NaN	NaN
—	NaN	NaN
Dü	NaN	NaN
lauf'sch	NaN	NaN
noch	NaN	NaN
nit	NaN	NaN
.	NaN	NaN
—	NaN	NaN
Bisch	NaN	NaN
noch	NaN	NaN
nit	NaN	NaN
drüsse	NaN	NaN
?	NaN	NaN
Zaj	NaN	NaN
Addes	NaN	NaN
,	NaN	NaN
lang	NaN	NaN
mer	NaN	NaN
d'r	NaN	NaN
Knejrieme	NaN	NaN
.	NaN	NaN
Witt	NaN	NaN
dü	NaN	NaN
mache	NaN	NaN
dass	NaN	NaN
…	NaN	NaN
O	NaN	NaN
liever	NaN	NaN
Harr	NaN	NaN
Schuehmochersgsell	NaN	NaN
,	NaN	NaN
ech	NaN	NaN
,	NaN	NaN
ech	NaN	NaN
—	NaN	NaN
Harr	NaN	NaN
Düderlüdu	NaN	NaN
horche	NaN	NaN
,	NaN	NaN
horche	NaN	NaN
!	NaN	NaN
So	NaN	NaN
e	NaN	NaN
Rejementsdirmel	NaN	NaN
!	NaN	NaN
Wart	NaN	NaN
dü	NaN	NaN
wursch	NaN	NaN
noch	NaN	NaN
dressiert	NaN	NaN
.	NaN	NaN
D'r	NaN	NaN
Deifel	NaN	NaN
het	NaN	NaN
alles	NaN	NaN
wölle	NaN	NaN
wäre	NaN	NaN
nume	NaN	NaN
nit	NaN	NaN
Lehrbue	NaN	NaN
.	NaN	NaN
Drum	NaN	NaN
isch'r	NaN	NaN
au	NaN	NaN
glich	NaN	NaN
Maischter	NaN	NaN
worre	NaN	NaN
.	NaN	NaN
Enfin	NaN	NaN
…	NaN	NaN
Sin	NaN	NaN
ken	NaN	NaN
Bäre	NaN	NaN
.	NaN	NaN
Jetz	NaN	NaN
kummt	NaN	NaN
mer	NaN	NaN
ebbs	NaN	NaN
yn	NaN	NaN
.	NaN	NaN
Han	NaN	NaN
mer	NaN	NaN
nit	NaN	NaN
im	NaN	NaN
Dorel	NaN	NaN
,	NaN	NaN
im	NaN	NaN
Liebschter	NaN	NaN
vun	NaN	NaN
d'r	NaN	NaN
Bodinmachermaischtersdoochter	NaN	NaN
,	NaN	NaN
uff	NaN	NaN
hit	NaN	NaN
sini	NaN	NaN
gsohlte	NaN	NaN
Schueh	NaN	NaN
versproche	NaN	NaN
?	NaN	NaN
Minsex	NaN	NaN
!	NaN	NaN
Awer	NaN	NaN
jetz	NaN	NaN
kummt	NaN	NaN
mir	NaN	NaN
au	NaN	NaN
ebbs	NaN	NaN
yn	NaN	NaN
,	NaN	NaN
Ich	NaN	NaN
maan	NaN	NaN
als	NaN	NaN
,	NaN	NaN
ich	NaN	NaN
maan	NaN	NaN
—	NaN	NaN
morje	NaN	NaN
,	NaN	NaN
morje	NaN	NaN
…	NaN	NaN
Was	NaN	NaN
morje	NaN	NaN
?	NaN	NaN
Grad	NaN	NaN
rechel	NaN	NaN
ich	NaN	NaN
nooch	NaN	NaN
.	NaN	NaN
Morje	NaN	NaN
hab	NaN	NaN
ich	NaN	NaN
üssgelehrt	NaN	NaN
,	NaN	NaN
uff	NaN	NaN
d'r	NaN	NaN
Daa	NaN	NaN
.	NaN	NaN
Gsell	NaN	NaN
,	NaN	NaN
Gsell	NaN	NaN
!	NaN	NaN
Addes	NaN	NaN
Gsell	NaN	NaN
!	NaN	NaN
Was	NaN	NaN
?	NaN	NaN
E	NaN	NaN
Nundebuckel	NaN	NaN
,	NaN	NaN
un	NaN	NaN
diss	NaN	NaN
kummt	NaN	NaN
dir	NaN	NaN
jetz	NaN	NaN
ererscht	NaN	NaN
yn	NaN	NaN
?	NaN	NaN
Dü	NaN	NaN
sollsch	NaN	NaN
blöuj	NaN	NaN
wäre	NaN	NaN
,	NaN	NaN
Was	NaN	NaN
zahlsch	NaN	NaN
?	NaN	NaN
Der	NaN	NaN
Gsell	NaN	NaN
wurd	NaN	NaN
yngewaicht	NaN	NaN
.	NaN	NaN
Gsell	NaN	NaN
!	NaN	NaN
Ich	NaN	NaN
möcht	NaN	NaN
mir	NaN	NaN
fasch	NaN	NaN
d'	NaN	NaN
Hand	NaN	NaN
drucke	NaN	NaN
for	NaN	NaN
Gruenz	NaN	NaN
.	NaN	NaN
Haha	NaN	NaN
,	NaN	NaN
was	NaN	NaN
koscht	NaN	NaN
's	NaN	NaN
Elsass	NaN	NaN
un	NaN	NaN
noch	NaN	NaN
e	NaN	NaN
paar	NaN	NaN
Dörfer	NaN	NaN
?	NaN	NaN
Addes	NaN	NaN
,	NaN	NaN
denne	NaN	NaN
Owe	NaN	NaN
trinke	NaN	NaN
mer	NaN	NaN
küewelswies	NaN	NaN
.	NaN	NaN
Bravo	NaN	NaN
,	NaN	NaN
diss	NaN	NaN
isch	NaN	NaN
e	NaN	NaN
Mannswort	NaN	NaN
.	NaN	NaN
Vive	NaN	NaN
Eddes	NaN	NaN
.	NaN	NaN
Hoch	NaN	NaN
soll'r	NaN	NaN
läwe	NaN	NaN
,	NaN	NaN
drej	NaN	NaN
Käs	NaN	NaN
hoch	NaN	NaN
,	NaN	NaN
vive	NaN	NaN
!	NaN	NaN
Maidele	NaN	NaN
,	NaN	NaN
butz	NaN	NaN
dich	NaN	NaN
,	NaN	NaN
wäsch	NaN	NaN
dich	NaN	NaN
,	NaN	NaN
Strähl	NaN	NaN
dich	NaN	NaN
schön	NaN	NaN
,	NaN	NaN
Derfsch	NaN	NaN
mit	NaN	NaN
mir	NaN	NaN
uff	NaN	NaN
d'r	NaN	NaN
Polka	NaN	NaN
gehn	NaN	NaN
.	NaN	NaN
Hopsa	NaN	NaN
Lissele	NaN	NaN
,	NaN	NaN
danz	NaN	NaN
e	NaN	NaN
bissele	NaN	NaN
…	NaN	NaN
Was	NaN	NaN
isch	NaN	NaN
denn	NaN	NaN
diss	NaN	NaN
for	NaN	NaN
e	NaN	NaN
Spektakel	NaN	NaN
?	NaN	NaN
Danze	NaN	NaN
die	NaN	NaN
Lüüser	NaN	NaN
gemüetlich	NaN	NaN
e	NaN	NaN
Polonaise	NaN	NaN
à	NaN	NaN
la	NaN	NaN
cordonnier	NaN	NaN
.	NaN	NaN
Isch	NaN	NaN
diss	NaN	NaN
amend	NaN	NaN
gschafft	NaN	NaN
?	NaN	NaN
Was	NaN	NaN
mache	NaN	NaN
mini	NaN	NaN
Schueh	NaN	NaN
?	NaN	NaN
Herr	NaN	NaN
Dorel	NaN	NaN
,	NaN	NaN
mir	NaN	NaN
sin	NaN	NaN
grad	NaN	NaN
dran	NaN	NaN
.	NaN	NaN
Ich	NaN	NaN
sieh	NaN	NaN
's	NaN	NaN
.	NaN	NaN
Awer	NaN	NaN
horche	NaN	NaN
,	NaN	NaN
saaue	NaN	NaN
emol	NaN	NaN
,	NaN	NaN
was	NaN	NaN
isch	NaN	NaN
denn	NaN	NaN
mit	NaN	NaN
minere	NaN	NaN
Hochzittere	NaN	NaN
Petronelle	NaN	NaN
,	NaN	NaN
un	NaN	NaN
minere	NaN	NaN
zuekuenftige	NaN	NaN
Schwejeres	NaN	NaN
los	NaN	NaN
?	NaN	NaN
Was	NaN	NaN
nit	NaN	NaN
angebunde	NaN	NaN
isch	NaN	NaN
.	NaN	NaN
Halt	NaN	NaN
din	NaN	NaN
daub	NaN	NaN
Müül	NaN	NaN
.	NaN	NaN
Treff	NaN	NaN
ich	NaN	NaN
die	NaN	NaN
zwei	NaN	NaN
Wiebszimmer	NaN	NaN
im	NaN	NaN
Magmod	NaN	NaN
aan	NaN	NaN
,	NaN	NaN
un	NaN	NaN
wie	NaN	NaN
sie	NaN	NaN
mich	NaN	NaN
sehne	NaN	NaN
,	NaN	NaN
stelle	NaN	NaN
sie	NaN	NaN
d'	NaN	NaN
Nase	NaN	NaN
hoch	NaN	NaN
,	NaN	NaN
un	NaN	NaN
mache	NaN	NaN
so	NaN	NaN
als	NaN	NaN
ob	NaN	NaN
sie	NaN	NaN
mich	NaN	NaN
noch	NaN	NaN
nie	NaN	NaN
gekennt	NaN	NaN
hätte	NaN	NaN
.	NaN	NaN
Mir	NaN	NaN
wisse	NaN	NaN
nix	NaN	NaN
.	NaN	NaN
So	NaN	NaN
e	NaN	NaN
Pratik	NaN	NaN
.	NaN	NaN
Wenn	NaN	NaN
ich	NaN	NaN
mich	NaN	NaN
nit	NaN	NaN
for	NaN	NaN
de	NaN	NaN
Litt	NaN	NaN
geniert	NaN	NaN
hätt	NaN	NaN
,	NaN	NaN
hätt	NaN	NaN
ich	NaN	NaN
denne	NaN	NaN
d'r	NaN	NaN
Söüikuewel	NaN	NaN
annegeworfe	NaN	NaN
.	NaN	NaN
Ei	NaN	NaN
,	NaN	NaN
Herr	NaN	NaN
Dorel	NaN	NaN
,	NaN	NaN
Sie	NaN	NaN
könne	NaN	NaN
's	NaN	NaN
jo	NaN	NaN
noch	NaN	NaN
noochhole	NaN	NaN
.	NaN	NaN
Wurr	NaN	NaN
ich	NaN	NaN
au	NaN	NaN
,	NaN	NaN
un	NaN	NaN
nit	NaN	NaN
ze	NaN	NaN
knapp	NaN	NaN
.	NaN	NaN
Awer	NaN	NaN
saftig	NaN	NaN
.	NaN	NaN
Herr	NaN	NaN
Hochzitter	NaN	NaN
,	NaN	NaN
je	NaN	NaN
saftiger	NaN	NaN
,	NaN	NaN
deschto	NaN	NaN
besser	NaN	NaN
.	NaN	NaN
Was	NaN	NaN
die	NaN	NaN
Schnaike	NaN	NaN
sich	NaN	NaN
ynbilde	NaN	NaN
.	NaN	NaN
In	NaN	NaN
e're	NaN	NaN
Viertelstund	NaN	NaN
bin	NaN	NaN
ich	NaN	NaN
widder	NaN	NaN
do	NaN	NaN
.	NaN	NaN
Salü	NaN	NaN
!	NaN	NaN
Eddes	NaN	NaN
,	NaN	NaN
was	NaN	NaN
saasch	NaN	NaN
dü	NaN	NaN
do	NaN	NaN
d'	NaN	NaN
rzüe	NaN	NaN
?	NaN	NaN
Es	NaN	NaN
muüess	NaN	NaN
ebbs	NaN	NaN
bsunders	NaN	NaN
basiert	NaN	NaN
sin	NaN	NaN
.	NaN	NaN
Luej	NaN	NaN
do	NaN	NaN
miner	NaN	NaN
Kolleg	NaN	NaN
.	NaN	NaN
Wo	NaN	NaN
bisch	NaN	NaN
denn	NaN	NaN
so	NaN	NaN
lang	NaN	NaN
gschteckt	NaN	NaN
?	NaN	NaN
Ich	NaN	NaN
hab	NaN	NaN
gemaant	NaN	NaN
dü	NaN	NaN
bisch	NaN	NaN
zue	NaN	NaN
dinere	NaN	NaN
Mieädder	NaN	NaN
geloffe	NaN	NaN
.	NaN	NaN
—	NaN	NaN
Wo	NaN	NaN
hesch	NaN	NaN
denn	NaN	NaN
's	NaN	NaN
Mess	NaN	NaN
?	NaN	NaN
Eju	NaN	NaN
,	NaN	NaN
do	NaN	NaN
howi	NaN	NaN
's	NaN	NaN
.	NaN	NaN
Addes	NaN	NaN
,	NaN	NaN
lang	NaN	NaN
d'r	NaN	NaN
Tröschter	NaN	NaN
.	NaN	NaN
Dich	NaN	NaN
will	NaN	NaN
ich	NaN	NaN
messe	NaN	NaN
lehre	NaN	NaN
.	NaN	NaN
Ojemer	NaN	NaN
,	NaN	NaN
ojemer	NaN	NaN
.	NaN	NaN
Ech	NaN	NaN
will	NaN	NaN
brov	NaN	NaN
sin	NaN	NaN
.	NaN	NaN
Edwar	NaN	NaN
!	NaN	NaN
Adolph	NaN	NaN
!	NaN	NaN
Diuhe	NaN	NaN
!	NaN	NaN
Diuhu	NaN	NaN
!	NaN	NaN
E	NaN	NaN
Glüeck	NaN	NaN
fer	NaN	NaN
dich	NaN	NaN
,	NaN	NaN
dass	NaN	NaN
d'r	NaN	NaN
Alt	NaN	NaN
kummt	NaN	NaN
,	NaN	NaN
sunscht	NaN	NaN
hätt	NaN	NaN
's	NaN	NaN
Fetze	NaN	NaN
gänn	NaN	NaN
.	NaN	NaN
Ich	NaN	NaN
glaab	NaN	NaN
d'r	NaN	NaN
Maischter	NaN	NaN
het	NaN	NaN
e	NaN	NaN
g'hörige	NaN	NaN
Well	NaN	NaN
.	NaN	NaN
He	NaN	NaN
ihr	NaN	NaN
Buewe	NaN	NaN
,	NaN	NaN
's	NaN	NaN
wurd	NaN	NaN
nimmi	NaN	NaN
gschafft	NaN	NaN
.	NaN	NaN
Hä	NaN	NaN
,	NaN	NaN
do	NaN	NaN
gücke	NaN	NaN
n'	NaN	NaN
r.	NaN	NaN
Minsex	NaN	NaN
,	NaN	NaN
denne	NaN	NaN
hett	NaN	NaN
's	NaN	NaN
.	NaN	NaN
Wenn	NaN	NaN
ich	NaN	NaN
saa	NaN	NaN
,	NaN	NaN
es	NaN	NaN
wurd	NaN	NaN
nimi	NaN	NaN
gschafft	NaN	NaN
,	NaN	NaN
wurd	NaN	NaN
nimmi	NaN	NaN
gschafft	NaN	NaN
.	NaN	NaN
Ich	NaN	NaN
hab	NaN	NaN
drei	NaN	NaN
Millione	NaN	NaN
gewunne	NaN	NaN
.	NaN	NaN
D'r	NaN	NaN
Maischter	NaN	NaN
het	NaN	NaN
gewunne	NaN	NaN
!	NaN	NaN
Jo	NaN	NaN
Plän	NaN	NaN
vun	NaN	NaN
Paris	NaN	NaN
.	NaN	NaN
So	NaN	NaN
wohr	NaN	NaN
ich	NaN	NaN
Drohtspitz	NaN	NaN
haiss	NaN	NaN
.	NaN	NaN
Drei	NaN	NaN
Millione	NaN	NaN
!	NaN	NaN
D'	NaN	NaN
Frau	NaN	NaN
un	NaN	NaN
Doochter	NaN	NaN
hab	NaN	NaN
ich	NaN	NaN
unterwäjs	NaN	NaN
angetroffe	NaN	NaN
un	NaN	NaN
hab	NaN	NaN
ne	NaN	NaN
die	NaN	NaN
Nuwell	NaN	NaN
bruehjwarm	NaN	NaN
nuewergschtellt	NaN	NaN
.	NaN	NaN
Umarmt	NaN	NaN
han	NaN	NaN
sie	NaN	NaN
mich	NaN	NaN
,	NaN	NaN
verschmutzt	NaN	NaN
wie	NaN	NaN
narrächt	NaN	NaN
;	NaN	NaN
d'	NaN	NaN
Litt	NaN	NaN
sin	NaN	NaN
stehn	NaN	NaN
gebliewe	NaN	NaN
,	NaN	NaN
un	NaN	NaN
han	NaN	NaN
Müül	NaN	NaN
un	NaN	NaN
Nas	NaN	NaN
uffgschberrt	NaN	NaN
.	NaN	NaN
Nundebibb	NaN	NaN
!	NaN	NaN
Millione	NaN	NaN
un	NaN	NaN
's	NaN	NaN
Wetter	NaN	NaN
.	NaN	NaN
Addes	NaN	NaN
,	NaN	NaN
d'	NaN	NaN
Karte	NaN	NaN
her	NaN	NaN
,	NaN	NaN
dass	NaN	NaN
mer	NaN	NaN
e	NaN	NaN
Tournee	NaN	NaN
erüssklopfe	NaN	NaN
,	NaN	NaN
uff	NaN	NaN
denne	NaN	NaN
Stoss	NaN	NaN
.	NaN	NaN
Addes	NaN	NaN
,	NaN	NaN
dü	NaN	NaN
gibsch	NaN	NaN
.	NaN	NaN
Ja	NaN	NaN
ihr	NaN	NaN
Buewe	NaN	NaN
,	NaN	NaN
Numero	NaN	NaN
128.697	NaN	NaN
isch	NaN	NaN
e	NaN	NaN
Glückszahl	NaN	NaN
,	NaN	NaN
un	NaN	NaN
die	NaN	NaN
isch	NaN	NaN
uff	NaN	NaN
mich	NaN	NaN
gfalle	NaN	NaN
.	NaN	NaN
Mäischter	NaN	NaN
,	NaN	NaN
ich	NaN	NaN
gratülier	NaN	NaN
zue	NaN	NaN
dem	NaN	NaN
söuimässige	NaN	NaN
Glück	NaN	NaN
.	NaN	NaN
ADDES	NaN	NaN
Un	NaN	NaN
ich	NaN	NaN
au	NaN	NaN
,	NaN	NaN
dunderwischbel	NaN	NaN
.	NaN	NaN
Mä-mäischter	NaN	NaN
,	NaN	NaN
ech	NaN	NaN
öi	NaN	NaN
,	NaN	NaN
ech	NaN	NaN
öi	NaN	NaN
.	NaN	NaN
Häidegalee	NaN	NaN
.	NaN	NaN
He	NaN	NaN
,	NaN	NaN
was	NaN	NaN
isch	NaN	NaN
denn	NaN	NaN
diss	NaN	NaN
for	NaN	NaN
e	NaN	NaN
fremder	NaN	NaN
Kneffti	NaN	NaN
?	NaN	NaN
Es	NaN	NaN
isch	NaN	NaN
d'r	NaN	NaN
Schaköbel	NaN	NaN
Biereschnitz	NaN	NaN
,	NaN	NaN
d'r	NaN	NaN
nej	NaN	NaN
Lehrbue	NaN	NaN
.	NaN	NaN
Ah	NaN	NaN
dü	NaN	NaN
bisch	NaN	NaN
d'r	NaN	NaN
Schaköbel	NaN	NaN
!	NaN	NaN
—	NaN	NaN
Na	NaN	NaN
,	NaN	NaN
kannsch	NaN	NaN
dich	NaN	NaN
vun	NaN	NaN
dim	NaN	NaN
Vadder	NaN	NaN
widder	NaN	NaN
hole	NaN	NaN
lonn	NaN	NaN
.	NaN	NaN
Saasch	NaN	NaN
bisch	NaN	NaN
do	NaN	NaN
gsin	NaN	NaN
.	NaN	NaN
Es	NaN	NaN
wurd	NaN	NaN
nimi	NaN	NaN
gschuehschtert	NaN	NaN
bie	NaN	NaN
mir	NaN	NaN
.	NaN	NaN
Diss	NaN	NaN
isch	NaN	NaN
guet	NaN	NaN
for	NaN	NaN
armi	NaN	NaN
Peches	NaN	NaN
.	NaN	NaN
Furt	NaN	NaN
mit	NaN	NaN
dem	NaN	NaN
Pechstuehl	NaN	NaN
,	NaN	NaN
furt	NaN	NaN
mit-em	NaN	NaN
Knibbe	NaN	NaN
,	NaN	NaN
Klopfstaan	NaN	NaN
,	NaN	NaN
Rieme	NaN	NaN
.	NaN	NaN
Alles	NaN	NaN
nüss	NaN	NaN
,	NaN	NaN
nüss	NaN	NaN
.	NaN	NaN
Mäischter	NaN	NaN
sell	NaN	NaN
ech	NaN	NaN
glich	NaN	NaN
gehn	NaN	NaN
?	NaN	NaN
Naan	NaN	NaN
,	NaN	NaN
noch	NaN	NaN
nit	NaN	NaN
.	NaN	NaN
Hitt	NaN	NaN
fyre	NaN	NaN
mir	NaN	NaN
e	NaN	NaN
grosses	NaN	NaN
Fescht	NaN	NaN
.	NaN	NaN
Un	NaN	NaN
wenn	NaN	NaN
dü	NaN	NaN
mir	NaN	NaN
nochemol	NaN	NaN
Maischter	NaN	NaN
saasch	NaN	NaN
,	NaN	NaN
zinkier	NaN	NaN
ich	NaN	NaN
dir	NaN	NaN
aani	NaN	NaN
,	NaN	NaN
dass	NaN	NaN
dü	NaN	NaN
erumsurrsch	NaN	NaN
wie	NaN	NaN
e	NaN	NaN
Propeller	NaN	NaN
.	NaN	NaN
Schübbe	NaN	NaN
isch	NaN	NaN
Trumpf	NaN	NaN
.	NaN	NaN
Addes	NaN	NaN
,	NaN	NaN
hopp	NaN	NaN
,	NaN	NaN
e	NaN	NaN
Kart	NaN	NaN
odder	NaN	NaN
e	NaN	NaN
Stück	NaN	NaN
Holz	NaN	NaN
.	NaN	NaN
Dä	NaN	NaN
,	NaN	NaN
do	NaN	NaN
hesch	NaN	NaN
,	NaN	NaN
zwanzig	NaN	NaN
gemeld	NaN	NaN
.	NaN	NaN
He	NaN	NaN
,	NaN	NaN
was	NaN	NaN
hab	NaN	NaN
ich	NaN	NaN
gsaat	NaN	NaN
?	NaN	NaN
Do	NaN	NaN
hinne	NaN	NaN
wurd	NaN	NaN
nimmi	NaN	NaN
gschafft	NaN	NaN
.	NaN	NaN
Adolph	NaN	NaN
,	NaN	NaN
hol	NaN	NaN
mir	NaN	NaN
im	NaN	NaN
Schlofzimmer	NaN	NaN
d'r	NaN	NaN
Fodell	NaN	NaN
.	NaN	NaN
Ja	NaN	NaN
Maischler	NaN	NaN
—	NaN	NaN
ä	NaN	NaN
Herr	NaN	NaN
Millionär	NaN	NaN
.	NaN	NaN
Voilà	NaN	NaN
.	NaN	NaN
Diss	NaN	NaN
isch	NaN	NaN
's	NaN	NaN
richtig	NaN	NaN
Wort	NaN	NaN
.	NaN	NaN
Was	NaN	NaN
ich	NaN	NaN
noch	NaN	NaN
saaue	NaN	NaN
will	NaN	NaN
,	NaN	NaN
Maischter	NaN	NaN
,	NaN	NaN
ä	NaN	NaN
Herr	NaN	NaN
von	NaN	NaN
Drohtspitz	NaN	NaN
,	NaN	NaN
vun	NaN	NaN
morje	NaN	NaN
ab	NaN	NaN
bin	NaN	NaN
ich	NaN	NaN
Gsell	NaN	NaN
.	NaN	NaN
Armer	NaN	NaN
Wurm	NaN	NaN
.	NaN	NaN
He	NaN	NaN
,	NaN	NaN
wo	NaN	NaN
bliebt	NaN	NaN
miner	NaN	NaN
Fodell	NaN	NaN
?	NaN	NaN
Do	NaN	NaN
isch'r	NaN	NaN
.	NaN	NaN
Ich	NaN	NaN
hab	NaN	NaN
noch	NaN	NaN
schnell	NaN	NaN
e	NaN	NaN
paar	NaN	NaN
Spinnhuddle	NaN	NaN
abgschtaibt	NaN	NaN
.	NaN	NaN
Voilà	NaN	NaN
,	NaN	NaN
Herr	NaN	NaN
.	NaN	NaN
Merci	NaN	NaN
.	NaN	NaN
Bie	NaN	NaN
de	NaN	NaN
nächschte	NaN	NaN
Wahle	NaN	NaN
kenn	NaN	NaN
ich	NaN	NaN
aaner	NaN	NaN
wo	NaN	NaN
im	NaN	NaN
Gemaanrot	NaN	NaN
sitzt	NaN	NaN
.	NaN	NaN
No	NaN	NaN
haisst	NaN	NaN
's:	NaN	NaN
Monsieur	NaN	NaN
Drohtspitz	NaN	NaN
hinte	NaN	NaN
,	NaN	NaN
un	NaN	NaN
Herr	NaN	NaN
Drohtspitz	NaN	NaN
vorne	NaN	NaN
.	NaN	NaN
Wie	NaN	NaN
geht	NaN	NaN
's	NaN	NaN
,	NaN	NaN
Herr	NaN	NaN
Drohtspitz	NaN	NaN
,	NaN	NaN
alles	NaN	NaN
gsund	NaN	NaN
,	NaN	NaN
was	NaN	NaN
macht	NaN	NaN
d'	NaN	NaN
Madam	NaN	NaN
un	NaN	NaN
d'	NaN	NaN
Mamsell	NaN	NaN
Doochter	NaN	NaN
,	NaN	NaN
ça	NaN	NaN
va	NaN	NaN
bien	NaN	NaN
,	NaN	NaN
wie	NaN	NaN
stehn	NaN	NaN
d'	NaN	NaN
Aktie	NaN	NaN
?	NaN	NaN
Do	NaN	NaN
fliehje	NaN	NaN
d'	NaN	NaN
Hüet	NaN	NaN
,	NaN	NaN
bonjour	NaN	NaN
,	NaN	NaN
bonjour	NaN	NaN
,	NaN	NaN
sehn'r	NaN	NaN
n'	NaN	NaN
e	NaN	NaN
d'r	NaN	NaN
stolz	NaN	NaN
Stadtvadder	NaN	NaN
?	NaN	NaN
D'r	NaN	NaN
Kirichrot	NaN	NaN
bliebt	NaN	NaN
au	NaN	NaN
nit	NaN	NaN
üss	NaN	NaN
,	NaN	NaN
d'r	NaN	NaN
Armeinspektertitel	NaN	NaN
kummt	NaN	NaN
vun	NaN	NaN
aase	NaN	NaN
.	NaN	NaN
O	NaN	NaN
naan	NaN	NaN
,	NaN	NaN
mit	NaN	NaN
so	NaN	NaN
Lumpedings	NaN	NaN
gib	NaN	NaN
ich	NaN	NaN
mich	NaN	NaN
nit	NaN	NaN
ab	NaN	NaN
.	NaN	NaN
D'r	NaN	NaN
Herr	NaN	NaN
Drohtspitz	NaN	NaN
verkehrt	NaN	NaN
nume	NaN	NaN
mit	NaN	NaN
vornehme	NaN	NaN
Herrschafte	NaN	NaN
.	NaN	NaN
Par	NaN	NaN
exemple	NaN	NaN
mit-em	NaN	NaN
Préfet	NaN	NaN
,	NaN	NaN
Députés	NaN	NaN
,	NaN	NaN
Sénateurs	NaN	NaN
,	NaN	NaN
Minischter	NaN	NaN
.	NaN	NaN
Wills	NaN	NaN
starik	NaN	NaN
hoffe	NaN	NaN
.	NaN	NaN
No	NaN	NaN
gibt	NaN	NaN
's	NaN	NaN
ebbs	NaN	NaN
in	NaN	NaN
's	NaN	NaN
Knopfloch	NaN	NaN
.	NaN	NaN
Un	NaN	NaN
nit	NaN	NaN
weni	NaN	NaN
Männel	NaN	NaN
.	NaN	NaN
D'r	NaN	NaN
chevalier	NaN	NaN
de	NaN	NaN
la	NaN	NaN
Landwirtschaft	NaN	NaN
isch	NaN	NaN
sicher	NaN	NaN
.	NaN	NaN
Un	NaN	NaN
d'	NaN	NaN
Bankier	NaN	NaN
laufe	NaN	NaN
Ihne	NaN	NaN
nooch	NaN	NaN
,	NaN	NaN
wie	NaN	NaN
d'	NaN	NaN
Mies	NaN	NaN
nooch-em	NaN	NaN
Speck	NaN	NaN
.	NaN	NaN
Wo	NaN	NaN
numme	NaN	NaN
mini	NaN	NaN
Frau	NaN	NaN
bliebt	NaN	NaN
un	NaN	NaN
d'	NaN	NaN
Petronelle	NaN	NaN
?	NaN	NaN
Ah	NaN	NaN
,	NaN	NaN
die	NaN	NaN
kaufe	NaN	NaN
jo	NaN	NaN
yn	NaN	NaN
.	NaN	NaN
No	NaN	NaN
fahre	NaN	NaN
sie	NaN	NaN
im	NaN	NaN
Taxi	NaN	NaN
zuem	NaN	NaN
Zahnarzt	NaN	NaN
.	NaN	NaN
Sie	NaN	NaN
wölle	NaN	NaN
sich	NaN	NaN
goldeni	NaN	NaN
Zähn	NaN	NaN
mache	NaN	NaN
lonn	NaN	NaN
.	NaN	NaN
Wenn	NaN	NaN
's	NaN	NaN
grad	NaN	NaN
emol	NaN	NaN
an	NaN	NaN
Muenz	NaN	NaN
fehle	NaN	NaN
dät	NaN	NaN
,	NaN	NaN
könnte	NaN	NaN
die	NaN	NaN
Dame	NaN	NaN
jo	NaN	NaN
e	NaN	NaN
Zahn	NaN	NaN
uff	NaN	NaN
d'r	NaN	NaN
Tisch	NaN	NaN
laje	NaN	NaN
.	NaN	NaN
Kaiwe	NaN	NaN
Bue	NaN	NaN
.	NaN	NaN
E	NaN	NaN
gueter	NaN	NaN
Witz	NaN	NaN
,	NaN	NaN
haha	NaN	NaN
!	NaN	NaN
Dü	NaN	NaN
,	NaN	NaN
Edwar	NaN	NaN
,	NaN	NaN
wie	NaN	NaN
dü	NaN	NaN
morje	NaN	NaN
doch	NaN	NaN
üssgelehrt	NaN	NaN
hesch	NaN	NaN
,	NaN	NaN
defsch	NaN	NaN
mini	NaN	NaN
Cigar	NaN	NaN
wittersch	NaN	NaN
rauche	NaN	NaN
.	NaN	NaN
Merci	NaN	NaN
,	NaN	NaN
Herr	NaN	NaN
.	NaN	NaN
Un	NaN	NaN
derno	NaN	NaN
kannsch	NaN	NaN
miner	NaN	NaN
ganz	NaN	NaN
Grümbel	NaN	NaN
han	NaN	NaN
,	NaN	NaN
mit	NaN	NaN
zamt	NaN	NaN
d'r	NaN	NaN
Pratik	NaN	NaN
.	NaN	NaN
Sogar	NaN	NaN
's	NaN	NaN
Todedräjerämtel	NaN	NaN
gib	NaN	NaN
ich	NaN	NaN
dir	NaN	NaN
au	NaN	NaN
ab	NaN	NaN
.	NaN	NaN
Merci	NaN	NaN
,	NaN	NaN
Herr	NaN	NaN
.	NaN	NaN
Könnte	NaN	NaN
Sie	NaN	NaN
mir	NaN	NaN
sunscht	NaN	NaN
noch	NaN	NaN
so	NaN	NaN
e	NaN	NaN
bissel	NaN	NaN
,	NaN	NaN
Sie	NaN	NaN
wisse	NaN	NaN
jo	NaN	NaN
wie	NaN	NaN
ich	NaN	NaN
's	NaN	NaN
maan	NaN	NaN
.	NaN	NaN
Aha	NaN	NaN
,	NaN	NaN
dü	NaN	NaN
winksch	NaN	NaN
mit-em	NaN	NaN
Holzschläjel	NaN	NaN
.	NaN	NaN
Na	NaN	NaN
,	NaN	NaN
es	NaN	NaN
kummt	NaN	NaN
mer	NaN	NaN
minsex	NaN	NaN
uff	NaN	NaN
e	NaN	NaN
paar	NaN	NaN
Döusig	NaN	NaN
nit	NaN	NaN
aan	NaN	NaN
.	NaN	NaN
Könnt	NaN	NaN
ich	NaN	NaN
's	NaN	NaN
nit	NaN	NaN
schriftlich	NaN	NaN
han	NaN	NaN
?	NaN	NaN
E	NaN	NaN
rächter	NaN	NaN
Gschäftsmann	NaN	NaN
geht	NaN	NaN
hitt	NaN	NaN
am	NaN	NaN
Daa	NaN	NaN
numme	NaN	NaN
uff	NaN	NaN
Schriewes	NaN	NaN
.	NaN	NaN
Guet	NaN	NaN
gänn	NaN	NaN
.	NaN	NaN
Oho	NaN	NaN
,	NaN	NaN
e	NaN	NaN
Mann	NaN	NaN
,	NaN	NaN
e	NaN	NaN
Wort	NaN	NaN
!	NaN	NaN
Sollsch	NaN	NaN
zehndöusig	NaN	NaN
Liwerle	NaN	NaN
han	NaN	NaN
.	NaN	NaN
Pah	NaN	NaN
!	NaN	NaN
Ja	NaN	NaN
's	NaN	NaN
Geld	NaN	NaN
macht	NaN	NaN
d'r	NaN	NaN
Mann	NaN	NaN
.	NaN	NaN
Haha	NaN	NaN
!	NaN	NaN
Merci	NaN	NaN
,	NaN	NaN
Herr	NaN	NaN
Millionär	NaN	NaN
.	NaN	NaN
Ich	NaN	NaN
wurr	NaN	NaN
e	NaN	NaN
moderns	NaN	NaN
Gschäft	NaN	NaN
installiere	NaN	NaN
,	NaN	NaN
wo	NaN	NaN
uff	NaN	NaN
wisseschaftlichem	NaN	NaN
Gebiet	NaN	NaN
fundamentiert	NaN	NaN
isch	NaN	NaN
.	NaN	NaN
Horich	NaN	NaN
do	NaN	NaN
.	NaN	NaN
Diss	NaN	NaN
Gschäft	NaN	NaN
wurd	NaN	NaN
in	NaN	NaN
drei	NaN	NaN
Spezialitäte	NaN	NaN
yngedailt	NaN	NaN
.	NaN	NaN
Was	NaN	NaN
dü	NaN	NaN
nit	NaN	NaN
saasch	NaN	NaN
.	NaN	NaN
Erschtens	NaN	NaN
in	NaN	NaN
e	NaN	NaN
orthopädischi	NaN	NaN
Abteilung	NaN	NaN
for	NaN	NaN
verkrüppelti	NaN	NaN
Fuess	NaN	NaN
.	NaN	NaN
Zwaitens	NaN	NaN
in	NaN	NaN
e	NaN	NaN
Pantoffelakademie	NaN	NaN
,	NaN	NaN
un	NaN	NaN
drittens	NaN	NaN
in	NaN	NaN
e	NaN	NaN
Kinderschueh-Klinik	NaN	NaN
.	NaN	NaN
Guet	NaN	NaN
gänn	NaN	NaN
.	NaN	NaN
Kohl	NaN	NaN
wittersch	NaN	NaN
.	NaN	NaN
Haha	NaN	NaN
,	NaN	NaN
so	NaN	NaN
lieje	NaN	NaN
möcht	NaN	NaN
ich	NaN	NaN
könne	NaN	NaN
.	NaN	NaN
No	NaN	NaN
schaff	NaN	NaN
ich	NaN	NaN
mir	NaN	NaN
e	NaN	NaN
amerikanischi	NaN	NaN
Maschin	NaN	NaN
aan	NaN	NaN
,	NaN	NaN
wo	NaN	NaN
ich	NaN	NaN
in	NaN	NaN
e're	NaN	NaN
Uesstellung	NaN	NaN
gsehne	NaN	NaN
hab	NaN	NaN
;	NaN	NaN
e	NaN	NaN
Maschin	NaN	NaN
,	NaN	NaN
die	NaN	NaN
in	NaN	NaN
kurzer	NaN	NaN
Zitt	NaN	NaN
e	NaN	NaN
Vermöje	NaN	NaN
abwerft	NaN	NaN
.	NaN	NaN
Edwar	NaN	NaN
,	NaN	NaN
Edwar	NaN	NaN
,	NaN	NaN
dü	NaN	NaN
machsch	NaN	NaN
jo	NaN	NaN
e	NaN	NaN
Möwelwaaue	NaN	NaN
lache	NaN	NaN
.	NaN	NaN
Eddes	NaN	NaN
,	NaN	NaN
widdersch	NaN	NaN
.	NaN	NaN
Dere	NaN	NaN
Maschin	NaN	NaN
wurd	NaN	NaN
vun	NaN	NaN
vorne	NaN	NaN
Rossledder	NaN	NaN
nynspediert	NaN	NaN
,	NaN	NaN
un	NaN	NaN
hinte	NaN	NaN
kumme	NaN	NaN
Bodin	NaN	NaN
in	NaN	NaN
box-calf	NaN	NaN
fix	NaN	NaN
un	NaN	NaN
ferdig	NaN	NaN
erüss	NaN	NaN
.	NaN	NaN
Grossartig	NaN	NaN
!	NaN	NaN
Horich	NaN	NaN
Edwar	NaN	NaN
,	NaN	NaN
als	NaN	NaN
gewöhnlicher	NaN	NaN
Schuehmacher	NaN	NaN
dät	NaN	NaN
ich	NaN	NaN
mich	NaN	NaN
verzüerne	NaN	NaN
.	NaN	NaN
Awer	NaN	NaN
als	NaN	NaN
Millionär	NaN	NaN
bin	NaN	NaN
ich	NaN	NaN
ze	NaN	NaN
nowel	NaN	NaN
.	NaN	NaN
Verstehsch	NaN	NaN
,	NaN	NaN
dü	NaN	NaN
Lüüser	NaN	NaN
!	NaN	NaN
Nowel	NaN	NaN
geht	NaN	NaN
d'	NaN	NaN
Welt	NaN	NaN
zegrund	NaN	NaN
.	NaN	NaN
Ja	NaN	NaN
Herr	NaN	NaN
Millionär	NaN	NaN
,	NaN	NaN
was	NaN	NaN
ich	NaN	NaN
fröuje	NaN	NaN
möcht	NaN	NaN
,	NaN	NaN
was	NaN	NaN
mach	NaN	NaN
ich	NaN	NaN
denn	NaN	NaN
?	NaN	NaN
Dü	NaN	NaN
,	NaN	NaN
dü	NaN	NaN
schnüüfsch	NaN	NaN
dass	NaN	NaN
d'	NaN	NaN
nit	NaN	NaN
verschticksch	NaN	NaN
.	NaN	NaN
Awer	NaN	NaN
halt	NaN	NaN
!	NaN	NaN
Ich	NaN	NaN
schaff	NaN	NaN
mer	NaN	NaN
e	NaN	NaN
Vierspänner	NaN	NaN
aan	NaN	NaN
,	NaN	NaN
mit	NaN	NaN
Arawerhengscht	NaN	NaN
,	NaN	NaN
odder	NaN	NaN
englisch	NaN	NaN
Vollbluet	NaN	NaN
,	NaN	NaN
un	NaN	NaN
derno	NaN	NaN
kannsch	NaN	NaN
Kütscher	NaN	NaN
bie	NaN	NaN
mir	NaN	NaN
wäre	NaN	NaN
.	NaN	NaN
Bravo	NaN	NaN
!	NaN	NaN
Diss	NaN	NaN
dät	NaN	NaN
mer	NaN	NaN
basse	NaN	NaN
.	NaN	NaN
Allez	NaN	NaN
!	NaN	NaN
Allez	NaN	NaN
César	NaN	NaN
,	NaN	NaN
allez	NaN	NaN
!	NaN	NaN
EDDES	NaN	NaN
Allez	NaN	NaN
Coquette	NaN	NaN
,	NaN	NaN
allez	NaN	NaN
Favorit	NaN	NaN
.	NaN	NaN
Hohü	NaN	NaN
,	NaN	NaN
hischterum	NaN	NaN
,	NaN	NaN
öööh	NaN	NaN
Schimmel	NaN	NaN
.	NaN	NaN
Oho	NaN	NaN
!	NaN	NaN
Was	NaN	NaN
isch	NaN	NaN
denn	NaN	NaN
los	NaN	NaN
?	NaN	NaN
Was	NaN	NaN
Deifels	NaN	NaN
,	NaN	NaN
bisch	NaN	NaN
bös	NaN	NaN
,	NaN	NaN
Schwejerbabbe	NaN	NaN
?	NaN	NaN
Sin	NaN	NaN
mini	NaN	NaN
Schuch	NaN	NaN
gsohlt	NaN	NaN
?	NaN	NaN
Guete	NaN	NaN
Daa	NaN	NaN
Schwejeres	NaN	NaN
,	NaN	NaN
wo	NaN	NaN
isch	NaN	NaN
denn	NaN	NaN
's	NaN	NaN
Petronelle	NaN	NaN
,	NaN	NaN
dis	NaN	NaN
lieb	NaN	NaN
Schätzel	NaN	NaN
?	NaN	NaN
—	NaN	NaN
Ken	NaN	NaN
Antwort	NaN	NaN
.	NaN	NaN
Er	NaN	NaN
het	NaN	NaN
drei	NaN	NaN
Millione	NaN	NaN
gewunne	NaN	NaN
.	NaN	NaN
Sie	NaN	NaN
muehn-em	NaN	NaN
Herr	NaN	NaN
Millionär	NaN	NaN
saawe	NaN	NaN
.	NaN	NaN
Hä	NaN	NaN
,	NaN	NaN
do	NaN	NaN
gücksch	NaN	NaN
.	NaN	NaN
Haha	NaN	NaN
,	NaN	NaN
ich	NaN	NaN
glaab	NaN	NaN
,	NaN	NaN
ihr	NaN	NaN
sin	NaN	NaN
alli	NaN	NaN
for	NaN	NaN
Steffelde	NaN	NaN
gewachse	NaN	NaN
.	NaN	NaN
Edwar	NaN	NaN
,	NaN	NaN
dü	NaN	NaN
gehsch	NaN	NaN
nab	NaN	NaN
zuem	NaN	NaN
Photograph	NaN	NaN
am	NaN	NaN
Eck	NaN	NaN
,	NaN	NaN
er	NaN	NaN
soll	NaN	NaN
glich	NaN	NaN
kumme	NaN	NaN
.	NaN	NaN
Wäre	NaN	NaN
mir	NaN	NaN
photographiert	NaN	NaN
,	NaN	NaN
Herr	NaN	NaN
Drohtspitz	NaN	NaN
?	NaN	NaN
Ja	NaN	NaN
,	NaN	NaN
in	NaN	NaN
Läwesgrösse	NaN	NaN
.	NaN	NaN
Minsex	NaN	NaN
,	NaN	NaN
denne	NaN	NaN
hett	NaN	NaN
's	NaN	NaN
.	NaN	NaN
Soll	NaN	NaN
d'r	NaN	NaN
Photograph	NaN	NaN
au	NaN	NaN
die	NaN	NaN
neje	NaN	NaN
X-Baanstrahle	NaN	NaN
mitbringe	NaN	NaN
?	NaN	NaN
Awer	NaN	NaN
d'	NaN	NaN
beschte	NaN	NaN
wo'r	NaN	NaN
hett	NaN	NaN
.	NaN	NaN
Saasch	NaN	NaN
er	NaN	NaN
soll	NaN	NaN
e	NaN	NaN
'n	NaN	NaN
Andenke	NaN	NaN
gänn	NaN	NaN
.	NaN	NaN
Wurd	NaN	NaN
üssgericht	NaN	NaN
.	NaN	NaN
Un	NaN	NaN
dü	NaN	NaN
,	NaN	NaN
Adolph	NaN	NaN
,	NaN	NaN
bschtellsch	NaN	NaN
mer	NaN	NaN
glich	NaN	NaN
e	NaN	NaN
Fass	NaN	NaN
Champagner	NaN	NaN
,	NaN	NaN
verschtande	NaN	NaN
?	NaN	NaN
Haha	NaN	NaN
,	NaN	NaN
e	NaN	NaN
Fass	NaN	NaN
Champagner	NaN	NaN
.	NaN	NaN
Dem	NaN	NaN
isch	NaN	NaN
's	NaN	NaN
Pech	NaN	NaN
in	NaN	NaN
de	NaN	NaN
Kopf	NaN	NaN
gschtöje	NaN	NaN
.	NaN	NaN
Halt	NaN	NaN
,	NaN	NaN
Adolph	NaN	NaN
!	NaN	NaN
Z'erscht	NaN	NaN
gehsch	NaN	NaN
in	NaN	NaN
de	NaN	NaN
Keller	NaN	NaN
,	NaN	NaN
an	NaN	NaN
de	NaN	NaN
Gänsstall	NaN	NaN
,	NaN	NaN
nämsch	NaN	NaN
d'r	NaN	NaN
Knibbe	NaN	NaN
mit	NaN	NaN
un	NaN	NaN
murigsch	NaN	NaN
alli	NaN	NaN
Gäns	NaN	NaN
ab	NaN	NaN
.	NaN	NaN
Schaköbel	NaN	NaN
,	NaN	NaN
dü	NaN	NaN
helfsch-em	NaN	NaN
.	NaN	NaN
D'	NaN	NaN
Madam	NaN	NaN
Drohtspitz	NaN	NaN
hett	NaN	NaN
's	NaN	NaN
nimi	NaN	NaN
notwendig	NaN	NaN
Gäns	NaN	NaN
ze	NaN	NaN
stopfe	NaN	NaN
,	NaN	NaN
diss	NaN	NaN
isch	NaN	NaN
guet	NaN	NaN
for	NaN	NaN
Proletarier	NaN	NaN
.	NaN	NaN
Gibts	NaN	NaN
hitt	NaN	NaN
noch	NaN	NaN
e	NaN	NaN
Fricot	NaN	NaN
,	NaN	NaN
Herr	NaN	NaN
Drohtspitz	NaN	NaN
?	NaN	NaN
Mit	NaN	NaN
Champagner	NaN	NaN
.	NaN	NaN
Ha	NaN	NaN
,	NaN	NaN
ich	NaN	NaN
frai	NaN	NaN
mich	NaN	NaN
jetz	NaN	NaN
schun	NaN	NaN
druff	NaN	NaN
.	NaN	NaN
Herr	NaN	NaN
Dorl	NaN	NaN
,	NaN	NaN
vergesse	NaN	NaN
Sie	NaN	NaN
Ihri	NaN	NaN
Redd	NaN	NaN
nit	NaN	NaN
.	NaN	NaN
Schaköbel	NaN	NaN
,	NaN	NaN
kumm	NaN	NaN
.	NaN	NaN
Herr	NaN	NaN
Drohtspitz	NaN	NaN
!	NaN	NaN
Herr	NaN	NaN
Schwejeres	NaN	NaN
,	NaN	NaN
ich	NaN	NaN
möcht	NaN	NaN
…	NaN	NaN
Ja	NaN	NaN
sin	NaN	NaN
denn	NaN	NaN
Sie	NaN	NaN
als	NaN	NaN
noch	NaN	NaN
do	NaN	NaN
?	NaN	NaN
Wa-wa	NaN	NaN
…	NaN	NaN
Los	NaN	NaN
,	NaN	NaN
üss-em	NaN	NaN
Staub	NaN	NaN
,	NaN	NaN
Sunscht	NaN	NaN
hebb	NaN	NaN
ich	NaN	NaN
d'	NaN	NaN
Tüer	NaN	NaN
üss	NaN	NaN
.	NaN	NaN
Soll	NaN	NaN
mich	NaN	NaN
e	NaN	NaN
Esel	NaN	NaN
trette	NaN	NaN
.	NaN	NaN
Ja	NaN	NaN
,	NaN	NaN
was	NaN	NaN
glauwe	NaN	NaN
denn	NaN	NaN
…	NaN	NaN
Jaja	NaN	NaN
,	NaN	NaN
's	NaN	NaN
isch	NaN	NaN
Ernscht	NaN	NaN
,	NaN	NaN
Herr	NaN	NaN
Bäbbkessel	NaN	NaN
.	NaN	NaN
Gehn	NaN	NaN
Sie	NaN	NaN
numme	NaN	NaN
.	NaN	NaN
Ich	NaN	NaN
verbiet	NaN	NaN
Ihne	NaN	NaN
ein	NaN	NaN
for	NaN	NaN
allemol	NaN	NaN
in	NaN	NaN
unseri	NaN	NaN
Villa	NaN	NaN
ze	NaN	NaN
kumme	NaN	NaN
.	NaN	NaN
Villa	NaN	NaN
?	NaN	NaN
Mer	NaN	NaN
sieht	NaN	NaN
's	NaN	NaN
.	NaN	NaN
Cambüs	NaN	NaN
wölle	NaN	NaN
Sie	NaN	NaN
saawe	NaN	NaN
.	NaN	NaN
Haha	NaN	NaN
!	NaN	NaN
Dabbezierersknecht	NaN	NaN
,	NaN	NaN
wurr	NaN	NaN
nit	NaN	NaN
frech	NaN	NaN
,	NaN	NaN
sunscht	NaN	NaN
könntsch	NaN	NaN
's	NaN	NaN
Fliehje	NaN	NaN
lehre	NaN	NaN
.	NaN	NaN
Jetz	NaN	NaN
krej	NaN	NaN
ich	NaN	NaN
doch	NaN	NaN
ball	NaN	NaN
e	NaN	NaN
Wuet	NaN	NaN
.	NaN	NaN
Saa	NaN	NaN
mol	NaN	NaN
,	NaN	NaN
was	NaN	NaN
isch	NaN	NaN
denn	NaN	NaN
in	NaN	NaN
dich	NaN	NaN
nyngfahre	NaN	NaN
,	NaN	NaN
dass	NaN	NaN
dü	NaN	NaN
so	NaN	NaN
Käschperles	NaN	NaN
mit	NaN	NaN
mir	NaN	NaN
schbielsch	NaN	NaN
?	NaN	NaN
Wie	NaN	NaN
der	NaN	NaN
Mensch	NaN	NaN
uffgeblose	NaN	NaN
duet	NaN	NaN
,	NaN	NaN
als	NaN	NaN
wär	NaN	NaN
er	NaN	NaN
e	NaN	NaN
wahrhaftiger	NaN	NaN
Millionär	NaN	NaN
.	NaN	NaN
Bin	NaN	NaN
ich	NaN	NaN
au	NaN	NaN
,	NaN	NaN
sogar	NaN	NaN
e	NaN	NaN
dreifacher	NaN	NaN
.	NaN	NaN
's	NaN	NaN
Nümero	NaN	NaN
128.697	NaN	NaN
het	NaN	NaN
Glüeck	NaN	NaN
gebrocht	NaN	NaN
.	NaN	NaN
Mit	NaN	NaN
minere	NaN	NaN
Doochter	NaN	NaN
isch	NaN	NaN
üss	NaN	NaN
,	NaN	NaN
sie	NaN	NaN
kann	NaN	NaN
schwasiere	NaN	NaN
.	NaN	NaN
Wenn	NaN	NaN
ich	NaN	NaN
Ihne	NaN	NaN
emol	NaN	NaN
ebbs	NaN	NaN
ze	NaN	NaN
verdiene	NaN	NaN
kann	NaN	NaN
gänn	NaN	NaN
,	NaN	NaN
ganz	NaN	NaN
gern	NaN	NaN
.	NaN	NaN
Miner	NaN	NaN
valet	NaN	NaN
de	NaN	NaN
chambre	NaN	NaN
wurd	NaN	NaN
Ihne	NaN	NaN
geläjetlich	NaN	NaN
Ordre	NaN	NaN
zuekumme	NaN	NaN
lonn	NaN	NaN
.	NaN	NaN
Un	NaN	NaN
jetz	NaN	NaN
wölle	NaN	NaN
Sie	NaN	NaN
so	NaN	NaN
friendlich	NaN	NaN
sin	NaN	NaN
,	NaN	NaN
un	NaN	NaN
d'	NaN	NaN
Stubb	NaN	NaN
süüfer	NaN	NaN
mache	NaN	NaN
.	NaN	NaN
A	NaN	NaN
so	NaN	NaN
raucht	NaN	NaN
's	NaN	NaN
!	NaN	NaN
Ihr	NaN	NaN
wölle	NaN	NaN
mich	NaN	NaN
nimi	NaN	NaN
kenne	NaN	NaN
?	NaN	NaN
Ja	NaN	NaN
wer	NaN	NaN
hett	NaN	NaN
denn	NaN	NaN
Euch	NaN	NaN
eueri	NaN	NaN
Büdik	NaN	NaN
frisch	NaN	NaN
gedabeziert	NaN	NaN
?	NaN	NaN
Wer	NaN	NaN
het	NaN	NaN
denn	NaN	NaN
eueri	NaN	NaN
Wendelmatratze	NaN	NaN
nej	NaN	NaN
üewerzöüje	NaN	NaN
un	NaN	NaN
euere	NaN	NaN
Flohzirik	NaN	NaN
üssgeraichert	NaN	NaN
?	NaN	NaN
—	NaN	NaN
Wer	NaN	NaN
,	NaN	NaN
fröüj	NaN	NaN
ich	NaN	NaN
?	NaN	NaN
Ich	NaN	NaN
hab	NaN	NaN
's	NaN	NaN
gemacht	NaN	NaN
,	NaN	NaN
ich	NaN	NaN
!	NaN	NaN
Un	NaN	NaN
noch	NaN	NaN
umesunscht	NaN	NaN
,	NaN	NaN
ja	NaN	NaN
!	NaN	NaN
Ihr	NaN	NaN
kumme	NaN	NaN
mer	NaN	NaN
gschliche	NaN	NaN
wie	NaN	NaN
gedrabbt	NaN	NaN
,	NaN	NaN
ihr	NaN	NaN
Pecheschores	NaN	NaN
.	NaN	NaN
Herr	NaN	NaN
Prolet	NaN	NaN
,	NaN	NaN
han	NaN	NaN
Sie	NaN	NaN
gsehne	NaN	NaN
,	NaN	NaN
wie	NaN	NaN
Ihri	NaN	NaN
Proletarierskabb	NaN	NaN
nüssgflöüje	NaN	NaN
isch	NaN	NaN
?	NaN	NaN
Na	NaN	NaN
,	NaN	NaN
so	NaN	NaN
kann	NaN	NaN
's	NaN	NaN
Ihne	NaN	NaN
gehn	NaN	NaN
,	NaN	NaN
awer	NaN	NaN
Kopf	NaN	NaN
unte	NaN	NaN
un	NaN	NaN
d'	NaN	NaN
Baan	NaN	NaN
owe	NaN	NaN
.	NaN	NaN
Ich	NaN	NaN
geh	NaN	NaN
vun	NaN	NaN
ase	NaN	NaN
,	NaN	NaN
Herr	NaN	NaN
Millionär	NaN	NaN
.	NaN	NaN
D'r	NaN	NaN
Dorel	NaN	NaN
bliebt	NaN	NaN
d'r	NaN	NaN
Dorel	NaN	NaN
,	NaN	NaN
un	NaN	NaN
d'r	NaN	NaN
Dorel	NaN	NaN
pfifft	NaN	NaN
uff	NaN	NaN
d'	NaN	NaN
Mamsell	NaN	NaN
Drohtspitz	NaN	NaN
.	NaN	NaN
Ihr	NaN	NaN
denke	NaN	NaN
noch	NaN	NaN
an	NaN	NaN
denne	NaN	NaN
arme	NaN	NaN
Bäbbkessel	NaN	NaN
,	NaN	NaN
wo	NaN	NaN
richer	NaN	NaN
isch	NaN	NaN
,	NaN	NaN
als	NaN	NaN
ihr	NaN	NaN
allizamme	NaN	NaN
.	NaN	NaN
Armer	NaN	NaN
Windbittel	NaN	NaN
,	NaN	NaN
düürsch	NaN	NaN
mich	NaN	NaN
.	NaN	NaN
Aha	NaN	NaN
,	NaN	NaN
d'	NaN	NaN
Gäns	NaN	NaN
wäre	NaN	NaN
gegixt	NaN	NaN
,	NaN	NaN
Diss	NaN	NaN
gibt	NaN	NaN
e	NaN	NaN
Fricot	NaN	NaN
.	NaN	NaN
Haha	NaN	NaN
!	NaN	NaN
Do	NaN	NaN
sin	NaN	NaN
mer	NaN	NaN
.	NaN	NaN
Bonjour	NaN	NaN
,	NaN	NaN
Herr	NaN	NaN
Drohtspitz	NaN	NaN
.	NaN	NaN
Sie	NaN	NaN
wüensche	NaN	NaN
in	NaN	NaN
corpore	NaN	NaN
uffgenumme	NaN	NaN
ze	NaN	NaN
wäre	NaN	NaN
.	NaN	NaN
Grossartigi	NaN	NaN
Idee	NaN	NaN
,	NaN	NaN
als	NaN	NaN
ewigs	NaN	NaN
Andenke	NaN	NaN
.	NaN	NaN
Famoser	NaN	NaN
Gedanke	NaN	NaN
.	NaN	NaN
Diss	NaN	NaN
Bild	NaN	NaN
wurd	NaN	NaN
in	NaN	NaN
alle	NaN	NaN
Zittunge	NaN	NaN
e	NaN	NaN
kollosaler	NaN	NaN
Effekt	NaN	NaN
mache	NaN	NaN
.	NaN	NaN
Wüensch	NaN	NaN
Ihne	NaN	NaN
au	NaN	NaN
viel	NaN	NaN
Glüeck	NaN	NaN
zu	NaN	NaN
dem	NaN	NaN
enorme	NaN	NaN
Geld	NaN	NaN
.	NaN	NaN
Drei	NaN	NaN
Milliönle	NaN	NaN
wie	NaN	NaN
ich	NaN	NaN
ghört	NaN	NaN
hab	NaN	NaN
.	NaN	NaN
Ken	NaN	NaN
Klaanigkeit	NaN	NaN
.	NaN	NaN
Aha	NaN	NaN
,	NaN	NaN
der	NaN	NaN
winkt	NaN	NaN
au	NaN	NaN
mit-em	NaN	NaN
Holzschlejel	NaN	NaN
.	NaN	NaN
Nix	NaN	NaN
ze	NaN	NaN
mache	NaN	NaN
.	NaN	NaN
So	NaN	NaN
,	NaN	NaN
d'r	NaN	NaN
Apparat	NaN	NaN
het	NaN	NaN
glich	NaN	NaN
die	NaN	NaN
gross	NaN	NaN
Ehr	NaN	NaN
in	NaN	NaN
Funktion	NaN	NaN
ze	NaN	NaN
trette	NaN	NaN
.	NaN	NaN
—	NaN	NaN
Awer	NaN	NaN
vorerscht	NaN	NaN
möcht	NaN	NaN
ich	NaN	NaN
doch	NaN	NaN
die	NaN	NaN
Herrschafte	NaN	NaN
bitte	NaN	NaN
's	NaN	NaN
Gsicht	NaN	NaN
un	NaN	NaN
d'	NaN	NaN
Händ	NaN	NaN
ze	NaN	NaN
wäsche	NaN	NaN
,	NaN	NaN
denn	NaN	NaN
mini	NaN	NaN
Platte	NaN	NaN
sin	NaN	NaN
arig	NaN	NaN
empfindlich	NaN	NaN
.	NaN	NaN
Zell	NaN	NaN
isch	NaN	NaN
awer	NaN	NaN
num	NaN	NaN
.	NaN	NaN
Sie	NaN	NaN
sotte	NaN	NaN
vor	NaN	NaN
lütter	NaN	NaN
Gruenz	NaN	NaN
nit	NaN	NaN
wisse	NaN	NaN
,	NaN	NaN
was	NaN	NaN
Sie	NaN	NaN
mache	NaN	NaN
wölle	NaN	NaN
,	NaN	NaN
dass	NaN	NaN
Sie	NaN	NaN
miner	NaN	NaN
Hofphotograph	NaN	NaN
wäre	NaN	NaN
.	NaN	NaN
Uewerhaupt	NaN	NaN
hab	NaN	NaN
ich	NaN	NaN
noch	NaN	NaN
nie	NaN	NaN
e	NaN	NaN
Schuehmacher	NaN	NaN
mit	NaN	NaN
'me	NaN	NaN
Cylinder	NaN	NaN
un	NaN	NaN
Glacéhändschi	NaN	NaN
uff-em	NaN	NaN
Pechstuehl	NaN	NaN
sitze	NaN	NaN
sehn	NaN	NaN
.	NaN	NaN
Ja	NaN	NaN
,	NaN	NaN
ja	NaN	NaN
.	NaN	NaN
D'r	NaN	NaN
Schaköbel	NaN	NaN
hielt	NaN	NaN
wäje	NaN	NaN
de	NaN	NaN
Hä	NaN	NaN
,	NaN	NaN
do	NaN	NaN
linse	NaN	NaN
Sie	NaN	NaN
,	NaN	NaN
Herr	NaN	NaN
Linser	NaN	NaN
.	NaN	NaN
Wie	NaN	NaN
Sie	NaN	NaN
wüensche	NaN	NaN
,	NaN	NaN
Herr	NaN	NaN
Drohtspitz	NaN	NaN
.	NaN	NaN
Also	NaN	NaN
verehrti	NaN	NaN
Herrschafte	NaN	NaN
…	NaN	NaN
Halt	NaN	NaN
!	NaN	NaN
D'r	NaN	NaN
Addes	NaN	NaN
un	NaN	NaN
dr	NaN	NaN
Schaköbel	NaN	NaN
fehle	NaN	NaN
noch	NaN	NaN
.	NaN	NaN
Ruef	NaN	NaN
'ne	NaN	NaN
,	NaN	NaN
sie	NaN	NaN
solle	NaN	NaN
sich	NaN	NaN
dummle	NaN	NaN
.	NaN	NaN
Addes	NaN	NaN
,	NaN	NaN
Schaköbel	NaN	NaN
,	NaN	NaN
ihr	NaN	NaN
solle	NaN	NaN
kumme	NaN	NaN
!	NaN	NaN
Gäns	NaN	NaN
.	NaN	NaN
Mir	NaN	NaN
kumme	NaN	NaN
!	NaN	NaN
Mir	NaN	NaN
kumme	NaN	NaN
!	NaN	NaN
So	NaN	NaN
,	NaN	NaN
jetz	NaN	NaN
kann	NaN	NaN
's	NaN	NaN
losgehn	NaN	NaN
.	NaN	NaN
Haha	NaN	NaN
,	NaN	NaN
luej	NaN	NaN
die	NaN	NaN
zwei	NaN	NaN
.	NaN	NaN
Mer	NaN	NaN
maant	NaN	NaN
sie	NaN	NaN
han	NaN	NaN
e	NaN	NaN
Bataille	NaN	NaN
mitgemacht	NaN	NaN
.	NaN	NaN
Betrachte	NaN	NaN
die	NaN	NaN
Gänsmetzjer	NaN	NaN
wie	NaN	NaN
die	NaN	NaN
drinsehn	NaN	NaN
.	NaN	NaN
Also	NaN	NaN
mini	NaN	NaN
Herrschafte	NaN	NaN
,	NaN	NaN
bilde	NaN	NaN
Sie	NaN	NaN
e	NaN	NaN
schöni	NaN	NaN
Grupp	NaN	NaN
.	NaN	NaN
D'r	NaN	NaN
Herr	NaN	NaN
Drohtspitz	NaN	NaN
in	NaN	NaN
d'	NaN	NaN
Mittle	NaN	NaN
,	NaN	NaN
die	NaN	NaN
junge	NaN	NaN
Herre	NaN	NaN
rächts	NaN	NaN
un	NaN	NaN
links	NaN	NaN
.	NaN	NaN
Ich	NaN	NaN
sitz	NaN	NaN
links	NaN	NaN
.	NaN	NaN
Naan	NaN	NaN
ich	NaN	NaN
sitz	NaN	NaN
links	NaN	NaN
un	NaN	NaN
dü	NaN	NaN
rächts	NaN	NaN
.	NaN	NaN
He	NaN	NaN
,	NaN	NaN
ihr	NaN	NaN
Buewe	NaN	NaN
,	NaN	NaN
ruehig	NaN	NaN
.	NaN	NaN
Maischter	NaN	NaN
,	NaN	NaN
ich	NaN	NaN
will	NaN	NaN
links	NaN	NaN
…	NaN	NaN
Maischter	NaN	NaN
!	NaN	NaN
?	NaN	NaN
Do	NaN	NaN
hesch	NaN	NaN
links	NaN	NaN
.	NaN	NaN
Bisch	NaN	NaN
jetz	NaN	NaN
zefridde	NaN	NaN
?	NaN	NaN
So	NaN	NaN
.	NaN	NaN
D'r	NaN	NaN
Klaan	NaN	NaN
do	NaN	NaN
,	NaN	NaN
der	NaN	NaN
setzt	NaN	NaN
sich	NaN	NaN
vor	NaN	NaN
d'r	NaN	NaN
Herr	NaN	NaN
Drohtspitz	NaN	NaN
uff	NaN	NaN
dr	NaN	NaN
Bodde	NaN	NaN
,	NaN	NaN
C'est	NaN	NaN
ça	NaN	NaN
!	NaN	NaN
Awer	NaN	NaN
Herr	NaN	NaN
Drohtspitz	NaN	NaN
,	NaN	NaN
lueje	NaN	NaN
Sie	NaN	NaN
doch	NaN	NaN
friendlicher	NaN	NaN
,	NaN	NaN
ja	NaN	NaN
.	NaN	NaN
Ja	NaN	NaN
so	NaN	NaN
!	NaN	NaN
Uff	NaN	NaN
đe	NaN	NaN
Gsichter	NaN	NaN
muess	NaN	NaN
mer	NaN	NaN
e	NaN	NaN
Glanz	NaN	NaN
sehn	NaN	NaN
,	NaN	NaN
als	NaN	NaN
hätt	NaN	NaN
e	NaN	NaN
Maiedaa	NaN	NaN
mit	NaN	NaN
sim	NaN	NaN
Früehjrot	NaN	NaN
druffgezunde	NaN	NaN
un	NaN	NaN
es	NaN	NaN
dät	NaN	NaN
Knackwuerscht	NaN	NaN
räje	NaN	NaN
.	NaN	NaN
Was	NaN	NaN
Knackwuerscht	NaN	NaN
?	NaN	NaN
Paschtete	NaN	NaN
,	NaN	NaN
wenn	NaN	NaN
's	NaN	NaN
beliebt	NaN	NaN
.	NaN	NaN
Hahaha	NaN	NaN
!	NaN	NaN
Guet	NaN	NaN
gänn	NaN	NaN
,	NaN	NaN
hahaha	NaN	NaN
.	NaN	NaN
So	NaN	NaN
isch	NaN	NaN
erächt	NaN	NaN
,	NaN	NaN
ja	NaN	NaN
.	NaN	NaN
Herr	NaN	NaN
Drohtspitz	NaN	NaN
,	NaN	NaN
e	NaN	NaN
bissel	NaN	NaN
süesser	NaN	NaN
lächle	NaN	NaN
,	NaN	NaN
noch	NaN	NaN
süesser	NaN	NaN
,	NaN	NaN
so	NaN	NaN
—	NaN	NaN
awer	NaN	NaN
d'	NaN	NaN
Nas	NaN	NaN
nit	NaN	NaN
so	NaN	NaN
hoch	NaN	NaN
.	NaN	NaN
Sie	NaN	NaN
,	NaN	NaN
junger	NaN	NaN
Herr	NaN	NaN
,	NaN	NaN
lonn	NaN	NaN
Sie	NaN	NaN
d'	NaN	NaN
Finger	NaN	NaN
üss	NaN	NaN
d'r	NaN	NaN
Nas	NaN	NaN
.	NaN	NaN
Maane	NaN	NaN
Sie	NaN	NaN
mich	NaN	NaN
?	NaN	NaN
Herrschaft	NaN	NaN
düürt	NaN	NaN
dis	NaN	NaN
e	NaN	NaN
Ewigkeit	NaN	NaN
.	NaN	NaN
Aa	NaN	NaN
—	NaN	NaN
Herr	NaN	NaN
Linser	NaN	NaN
,	NaN	NaN
han	NaN	NaN
Sie	NaN	NaN
au	NaN	NaN
die	NaN	NaN
neje	NaN	NaN
Strahle	NaN	NaN
mitgebrocht	NaN	NaN
?	NaN	NaN
Bedüür	NaN	NaN
arig	NaN	NaN
.	NaN	NaN
Sie	NaN	NaN
sin	NaN	NaN
uff	NaN	NaN
Schuehmacher	NaN	NaN
nit	NaN	NaN
verwendbar	NaN	NaN
.	NaN	NaN
Au	NaN	NaN
Schwindel	NaN	NaN
.	NaN	NaN
Jetz	NaN	NaN
uffgebasst	NaN	NaN
.	NaN	NaN
Silence	NaN	NaN
!	NaN	NaN
Ganz	NaN	NaN
ruehig	NaN	NaN
wenn	NaN	NaN
's	NaN	NaN
beliebt	NaN	NaN
.	NaN	NaN
He	NaN	NaN
,	NaN	NaN
der	NaN	NaN
ganz	NaN	NaN
klaan	NaN	NaN
Herr	NaN	NaN
do	NaN	NaN
vorne	NaN	NaN
,	NaN	NaN
der	NaN	NaN
macht	NaN	NaN
jo	NaN	NaN
e	NaN	NaN
Buckel	NaN	NaN
wie	NaN	NaN
e	NaN	NaN
Katz	NaN	NaN
wenn	NaN	NaN
's	NaN	NaN
blitzt	NaN	NaN
.	NaN	NaN
Harr	NaN	NaN
Telegraph	NaN	NaN
,	NaN	NaN
ech	NaN	NaN
mään	NaN	NaN
—	NaN	NaN
ech	NaN	NaN
mään	NaN	NaN
as	NaN	NaN
düat	NaN	NaN
weh	NaN	NaN
.	NaN	NaN
Dummer	NaN	NaN
Bue	NaN	NaN
.	NaN	NaN
Vor	NaN	NaN
ihm	NaN	NaN
aaner-gsin	NaN	NaN
.	NaN	NaN
Attention	NaN	NaN
!	NaN	NaN
Herr	NaN	NaN
Drohtspitz	NaN	NaN
,	NaN	NaN
wisse	NaN	NaN
Sie	NaN	NaN
schun	NaN	NaN
?	NaN	NaN
Silence	NaN	NaN
!	NaN	NaN
Herr	NaN	NaN
Millionär	NaN	NaN
,	NaN	NaN
wisse	NaN	NaN
Sie	NaN	NaN
schun	NaN	NaN
?	NaN	NaN
Nüss	NaN	NaN
,	NaN	NaN
als	NaN	NaN
nüss	NaN	NaN
!	NaN	NaN
Dass	NaN	NaN
Sie	NaN	NaN
nix	NaN	NaN
gewunne	NaN	NaN
han	NaN	NaN
?	NaN	NaN
Do	NaN	NaN
steht	NaN	NaN
's	NaN	NaN
in	NaN	NaN
der	NaN	NaN
Zittung	NaN	NaN
.	NaN	NaN
E	NaN	NaN
Druckfehler	NaN	NaN
het	NaN	NaN
sich	NaN	NaN
yngschliche	NaN	NaN
.	NaN	NaN
Voilà	NaN	NaN
,	NaN	NaN
Monsieur	NaN	NaN
.	NaN	NaN
Gewunne	NaN	NaN
het	NaN	NaN
nit	NaN	NaN
128.697	NaN	NaN
,	NaN	NaN
awer	NaN	NaN
128	NaN	NaN
,	NaN	NaN
698.	NaN	NaN
Aans	NaN	NaN
ze	NaN	NaN
weny	NaN	NaN
!	NaN	NaN
Nix	NaN	NaN
gewunne	NaN	NaN
!	NaN	NaN
Nix	NaN	NaN
ge	NaN	NaN
…	NaN	NaN
Jesses	NaN	NaN
,	NaN	NaN
jetz	NaN	NaN
,	NaN	NaN
jetz	NaN	NaN
…	NaN	NaN
Oho	NaN	NaN
,	NaN	NaN
die	NaN	NaN
ganz	NaN	NaN
Gsellschaft	NaN	NaN
isch	NaN	NaN
jo	NaN	NaN
verschwunde	NaN	NaN
.	NaN	NaN
Do	NaN	NaN
soll	NaN	NaN
doch	NaN	NaN
glich	NaN	NaN
Do	NaN	NaN
hett	NaN	NaN
's	NaN	NaN
e	NaN	NaN
Erdbewe	NaN	NaN
gänn	NaN	NaN
.	NaN	NaN
O	NaN	NaN
mini	NaN	NaN
drei	NaN	NaN
Milliiönle	NaN	NaN
!	NaN	NaN
Un	NaN	NaN
mini	NaN	NaN
zehndöüsig	NaN	NaN
Fränkle	NaN	NaN
!	NaN	NaN
Der	NaN	NaN
guet	NaN	NaN
Fricot	NaN	NaN
!	NaN	NaN
Oo	NaN	NaN
,	NaN	NaN
Mieädder	NaN	NaN
,	NaN	NaN
hole	NaN	NaN
mich	NaN	NaN
!	NaN	NaN
Do	NaN	NaN
,	NaN	NaN
Herr	NaN	NaN
Drohtspitz	NaN	NaN
,	NaN	NaN
hesch	NaN	NaN
dini	NaN	NaN
Millionärskabb	NaN	NaN
.	NaN	NaN
