E	NaN	NaN
Doktr	NaN	NaN
isch	NaN	NaN
,	NaN	NaN
wer	NaN	NaN
hett	NaN	NaN
Idée	NaN	NaN
?	NaN	NaN
Zwiewele	NaN	NaN
wie	NaN	NaN
Bum-Bum	NaN	NaN
!	NaN	NaN
E	NaN	NaN
vielgeblöjtes	NaN	NaN
Menschekind	NaN	NaN
;	NaN	NaN
Zwiewele	NaN	NaN
wie	NaN	NaN
Bum-Bum	NaN	NaN
!	NaN	NaN
Ihm	NaN	NaN
kläut'mr	NaN	NaN
alles	NaN	NaN
Leid	NaN	NaN
un	NaN	NaN
Weh	NaN	NaN
Wenn	NaN	NaN
irgend	NaN	NaN
’s	NaN	NaN
Mensche	NaN	NaN
unwohl	NaN	NaN
sinn	NaN	NaN
.	NaN	NaN
In	NaN	NaN
’s	NaN	NaN
Innere	NaN	NaN
kann	NaN	NaN
er	NaN	NaN
zwar	NaN	NaN
nit	NaN	NaN
sähn	NaN	NaN
,	NaN	NaN
Zwiewele	NaN	NaN
wie	NaN	NaN
Bum-Bum	NaN	NaN
!	NaN	NaN
Un	NaN	NaN
bstimme	NaN	NaN
wo	NaN	NaN
die	NaN	NaN
Krankheit	NaN	NaN
sitzt	NaN	NaN
,	NaN	NaN
Zwiewele	NaN	NaN
wie	NaN	NaN
Bum-Bum	NaN	NaN
!	NaN	NaN
Doch	NaN	NaN
ich	NaN	NaN
,	NaN	NaN
ich	NaN	NaN
gläub	NaN	NaN
s’	NaN	NaN
isch	NaN	NaN
zu	NaN	NaN
versteh’n	NaN	NaN
,	NaN	NaN
Mach’	NaN	NaN
immer	NaN	NaN
,	NaN	NaN
daß	NaN	NaN
d'r	NaN	NaN
Kranke	NaN	NaN
schwitzt	NaN	NaN
.	NaN	NaN
Ja	NaN	NaN
,	NaN	NaN
schwitze	NaN	NaN
isch	NaN	NaN
e	NaN	NaN
prachtvolls	NaN	NaN
Universalmittel	NaN	NaN
bie'n	NaN	NaN
alle	NaN	NaN
Kranke	NaN	NaN
un	NaN	NaN
hilft	NaN	NaN
manchem	NaN	NaN
Verzwiefelte	NaN	NaN
widdr	NaN	NaN
uff	NaN	NaN
d’	NaN	NaN
Bein	NaN	NaN
.	NaN	NaN
Leider	NaN	NaN
gibt	NaN	NaN
’s	NaN	NaN
awr	NaN	NaN
e	NaN	NaN
so	NaN	NaN
viel	NaN	NaN
,	NaN	NaN
wo	NaN	NaN
d'	NaN	NaN
Schwitzkürfür	NaN	NaN
ebs	NaN	NaN
ganz	NaN	NaN
Gräßlichs	NaN	NaN
halte	NaN	NaN
,	NaN	NaN
biem	NaN	NaN
e	NaN	NaN
Kranke	NaN	NaN
un	NaN	NaN
uewwer	NaN	NaN
em	NaN	NaN
Schaffe	NaN	NaN
heißt	NaN	NaN
’s	NaN	NaN
,	NaN	NaN
nur	NaN	NaN
nit	NaN	NaN
schwitze	NaN	NaN
;	NaN	NaN
awr	NaN	NaN
biem	NaN	NaN
Keijle	NaN	NaN
,	NaN	NaN
Esse	NaN	NaN
un	NaN	NaN
Trinke	NaN	NaN
isch	NaN	NaN
’s	NaN	NaN
kenn	NaN	NaN
Blöj	NaN	NaN
,	NaN	NaN
do	NaN	NaN
geht	NaN	NaN
’s	NaN	NaN
.	NaN	NaN
Ja	NaN	NaN
,	NaN	NaN
mit	NaN	NaN
de	NaN	NaN
Patiente	NaN	NaN
hett	NaN	NaN
m'r	NaN	NaN
sini	NaN	NaN
lieb	NaN	NaN
Not	NaN	NaN
,	NaN	NaN
e	NaN	NaN
jeder	NaN	NaN
möcht	NaN	NaN
ander’sch	NaN	NaN
b’han	NaN	NaN
-	NaN	NaN
delt	NaN	NaN
sin	NaN	NaN
.	NaN	NaN
Einer	NaN	NaN
mit	NaN	NaN
Mitleid	NaN	NaN
,	NaN	NaN
dr	NaN	NaN
ander	NaN	NaN
mit	NaN	NaN
Grobheit	NaN	NaN
,	NaN	NaN
jener	NaN	NaN
mit	NaN	NaN
Medezin	NaN	NaN
,	NaN	NaN
zäller	NaN	NaN
mit	NaN	NaN
Wasser	NaN	NaN
oder	NaN	NaN
heißi	NaN	NaN
Um	NaN	NaN
-	NaN	NaN
schläj	NaN	NaN
,	NaN	NaN
widdr	NaN	NaN
anderi	NaN	NaN
mit	NaN	NaN
Iss	NaN	NaN
oder	NaN	NaN
Unterhaltung	NaN	NaN
,	NaN	NaN
un	NaN	NaN
no	NaN	NaN
sin	NaN	NaN
noch	NaN	NaN
do	NaN	NaN
,	NaN	NaN
die	NaN	NaN
welle	NaN	NaN
mit	NaN	NaN
Ruej	NaN	NaN
b’handelt	NaN	NaN
sin	NaN	NaN
,	NaN	NaN
un	NaN	NaN
mir	NaN	NaN
Doktr	NaN	NaN
muen	NaN	NaN
uns	NaN	NaN
immer	NaN	NaN
noch	NaN	NaN
de	NaN	NaN
Lünne	NaN	NaN
von	NaN	NaN
de	NaN	NaN
Kranke	NaN	NaN
richte	NaN	NaN
,	NaN	NaN
des	NaN	NaN
heißt	NaN	NaN
also	NaN	NaN
Geduld	NaN	NaN
han	NaN	NaN
.	NaN	NaN
Es	NaN	NaN
klopft	NaN	NaN
,	NaN	NaN
gewiß	NaN	NaN
e	NaN	NaN
Patient	NaN	NaN
.	NaN	NaN
Entré	NaN	NaN
!	NaN	NaN
Guete	NaN	NaN
Morje	NaN	NaN
,	NaN	NaN
Herr	NaN	NaN
Doktr	NaN	NaN
!	NaN	NaN
Guete	NaN	NaN
Morje	NaN	NaN
,	NaN	NaN
min	NaN	NaN
Liewer	NaN	NaN
,	NaN	NaN
na	NaN	NaN
sin	NaN	NaN
Ihr	NaN	NaN
krank	NaN	NaN
?	NaN	NaN
Hm	NaN	NaN
!	NaN	NaN
So	NaN	NaN
,	NaN	NaN
so	NaN	NaN
,	NaN	NaN
na	NaN	NaN
was	NaN	NaN
fahlt	NaN	NaN
Eujch	NaN	NaN
denn	NaN	NaN
?	NaN	NaN
Patient	NaN	NaN
;	NaN	NaN
D’	NaN	NaN
Gsundheit	NaN	NaN
,	NaN	NaN
Herr	NaN	NaN
Doktr	NaN	NaN
!	NaN	NaN
Ja	NaN	NaN
,	NaN	NaN
ja	NaN	NaN
,	NaN	NaN
des	NaN	NaN
glaüb	NaN	NaN
ich	NaN	NaN
schon	NaN	NaN
,	NaN	NaN
awr	NaN	NaN
s’	NaN	NaN
allererscht	NaN	NaN
,	NaN	NaN
was	NaN	NaN
fehlt	NaN	NaN
Eujch	NaN	NaN
,	NaN	NaN
wo	NaN	NaN
han’r	NaN	NaN
weh	NaN	NaN
?	NaN	NaN
Hm	NaN	NaN
!	NaN	NaN
Un	NaN	NaN
wo	NaN	NaN
un	NaN	NaN
was	NaN	NaN
,	NaN	NaN
wenn	NaN	NaN
ich	NaN	NaN
fröje	NaN	NaN
derf	NaN	NaN
?	NaN	NaN
Do	NaN	NaN
!	NaN	NaN
Aha	NaN	NaN
,	NaN	NaN
am	NaN	NaN
Mäuje	NaN	NaN
!	NaN	NaN
Un	NaN	NaN
was	NaN	NaN
isch	NaN	NaN
mit	NaN	NaN
’m	NaN	NaN
Mäuje	NaN	NaN
,	NaN	NaN
was	NaN	NaN
fehlt	NaN	NaN
’m	NaN	NaN
denn	NaN	NaN
?	NaN	NaN
Na	NaN	NaN
,	NaN	NaN
wenn	NaN	NaN
Sie	NaN	NaN
’s	NaN	NaN
nit	NaN	NaN
wisse	NaN	NaN
,	NaN	NaN
ich	NaN	NaN
kann	NaN	NaN
’s	NaN	NaN
doch	NaN	NaN
nit	NaN	NaN
wisse	NaN	NaN
,	NaN	NaN
waye	NaN	NaN
dem	NaN	NaN
komm	NaN	NaN
ich	NaN	NaN
doher	NaN	NaN
,	NaN	NaN
um	NaN	NaN
zu	NaN	NaN
froje	NaN	NaN
,	NaN	NaN
was	NaN	NaN
im	NaN	NaN
Mäuje	NaN	NaN
fehlt	NaN	NaN
!	NaN	NaN
Dummkopf	NaN	NaN
!	NaN	NaN
:	NaN	NaN
Na	NaN	NaN
ja	NaN	NaN
,	NaN	NaN
ich	NaN	NaN
mein	NaN	NaN
,	NaN	NaN
was	NaN	NaN
han	NaN	NaN
Sie	NaN	NaN
fuer	NaN	NaN
Beobachtunge	NaN	NaN
gemacht	NaN	NaN
,	NaN	NaN
wo	NaN	NaN
sitze	NaN	NaN
die	NaN	NaN
Schmerze	NaN	NaN
?	NaN	NaN
Na	NaN	NaN
,	NaN	NaN
sehn’se	NaN	NaN
,	NaN	NaN
Herr	NaN	NaN
Doktr	NaN	NaN
,	NaN	NaN
wenn	NaN	NaN
ich	NaN	NaN
do	NaN	NaN
drutf	NaN	NaN
druck	NaN	NaN
,	NaN	NaN
tuet	NaN	NaN
’s	NaN	NaN
weh	NaN	NaN
.	NaN	NaN
Ja	NaN	NaN
,	NaN	NaN
do	NaN	NaN
muehn’se	NaN	NaN
ewe	NaN	NaN
nit	NaN	NaN
druft	NaN	NaN
drucke	NaN	NaN
,	NaN	NaN
no	NaN	NaN
tuet	NaN	NaN
’s	NaN	NaN
nit	NaN	NaN
weh	NaN	NaN
!	NaN	NaN
Meine	NaN	NaN
Sie	NaN	NaN
?	NaN	NaN
Ey	NaN	NaN
niadierlich	NaN	NaN
!	NaN	NaN
Zeye	NaN	NaN
Sie	NaN	NaN
emol	NaN	NaN
Ihri	NaN	NaN
Zung	NaN	NaN
!	NaN	NaN
Mini	NaN	NaN
Zang	NaN	NaN
?	NaN	NaN
Ich	NaN	NaN
hab	NaN	NaN
keini	NaN	NaN
mitgebrocht	NaN	NaN
.	NaN	NaN
Ihri	NaN	NaN
Zung	NaN	NaN
solle	NaN	NaN
Sie	NaN	NaN
mir	NaN	NaN
zäje	NaN	NaN
!	NaN	NaN
O	NaN	NaN
nä	NaN	NaN
,	NaN	NaN
do	NaN	NaN
scham	NaN	NaN
ich	NaN	NaN
mich	NaN	NaN
.	NaN	NaN
Unsinn	NaN	NaN
,	NaN	NaN
worum	NaN	NaN
denn	NaN	NaN
?	NaN	NaN
Ich	NaN	NaN
kann	NaN	NaN
sie	NaN	NaN
doch	NaN	NaN
nit	NaN	NaN
geje	NaN	NaN
Eujch	NaN	NaN
erußstrecke	NaN	NaN
.	NaN	NaN
Ach	NaN	NaN
was	NaN	NaN
,	NaN	NaN
des	NaN	NaN
geniert	NaN	NaN
gar	NaN	NaN
nit	NaN	NaN
,	NaN	NaN
erüß	NaN	NaN
mit	NaN	NaN
dr	NaN	NaN
Zung	NaN	NaN
.	NaN	NaN
Na	NaN	NaN
,	NaN	NaN
mintwaje	NaN	NaN
.	NaN	NaN
Widdersch	NaN	NaN
erüß	NaN	NaN
!	NaN	NaN
Patient	NaN	NaN
.	NaN	NaN
Widdersch	NaN	NaN
,	NaN	NaN
noch	NaN	NaN
widdersch	NaN	NaN
!	NaN	NaN
Sie	NaN	NaN
isch	NaN	NaN
nit	NaN	NaN
länger	NaN	NaN
,	NaN	NaN
Herr	NaN	NaN
Dokter	NaN	NaN
,	NaN	NaN
widdersch	NaN	NaN
eruß	NaN	NaN
,	NaN	NaN
geht	NaN	NaN
se	NaN	NaN
nim	NaN	NaN
!	NaN	NaN
D’	NaN	NaN
Zung	NaN	NaN
isch	NaN	NaN
belajt	NaN	NaN
.	NaN	NaN
Na	NaN	NaN
,	NaN	NaN
dies	NaN	NaN
isch	NaN	NaN
jetzt	NaN	NaN
ebbs	NaN	NaN
merikwür	NaN	NaN
-	NaN	NaN
digs	NaN	NaN
,	NaN	NaN
ich	NaN	NaN
hab	NaN	NaN
d’	NaN	NaN
ganz	NaN	NaN
Woch	NaN	NaN
noch	NaN	NaN
nia	NaN	NaN
belejt	NaN	NaN
’s	NaN	NaN
gässe	NaN	NaN
.	NaN	NaN
Dies	NaN	NaN
kommt	NaN	NaN
nit	NaN	NaN
do	NaN	NaN
druff	NaN	NaN
an	NaN	NaN
.	NaN	NaN
Ich	NaN	NaN
seh	NaN	NaN
Eujere	NaN	NaN
Mäuje	NaN	NaN
isch	NaN	NaN
krank	NaN	NaN
.	NaN	NaN
Es	NaN	NaN
schint	NaN	NaN
,	NaN	NaN
daß	NaN	NaN
Sie	NaN	NaN
Darmkatarrh	NaN	NaN
han	NaN	NaN
.	NaN	NaN
Was	NaN	NaN
,	NaN	NaN
e	NaN	NaN
Darmkater	NaN	NaN
?	NaN	NaN
Ja	NaN	NaN
,	NaN	NaN
wie	NaN	NaN
isch	NaN	NaN
denn	NaN	NaN
dies	NaN	NaN
Vieh	NaN	NaN
enin	NaN	NaN
komme	NaN	NaN
?	NaN	NaN
:	NaN	NaN
Nä	NaN	NaN
,	NaN	NaN
Sie	NaN	NaN
verstehn	NaN	NaN
mich	NaN	NaN
nit	NaN	NaN
guet	NaN	NaN
.	NaN	NaN
Sie	NaN	NaN
han	NaN	NaN
sien	NaN	NaN
Mäuje	NaN	NaN
un	NaN	NaN
Gedärm	NaN	NaN
verkältet	NaN	NaN
.	NaN	NaN
Jetzt	NaN	NaN
bi	NaN	NaN
dere	NaN	NaN
Hitz	NaN	NaN
?	NaN	NaN
—	NaN	NaN
Dies	NaN	NaN
könne	NaN	NaN
Sie	NaN	NaN
im	NaN	NaN
e	NaN	NaN
andere	NaN	NaN
verzähle	NaN	NaN
,	NaN	NaN
awr	NaN	NaN
mir	NaN	NaN
nit	NaN	NaN
.	NaN	NaN
Sie	NaN	NaN
han	NaN	NaN
wahrschinlich	NaN	NaN
kalt	NaN	NaN
getrunke	NaN	NaN
?	NaN	NaN
Ja	NaN	NaN
,	NaN	NaN
soll	NaN	NaN
ich	NaN	NaN
denn	NaN	NaN
in	NaN	NaN
dere	NaN	NaN
Hitz	NaN	NaN
Vin	NaN	NaN
chaud	NaN	NaN
trinke	NaN	NaN
?	NaN	NaN
E	NaN	NaN
zue	NaN	NaN
dummer	NaN	NaN
Mensch	NaN	NaN
.	NaN	NaN
Jetzt	NaN	NaN
,	NaN	NaN
wenn	NaN	NaN
Sie	NaN	NaN
heimkomme	NaN	NaN
,	NaN	NaN
mache	NaN	NaN
Sie	NaN	NaN
heißes	NaN	NaN
Sandsäckl	NaN	NaN
un	NaN	NaN
lejes	NaN	NaN
uff	NaN	NaN
de	NaN	NaN
Lieb	NaN	NaN
.	NaN	NaN
So	NaN	NaN
,	NaN	NaN
jetzt	NaN	NaN
könne	NaN	NaN
Sie	NaN	NaN
geh’n	NaN	NaN
.	NaN	NaN
O	NaN	NaN
nein	NaN	NaN
,	NaN	NaN
mir	NaN	NaN
sin	NaN	NaN
noch	NaN	NaN
lang	NaN	NaN
nit	NaN	NaN
ferdi	NaN	NaN
.	NaN	NaN
So	NaN	NaN
!	NaN	NaN
Do	NaN	NaN
,	NaN	NaN
Herr	NaN	NaN
Doktr	NaN	NaN
,	NaN	NaN
was	NaN	NaN
isch	NaN	NaN
mit	NaN	NaN
dere	NaN	NaN
stand	NaN	NaN
?	NaN	NaN
Hm	NaN	NaN
,	NaN	NaN
was	NaN	NaN
han’se	NaN	NaN
denn	NaN	NaN
ge	NaN	NaN
-	NaN	NaN
macht	NaN	NaN
?	NaN	NaN
Wisse	NaN	NaN
Sie	NaN	NaN
’s	NaN	NaN
schon	NaN	NaN
widdr	NaN	NaN
nit	NaN	NaN
?	NaN	NaN
Ich	NaN	NaN
hab	NaN	NaN
d'	NaN	NaN
Hand	NaN	NaN
verfrore	NaN	NaN
.	NaN	NaN
Verfrore	NaN	NaN
?	NaN	NaN
Un	NaN	NaN
numme	NaN	NaN
die	NaN	NaN
ein’t	NaN	NaN
Hand	NaN	NaN
?	NaN	NaN
Do	NaN	NaN
han	NaN	NaN
Sie	NaN	NaN
wohl	NaN	NaN
d’	NaN	NaN
andere	NaN	NaN
immer	NaN	NaN
im	NaN	NaN
Sack	NaN	NaN
?	NaN	NaN
O	NaN	NaN
,	NaN	NaN
nein	NaN	NaN
.	NaN	NaN
Ja	NaN	NaN
,	NaN	NaN
wo	NaN	NaN
han’se	NaN	NaN
denn	NaN	NaN
uewerhäupt	NaN	NaN
die	NaN	NaN
Hand	NaN	NaN
verfrore	NaN	NaN
,	NaN	NaN
uff	NaN	NaN
d'r	NaN	NaN
Strooß	NaN	NaN
?	NaN	NaN
Nein	NaN	NaN
,	NaN	NaN
im	NaN	NaN
Tanzsaall	NaN	NaN
Babble	NaN	NaN
Sie	NaN	NaN
doch	NaN	NaN
kein	NaN	NaN
Unsinn	NaN	NaN
,	NaN	NaN
wie	NaN	NaN
kann	NaN	NaN
m'r	NaN	NaN
im	NaN	NaN
warme	NaN	NaN
Tanzsaal	NaN	NaN
d’	NaN	NaN
Hand	NaN	NaN
verfriere	NaN	NaN
?	NaN	NaN
Dies	NaN	NaN
isch	NaN	NaN
jo	NaN	NaN
lächerlich	NaN	NaN
.	NaN	NaN
Do	NaN	NaN
gibt	NaN	NaN
’s	NaN	NaN
gar	NaN	NaN
nix	NaN	NaN
lächerlichs	NaN	NaN
derbie	NaN	NaN
.	NaN	NaN
Na	NaN	NaN
,	NaN	NaN
no	NaN	NaN
erkläre	NaN	NaN
Sie	NaN	NaN
mir	NaN	NaN
doch	NaN	NaN
die	NaN	NaN
Sach	NaN	NaN
!	NaN	NaN
Na	NaN	NaN
,	NaN	NaN
so	NaN	NaN
höre	NaN	NaN
Se	NaN	NaN
emol	NaN	NaN
.	NaN	NaN
Ich	NaN	NaN
bin	NaN	NaN
nämlich	NaN	NaN
Müsikant	NaN	NaN
un	NaN	NaN
spiel	NaN	NaN
d’	NaN	NaN
Baßgeij	NaN	NaN
,	NaN	NaN
in	NaN	NaN
unserem	NaN	NaN
Dorf	NaN	NaN
awr	NaN	NaN
,	NaN	NaN
in	NaN	NaN
dem	NaN	NaN
Re	NaN	NaN
-	NaN	NaN
staurant	NaN	NaN
,	NaN	NaN
wo	NaN	NaN
als	NaN	NaN
dies	NaN	NaN
Konzert	NaN	NaN
isch	NaN	NaN
,	NaN	NaN
isch	NaN	NaN
dr	NaN	NaN
Plafon	NaN	NaN
e	NaN	NaN
so	NaN	NaN
nieder	NaN	NaN
,	NaN	NaN
daß	NaN	NaN
mini	NaN	NaN
Baßgeij	NaN	NaN
kein	NaN	NaN
Platz	NaN	NaN
hett	NaN	NaN
ghett	NaN	NaN
.	NaN	NaN
Drno	NaN	NaN
isch	NaN	NaN
dr	NaN	NaN
Wirt	NaN	NaN
anne	NaN	NaN
gange	NaN	NaN
un	NaN	NaN
hett	NaN	NaN
e	NaN	NaN
Loch	NaN	NaN
in	NaN	NaN
de	NaN	NaN
Plafon	NaN	NaN
mache	NaN	NaN
lohn	NaN	NaN
,	NaN	NaN
un	NaN	NaN
durich	NaN	NaN
dies	NaN	NaN
wurd	NaN	NaN
dr	NaN	NaN
Hals	NaN	NaN
von	NaN	NaN
minem	NaN	NaN
Baß	NaN	NaN
enüsgsteckt	NaN	NaN
in	NaN	NaN
s’	NaN	NaN
Freije	NaN	NaN
.	NaN	NaN
Wenn	NaN	NaN
jetzt	NaN	NaN
dr	NaN	NaN
Hals	NaN	NaN
drüsse	NaN	NaN
isch	NaN	NaN
,	NaN	NaN
do	NaN	NaN
mueß	NaN	NaN
mini	NaN	NaN
Hand	NaN	NaN
doch	NaN	NaN
äuj	NaN	NaN
mit	NaN	NaN
enüs	NaN	NaN
—	NaN	NaN
un	NaN	NaN
e	NaN	NaN
so	NaN	NaN
hab	NaN	NaN
ich	NaN	NaN
mini	NaN	NaN
Hand	NaN	NaN
verfrore	NaN	NaN
.	NaN	NaN
Ja	NaN	NaN
,	NaN	NaN
wenn	NaN	NaN
die	NaN	NaN
Sach	NaN	NaN
so	NaN	NaN
isch	NaN	NaN
,	NaN	NaN
derno	NaN	NaN
isch	NaN	NaN
’s	NaN	NaN
zue	NaN	NaN
verstehn	NaN	NaN
.	NaN	NaN
Na	NaN	NaN
ja	NaN	NaN
,	NaN	NaN
jetzt	NaN	NaN
wisse	NaN	NaN
Sie	NaN	NaN
’s	NaN	NaN
.	NaN	NaN
Awr	NaN	NaN
wenn	NaN	NaN
ich’ne	NaN	NaN
rote	NaN	NaN
derf	NaN	NaN
,	NaN	NaN
seije’se	NaN	NaN
vorsichtig	NaN	NaN
mit	NaN	NaN
dere	NaN	NaN
Hand	NaN	NaN
,	NaN	NaN
denn	NaN	NaN
wenn	NaN	NaN
Sie	NaN	NaN
se	NaN	NaN
lichtsinnig	NaN	NaN
b’handle	NaN	NaN
,	NaN	NaN
kann	NaN	NaN
der	NaN	NaN
Fall	NaN	NaN
komme	NaN	NaN
,	NaN	NaN
daß	NaN	NaN
sie	NaN	NaN
sich	NaN	NaN
entzünd’t	NaN	NaN
,	NaN	NaN
un	NaN	NaN
selbst	NaN	NaN
-	NaN	NaN
verständlich	NaN	NaN
mueßt	NaN	NaN
d’	NaN	NaN
Hand	NaN	NaN
amputiert	NaN	NaN
wäre	NaN	NaN
.	NaN	NaN
Was	NaN	NaN
ramponiert	NaN	NaN
?	NaN	NaN
Ich	NaN	NaN
hab	NaN	NaN
gedenkt	NaN	NaN
,	NaN	NaN
dies	NaN	NaN
wär	NaN	NaN
’s	NaN	NaN
sie	NaN	NaN
schon	NaN	NaN
.	NaN	NaN
Nein	NaN	NaN
,	NaN	NaN
amputiert	NaN	NaN
heißt	NaN	NaN
soviel	NaN	NaN
als	NaN	NaN
abhäuije	NaN	NaN
.	NaN	NaN
Ja	NaN	NaN
,	NaN	NaN
nein	NaN	NaN
,	NaN	NaN
dies	NaN	NaN
gibt	NaN	NaN
’s	NaN	NaN
nit	NaN	NaN
.	NaN	NaN
Mit	NaN	NaN
was	NaN	NaN
soll	NaN	NaN
ich	NaN	NaN
denn	NaN	NaN
nochher	NaN	NaN
d’	NaN	NaN
Baßgeij	NaN	NaN
spiele	NaN	NaN
?	NaN	NaN
Mit	NaN	NaN
einere	NaN	NaN
Hand	NaN	NaN
griffe	NaN	NaN
un	NaN	NaN
noch	NaN	NaN
de	NaN	NaN
Böje	NaN	NaN
hewe	NaN	NaN
,	NaN	NaN
geht	NaN	NaN
nit	NaN	NaN
.	NaN	NaN
Na	NaN	NaN
,	NaN	NaN
drum	NaN	NaN
muen	NaN	NaN
Sie	NaN	NaN
sich	NaN	NaN
in	NaN	NaN
Acht	NaN	NaN
näme	NaN	NaN
,	NaN	NaN
sonscht	NaN	NaN
kenn	NaN	NaN
’s	NaN	NaN
noch	NaN	NaN
e	NaN	NaN
so	NaN	NaN
komme	NaN	NaN
.	NaN	NaN
Ich	NaN	NaN
hab	NaN	NaN
’s	NaN	NaN
schon	NaN	NaN
unserm	NaN	NaN
Wirt	NaN	NaN
gsait	NaN	NaN
,	NaN	NaN
er	NaN	NaN
soll	NaN	NaN
um	NaN	NaN
des	NaN	NaN
Loch	NaN	NaN
e	NaN	NaN
kleini	NaN	NaN
Mür	NaN	NaN
un	NaN	NaN
e	NaN	NaN
Dach	NaN	NaN
druff	NaN	NaN
mache	NaN	NaN
un	NaN	NaN
e	NaN	NaN
kleinr	NaN	NaN
Petrollofe	NaN	NaN
enin	NaN	NaN
setze	NaN	NaN
,	NaN	NaN
daß	NaN	NaN
d’	NaN	NaN
Hand	NaN	NaN
nit	NaN	NaN
verfriert	NaN	NaN
.	NaN	NaN
Ja	NaN	NaN
,	NaN	NaN
un	NaN	NaN
jetzt	NaN	NaN
bade	NaN	NaN
Sie	NaN	NaN
d’	NaN	NaN
Hand	NaN	NaN
im	NaN	NaN
warme	NaN	NaN
Wasser	NaN	NaN
mit	NaN	NaN
Kamille	NaN	NaN
,	NaN	NaN
jede	NaN	NaN
Owed	NaN	NaN
.	NaN	NaN
Derno	NaN	NaN
wurd	NaN	NaN
’s	NaN	NaN
bstimmt	NaN	NaN
besser	NaN	NaN
.	NaN	NaN
Awr	NaN	NaN
,	NaN	NaN
worum	NaN	NaN
han’se	NaN	NaN
noch	NaN	NaN
e	NaN	NaN
Düech	NaN	NaN
um	NaN	NaN
de	NaN	NaN
Kopf	NaN	NaN
?	NaN	NaN
Dies	NaN	NaN
do	NaN	NaN
?	NaN	NaN
Ja	NaN	NaN
.	NaN	NaN
Dies	NaN	NaN
esch	NaN	NaN
e	NaN	NaN
Schlaganfall	NaN	NaN
.	NaN	NaN
Was	NaN	NaN
,	NaN	NaN
Schlaganfall	NaN	NaN
?	NaN	NaN
Ja	NaN	NaN
,	NaN	NaN
denke	NaN	NaN
Sie	NaN	NaN
sich	NaN	NaN
,	NaN	NaN
Herr	NaN	NaN
Doktr	NaN	NaN
,	NaN	NaN
vorgeschtr	NaN	NaN
bin	NaN	NaN
ich	NaN	NaN
e	NaN	NaN
bißl	NaN	NaN
spaat	NaN	NaN
heim	NaN	NaN
komme	NaN	NaN
.	NaN	NaN
S’	NaN	NaN
isch	NaN	NaN
m'r	NaN	NaN
ganz	NaN	NaN
wohl	NaN	NaN
g’sin	NaN	NaN
,	NaN	NaN
un	NaN	NaN
leij	NaN	NaN
mich	NaN	NaN
in	NaN	NaN
s’	NaN	NaN
Bett	NaN	NaN
—	NaN	NaN
un	NaN	NaN
uff	NaN	NaN
einmol	NaN	NaN
—	NaN	NaN
Widdersch	NaN	NaN
,	NaN	NaN
widdersch	NaN	NaN
—	NaN	NaN
Ja	NaN	NaN
,	NaN	NaN
uff	NaN	NaN
einmol	NaN	NaN
springt	NaN	NaN
mini	NaN	NaN
Fräuj	NaN	NaN
üss	NaN	NaN
'm	NaN	NaN
Bett	NaN	NaN
fallt	NaN	NaN
uewer	NaN	NaN
mich	NaN	NaN
her	NaN	NaN
,	NaN	NaN
un	NaN	NaN
schläujt	NaN	NaN
mich	NaN	NaN
—	NaN	NaN
Ja	NaN	NaN
,	NaN	NaN
un	NaN	NaN
widdersch	NaN	NaN
—	NaN	NaN
—	NaN	NaN
Ja	NaN	NaN
,	NaN	NaN
isch	NaN	NaN
dies	NaN	NaN
kein	NaN	NaN
Schlaganfall	NaN	NaN
,	NaN	NaN
wenn	NaN	NaN
mich	NaN	NaN
mini	NaN	NaN
Fräuj	NaN	NaN
anfällt	NaN	NaN
un	NaN	NaN
schläujt	NaN	NaN
?	NaN	NaN
Ah	NaN	NaN
so	NaN	NaN
,	NaN	NaN
jetzt	NaN	NaN
versteh	NaN	NaN
ich	NaN	NaN
’s	NaN	NaN
,	NaN	NaN
Herr	NaN	NaN
,	NaN	NaN
in	NaN	NaN
dem	NaN	NaN
Fall	NaN	NaN
helfe	NaN	NaN
numme	NaN	NaN
Kühlunge	NaN	NaN
.	NaN	NaN
Was	NaN	NaN
Küh-Lunge	NaN	NaN
?	NaN	NaN
Ja	NaN	NaN
,	NaN	NaN
wo	NaN	NaN
soll	NaN	NaN
ich	NaN	NaN
denn	NaN	NaN
e	NaN	NaN
so	NaN	NaN
viel	NaN	NaN
Küh-Lunge	NaN	NaN
herbekomme	NaN	NaN
,	NaN	NaN
wäre	NaN	NaN
die	NaN	NaN
kocht	NaN	NaN
odr	NaN	NaN
röj	NaN	NaN
uff	NaN	NaN
-	NaN	NaN
geleijt	NaN	NaN
,	NaN	NaN
odr	NaN	NaN
gesse	NaN	NaN
?	NaN	NaN
Ach	NaN	NaN
,	NaN	NaN
Sie	NaN	NaN
verstehn	NaN	NaN
mich	NaN	NaN
schon	NaN	NaN
widder	NaN	NaN
falsch	NaN	NaN
,	NaN	NaN
ich	NaN	NaN
mein	NaN	NaN
,	NaN	NaN
ebs	NaN	NaN
kiehls	NaN	NaN
uffleije	NaN	NaN
,	NaN	NaN
awer	NaN	NaN
doch	NaN	NaN
kein	NaN	NaN
Lunge	NaN	NaN
von	NaN	NaN
ere	NaN	NaN
Küeh	NaN	NaN
.	NaN	NaN
Aha	NaN	NaN
,	NaN	NaN
jetzt	NaN	NaN
versteh	NaN	NaN
ich	NaN	NaN
’s	NaN	NaN
;	NaN	NaN
säuje	NaN	NaN
Sie	NaN	NaN
emol	NaN	NaN
,	NaN	NaN
Herr	NaN	NaN
Doktr	NaN	NaN
—	NaN	NaN
Was	NaN	NaN
denn	NaN	NaN
?	NaN	NaN
Sie	NaN	NaN
han	NaN	NaN
do	NaN	NaN
ewe	NaN	NaN
vom	NaN	NaN
amputiere	NaN	NaN
geredd	NaN	NaN
—	NaN	NaN
Ja	NaN	NaN
,	NaN	NaN
ganz	NaN	NaN
rächt	NaN	NaN
—	NaN	NaN
Wie	NaN	NaN
wär	NaN	NaN
’s	NaN	NaN
denn	NaN	NaN
,	NaN	NaN
wenn	NaN	NaN
Sie	NaN	NaN
min’ere	NaN	NaN
Fräuj	NaN	NaN
d’	NaN	NaN
Händ	NaN	NaN
amputiere	NaN	NaN
däte	NaN	NaN
,	NaN	NaN
daß	NaN	NaN
sie	NaN	NaN
mir	NaN	NaN
nim	NaN	NaN
e	NaN	NaN
so	NaN	NaN
viel	NaN	NaN
Schläujanfall	NaN	NaN
bibringe	NaN	NaN
kennt	NaN	NaN
,	NaN	NaN
denn	NaN	NaN
wo	NaN	NaN
die	NaN	NaN
anne	NaN	NaN
häut	NaN	NaN
lüijt	NaN	NaN
’s	NaN	NaN
g’fähr	NaN	NaN
-	NaN	NaN
lich	NaN	NaN
drinn	NaN	NaN
.	NaN	NaN
Sähn	NaN	NaN
Sie	NaN	NaN
,	NaN	NaN
Herr	NaN	NaN
Doktr	NaN	NaN
,	NaN	NaN
dies	NaN	NaN
seht	NaN	NaN
üß	NaN	NaN
,	NaN	NaN
wie	NaN	NaN
wenn	NaN	NaN
mich	NaN	NaN
e	NaN	NaN
Ochs	NaN	NaN
gedrette	NaN	NaN
hätt	NaN	NaN
,	NaN	NaN
un	NaN	NaN
nit	NaN	NaN
,	NaN	NaN
wie	NaN	NaN
wenn	NaN	NaN
mich	NaN	NaN
e	NaN	NaN
zarti	NaN	NaN
Fräujehand	NaN	NaN
gstreichelt	NaN	NaN
hätt	NaN	NaN
.	NaN	NaN
Hahaha	NaN	NaN
,	NaN	NaN
ja	NaN	NaN
dies	NaN	NaN
looßt	NaN	NaN
sich	NaN	NaN
emol	NaN	NaN
nit	NaN	NaN
ändere	NaN	NaN
,	NaN	NaN
wenn’se	NaN	NaN
kenn	NaN	NaN
Hand	NaN	NaN
meh	NaN	NaN
hett	NaN	NaN
,	NaN	NaN
derno	NaN	NaN
bißt’se	NaN	NaN
schließlich	NaN	NaN
.	NaN	NaN
Na	NaN	NaN
,	NaN	NaN
do	NaN	NaN
kennt	NaN	NaN
m'r	NaN	NaN
üß	NaN	NaN
’m	NaN	NaN
Wäj	NaN	NaN
gehn	NaN	NaN
,	NaN	NaN
odr	NaN	NaN
m'r	NaN	NaN
rißtere	NaN	NaN
Zähn	NaN	NaN
erüß	NaN	NaN
.	NaN	NaN
Na	NaN	NaN
,	NaN	NaN
mache	NaN	NaN
Sie	NaN	NaN
jetzt	NaN	NaN
nur	NaN	NaN
kalti	NaN	NaN
Kompresse	NaN	NaN
um	NaN	NaN
de	NaN	NaN
Kopf	NaN	NaN
.	NaN	NaN
Was	NaN	NaN
soll	NaN	NaN
ich	NaN	NaN
mache	NaN	NaN
?	NaN	NaN
Kompresse	NaN	NaN
,	NaN	NaN
des	NaN	NaN
heißt	NaN	NaN
kalti	NaN	NaN
Umschläj	NaN	NaN
.	NaN	NaN
Nä	NaN	NaN
,	NaN	NaN
so	NaN	NaN
e	NaN	NaN
veruckti	NaN	NaN
Welt	NaN	NaN
,	NaN	NaN
mini	NaN	NaN
Fräuj	NaN	NaN
macht	NaN	NaN
mir	NaN	NaN
warmi	NaN	NaN
Umschläj	NaN	NaN
un	NaN	NaN
dr	NaN	NaN
Doktr	NaN	NaN
macht	NaN	NaN
widdr	NaN	NaN
kalti	NaN	NaN
drhinter	NaN	NaN
.	NaN	NaN
—	NaN	NaN
Nä	NaN	NaN
,	NaN	NaN
wie	NaN	NaN
gsait	NaN	NaN
,	NaN	NaN
d’	NaN	NaN
Welt	NaN	NaN
isch	NaN	NaN
verdräjt	NaN	NaN
.	NaN	NaN
Ja	NaN	NaN
,	NaN	NaN
dies	NaN	NaN
kann	NaN	NaN
m'r	NaN	NaN
bewiese	NaN	NaN
.	NaN	NaN
