Dü	NaN	NaN
beeser	NaN	NaN
Mann	NaN	NaN
,	NaN	NaN
ze	NaN	NaN
witt	NaN	NaN
de	NaN	NaN
mich	NaN	NaN
also	NaN	NaN
denne	NaN	NaN
Oowe	NaN	NaN
schun	NaN	NaN
widder	NaN	NaN
ellein	NaN	NaN
lonn	NaN	NaN
?	NaN	NaN
Ich	NaN	NaN
muess	NaN	NaN
,	NaN	NaN
lieb	NaN	NaN
’s	NaN	NaN
Lucie	NaN	NaN
!	NaN	NaN
Mir	NaN	NaN
hann	NaN	NaN
in	NaN	NaN
d'r	NaN	NaN
Societät	NaN	NaN
e	NaN	NaN
pressanti	NaN	NaN
Vorstandssitzung	NaN	NaN
.	NaN	NaN
Pierre	NaN	NaN
,	NaN	NaN
wo	NaN	NaN
mir	NaN	NaN
awer	NaN	NaN
noch	NaN	NaN
fianciert	NaN	NaN
sinn	NaN	NaN
g’sinn	NaN	NaN
,	NaN	NaN
hesch	NaN	NaN
de	NaN	NaN
als	NaN	NaN
g’saat	NaN	NaN
:	NaN	NaN
«	NaN	NaN
Die	NaN	NaN
in	NaN	NaN
d'r	NaN	NaN
Societät	NaN	NaN
solle	NaN	NaN
mir	NaN	NaN
de	NaN	NaN
Buckel	NaN	NaN
nuffkrawle	NaN	NaN
!	NaN	NaN
»	NaN	NaN
Jetzt	NaN	NaN
awer	NaN	NaN
,	NaN	NaN
wo	NaN	NaN
mir	NaN	NaN
kümm	NaN	NaN
acht	NaN	NaN
Wuche	NaN	NaN
g’hyroot	NaN	NaN
sinn	NaN	NaN
,	NaN	NaN
bisch	NaN	NaN
de	NaN	NaN
schier	NaN	NaN
keine	NaN	NaN
Oowe	NaN	NaN
meh	NaN	NaN
heim	NaN	NaN
:	NaN	NaN
gescht	NaN	NaN
Stammdisch-Daa	NaN	NaN
,	NaN	NaN
hytt	NaN	NaN
Vorstandssitzung	NaN	NaN
,	NaN	NaN
morje	NaN	NaN
Wahlversammlung	NaN	NaN
,	NaN	NaN
iwermorje	NaN	NaN
weiss	NaN	NaN
d'r	NaN	NaN
Gücksel	NaN	NaN
was	NaN	NaN
!	NaN	NaN
Ich	NaN	NaN
glabb	NaN	NaN
als	NaN	NaN
,	NaN	NaN
ass	NaN	NaN
de	NaN	NaN
mich	NaN	NaN
nimmi	NaN	NaN
lieb	NaN	NaN
hesch	NaN	NaN
unn	NaN	NaN
dich	NaN	NaN
drüsse	NaN	NaN
amesiere	NaN	NaN
dhuesch	NaN	NaN
!	NaN	NaN
Wo	NaN	NaN
denksch	NaN	NaN
dü	NaN	NaN
anne	NaN	NaN
,	NaN	NaN
dü	NaN	NaN
Närrele	NaN	NaN
?	NaN	NaN
Ich	NaN	NaN
habb	NaN	NaN
dich	NaN	NaN
noch	NaN	NaN
grad	NaN	NaN
so	NaN	NaN
lieb	NaN	NaN
wie	NaN	NaN
am	NaN	NaN
erschte	NaN	NaN
Daa	NaN	NaN
.	NaN	NaN
Awer	NaN	NaN
dü	NaN	NaN
muesch	NaN	NaN
bedenke	NaN	NaN
,	NaN	NaN
ass	NaN	NaN
’s	NaN	NaN
dato	NaN	NaN
uff	NaN	NaN
d’	NaN	NaN
Fescht	NaN	NaN
-	NaN	NaN
unn	NaN	NaN
Wahlperiod	NaN	NaN
losgeht	NaN	NaN
unn	NaN	NaN
ass	NaN	NaN
ich	NaN	NaN
die	NaN	NaN
diverse	NaN	NaN
Aemtle	NaN	NaN
,	NaN	NaN
wo	NaN	NaN
ich	NaN	NaN
akzeptiert	NaN	NaN
habb	NaN	NaN
,	NaN	NaN
au	NaN	NaN
gewissehaft	NaN	NaN
üssiewe	NaN	NaN
muess	NaN	NaN
.	NaN	NaN
Diss	NaN	NaN
Friehjohr	NaN	NaN
awer	NaN	NaN
gibb	NaN	NaN
ich	NaN	NaN
iwerall	NaN	NaN
myni	NaN	NaN
Demission	NaN	NaN
unn	NaN	NaN
no	NaN	NaN
kann	NaN	NaN
ich	NaN	NaN
alle	NaN	NaN
Oowe	NaN	NaN
widder	NaN	NaN
by	NaN	NaN
mym	NaN	NaN
goldiche	NaN	NaN
Wyewele	NaN	NaN
sinn	NaN	NaN
!	NaN	NaN
Gell	NaN	NaN
,	NaN	NaN
myn	NaN	NaN
Schatzele	NaN	NaN
?	NaN	NaN
Wie	NaN	NaN
wär	NaN	NaN
diss	NaN	NaN
doch	NaN	NaN
so	NaN	NaN
scheen	NaN	NaN
,	NaN	NaN
myn	NaN	NaN
lieb	NaN	NaN
’s	NaN	NaN
Männele	NaN	NaN
,	NaN	NaN
unn	NaN	NaN
gar	NaN	NaN
noch	NaN	NaN
,	NaN	NaN
wenn	NaN	NaN
mir	NaN	NaN
’s	NaN	NaN
gross	NaN	NaN
Los	NaN	NaN
im	NaN	NaN
Crédit	NaN	NaN
National	NaN	NaN
gewinne	NaN	NaN
d’	NaN	NaN
häte	NaN	NaN
!	NaN	NaN
Ah	NaN	NaN
,	NaN	NaN
dü	NaN	NaN
meinsch	NaN	NaN
,	NaN	NaN
wyll	NaN	NaN
ich	NaN	NaN
vor	NaN	NaN
vierzeh	NaN	NaN
Daa	NaN	NaN
so	NaN	NaN
e	NaN	NaN
Babierele	NaN	NaN
kauft	NaN	NaN
habb	NaN	NaN
!	NaN	NaN
Ja	NaN	NaN
,	NaN	NaN
unn	NaN	NaN
morje	NaN	NaN
isch	NaN	NaN
d’	NaN	NaN
Tirasch	NaN	NaN
!	NaN	NaN
Was	NaN	NaN
meinsch	NaN	NaN
,	NaN	NaN
Pierre	NaN	NaN
,	NaN	NaN
wenn	NaN	NaN
unseri	NaN	NaN
Nummer	NaN	NaN
als	NaN	NaN
erschti	NaN	NaN
erüss	NaN	NaN
käm	NaN	NaN
!	NaN	NaN
E	NaN	NaN
ganzi	NaN	NaN
,	NaN	NaN
bari	NaN	NaN
Million	NaN	NaN
dhäte	NaN	NaN
mir	NaN	NaN
üssbezahlt	NaN	NaN
bekumme	NaN	NaN
!	NaN	NaN
Wie	NaN	NaN
kennte	NaN	NaN
mir	NaN	NaN
do	NaN	NaN
glicklich	NaN	NaN
läwe	NaN	NaN
!	NaN	NaN
Lieb	NaN	NaN
’s	NaN	NaN
Kind	NaN	NaN
,	NaN	NaN
mir	NaN	NaN
hann	NaN	NaN
au	NaN	NaN
ohne	NaN	NaN
e	NaN	NaN
Million	NaN	NaN
,	NaN	NaN
was	NaN	NaN
mir	NaN	NaN
zuem	NaN	NaN
Läwe	NaN	NaN
brüche	NaN	NaN
.	NaN	NaN
Unn	NaN	NaN
wenn	NaN	NaN
dü	NaN	NaN
mich	NaN	NaN
dezue	NaN	NaN
noch	NaN	NaN
arich	NaN	NaN
lieb	NaN	NaN
hesch	NaN	NaN
,	NaN	NaN
ze	NaN	NaN
pfyff	NaN	NaN
ich	NaN	NaN
uff	NaN	NaN
alli	NaN	NaN
Millione	NaN	NaN
vun	NaN	NaN
d'r	NaN	NaN
Welt	NaN	NaN
!	NaN	NaN
O	NaN	NaN
,	NaN	NaN
dü	NaN	NaN
Liewer	NaN	NaN
!	NaN	NaN
Awer	NaN	NaN
nitt	NaN	NaN
wohr	NaN	NaN
,	NaN	NaN
m'r	NaN	NaN
därf	NaN	NaN
doch	NaN	NaN
devun	NaN	NaN
redde	NaN	NaN
,	NaN	NaN
was	NaN	NaN
m'r	NaN	NaN
in	NaN	NaN
so	NaN	NaN
e	NaN	NaN
’me	NaN	NaN
Fall	NaN	NaN
macht	NaN	NaN
?	NaN	NaN
Ich	NaN	NaN
habb	NaN	NaN
mir	NaN	NaN
schun	NaN	NaN
üssgedenkt	NaN	NaN
,	NaN	NaN
was	NaN	NaN
ich	NaN	NaN
alles	NaN	NaN
anfang	NaN	NaN
,	NaN	NaN
wenn	NaN	NaN
mir	NaN	NaN
’s	NaN	NaN
grosse	NaN	NaN
Los	NaN	NaN
gewinne	NaN	NaN
.	NaN	NaN
Jetzert	NaN	NaN
isch	NaN	NaN
die	NaN	NaN
Frau	NaN	NaN
wajer	NaN	NaN
schun	NaN	NaN
am	NaN	NaN
Gewinne	NaN	NaN
unn	NaN	NaN
hett	NaN	NaN
erscht	NaN	NaN
noch	NaN	NaN
vor	NaN	NaN
zwei	NaN	NaN
Minütte	NaN	NaN
vum	NaN	NaN
«	NaN	NaN
Gewinne	NaN	NaN
-	NaN	NaN
dhäte	NaN	NaN
»	NaN	NaN
geredd	NaN	NaN
!	NaN	NaN
Unn	NaN	NaN
unterm	NaN	NaN
grosse	NaN	NaN
Los	NaN	NaN
macht	NaN	NaN
s’	NaN	NaN
e	NaN	NaN
’s	NaN	NaN
au	NaN	NaN
noch	NaN	NaN
hitt	NaN	NaN
emool	NaN	NaN
!	NaN	NaN
Warum	NaN	NaN
au	NaN	NaN
nitt	NaN	NaN
?	NaN	NaN
Zue	NaN	NaN
mym	NaN	NaN
grosse	NaN	NaN
Glick	NaN	NaN
in	NaN	NaN
d'r	NaN	NaN
Lieb	NaN	NaN
basst	NaN	NaN
numme	NaN	NaN
’s	NaN	NaN
gross	NaN	NaN
Los	NaN	NaN
im	NaN	NaN
Crédit	NaN	NaN
National	NaN	NaN
!	NaN	NaN
Jetzt	NaN	NaN
saa	NaN	NaN
awer	NaN	NaN
emool	NaN	NaN
,	NaN	NaN
Alterle	NaN	NaN
,	NaN	NaN
wie	NaN	NaN
dü	NaN	NaN
diss	NaN	NaN
viele	NaN	NaN
Geld	NaN	NaN
anleije	NaN	NaN
dhätsch	NaN	NaN
?	NaN	NaN
Na	NaN	NaN
,	NaN	NaN
Lucie	NaN	NaN
,	NaN	NaN
dir	NaN	NaN
zelieb	NaN	NaN
will	NaN	NaN
ich	NaN	NaN
emool	NaN	NaN
annemme	NaN	NaN
,	NaN	NaN
’s	NaN	NaN
wär	NaN	NaN
so	NaN	NaN
wytt	NaN	NaN
!	NaN	NaN
Uff	NaN	NaN
jede	NaN	NaN
Fall	NaN	NaN
dhät	NaN	NaN
ich	NaN	NaN
mir	NaN	NaN
defur	NaN	NaN
bombe	NaN	NaN
-	NaN	NaN
sicheri	NaN	NaN
Staats	NaN	NaN
-	NaN	NaN
unn	NaN	NaN
Indüschtriebabierer	NaN	NaN
kaufe	NaN	NaN
.	NaN	NaN
Diss	NaN	NaN
will	NaN	NaN
ich	NaN	NaN
gelte	NaN	NaN
lonn	NaN	NaN
.	NaN	NaN
Unn	NaN	NaN
no	NaN	NaN
e	NaN	NaN
massiver	NaN	NaN
Coffre-Fort	NaN	NaN
,	NaN	NaN
fur	NaN	NaN
die	NaN	NaN
Wärt	NaN	NaN
-	NaN	NaN
babierer	NaN	NaN
drinne	NaN	NaN
fyer	NaN	NaN
-	NaN	NaN
unn	NaN	NaN
ynbruchssicher	NaN	NaN
uffzehewe	NaN	NaN
.	NaN	NaN
Ynbruchssicher	NaN	NaN
?	NaN	NaN
Um	NaN	NaN
’s	NaN	NaN
Gott	NaN	NaN
's	NaN	NaN
Will	NaN	NaN
,	NaN	NaN
so	NaN	NaN
e	NaN	NaN
Kaschte	NaN	NaN
kummt	NaN	NaN
nitt	NaN	NaN
in	NaN	NaN
unseri	NaN	NaN
Wohnung	NaN	NaN
!	NaN	NaN
Der	NaN	NaN
dhät	NaN	NaN
jo	NaN	NaN
directement	NaN	NaN
d’	NaN	NaN
Raiwer	NaN	NaN
unn	NaN	NaN
d’	NaN	NaN
Merder	NaN	NaN
ins	NaN	NaN
Ilüss	NaN	NaN
locke	NaN	NaN
!	NaN	NaN
Do	NaN	NaN
wärde	NaN	NaN
mir	NaN	NaN
jo	NaN	NaN
unser	NaN	NaN
Läwe	NaN	NaN
nimmi	NaN	NaN
sicher	NaN	NaN
!	NaN	NaN
Dü	NaN	NaN
hesch	NaN	NaN
erächt	NaN	NaN
,	NaN	NaN
Lucie	NaN	NaN
!	NaN	NaN
M'r	NaN	NaN
läst	NaN	NaN
jo	NaN	NaN
dato	NaN	NaN
nix	NaN	NaN
meh	NaN	NaN
als	NaN	NaN
wie	NaN	NaN
vun	NaN	NaN
Ynbrich	NaN	NaN
,	NaN	NaN
Mord	NaN	NaN
unn	NaN	NaN
Doodschlaa	NaN	NaN
!	NaN	NaN
Do	NaN	NaN
isch	NaN	NaN
’s	NaN	NaN
am	NaN	NaN
End	NaN	NaN
besser	NaN	NaN
,	NaN	NaN
mir	NaN	NaN
lehne	NaN	NaN
uns	NaN	NaN
e	NaN	NaN
Bankfach	NaN	NaN
,	NaN	NaN
wo	NaN	NaN
mir	NaN	NaN
drinne	NaN	NaN
unseri	NaN	NaN
Wärtsache	NaN	NaN
uffhewe	NaN	NaN
kenne	NaN	NaN
!	NaN	NaN
Gewiss	NaN	NaN
,	NaN	NaN
Pierre	NaN	NaN
,	NaN	NaN
diss	NaN	NaN
isch	NaN	NaN
’s	NaN	NaN
sicherscht	NaN	NaN
Middel	NaN	NaN
!	NaN	NaN
So	NaN	NaN
wurd	NaN	NaN
’s	NaN	NaN
gemacht	NaN	NaN
!	NaN	NaN
Awer	NaN	NaN
was	NaN	NaN
fange	NaN	NaN
mir	NaN	NaN
mit	NaN	NaN
de	NaN	NaN
Zinse	NaN	NaN
vun	NaN	NaN
dem	NaN	NaN
viele	NaN	NaN
Geld	NaN	NaN
numme	NaN	NaN
an	NaN	NaN
?	NaN	NaN
Diss	NaN	NaN
will	NaN	NaN
guet	NaN	NaN
iwerleijt	NaN	NaN
sinn	NaN	NaN
!	NaN	NaN
Arich	NaN	NaN
guet	NaN	NaN
sogar	NaN	NaN
!	NaN	NaN
Verbulvert	NaN	NaN
därf	NaN	NaN
nix	NaN	NaN
wäre	NaN	NaN
!	NaN	NaN
Gar	NaN	NaN
nix	NaN	NaN
sogar	NaN	NaN
!	NaN	NaN
Bekanntlich	NaN	NaN
läwe	NaN	NaN
d’	NaN	NaN
amerikanische	NaN	NaN
Millionär	NaN	NaN
au	NaN	NaN
ganz	NaN	NaN
einfach	NaN	NaN
!	NaN	NaN
Ei	NaN	NaN
,	NaN	NaN
’s	NaN	NaN
isch	NaN	NaN
jo	NaN	NaN
wohr	NaN	NaN
!	NaN	NaN
Mir	NaN	NaN
zähle	NaN	NaN
jo	NaN	NaN
au	NaN	NaN
zue	NaN	NaN
de	NaN	NaN
Mil	NaN	NaN
-	NaN	NaN
lionär	NaN	NaN
!	NaN	NaN
Unn	NaN	NaN
wie	NaN	NaN
die	NaN	NaN
,	NaN	NaN
so	NaN	NaN
mache	NaN	NaN
mir	NaN	NaN
’s	NaN	NaN
au	NaN	NaN
!	NaN	NaN
D’r	NaN	NaN
wohr	NaN	NaN
Rych	NaN	NaN
-	NaN	NaN
dum	NaN	NaN
zeijt	NaN	NaN
sich	NaN	NaN
in	NaN	NaN
d'r	NaN	NaN
Einfachheit	NaN	NaN
!	NaN	NaN
Awer	NaN	NaN
so	NaN	NaN
alle	NaN	NaN
Johr	NaN	NaN
e	NaN	NaN
kleini	NaN	NaN
Erholungsreis	NaN	NaN
kenne	NaN	NaN
mir	NaN	NaN
uns	NaN	NaN
doch	NaN	NaN
gunne	NaN	NaN
?	NaN	NaN
Worum	NaN	NaN
denn	NaN	NaN
nitt	NaN	NaN
,	NaN	NaN
Frau	NaN	NaN
!	NaN	NaN
Awer	NaN	NaN
mir	NaN	NaN
fahre	NaN	NaN
heech	NaN	NaN
-	NaN	NaN
schtens	NaN	NaN
zweiter	NaN	NaN
Klass	NaN	NaN
—	NaN	NaN
’s	NaN	NaN
wurd	NaN	NaN
nix	NaN	NaN
verschwend	NaN	NaN
!	NaN	NaN
Do	NaN	NaN
bin	NaN	NaN
ich	NaN	NaN
d'	NaN	NaN
accord	NaN	NaN
mit	NaN	NaN
dir	NaN	NaN
,	NaN	NaN
Mann	NaN	NaN
.	NaN	NaN
Awer	NaN	NaN
weisch	NaN	NaN
,	NaN	NaN
liewer	NaN	NaN
Pierre	NaN	NaN
,	NaN	NaN
e	NaN	NaN
bissel	NaN	NaN
guet	NaN	NaN
angedohn	NaN	NaN
muess	NaN	NaN
m'r	NaN	NaN
doch	NaN	NaN
sinn	NaN	NaN
,	NaN	NaN
wemm’r	NaN	NaN
uff	NaN	NaN
Reise	NaN	NaN
geht	NaN	NaN
.	NaN	NaN
Gell	NaN	NaN
,	NaN	NaN
härzig	NaN	NaN
’s	NaN	NaN
Männel	NaN	NaN
,	NaN	NaN
dü	NaN	NaN
kaufsch	NaN	NaN
mir	NaN	NaN
denne	NaN	NaN
wunderbar	NaN	NaN
Belzmantel	NaN	NaN
,	NaN	NaN
wo	NaN	NaN
mir	NaN	NaN
gescht	NaN	NaN
in	NaN	NaN
d'r	NaN	NaN
Stadt	NaN	NaN
g’sähn	NaN	NaN
hann	NaN	NaN
?	NaN	NaN
Denne	NaN	NaN
kennte	NaN	NaN
mir	NaN	NaN
uns	NaN	NaN
im	NaN	NaN
Notfall	NaN	NaN
noch	NaN	NaN
leischte	NaN	NaN
!	NaN	NaN
Unn	NaN	NaN
au	NaN	NaN
denne	NaN	NaN
schick	NaN	NaN
Syedehuet	NaN	NaN
,	NaN	NaN
wo	NaN	NaN
ich	NaN	NaN
by	NaN	NaN
d'r	NaN	NaN
Modiste	NaN	NaN
vorgescht	NaN	NaN
admiriert	NaN	NaN
habb	NaN	NaN
?	NaN	NaN
Lucie	NaN	NaN
,	NaN	NaN
ich	NaN	NaN
bin	NaN	NaN
zwar	NaN	NaN
fur	NaN	NaN
’s	NaN	NaN
Spare	NaN	NaN
,	NaN	NaN
awer	NaN	NaN
zue	NaN	NaN
’me	NaN	NaN
Belzmantel	NaN	NaN
g’heert	NaN	NaN
nadierlich	NaN	NaN
e	NaN	NaN
anständiger	NaN	NaN
Huet	NaN	NaN
.	NaN	NaN
Unn	NaN	NaN
denne	NaN	NaN
syedich	NaN	NaN
Morjerock	NaN	NaN
muess	NaN	NaN
ich	NaN	NaN
partout	NaN	NaN
au	NaN	NaN
hann	NaN	NaN
!	NaN	NaN
Ich	NaN	NaN
schwärm	NaN	NaN
schun	NaN	NaN
lang	NaN	NaN
defur	NaN	NaN
.	NaN	NaN
Was	NaN	NaN
meinsch	NaN	NaN
,	NaN	NaN
wie	NaN	NaN
ich	NaN	NaN
dir	NaN	NaN
no	NaN	NaN
erscht	NaN	NaN
g’falle	NaN	NaN
wurr	NaN	NaN
,	NaN	NaN
wenn	NaN	NaN
d’	NaN	NaN
weich	NaN	NaN
Syed	NaN	NaN
so	NaN	NaN
um	NaN	NaN
mich	NaN	NaN
erum	NaN	NaN
rüscht	NaN	NaN
unn	NaN	NaN
kracht	NaN	NaN
!	NaN	NaN
Frau	NaN	NaN
,	NaN	NaN
heer	NaN	NaN
uff	NaN	NaN
!	NaN	NaN
Meinsch	NaN	NaN
denn	NaN	NaN
dü	NaN	NaN
,	NaN	NaN
myni	NaN	NaN
Million	NaN	NaN
isch	NaN	NaN
ohne	NaN	NaN
End	NaN	NaN
oder	NaN	NaN
e	NaN	NaN
Schlang	NaN	NaN
,	NaN	NaN
wo	NaN	NaN
sich	NaN	NaN
in	NaN	NaN
de	NaN	NaN
Waddel	NaN	NaN
bysst	NaN	NaN
?	NaN	NaN
Unn	NaN	NaN
e	NaN	NaN
greesseri	NaN	NaN
Wohnung	NaN	NaN
miehn	NaN	NaN
mir	NaN	NaN
jetzt	NaN	NaN
au	NaN	NaN
hann	NaN	NaN
—	NaN	NaN
numme	NaN	NaN
so	NaN	NaN
sechs	NaN	NaN
,	NaN	NaN
siwe	NaN	NaN
Zimmer	NaN	NaN
meh	NaN	NaN
,	NaN	NaN
drunter	NaN	NaN
au	NaN	NaN
e	NaN	NaN
Salon	NaN	NaN
mit	NaN	NaN
antike	NaN	NaN
Meewel	NaN	NaN
unn	NaN	NaN
e	NaN	NaN
Boudoir	NaN	NaN
fur	NaN	NaN
mich	NaN	NaN
—	NaN	NaN
ganz	NaN	NaN
mit	NaN	NaN
rosaroter	NaN	NaN
Syed	NaN	NaN
tapeziert	NaN	NaN
,	NaN	NaN
unn	NaN	NaN
no	NaN	NaN
noch	NaN	NaN
…	NaN	NaN
Frau	NaN	NaN
,	NaN	NaN
du	NaN	NaN
rüiniersch	NaN	NaN
mich	NaN	NaN
jo	NaN	NaN
noch	NaN	NaN
!	NaN	NaN
Hesch	NaN	NaN
dü	NaN	NaN
am	NaN	NaN
End	NaN	NaN
noch	NaN	NaN
meh	NaN	NaN
so	NaN	NaN
Winsch	NaN	NaN
?	NaN	NaN
E	NaN	NaN
Automobil	NaN	NaN
muess	NaN	NaN
nadier	NaN	NaN
-	NaN	NaN
lich	NaN	NaN
au	NaN	NaN
noch	NaN	NaN
fur	NaN	NaN
mich	NaN	NaN
here	NaN	NaN
!	NaN	NaN
So	NaN	NaN
?	NaN	NaN
Isch	NaN	NaN
diss	NaN	NaN
jetzt	NaN	NaN
endlich	NaN	NaN
alles	NaN	NaN
,	NaN	NaN
was	NaN	NaN
de	NaN	NaN
witt	NaN	NaN
?	NaN	NaN
Diss	NaN	NaN
fangt	NaN	NaN
jo	NaN	NaN
schun	NaN	NaN
scheen	NaN	NaN
an	NaN	NaN
!	NaN	NaN
Ja	NaN	NaN
,	NaN	NaN
unn	NaN	NaN
ich	NaN	NaN
,	NaN	NaN
unn	NaN	NaN
ich	NaN	NaN
?	NaN	NaN
Ich	NaN	NaN
bin	NaN	NaN
wohl	NaN	NaN
Essi	NaN	NaN
!	NaN	NaN
Awer	NaN	NaN
Pierre	NaN	NaN
!	NaN	NaN
In	NaN	NaN
was	NaN	NaN
fur	NaN	NaN
eme	NaN	NaN
Ton	NaN	NaN
reddsch	NaN	NaN
denn	NaN	NaN
dü	NaN	NaN
uff	NaN	NaN
’s	NaN	NaN
Mool	NaN	NaN
mit	NaN	NaN
mir	NaN	NaN
?	NaN	NaN
’s	NaN	NaN
isch	NaN	NaN
au	NaN	NaN
heechschti	NaN	NaN
Zytt	NaN	NaN
,	NaN	NaN
ass	NaN	NaN
ich	NaN	NaN
uff	NaN	NaN
myn	NaN	NaN
Geld	NaN	NaN
acht	NaN	NaN
gibb	NaN	NaN
!	NaN	NaN
E	NaN	NaN
greesseri	NaN	NaN
Wohnung	NaN	NaN
wurd	NaN	NaN
schun	NaN	NaN
gar	NaN	NaN
nitt	NaN	NaN
gelehnt	NaN	NaN
!	NaN	NaN
Au	NaN	NaN
noch	NaN	NaN
!	NaN	NaN
Die	NaN	NaN
scheene	NaN	NaN
Zinse	NaN	NaN
fur	NaN	NaN
e	NaN	NaN
Hüffe	NaN	NaN
Zim	NaN	NaN
-	NaN	NaN
mer	NaN	NaN
verschwende	NaN	NaN
,	NaN	NaN
wo	NaN	NaN
m'r	NaN	NaN
doch	NaN	NaN
d’	NaN	NaN
halb	NaN	NaN
Zytt	NaN	NaN
nitt	NaN	NaN
brücht	NaN	NaN
.	NaN	NaN
Do	NaN	NaN
,	NaN	NaN
wo	NaN	NaN
mir	NaN	NaN
jetzt	NaN	NaN
loschiere	NaN	NaN
,	NaN	NaN
hann	NaN	NaN
mir	NaN	NaN
Platz	NaN	NaN
genue	NaN	NaN
!	NaN	NaN
Mir	NaN	NaN
miehn	NaN	NaN
awer	NaN	NaN
doch	NaN	NaN
als	NaN	NaN
vun	NaN	NaN
Zytt	NaN	NaN
ze	NaN	NaN
Zytt	NaN	NaN
G’sell	NaN	NaN
-	NaN	NaN
schafte	NaN	NaN
gänn	NaN	NaN
?	NaN	NaN
Nix	NaN	NaN
do	NaN	NaN
!	NaN	NaN
Mir	NaN	NaN
sinn	NaN	NaN
Millionär	NaN	NaN
unn	NaN	NaN
läwe	NaN	NaN
waje	NaN	NaN
dem	NaN	NaN
ganz	NaN	NaN
einfach	NaN	NaN
!	NaN	NaN
Uess	NaN	NaN
dem	NaN	NaN
Grund	NaN	NaN
wurd	NaN	NaN
au	NaN	NaN
kein	NaN	NaN
Automobil	NaN	NaN
ang’schafft	NaN	NaN
—	NaN	NaN
diss	NaN	NaN
isch	NaN	NaN
e	NaN	NaN
ganz	NaN	NaN
zweckloser	NaN	NaN
Kram	NaN	NaN
,	NaN	NaN
wo	NaN	NaN
nümme	NaN	NaN
e	NaN	NaN
Hüffe	NaN	NaN
Geld	NaN	NaN
fresse	NaN	NaN
dhuet	NaN	NaN
.	NaN	NaN
Awer	NaN	NaN
e	NaN	NaN
grosser	NaN	NaN
Ra	NaN	NaN
-	NaN	NaN
dio-Apperat	NaN	NaN
kummt	NaN	NaN
mir	NaN	NaN
ins	NaN	NaN
Hüss	NaN	NaN
!	NaN	NaN
E	NaN	NaN
Radio-Apperat	NaN	NaN
?	NaN	NaN
Gewiss	NaN	NaN
,	NaN	NaN
Kind	NaN	NaN
!	NaN	NaN
Weisch	NaN	NaN
,	NaN	NaN
ich	NaN	NaN
bin	NaN	NaN
allewyl	NaN	NaN
arich	NaN	NaN
müsikalisch	NaN	NaN
g’sinn	NaN	NaN
!	NaN	NaN
Wie	NaN	NaN
scheen	NaN	NaN
unn	NaN	NaN
gemietlich	NaN	NaN
muess	NaN	NaN
diss	NaN	NaN
sinn	NaN	NaN
,	NaN	NaN
wenn	NaN	NaN
mir	NaN	NaN
no	NaN	NaN
z’	NaN	NaN
oowes	NaN	NaN
de	NaN	NaN
Apperat	NaN	NaN
laufe	NaN	NaN
hann	NaN	NaN
unn	NaN	NaN
’r	NaN	NaN
par	NaN	NaN
exemple	NaN	NaN
spielt	NaN	NaN
:	NaN	NaN
Ach	NaN	NaN
geh	NaN	NaN
!	NaN	NaN
Loss	NaN	NaN
mich	NaN	NaN
gehn	NaN	NaN
!	NaN	NaN
So	NaN	NaN
e	NaN	NaN
bleeder	NaN	NaN
Babbelkaschte	NaN	NaN
!	NaN	NaN
Ich	NaN	NaN
will	NaN	NaN
iwer	NaN	NaN
-	NaN	NaN
haupt	NaN	NaN
kein	NaN	NaN
Müsik	NaN	NaN
heere	NaN	NaN
!	NaN	NaN
Awer	NaN	NaN
Lucie	NaN	NaN
!	NaN	NaN
Unn	NaN	NaN
no	NaN	NaN
,	NaN	NaN
wo	NaN	NaN
solle	NaN	NaN
mir	NaN	NaN
denne	NaN	NaN
Apperat	NaN	NaN
iwerhaupt	NaN	NaN
annestelle	NaN	NaN
?	NaN	NaN
Mir	NaN	NaN
hann	NaN	NaN
jo	NaN	NaN
schun	NaN	NaN
so	NaN	NaN
kein	NaN	NaN
rächter	NaN	NaN
Platz	NaN	NaN
fur	NaN	NaN
unseri	NaN	NaN
Meewel	NaN	NaN
!	NaN	NaN
In	NaN	NaN
dem	NaN	NaN
Fall	NaN	NaN
miehn	NaN	NaN
mir	NaN	NaN
jo	NaN	NaN
doch	NaN	NaN
noch	NaN	NaN
e	NaN	NaN
Zimmer	NaN	NaN
meh	NaN	NaN
hann	NaN	NaN
!	NaN	NaN
Babbel	NaN	NaN
nitt	NaN	NaN
so	NaN	NaN
daub	NaN	NaN
,	NaN	NaN
Lucie	NaN	NaN
!	NaN	NaN
Am	NaN	NaN
Platz	NaN	NaN
fählt	NaN	NaN
’s	NaN	NaN
nitt	NaN	NaN
.	NaN	NaN
Im	NaN	NaN
Notfall	NaN	NaN
wärfe	NaN	NaN
mir	NaN	NaN
einfach	NaN	NaN
denne	NaN	NaN
alt	NaN	NaN
Grimpel	NaN	NaN
,	NaN	NaN
wo	NaN	NaN
dort	NaN	NaN
steht	NaN	NaN
,	NaN	NaN
nüss	NaN	NaN
!	NaN	NaN
Was	NaN	NaN
saasch	NaN	NaN
dü	NaN	NaN
do	NaN	NaN
,	NaN	NaN
Pierre	NaN	NaN
?	NaN	NaN
Alter	NaN	NaN
Grimpel	NaN	NaN
?	NaN	NaN
Was	NaN	NaN
meinsch	NaN	NaN
dü	NaN	NaN
mit	NaN	NaN
dem	NaN	NaN
Üssdruck	NaN	NaN
?	NaN	NaN
Doch	NaN	NaN
nitt	NaN	NaN
am	NaN	NaN
End	NaN	NaN
gar	NaN	NaN
…	NaN	NaN
Sej	NaN	NaN
doch	NaN	NaN
nitt	NaN	NaN
so	NaN	NaN
komisch	NaN	NaN
,	NaN	NaN
Lucie	NaN	NaN
!	NaN	NaN
Na	NaN	NaN
-	NaN	NaN
dierlich	NaN	NaN
mein	NaN	NaN
ich	NaN	NaN
dyni	NaN	NaN
beriehmt	NaN	NaN
,	NaN	NaN
heilich	NaN	NaN
Kommod	NaN	NaN
,	NaN	NaN
wo	NaN	NaN
noch	NaN	NaN
vun	NaN	NaN
dynere	NaN	NaN
Ürgrossmamme	NaN	NaN
stammt	NaN	NaN
.	NaN	NaN
Anfangs	NaN	NaN
hett	NaN	NaN
uns	NaN	NaN
jo	NaN	NaN
diss	NaN	NaN
Stickel	NaN	NaN
Mewel	NaN	NaN
ganz	NaN	NaN
guet	NaN	NaN
g’falle	NaN	NaN
—	NaN	NaN
awer	NaN	NaN
numme	NaN	NaN
anstandshalwer	NaN	NaN
unn	NaN	NaN
dynere	NaN	NaN
Mame	NaN	NaN
zelieb	NaN	NaN
;	NaN	NaN
’s	NaN	NaN
isch	NaN	NaN
halt	NaN	NaN
emool	NaN	NaN
do	NaN	NaN
g’sinn	NaN	NaN
,	NaN	NaN
unn	NaN	NaN
mir	NaN	NaN
hann	NaN	NaN
nix	NaN	NaN
anders	NaN	NaN
defur	NaN	NaN
kaufe	NaN	NaN
brüche	NaN	NaN
,	NaN	NaN
wo	NaN	NaN
mir	NaN	NaN
uns	NaN	NaN
yngericht	NaN	NaN
hann	NaN	NaN
.	NaN	NaN
Ah	NaN	NaN
,	NaN	NaN
jetzt	NaN	NaN
erfahrt	NaN	NaN
m'r	NaN	NaN
erscht	NaN	NaN
,	NaN	NaN
ass	NaN	NaN
der	NaN	NaN
Herr	NaN	NaN
andersch	NaN	NaN
redd	NaN	NaN
,	NaN	NaN
als	NaN	NaN
wie’r	NaN	NaN
denke	NaN	NaN
dhuet	NaN	NaN
!	NaN	NaN
Diss	NaN	NaN
hätt	NaN	NaN
ich	NaN	NaN
vor	NaN	NaN
d'r	NaN	NaN
Hochzytt	NaN	NaN
wisse	NaN	NaN
sotte	NaN	NaN
!	NaN	NaN
Geh	NaN	NaN
,	NaN	NaN
Lucie	NaN	NaN
,	NaN	NaN
verstell	NaN	NaN
dich	NaN	NaN
nitt	NaN	NaN
so	NaN	NaN
!	NaN	NaN
Dü	NaN	NaN
denksch	NaN	NaN
jo	NaN	NaN
au	NaN	NaN
nitt	NaN	NaN
andersch	NaN	NaN
als	NaN	NaN
wie	NaN	NaN
ich	NaN	NaN
!	NaN	NaN
De	NaN	NaN
Alterdum	NaN	NaN
in	NaN	NaN
Ehre	NaN	NaN
,	NaN	NaN
awer	NaN	NaN
fur	NaN	NaN
so	NaN	NaN
moderni	NaN	NaN
Lytt	NaN	NaN
wie	NaN	NaN
mir	NaN	NaN
isch’r	NaN	NaN
nix	NaN	NaN
.	NaN	NaN
Mir	NaN	NaN
läwe	NaN	NaN
liewer	NaN	NaN
Was	NaN	NaN
?	NaN	NaN
E	NaN	NaN
alti	NaN	NaN
,	NaN	NaN
wacklichti	NaN	NaN
Kischt	NaN	NaN
?	NaN	NaN
Grum	NaN	NaN
-	NaN	NaN
beerekischt	NaN	NaN
?	NaN	NaN
So	NaN	NaN
e	NaN	NaN
Barbar	NaN	NaN
!	NaN	NaN
Was	NaN	NaN
verstehsch	NaN	NaN
dü	NaN	NaN
drucketer	NaN	NaN
Bureaukrat	NaN	NaN
vun	NaN	NaN
g’erbte	NaN	NaN
Sache	NaN	NaN
?	NaN	NaN
was	NaN	NaN
vun	NaN	NaN
Pietät	NaN	NaN
?	NaN	NaN
was	NaN	NaN
vun	NaN	NaN
Suwönir	NaN	NaN
?	NaN	NaN
Mit	NaN	NaN
dem	NaN	NaN
ehrwirdige	NaN	NaN
Meewel	NaN	NaN
hängt	NaN	NaN
myni	NaN	NaN
ganz	NaN	NaN
Kinderzytt	NaN	NaN
mit	NaN	NaN
z’	NaN	NaN
samme	NaN	NaN
!	NaN	NaN
Herrgott	NaN	NaN
!	NaN	NaN
Wär	NaN	NaN
numme	NaN	NaN
nitt	NaN	NaN
au	NaN	NaN
noch	NaN	NaN
senti	NaN	NaN
-	NaN	NaN
mental	NaN	NaN
,	NaN	NaN
Lucie	NaN	NaN
!	NaN	NaN
Stell	NaN	NaN
myntwäje	NaN	NaN
denne	NaN	NaN
Plunder	NaN	NaN
anne	NaN	NaN
,	NaN	NaN
wo	NaN	NaN
de	NaN	NaN
witt	NaN	NaN
,	NaN	NaN
wenn	NaN	NaN
de	NaN	NaN
meinsch	NaN	NaN
,	NaN	NaN
ass	NaN	NaN
syner	NaN	NaN
B’sitz	NaN	NaN
dich	NaN	NaN
selig	NaN	NaN
macht	NaN	NaN
!	NaN	NaN
Hett	NaN	NaN
m'r	NaN	NaN
schun	NaN	NaN
emool	NaN	NaN
so	NaN	NaN
e	NaN	NaN
Iwerspanntheit	NaN	NaN
er	NaN	NaN
-	NaN	NaN
läbt	NaN	NaN
!	NaN	NaN
Was	NaN	NaN
?	NaN	NaN
Iwerspanntheit	NaN	NaN
?	NaN	NaN
Ja	NaN	NaN
,	NaN	NaN
Iwerspanntheit	NaN	NaN
!	NaN	NaN
E	NaN	NaN
Radio-Apperat	NaN	NaN
wurd	NaN	NaN
ang’schafft	NaN	NaN
,	NaN	NaN
und	NaN	NaN
die	NaN	NaN
Arche	NaN	NaN
Noah	NaN	NaN
dort	NaN	NaN
verschwind	NaN	NaN
,	NaN	NaN
unn	NaN	NaN
dodemit	NaN	NaN
basta	NaN	NaN
!	NaN	NaN
Unn	NaN	NaN
die	NaN	NaN
Kommod	NaN	NaN
blyet	NaN	NaN
do	NaN	NaN
stehn	NaN	NaN
!	NaN	NaN
Do	NaN	NaN
!	NaN	NaN
An	NaN	NaN
dem	NaN	NaN
Platz	NaN	NaN
do	NaN	NaN
!	NaN	NaN
Was	NaN	NaN
dü	NaN	NaN
dir	NaN	NaN
nitt	NaN	NaN
ynbildsch	NaN	NaN
!	NaN	NaN
Unn	NaN	NaN
e	NaN	NaN
Radio-Apperat	NaN	NaN
kummt	NaN	NaN
nitt	NaN	NaN
iwer	NaN	NaN
myni	NaN	NaN
Schwell	NaN	NaN
!	NaN	NaN
Punktum	NaN	NaN
!	NaN	NaN
Dyni	NaN	NaN
Schwell	NaN	NaN
?	NaN	NaN
Dyni	NaN	NaN
?	NaN	NaN
Na	NaN	NaN
,	NaN	NaN
ich	NaN	NaN
will	NaN	NaN
dir	NaN	NaN
zeije	NaN	NaN
,	NaN	NaN
wer	NaN	NaN
dohinne	NaN	NaN
ze	NaN	NaN
kummediere	NaN	NaN
hett	NaN	NaN
!	NaN	NaN
Diss	NaN	NaN
isch	NaN	NaN
myni	NaN	NaN
Wohnung	NaN	NaN
!	NaN	NaN
Ich	NaN	NaN
bin	NaN	NaN
do	NaN	NaN
Herr	NaN	NaN
unn	NaN	NaN
Meischter	NaN	NaN
im	NaN	NaN
Hüss	NaN	NaN
!	NaN	NaN
Unn	NaN	NaN
ich	NaN	NaN
will	NaN	NaN
mir	NaN	NaN
e	NaN	NaN
Radio-Apperat	NaN	NaN
kaufe	NaN	NaN
,	NaN	NaN
unn	NaN	NaN
ich	NaN	NaN
will	NaN	NaN
,	NaN	NaN
ass	NaN	NaN
diss	NaN	NaN
wurmstichig	NaN	NaN
Stickel	NaN	NaN
Meewel	NaN	NaN
dort	NaN	NaN
furtkummt	NaN	NaN
,	NaN	NaN
unn	NaN	NaN
ich	NaN	NaN
,	NaN	NaN
will	NaN	NaN
,	NaN	NaN
ass	NaN	NaN
mir	NaN	NaN
g’foljt	NaN	NaN
wurd	NaN	NaN
!	NaN	NaN
Dü	NaN	NaN
do	NaN	NaN
Herr	NaN	NaN
unn	NaN	NaN
Meischter	NaN	NaN
?	NaN	NaN
Dü	NaN	NaN
machsch	NaN	NaN
mich	NaN	NaN
jo	NaN	NaN
lache	NaN	NaN
!	NaN	NaN
Wo	NaN	NaN
wohnsch	NaN	NaN
denn	NaN	NaN
dü	NaN	NaN
iwerhaupt	NaN	NaN
?	NaN	NaN
By	NaN	NaN
mir	NaN	NaN
wohnsch	NaN	NaN
dü	NaN	NaN
!	NaN	NaN
In	NaN	NaN
myne	NaN	NaN
Meewel	NaN	NaN
wohnsch	NaN	NaN
dü	NaN	NaN
!	NaN	NaN
Myn	NaN	NaN
Geld	NaN	NaN
hann	NaN	NaN
se	NaN	NaN
koscht	NaN	NaN
!	NaN	NaN
Ich	NaN	NaN
habb	NaN	NaN
’s	NaN	NaN
Geld	NaN	NaN
mitgebroocht	NaN	NaN
!	NaN	NaN
50	NaN	NaN
000	NaN	NaN
Franke	NaN	NaN
sinn	NaN	NaN
’s	NaN	NaN
g’sinn	NaN	NaN
!	NaN	NaN
Nein	NaN	NaN
,	NaN	NaN
numme	NaN	NaN
49	NaN	NaN
999	NaN	NaN
Franke	NaN	NaN
,	NaN	NaN
denn	NaN	NaN
e	NaN	NaN
Franke	NaN	NaN
hett	NaN	NaN
d'r	NaN	NaN
Quittungstimbre	NaN	NaN
koscht	NaN	NaN
,	NaN	NaN
wo	NaN	NaN
mir	NaN	NaN
dyni	NaN	NaN
Mamme	NaN	NaN
abgeknepft	NaN	NaN
hett	NaN	NaN
!	NaN	NaN
LUCIE	NaN	NaN
!	NaN	NaN
O	NaN	NaN
,	NaN	NaN
dü	NaN	NaN
Undankbarer	NaN	NaN
!	NaN	NaN
Nein	NaN	NaN
,	NaN	NaN
diss	NaN	NaN
bin	NaN	NaN
ich	NaN	NaN
nitt	NaN	NaN
;	NaN	NaN
awer	NaN	NaN
hirnverbrennt	NaN	NaN
bin	NaN	NaN
ich	NaN	NaN
g’sinn	NaN	NaN
,	NaN	NaN
ass	NaN	NaN
ich	NaN	NaN
dir	NaN	NaN
nitt	NaN	NaN
schun	NaN	NaN
ehnder	NaN	NaN
de	NaN	NaN
Meischter	NaN	NaN
ge	NaN	NaN
-	NaN	NaN
zeijt	NaN	NaN
habb	NaN	NaN
!	NaN	NaN
Awer	NaN	NaN
diss	NaN	NaN
wurd	NaN	NaN
jetzt	NaN	NaN
andersch	NaN	NaN
!	NaN	NaN
Dü	NaN	NaN
hättsch	NaN	NaN
jo	NaN	NaN
myni	NaN	NaN
Million	NaN	NaN
schun	NaN	NaN
in	NaN	NaN
acht	NaN	NaN
Daa	NaN	NaN
verbutzt	NaN	NaN
,	NaN	NaN
dü	NaN	NaN
Ver	NaN	NaN
-	NaN	NaN
schwendere	NaN	NaN
!	NaN	NaN
O	NaN	NaN
,	NaN	NaN
hätt	NaN	NaN
ich	NaN	NaN
doch	NaN	NaN
numme	NaN	NaN
nie	NaN	NaN
g’hyroot	NaN	NaN
!	NaN	NaN
So	NaN	NaN
?	NaN	NaN
Witt	NaN	NaN
dü	NaN	NaN
mit	NaN	NaN
dem	NaN	NaN
am	NaN	NaN
End	NaN	NaN
saawe	NaN	NaN
,	NaN	NaN
ass	NaN	NaN
ich	NaN	NaN
dir	NaN	NaN
noochgeloffe	NaN	NaN
bin	NaN	NaN
?	NaN	NaN
Hm	NaN	NaN
!	NaN	NaN
Hm	NaN	NaN
!	NaN	NaN
D’	NaN	NaN
Müsfall	NaN	NaN
lauft	NaN	NaN
m	NaN	NaN
d'r	NaN	NaN
Müs	NaN	NaN
au	NaN	NaN
nitt	NaN	NaN
nooch	NaN	NaN
unn	NaN	NaN
s’	NaN	NaN
e	NaN	NaN
fangt	NaN	NaN
s’	NaN	NaN
e	NaN	NaN
doch	NaN	NaN
!	NaN	NaN
O	NaN	NaN
,	NaN	NaN
dü	NaN	NaN
Schlächter	NaN	NaN
!	NaN	NaN
Awer	NaN	NaN
myni	NaN	NaN
Mamme	NaN	NaN
hett	NaN	NaN
mich	NaN	NaN
jo	NaN	NaN
allewyll	NaN	NaN
vor	NaN	NaN
dir	NaN	NaN
gewarnt	NaN	NaN
!	NaN	NaN
Allewäj	NaN	NaN
?	NaN	NaN
Die	NaN	NaN
guet	NaN	NaN
Frau	NaN	NaN
!	NaN	NaN
Ich	NaN	NaN
hätt	NaN	NaN
nie	NaN	NaN
gedenkt	NaN	NaN
,	NaN	NaN
ass	NaN	NaN
sie	NaN	NaN
’s	NaN	NaN
so	NaN	NaN
guet	NaN	NaN
mit	NaN	NaN
mir	NaN	NaN
meint	NaN	NaN
!	NaN	NaN
O	NaN	NaN
,	NaN	NaN
wie	NaN	NaN
bin	NaN	NaN
ich	NaN	NaN
doch	NaN	NaN
so	NaN	NaN
arich	NaN	NaN
unglicklich	NaN	NaN
!	NaN	NaN
Unn	NaN	NaN
so	NaN	NaN
härzlos	NaN	NaN
verfahrt	NaN	NaN
myner	NaN	NaN
Mann	NaN	NaN
mit	NaN	NaN
mir	NaN	NaN
—	NaN	NaN
jetzt	NaN	NaN
schun	NaN	NaN
,	NaN	NaN
wo	NaN	NaN
mir	NaN	NaN
kümm	NaN	NaN
rächt	NaN	NaN
g’hy	NaN	NaN
-	NaN	NaN
root	NaN	NaN
sinn	NaN	NaN
?	NaN	NaN
Wie	NaN	NaN
soll	NaN	NaN
diss	NaN	NaN
erscht	NaN	NaN
später	NaN	NaN
wäre	NaN	NaN
!	NaN	NaN
Unn	NaN	NaN
nitt	NaN	NaN
ass	NaN	NaN
de	NaN	NaN
dich	NaN	NaN
jetzt	NaN	NaN
stundelang	NaN	NaN
annehucksch	NaN	NaN
unn	NaN	NaN
plärrsch	NaN	NaN
!	NaN	NaN
Die	NaN	NaN
Arweit	NaN	NaN
kannsch	NaN	NaN
dü	NaN	NaN
dir	NaN	NaN
spare	NaN	NaN
.	NaN	NaN
So	NaN	NaN
e	NaN	NaN
Lychte	NaN	NaN
-	NaN	NaN
hyllere	NaN	NaN
kann	NaN	NaN
mir	NaN	NaN
ganz	NaN	NaN
unn	NaN	NaN
gar	NaN	NaN
nitt	NaN	NaN
imponiere	NaN	NaN
!	NaN	NaN
Oho-o-o	NaN	NaN
!	NaN	NaN
Unn	NaN	NaN
diss	NaN	NaN
soll	NaN	NaN
ich	NaN	NaN
mir	NaN	NaN
biete	NaN	NaN
lonn	NaN	NaN
!	NaN	NaN
So	NaN	NaN
redd	NaN	NaN
myn	NaN	NaN
Mann	NaN	NaN
mit	NaN	NaN
mir	NaN	NaN
—	NaN	NaN
der	NaN	NaN
Mann	NaN	NaN
,	NaN	NaN
wo	NaN	NaN
ich	NaN	NaN
iwer	NaN	NaN
alles	NaN	NaN
lieb	NaN	NaN
habb	NaN	NaN
g’hett	NaN	NaN
?	NaN	NaN
So	NaN	NaN
e	NaN	NaN
Tyrann	NaN	NaN
!	NaN	NaN
Unn	NaN	NaN
an	NaN	NaN
so	NaN	NaN
e	NaN	NaN
brütaler	NaN	NaN
Mensch	NaN	NaN
soll	NaN	NaN
ich	NaN	NaN
fur	NaN	NaN
myn	NaN	NaN
Läbdesdaa	NaN	NaN
gebunde	NaN	NaN
sinn	NaN	NaN
?	NaN	NaN
Nein	NaN	NaN
,	NaN	NaN
diss	NaN	NaN
isch	NaN	NaN
furichtbar	NaN	NaN
!	NaN	NaN
:	NaN	NaN
Unn	NaN	NaN
was	NaN	NaN
hett’r	NaN	NaN
mich	NaN	NaN
g’heisse	NaN	NaN
?	NaN	NaN
E	NaN	NaN
Lychtehyllere	NaN	NaN
?	NaN	NaN
Unn	NaN	NaN
do	NaN	NaN
soll	NaN	NaN
ich	NaN	NaN
noch	NaN	NaN
hylle	NaN	NaN
!	NaN	NaN
Nein	NaN	NaN
,	NaN	NaN
so	NaN	NaN
e	NaN	NaN
Barbar	NaN	NaN
isch	NaN	NaN
myni	NaN	NaN
Träne	NaN	NaN
gar	NaN	NaN
nitt	NaN	NaN
wärt	NaN	NaN
!	NaN	NaN
Hoffetlich	NaN	NaN
isch’r	NaN	NaN
schun	NaN	NaN
furtgange	NaN	NaN
!	NaN	NaN
Ich	NaN	NaN
will’ne	NaN	NaN
nimmi	NaN	NaN
sähne	NaN	NaN
!	NaN	NaN
Ah	NaN	NaN
,	NaN	NaN
er	NaN	NaN
isch	NaN	NaN
noch	NaN	NaN
drüsse	NaN	NaN
—	NaN	NaN
er	NaN	NaN
steht	NaN	NaN
am	NaN	NaN
Fenschter	NaN	NaN
unn	NaN	NaN
denkt	NaN	NaN
iwer	NaN	NaN
ebbs	NaN	NaN
nooch	NaN	NaN
—	NaN	NaN
jetzt	NaN	NaN
drähjt’r	NaN	NaN
sich	NaN	NaN
erum	NaN	NaN
unn	NaN	NaN
luejt	NaN	NaN
dohere	NaN	NaN
—	NaN	NaN
er	NaN	NaN
kummt	NaN	NaN
!	NaN	NaN
:	NaN	NaN
Gewiss	NaN	NaN
hett’r	NaN	NaN
jetzt	NaN	NaN
syn	NaN	NaN
Unrächt	NaN	NaN
yng’sähn	NaN	NaN
unn	NaN	NaN
will	NaN	NaN
Abbitt	NaN	NaN
leischte	NaN	NaN
!	NaN	NaN
Na	NaN	NaN
,	NaN	NaN
guet	NaN	NaN
,	NaN	NaN
ich	NaN	NaN
will	NaN	NaN
’m	NaN	NaN
gern	NaN	NaN
exküsiere	NaN	NaN
;	NaN	NaN
im	NaN	NaN
Grund	NaN	NaN
genumme	NaN	NaN
isch’r	NaN	NaN
jo	NaN	NaN
doch	NaN	NaN
e	NaN	NaN
liewer	NaN	NaN
,	NaN	NaN
gueter	NaN	NaN
Mann	NaN	NaN
,	NaN	NaN
unn	NaN	NaN
e	NaN	NaN
Meinungsverschiedeheit	NaN	NaN
gitt	NaN	NaN
’s	NaN	NaN
schliesslich	NaN	NaN
in	NaN	NaN
jedere	NaN	NaN
Eh	NaN	NaN
emool	NaN	NaN
.	NaN	NaN
«	NaN	NaN
Sie	NaN	NaN
isch	NaN	NaN
d'r	NaN	NaN
bescht	NaN	NaN
Kitt	NaN	NaN
,	NaN	NaN
wo	NaN	NaN
z’	NaN	NaN
sammehebbt	NaN	NaN
d’	NaN	NaN
Ehlytt	NaN	NaN
!	NaN	NaN
»	NaN	NaN
,	NaN	NaN
hett	NaN	NaN
als	NaN	NaN
myner	NaN	NaN
Babbe	NaN	NaN
seli	NaN	NaN
g’saat	NaN	NaN
.	NaN	NaN
Was	NaN	NaN
haw	NaN	NaN
ich	NaN	NaN
g’heert	NaN	NaN
?	NaN	NaN
Diss	NaN	NaN
isch	NaN	NaN
jo	NaN	NaN
d’	NaN	NaN
Hüssdier	NaN	NaN
g’sinn	NaN	NaN
,	NaN	NaN
wo	NaN	NaN
ich	NaN	NaN
habb	NaN	NaN
gehn	NaN	NaN
heere	NaN	NaN
!	NaN	NaN
Er	NaN	NaN
isch	NaN	NaN
furt	NaN	NaN
!	NaN	NaN
Awer	NaN	NaN
nein	NaN	NaN
,	NaN	NaN
diss	NaN	NaN
kann	NaN	NaN
nitt	NaN	NaN
sinn	NaN	NaN
!	NaN	NaN
So	NaN	NaN
gröjsam	NaN	NaN
kann	NaN	NaN
doch	NaN	NaN
myner	NaN	NaN
Pierre	NaN	NaN
nitt	NaN	NaN
sinn	NaN	NaN
!	NaN	NaN
Er	NaN	NaN
wurd	NaN	NaN
mich	NaN	NaN
doch	NaN	NaN
nitt	NaN	NaN
in	NaN	NaN
mym	NaN	NaN
Weh	NaN	NaN
ellein	NaN	NaN
lonn	NaN	NaN
?	NaN	NaN
Er	NaN	NaN
hett	NaN	NaN
gewiss	NaN	NaN
numme	NaN	NaN
so	NaN	NaN
gemacht	NaN	NaN
,	NaN	NaN
wie	NaN	NaN
wenn’r	NaN	NaN
furtgängt	NaN	NaN
unn	NaN	NaN
streckt	NaN	NaN
jetzt	NaN	NaN
glych	NaN	NaN
de	NaN	NaN
Kopf	NaN	NaN
eryn	NaN	NaN
unn	NaN	NaN
gitt	NaN	NaN
mir	NaN	NaN
e	NaN	NaN
lieb	NaN	NaN
’s	NaN	NaN
Wort	NaN	NaN
!	NaN	NaN
:	NaN	NaN
Mon	NaN	NaN
Dieu	NaN	NaN
,	NaN	NaN
mich	NaN	NaN
trefft	NaN	NaN
de	NaN	NaN
Schlaa	NaN	NaN
!	NaN	NaN
Dort	NaN	NaN
unte	NaN	NaN
geht’r	NaN	NaN
jo	NaN	NaN
schun	NaN	NaN
!	NaN	NaN
So	NaN	NaN
e	NaN	NaN
Be	NaN	NaN
-	NaN	NaN
nämme	NaN	NaN
isch	NaN	NaN
einfach	NaN	NaN
ordinär	NaN	NaN
,	NaN	NaN
meh	NaN	NaN
ass	NaN	NaN
wie	NaN	NaN
ordinär	NaN	NaN
!	NaN	NaN
Awer	NaN	NaN
diss	NaN	NaN
loss	NaN	NaN
ich	NaN	NaN
mir	NaN	NaN
nitt	NaN	NaN
g’falle	NaN	NaN
!	NaN	NaN
So	NaN	NaN
loss	NaN	NaN
ich	NaN	NaN
mich	NaN	NaN
nitt	NaN	NaN
b’handle	NaN	NaN
!	NaN	NaN
Jetzt	NaN	NaN
bin	NaN	NaN
ich	NaN	NaN
’s	NaN	NaN
satt	NaN	NaN
!	NaN	NaN
So	NaN	NaN
e	NaN	NaN
Mei	NaN	NaN
-	NaN	NaN
nungsverschiedeheit	NaN	NaN
därf	NaN	NaN
in	NaN	NaN
keinere	NaN	NaN
Eh	NaN	NaN
vorkumme	NaN	NaN
!	NaN	NaN
«	NaN	NaN
Sie	NaN	NaN
isch	NaN	NaN
e	NaN	NaN
beesi	NaN	NaN
Müs	NaN	NaN
,	NaN	NaN
wo	NaN	NaN
naat	NaN	NaN
am	NaN	NaN
Glick	NaN	NaN
im	NaN	NaN
Hüss	NaN	NaN
!	NaN	NaN
»	NaN	NaN
,	NaN	NaN
saat	NaN	NaN
als	NaN	NaN
myni	NaN	NaN
lieb	NaN	NaN
Mamme	NaN	NaN
.	NaN	NaN
Awer	NaN	NaN
ich	NaN	NaN
will	NaN	NaN
mich	NaN	NaN
schun	NaN	NaN
rewanschiere	NaN	NaN
!	NaN	NaN
Awer	NaN	NaN
wie	NaN	NaN
?	NaN	NaN
Soll	NaN	NaN
ich	NaN	NaN
au	NaN	NaN
furtgehn	NaN	NaN
?	NaN	NaN
Zue	NaN	NaN
mynere	NaN	NaN
Mamme	NaN	NaN
?	NaN	NaN
Nein	NaN	NaN
,	NaN	NaN
im	NaN	NaN
Läwe	NaN	NaN
nie	NaN	NaN
!	NaN	NaN
Do	NaN	NaN
blyeh	NaN	NaN
ich	NaN	NaN
unn	NaN	NaN
do	NaN	NaN
stärb	NaN	NaN
ich	NaN	NaN
!	NaN	NaN
Unn	NaN	NaN
wer	NaN	NaN
weiss	NaN	NaN
,	NaN	NaN
ob’r	NaN	NaN
’s	NaN	NaN
am	NaN	NaN
End	NaN	NaN
nitt	NaN	NaN
gar	NaN	NaN
pro	NaN	NaN
-	NaN	NaN
woziere	NaN	NaN
will	NaN	NaN
,	NaN	NaN
ass	NaN	NaN
ich	NaN	NaN
geh	NaN	NaN
?	NaN	NaN
Nadierlich	NaN	NaN
isch	NaN	NaN
’s	NaN	NaN
so	NaN	NaN
!	NaN	NaN
Denn	NaN	NaN
so	NaN	NaN
wie’r	NaN	NaN
mich	NaN	NaN
b’handelt	NaN	NaN
hett	NaN	NaN
,	NaN	NaN
isch	NaN	NaN
’s	NaN	NaN
sicher	NaN	NaN
,	NaN	NaN
ass’r	NaN	NaN
mich	NaN	NaN
nimmi	NaN	NaN
lieb	NaN	NaN
hett	NaN	NaN
.	NaN	NaN
Schunscht	NaN	NaN
dhät’r	NaN	NaN
mich	NaN	NaN
au	NaN	NaN
nitt	NaN	NaN
alle	NaN	NaN
Oowe	NaN	NaN
ellein	NaN	NaN
lonn	NaN	NaN
!	NaN	NaN
Wer	NaN	NaN
weiss	NaN	NaN
,	NaN	NaN
wo’r	NaN	NaN
sich	NaN	NaN
do	NaN	NaN
allewyll	NaN	NaN
erum	NaN	NaN
-	NaN	NaN
tryebt	NaN	NaN
!	NaN	NaN
Gewiss	NaN	NaN
hett’r	NaN	NaN
au	NaN	NaN
noch	NaN	NaN
e	NaN	NaN
anderi	NaN	NaN
,	NaN	NaN
denn	NaN	NaN
schunscht	NaN	NaN
wär	NaN	NaN
er	NaN	NaN
nitt	NaN	NaN
so	NaN	NaN
lieblos	NaN	NaN
mit	NaN	NaN
mir	NaN	NaN
verfahre	NaN	NaN
!	NaN	NaN
Na	NaN	NaN
,	NaN	NaN
ich	NaN	NaN
kumm	NaN	NaN
schun	NaN	NaN
noch	NaN	NaN
dehinter	NaN	NaN
!	NaN	NaN
—	NaN	NaN
Nein	NaN	NaN
,	NaN	NaN
was	NaN	NaN
muess	NaN	NaN
ich	NaN	NaN
nitt	NaN	NaN
alles	NaN	NaN
erläwe	NaN	NaN
!	NaN	NaN
Ich	NaN	NaN
kann	NaN	NaN
schun	NaN	NaN
gar	NaN	NaN
nimmi	NaN	NaN
hylle	NaN	NaN
.	NaN	NaN
Na	NaN	NaN
,	NaN	NaN
wenn’r	NaN	NaN
die	NaN	NaN
Nacht	NaN	NaN
heime	NaN	NaN
kummt	NaN	NaN
,	NaN	NaN
soll’r	NaN	NaN
sähn	NaN	NaN
,	NaN	NaN
ass’r	NaN	NaN
mir	NaN	NaN
jetzt	NaN	NaN
au	NaN	NaN
Wurscht	NaN	NaN
isch	NaN	NaN
!	NaN	NaN
Na	NaN	NaN
,	NaN	NaN
isch	NaN	NaN
denn	NaN	NaN
by	NaN	NaN
mym	NaN	NaN
Schweschterle	NaN	NaN
niemes	NaN	NaN
d’	NaN	NaN
heim	NaN	NaN
?	NaN	NaN
Steckt	NaN	NaN
am	NaN	NaN
End	NaN	NaN
’s	NaN	NaN
jung	NaN	NaN
,	NaN	NaN
verliebt	NaN	NaN
Ehpärel	NaN	NaN
noch	NaN	NaN
odder	NaN	NaN
schun	NaN	NaN
widder	NaN	NaN
in	NaN	NaN
de	NaN	NaN
Feddere	NaN	NaN
?	NaN	NaN
Ah	NaN	NaN
,	NaN	NaN
do	NaN	NaN
kummt	NaN	NaN
schynnt	NaN	NaN
’s	NaN	NaN
ebber	NaN	NaN
!	NaN	NaN
Worum	NaN	NaN
kann	NaN	NaN
denn	NaN	NaN
ich	NaN	NaN
nitt	NaN	NaN
au	NaN	NaN
emool	NaN	NaN
im	NaN	NaN
Salon	NaN	NaN
odder	NaN	NaN
im	NaN	NaN
Fremdezimmer	NaN	NaN
schloofe	NaN	NaN
!	NaN	NaN
Ja	NaN	NaN
,	NaN	NaN
ja	NaN	NaN
,	NaN	NaN
Monsieur	NaN	NaN
Pierre	NaN	NaN
,	NaN	NaN
ich	NaN	NaN
bin	NaN	NaN
jetzt	NaN	NaN
lang	NaN	NaN
genue	NaN	NaN
Ihre	NaN	NaN
Sklav	NaN	NaN
g’sinn	NaN	NaN
!	NaN	NaN
:	NaN	NaN
Herrjeh	NaN	NaN
,	NaN	NaN
bin	NaN	NaN
ich	NaN	NaN
jetzt	NaN	NaN
verschrocke	NaN	NaN
!	NaN	NaN
:	NaN	NaN
Ah	NaN	NaN
,	NaN	NaN
dü	NaN	NaN
bisch	NaN	NaN
’s	NaN	NaN
,	NaN	NaN
liewer	NaN	NaN
Brueder	NaN	NaN
!	NaN	NaN
Wo	NaN	NaN
kummsch	NaN	NaN
denn	NaN	NaN
dü	NaN	NaN
so	NaN	NaN
unverhofft	NaN	NaN
here	NaN	NaN
?	NaN	NaN
Direkt	NaN	NaN
üss	NaN	NaN
Amerika	NaN	NaN
,	NaN	NaN
lieb	NaN	NaN
’s	NaN	NaN
Schweschterle	NaN	NaN
!	NaN	NaN
Unser	NaN	NaN
Schiff	NaN	NaN
isch	NaN	NaN
dato	NaN	NaN
uff’re	NaN	NaN
Europa-Reis	NaN	NaN
,	NaN	NaN
unn	NaN	NaN
so	NaN	NaN
haw	NaN	NaN
ich	NaN	NaN
endlich	NaN	NaN
emool	NaN	NaN
e	NaN	NaN
paar	NaN	NaN
Daa	NaN	NaN
Permission	NaN	NaN
bekumme	NaN	NaN
.	NaN	NaN
’s	NaN	NaN
hett	NaN	NaN
mir	NaN	NaN
jo	NaN	NaN
leid	NaN	NaN
genue	NaN	NaN
gedohn	NaN	NaN
,	NaN	NaN
ass	NaN	NaN
ich	NaN	NaN
nitt	NaN	NaN
by	NaN	NaN
dynere	NaN	NaN
Hoch	NaN	NaN
-	NaN	NaN
zytt	NaN	NaN
habb	NaN	NaN
kenne	NaN	NaN
sinn	NaN	NaN
!	NaN	NaN
Wär	NaN	NaN
ich	NaN	NaN
doch	NaN	NaN
numme	NaN	NaN
au	NaN	NaN
nitt	NaN	NaN
deby	NaN	NaN
g’sinn	NaN	NaN
!	NaN	NaN
Hoffetlich	NaN	NaN
lehr	NaN	NaN
ich	NaN	NaN
jetzt	NaN	NaN
hytt	NaN	NaN
dyne	NaN	NaN
Mann	NaN	NaN
kenne	NaN	NaN
?	NaN	NaN
Ich	NaN	NaN
habb’	NaN	NaN
ne	NaN	NaN
au	NaN	NaN
erscht	NaN	NaN
hytt	NaN	NaN
kenne	NaN	NaN
gelehrt	NaN	NaN
!	NaN	NaN
Awer	NaN	NaN
was	NaN	NaN
sieh	NaN	NaN
ich	NaN	NaN
denn	NaN	NaN
?	NaN	NaN
Dü	NaN	NaN
hesch	NaN	NaN
jo	NaN	NaN
ganz	NaN	NaN
ver	NaN	NaN
-	NaN	NaN
hyllti	NaN	NaN
Aue	NaN	NaN
!	NaN	NaN
Hett	NaN	NaN
’s	NaN	NaN
am	NaN	NaN
End	NaN	NaN
e	NaN	NaN
Gewitter	NaN	NaN
gänn	NaN	NaN
am	NaN	NaN
Eh	NaN	NaN
-	NaN	NaN
standshimmel	NaN	NaN
?	NaN	NaN
Jo	NaN	NaN
,	NaN	NaN
Albert	NaN	NaN
,	NaN	NaN
wo	NaN	NaN
denksch	NaN	NaN
dü	NaN	NaN
anne	NaN	NaN
!	NaN	NaN
Na	NaN	NaN
,	NaN	NaN
na	NaN	NaN
!	NaN	NaN
Sej	NaN	NaN
doch	NaN	NaN
ehrlich	NaN	NaN
,	NaN	NaN
Lucie	NaN	NaN
!	NaN	NaN
Box	NaN	NaN
gitt	NaN	NaN
’s	NaN	NaN
jo	NaN	NaN
in	NaN	NaN
jedere	NaN	NaN
Eh	NaN	NaN
emool	NaN	NaN
,	NaN	NaN
unn	NaN	NaN
zuedem	NaN	NaN
isch	NaN	NaN
jo	NaN	NaN
’s	NaN	NaN
Boxe	NaN	NaN
e	NaN	NaN
ganz	NaN	NaN
moderner	NaN	NaN
,	NaN	NaN
erlaubter	NaN	NaN
unn	NaN	NaN
au	NaN	NaN
guet	NaN	NaN
bezahlter	NaN	NaN
Sport	NaN	NaN
!	NaN	NaN
Geh	NaN	NaN
,	NaN	NaN
Albert	NaN	NaN
,	NaN	NaN
loss	NaN	NaN
die	NaN	NaN
Plän	NaN	NaN
uff	NaN	NaN
d'r	NaN	NaN
Sytt	NaN	NaN
!	NaN	NaN
Unn	NaN	NaN
was	NaN	NaN
soll	NaN	NaN
do	NaN	NaN
diss	NaN	NaN
Bett-Inventar	NaN	NaN
bedytte	NaN	NaN
?	NaN	NaN
Maidel	NaN	NaN
,	NaN	NaN
ich	NaN	NaN
root	NaN	NaN
dir	NaN	NaN
,	NaN	NaN
mach	NaN	NaN
liewer	NaN	NaN
dü	NaN	NaN
kein	NaN	NaN
Plän	NaN	NaN
!	NaN	NaN
Wo	NaN	NaN
denksch	NaN	NaN
dü	NaN	NaN
anne	NaN	NaN
!	NaN	NaN
Kumm	NaN	NaN
,	NaN	NaN
setz	NaN	NaN
dich	NaN	NaN
liewer	NaN	NaN
unn	NaN	NaN
verzehl	NaN	NaN
,	NaN	NaN
was	NaN	NaN
dü	NaN	NaN
alles	NaN	NaN
erläbt	NaN	NaN
hesch	NaN	NaN
.	NaN	NaN
Also	NaN	NaN
z’	NaN	NaN
letscht	NaN	NaN
bisch	NaN	NaN
de	NaN	NaN
in	NaN	NaN
Amerika	NaN	NaN
g’sinn	NaN	NaN
?	NaN	NaN
Diss	NaN	NaN
soll	NaN	NaN
e	NaN	NaN
ganz	NaN	NaN
modern	NaN	NaN
’s	NaN	NaN
Land	NaN	NaN
sinn	NaN	NaN
.	NaN	NaN
Dü	NaN	NaN
,	NaN	NaN
Albert	NaN	NaN
,	NaN	NaN
saa	NaN	NaN
emool	NaN	NaN
,	NaN	NaN
was	NaN	NaN
fur	NaN	NaN
e	NaN	NaN
Läwe	NaN	NaN
fiehre	NaN	NaN
denn	NaN	NaN
dorte	NaN	NaN
d’	NaN	NaN
Fraue	NaN	NaN
?	NaN	NaN
Hm	NaN	NaN
,	NaN	NaN
sie	NaN	NaN
sinn	NaN	NaN
au	NaN	NaN
nitt	NaN	NaN
schlächter	NaN	NaN
,	NaN	NaN
awer	NaN	NaN
au	NaN	NaN
nitt	NaN	NaN
bes	NaN	NaN
-	NaN	NaN
ser	NaN	NaN
als	NaN	NaN
wie	NaN	NaN
unseri	NaN	NaN
.	NaN	NaN
Diss	NaN	NaN
will	NaN	NaN
ich	NaN	NaN
nitt	NaN	NaN
wisse	NaN	NaN
!	NaN	NaN
Ich	NaN	NaN
mein	NaN	NaN
,	NaN	NaN
wie	NaN	NaN
s’	NaN	NaN
e	NaN	NaN
vun	NaN	NaN
de	NaN	NaN
Männer	NaN	NaN
b’handelt	NaN	NaN
wäre	NaN	NaN
?	NaN	NaN
Ah	NaN	NaN
so	NaN	NaN
!	NaN	NaN
Hm	NaN	NaN
,	NaN	NaN
wemm’r	NaN	NaN
s’	NaN	NaN
e	NaN	NaN
lieb	NaN	NaN
hett	NaN	NaN
,	NaN	NaN
arich	NaN	NaN
guet	NaN	NaN
;	NaN	NaN
wenn	NaN	NaN
nitt	NaN	NaN
,	NaN	NaN
ze	NaN	NaN
gitt	NaN	NaN
m'r	NaN	NaN
sich	NaN	NaN
iwerhaupt	NaN	NaN
nitt	NaN	NaN
mit’ne	NaN	NaN
ab	NaN	NaN
!	NaN	NaN
Diss	NaN	NaN
letscht	NaN	NaN
stimmt	NaN	NaN
exakt	NaN	NaN
uff	NaN	NaN
de	NaN	NaN
Pierre	NaN	NaN
!	NaN	NaN
Kein	NaN	NaN
Zwyefel	NaN	NaN
meh	NaN	NaN
,	NaN	NaN
ass’r	NaN	NaN
mich	NaN	NaN
nimmi	NaN	NaN
lieb	NaN	NaN
hett	NaN	NaN
!	NaN	NaN
:	NaN	NaN
Unn	NaN	NaN
was	NaN	NaN
fur	NaN	NaN
Frejheite	NaN	NaN
geniesse	NaN	NaN
d’	NaN	NaN
amerikanische	NaN	NaN
Fraue	NaN	NaN
?	NaN	NaN
Ich	NaN	NaN
glaub	NaN	NaN
jetzt	NaN	NaN
doch	NaN	NaN
ball	NaN	NaN
,	NaN	NaN
ass	NaN	NaN
de	NaN	NaN
mit	NaN	NaN
dym	NaN	NaN
Mann	NaN	NaN
Kippes	NaN	NaN
hesch	NaN	NaN
,	NaN	NaN
Lucie	NaN	NaN
?	NaN	NaN
Gibb	NaN	NaN
mir	NaN	NaN
Antwort	NaN	NaN
uff	NaN	NaN
myni	NaN	NaN
Fröj	NaN	NaN
,	NaN	NaN
Albert	NaN	NaN
!	NaN	NaN
Wie	NaN	NaN
d’	NaN	NaN
Madame	NaN	NaN
kummediere	NaN	NaN
kann	NaN	NaN
!	NaN	NaN
Also	NaN	NaN
,	NaN	NaN
d’	NaN	NaN
ameri	NaN	NaN
-	NaN	NaN
kanisch	NaN	NaN
Frau	NaN	NaN
hett	NaN	NaN
’s	NaN	NaN
nämlich	NaN	NaN
Rächt	NaN	NaN
als	NaN	NaN
wie	NaN	NaN
d'r	NaN	NaN
Mann	NaN	NaN
.	NaN	NaN
Aha	NaN	NaN
!	NaN	NaN
Numme	NaN	NaN
mir	NaN	NaN
sinn	NaN	NaN
noch	NaN	NaN
zeh	NaN	NaN
Stund	NaN	NaN
hinter	NaN	NaN
'm	NaN	NaN
Mond	NaN	NaN
d’	NaN	NaN
heim	NaN	NaN
!	NaN	NaN
:	NaN	NaN
Unn	NaN	NaN
muess	NaN	NaN
s’	NaN	NaN
e	NaN	NaN
au	NaN	NaN
de	NaN	NaN
Bossel	NaN	NaN
mache	NaN	NaN
in	NaN	NaN
d'r	NaN	NaN
Hüsshaltung	NaN	NaN
so	NaN	NaN
wie	NaN	NaN
by	NaN	NaN
uns	NaN	NaN
?	NaN	NaN
Na	NaN	NaN
,	NaN	NaN
ihr	NaN	NaN
zwei	NaN	NaN
miehn	NaN	NaN
mir	NaN	NaN
jo	NaN	NaN
e	NaN	NaN
wieschti	NaN	NaN
Ba	NaN	NaN
-	NaN	NaN
taille	NaN	NaN
g’schlaawe	NaN	NaN
hann	NaN	NaN
!	NaN	NaN
Albert	NaN	NaN
,	NaN	NaN
verzirn	NaN	NaN
mich	NaN	NaN
nitt	NaN	NaN
noch	NaN	NaN
meh	NaN	NaN
!	NaN	NaN
Nitt	NaN	NaN
noch	NaN	NaN
meh	NaN	NaN
?	NaN	NaN
Diss	NaN	NaN
G’ständnis	NaN	NaN
langt	NaN	NaN
mir	NaN	NaN
!	NaN	NaN
Fur	NaN	NaN
awer	NaN	NaN
d’	NaN	NaN
Wohret	NaN	NaN
ze	NaN	NaN
redde	NaN	NaN
,	NaN	NaN
ze	NaN	NaN
muess	NaN	NaN
ich	NaN	NaN
g’stehn	NaN	NaN
,	NaN	NaN
ass	NaN	NaN
d’	NaN	NaN
amerikanisch	NaN	NaN
Frau	NaN	NaN
kein	NaN	NaN
Hüssdier	NaN	NaN
isch	NaN	NaN
.	NaN	NaN
Die	NaN	NaN
schafft	NaN	NaN
hytt	NaN	NaN
genau	NaN	NaN
diss	NaN	NaN
,	NaN	NaN
was	NaN	NaN
d'r	NaN	NaN
Mann	NaN	NaN
au	NaN	NaN
schafft	NaN	NaN
.	NaN	NaN
Wenn	NaN	NaN
’s	NaN	NaN
awer	NaN	NaN
alli	NaN	NaN
Fraue	NaN	NaN
so	NaN	NaN
mache	NaN	NaN
dhäte	NaN	NaN
,	NaN	NaN
wer	NaN	NaN
gitt	NaN	NaN
sich	NaN	NaN
denn	NaN	NaN
no	NaN	NaN
mit	NaN	NaN
d'r	NaN	NaN
Hüsshaltung	NaN	NaN
ab	NaN	NaN
?	NaN	NaN
Au	NaN	NaN
do	NaN	NaN
hett	NaN	NaN
sich	NaN	NaN
in	NaN	NaN
letschter	NaN	NaN
Zytt	NaN	NaN
e	NaN	NaN
Usswäj	NaN	NaN
g’funde	NaN	NaN
.	NaN	NaN
’s	NaN	NaN
gitt	NaN	NaN
nämlich	NaN	NaN
jetzt	NaN	NaN
in	NaN	NaN
Amerika	NaN	NaN
männlichi	NaN	NaN
Dienscht	NaN	NaN
-	NaN	NaN
maidle	NaN	NaN
.	NaN	NaN
`	NaN	NaN
Was	NaN	NaN
dü	NaN	NaN
nitt	NaN	NaN
saasch	NaN	NaN
,	NaN	NaN
Albert	NaN	NaN
!	NaN	NaN
Ja	NaN	NaN
,	NaN	NaN
so	NaN	NaN
isch	NaN	NaN
’s	NaN	NaN
en	NaN	NaN
effet	NaN	NaN
!	NaN	NaN
Diss	NaN	NaN
sinn	NaN	NaN
Männer	NaN	NaN
üss	NaN	NaN
’m	NaN	NaN
Volk	NaN	NaN
,	NaN	NaN
wo	NaN	NaN
sich	NaN	NaN
,	NaN	NaN
so	NaN	NaN
wie	NaN	NaN
by	NaN	NaN
uns	NaN	NaN
d’	NaN	NaN
Dienschtmaidle	NaN	NaN
,	NaN	NaN
verdinge	NaN	NaN
unn	NaN	NaN
alli	NaN	NaN
Arweite	NaN	NaN
in	NaN	NaN
d'r	NaN	NaN
Menasch	NaN	NaN
mache	NaN	NaN
,	NaN	NaN
fur	NaN	NaN
ass	NaN	NaN
d’	NaN	NaN
Ma	NaN	NaN
-	NaN	NaN
dame	NaN	NaN
vum	NaN	NaN
Hüss	NaN	NaN
zeije	NaN	NaN
kann	NaN	NaN
,	NaN	NaN
ass	NaN	NaN
s’	NaN	NaN
e	NaN	NaN
d'	NaN	NaN
näm	NaN	NaN
-	NaN	NaN
liche	NaN	NaN
Rächter	NaN	NaN
hett	NaN	NaN
als	NaN	NaN
wie	NaN	NaN
d'r	NaN	NaN
Mann	NaN	NaN
,	NaN	NaN
diss	NaN	NaN
heisst	NaN	NaN
,	NaN	NaN
ass	NaN	NaN
sie	NaN	NaN
in	NaN	NaN
d'r	NaN	NaN
Menasch	NaN	NaN
nitt	NaN	NaN
de	NaN	NaN
Bos	NaN	NaN
-	NaN	NaN
sell	NaN	NaN
ze	NaN	NaN
mache	NaN	NaN
brücht	NaN	NaN
,	NaN	NaN
wie	NaN	NaN
dü	NaN	NaN
dich	NaN	NaN
üssgedruckt	NaN	NaN
hesch	NaN	NaN
!	NaN	NaN
Ganz	NaN	NaN
erächt	NaN	NaN
so	NaN	NaN
!	NaN	NaN
Unn	NaN	NaN
wer	NaN	NaN
weiss	NaN	NaN
,	NaN	NaN
wie	NaN	NaN
lang	NaN	NaN
ass	NaN	NaN
’s	NaN	NaN
noch	NaN	NaN
geht	NaN	NaN
,	NaN	NaN
bis	NaN	NaN
der	NaN	NaN
Mode	NaN	NaN
au	NaN	NaN
by	NaN	NaN
uns	NaN	NaN
yng’fiehrt	NaN	NaN
wurd	NaN	NaN
!	NaN	NaN
Ja	NaN	NaN
,	NaN	NaN
d’	NaN	NaN
Welt	NaN	NaN
wurd	NaN	NaN
alle	NaN	NaN
Daa	NaN	NaN
verruckter	NaN	NaN
,	NaN	NaN
unn	NaN	NaN
am	NaN	NaN
e	NaN	NaN
scheene	NaN	NaN
Daa	NaN	NaN
halte	NaN	NaN
d’	NaN	NaN
Mam	NaN	NaN
-	NaN	NaN
selle	NaN	NaN
um	NaN	NaN
d’	NaN	NaN
Hand	NaN	NaN
vun	NaN	NaN
de	NaN	NaN
Männer	NaN	NaN
an	NaN	NaN
!	NaN	NaN
Halt	NaN	NaN
,	NaN	NaN
e'n	NaN	NaN
Idee	NaN	NaN
!	NaN	NaN
Ja	NaN	NaN
,	NaN	NaN
so	NaN	NaN
wurd	NaN	NaN
’s	NaN	NaN
gemacht	NaN	NaN
!	NaN	NaN
Uff	NaN	NaN
e	NaN	NaN
letschter	NaN	NaN
Versuech	NaN	NaN
will	NaN	NaN
ich	NaN	NaN
’s	NaN	NaN
noch	NaN	NaN
ankumme	NaN	NaN
lonn	NaN	NaN
!	NaN	NaN
:	NaN	NaN
Albert	NaN	NaN
,	NaN	NaN
horich	NaN	NaN
:	NaN	NaN
Ich	NaN	NaN
will	NaN	NaN
dir	NaN	NaN
offe	NaN	NaN
bychte	NaN	NaN
,	NaN	NaN
ass	NaN	NaN
ich	NaN	NaN
mit	NaN	NaN
mym	NaN	NaN
Mann	NaN	NaN
unneins	NaN	NaN
bin	NaN	NaN
unn	NaN	NaN
ass	NaN	NaN
ich	NaN	NaN
glaub	NaN	NaN
,	NaN	NaN
ass	NaN	NaN
er	NaN	NaN
mich	NaN	NaN
nimm	NaN	NaN
lieb	NaN	NaN
hett	NaN	NaN
!	NaN	NaN
Diss	NaN	NaN
wurd	NaN	NaN
sich	NaN	NaN
schun	NaN	NaN
widder	NaN	NaN
mache	NaN	NaN
,	NaN	NaN
Lucie	NaN	NaN
!	NaN	NaN
Diss	NaN	NaN
will	NaN	NaN
ich	NaN	NaN
jo	NaN	NaN
grad	NaN	NaN
sähn	NaN	NaN
,	NaN	NaN
unn	NaN	NaN
waje	NaN	NaN
dem	NaN	NaN
sollsch	NaN	NaN
dü	NaN	NaN
mir	NaN	NaN
hälfe	NaN	NaN
deby	NaN	NaN
.	NaN	NaN
Ich	NaN	NaN
?	NaN	NaN
Ich	NaN	NaN
mecht	NaN	NaN
wisse	NaN	NaN
,	NaN	NaN
wie	NaN	NaN
?	NaN	NaN
Weisch	NaN	NaN
,	NaN	NaN
’s	NaN	NaN
isch	NaN	NaN
allewyll	NaN	NaN
g’fährlich	NaN	NaN
,	NaN	NaN
wemm’r	NaN	NaN
de	NaN	NaN
Kopf	NaN	NaN
zwische	NaN	NaN
zwei	NaN	NaN
Puffer	NaN	NaN
streckt	NaN	NaN
!	NaN	NaN
Unn	NaN	NaN
,	NaN	NaN
offe	NaN	NaN
g’stande	NaN	NaN
,	NaN	NaN
haw	NaN	NaN
ich	NaN	NaN
iwerhaupt	NaN	NaN
nitt	NaN	NaN
viel	NaN	NaN
Zytt	NaN	NaN
!	NaN	NaN
:	NaN	NaN
Ich	NaN	NaN
muess	NaN	NaN
partout	NaN	NaN
diss	NaN	NaN
scheen	NaN	NaN
,	NaN	NaN
härzig	NaN	NaN
Mamsellele	NaN	NaN
üssfindisch	NaN	NaN
mache	NaN	NaN
,	NaN	NaN
wo	NaN	NaN
im	NaN	NaN
nämliche	NaN	NaN
Coupé	NaN	NaN
mit	NaN	NaN
mir	NaN	NaN
uff	NaN	NaN
hie	NaN	NaN
g’fahre	NaN	NaN
isch	NaN	NaN
!	NaN	NaN
Allons	NaN	NaN
,	NaN	NaN
Albert	NaN	NaN
,	NaN	NaN
fur	NaN	NaN
so	NaN	NaN
e	NaN	NaN
Liewesdienscht	NaN	NaN
hett	NaN	NaN
m'r	NaN	NaN
doch	NaN	NaN
allewyl	NaN	NaN
Zytt	NaN	NaN
!	NaN	NaN
Na	NaN	NaN
,	NaN	NaN
myntwäje	NaN	NaN
,	NaN	NaN
Lucie	NaN	NaN
!	NaN	NaN
Awer	NaN	NaN
wie	NaN	NaN
denksch	NaN	NaN
dü	NaN	NaN
dir	NaN	NaN
’s	NaN	NaN
,	NaN	NaN
ass	NaN	NaN
ich	NaN	NaN
d’	NaN	NaN
Friddesverhandlunge	NaN	NaN
in	NaN	NaN
ejrem	NaN	NaN
Ehstandskriej	NaN	NaN
ynleite	NaN	NaN
soll	NaN	NaN
?	NaN	NaN
Ganz	NaN	NaN
einfach	NaN	NaN
:	NaN	NaN
Dü	NaN	NaN
spielsch	NaN	NaN
myn	NaN	NaN
Dienschtmaidel	NaN	NaN
!	NaN	NaN
Wa-a-as	NaN	NaN
soll	NaN	NaN
ich	NaN	NaN
?	NaN	NaN
Ich	NaN	NaN
—	NaN	NaN
dyn	NaN	NaN
—	NaN	NaN
Dienschtmaidel	NaN	NaN
?	NaN	NaN
Worum	NaN	NaN
nitt	NaN	NaN
?	NaN	NaN
Grad	NaN	NaN
so	NaN	NaN
wie	NaN	NaN
in	NaN	NaN
Amerika	NaN	NaN
!	NaN	NaN
Nein	NaN	NaN
,	NaN	NaN
do	NaN	NaN
mach	NaN	NaN
ich	NaN	NaN
nitt	NaN	NaN
mit	NaN	NaN
!	NaN	NaN
Ich	NaN	NaN
bin	NaN	NaN
nitt	NaN	NaN
so	NaN	NaN
rächtshawerisch	NaN	NaN
,	NaN	NaN
ass	NaN	NaN
ich	NaN	NaN
,	NaN	NaN
in	NaN	NaN
andere	NaN	NaN
Lytt	NaN	NaN
ihri	NaN	NaN
Rächter	NaN	NaN
eweggnemm	NaN	NaN
,	NaN	NaN
nitt	NaN	NaN
emool	NaN	NaN
in	NaN	NaN
de	NaN	NaN
Fraue	NaN	NaN
ihre	NaN	NaN
Rächt	NaN	NaN
uff	NaN	NaN
Pflicht	NaN	NaN
!	NaN	NaN
Albert	NaN	NaN
,	NaN	NaN
ich	NaN	NaN
bitt	NaN	NaN
dich	NaN	NaN
!	NaN	NaN
’s	NaN	NaN
isch	NaN	NaN
jo	NaN	NaN
nitt	NaN	NaN
fur	NaN	NaN
lang	NaN	NaN
,	NaN	NaN
numme	NaN	NaN
fur	NaN	NaN
e	NaN	NaN
Daa	NaN	NaN
odder	NaN	NaN
zwei	NaN	NaN
.	NaN	NaN
Bedenk	NaN	NaN
,	NaN	NaN
ass	NaN	NaN
myn	NaN	NaN
Läwes	NaN	NaN
-	NaN	NaN
unn	NaN	NaN
Ehglick	NaN	NaN
devun	NaN	NaN
abhängt	NaN	NaN
.	NaN	NaN
Ich	NaN	NaN
will	NaN	NaN
myne	NaN	NaN
Mann	NaN	NaN
numme	NaN	NaN
uff	NaN	NaN
d’	NaN	NaN
Prob	NaN	NaN
stelle	NaN	NaN
!	NaN	NaN
So	NaN	NaN
?	NaN	NaN
Unn	NaN	NaN
wie	NaN	NaN
diss	NaN	NaN
?	NaN	NaN
Erschtens	NaN	NaN
durch	NaN	NaN
diss	NaN	NaN
,	NaN	NaN
ass	NaN	NaN
ich	NaN	NaN
wie	NaN	NaN
d’	NaN	NaN
Amerikanere	NaN	NaN
mir	NaN	NaN
e	NaN	NaN
männlich	NaN	NaN
’s	NaN	NaN
Dienschtmaidel	NaN	NaN
halte	NaN	NaN
dhue	NaN	NaN
,	NaN	NaN
will	NaN	NaN
ich	NaN	NaN
’m	NaN	NaN
zeije	NaN	NaN
,	NaN	NaN
ass	NaN	NaN
ich	NaN	NaN
d’	NaN	NaN
nämliche	NaN	NaN
Rächter	NaN	NaN
habb	NaN	NaN
als	NaN	NaN
wie	NaN	NaN
er	NaN	NaN
.	NaN	NaN
Zwei	NaN	NaN
-	NaN	NaN
tens	NaN	NaN
will	NaN	NaN
ich	NaN	NaN
glychzyttig	NaN	NaN
konschtatiere	NaN	NaN
,	NaN	NaN
ob’r	NaN	NaN
mich	NaN	NaN
noch	NaN	NaN
lieb	NaN	NaN
hett	NaN	NaN
;	NaN	NaN
isch	NaN	NaN
diss	NaN	NaN
d'r	NaN	NaN
Fall	NaN	NaN
,	NaN	NaN
ze	NaN	NaN
wurd’r	NaN	NaN
gewiss	NaN	NaN
schallu	NaN	NaN
uff	NaN	NaN
myn	NaN	NaN
männlich	NaN	NaN
’s	NaN	NaN
Dienschtmaidel	NaN	NaN
sinn	NaN	NaN
unn	NaN	NaN
losst	NaN	NaN
mich	NaN	NaN
nitt	NaN	NaN
mit	NaN	NaN
’m	NaN	NaN
ellein	NaN	NaN
!	NaN	NaN
Diss	NaN	NaN
kann	NaN	NaN
jo	NaN	NaN
Mord	NaN	NaN
unn	NaN	NaN
Doodschlaa	NaN	NaN
gänn	NaN	NaN
!	NaN	NaN
Loss	NaN	NaN
mich	NaN	NaN
numme	NaN	NaN
mache	NaN	NaN
,	NaN	NaN
unn	NaN	NaN
’s	NaN	NaN
wurd	NaN	NaN
schun	NaN	NaN
nix	NaN	NaN
bassiere	NaN	NaN
!	NaN	NaN
D’	NaN	NaN
Hauptroll	NaN	NaN
haw	NaN	NaN
ich	NaN	NaN
ze	NaN	NaN
spiele	NaN	NaN
!	NaN	NaN
Kumm	NaN	NaN
,	NaN	NaN
ich	NaN	NaN
will	NaN	NaN
dir	NaN	NaN
e	NaN	NaN
Zimmer	NaN	NaN
rischte	NaN	NaN
;	NaN	NaN
iwerdem	NaN	NaN
saa	NaN	NaN
ich	NaN	NaN
dir	NaN	NaN
no	NaN	NaN
,	NaN	NaN
wie	NaN	NaN
mir	NaN	NaN
zwei	NaN	NaN
uns	NaN	NaN
ze	NaN	NaN
verhalte	NaN	NaN
hann	NaN	NaN
.	NaN	NaN
Mir	NaN	NaN
an	NaN	NaN
!	NaN	NaN
Mir	NaN	NaN
soll	NaN	NaN
awer	NaN	NaN
noch	NaN	NaN
emool	NaN	NaN
einer	NaN	NaN
saawe	NaN	NaN
,	NaN	NaN
ass	NaN	NaN
numme	NaN	NaN
Amerika	NaN	NaN
ellein	NaN	NaN
’s	NaN	NaN
Land	NaN	NaN
vun	NaN	NaN
de	NaN	NaN
unbegrenzte	NaN	NaN
Mejlichkeite	NaN	NaN
isch	NaN	NaN
!	NaN	NaN
Nein	NaN	NaN
,	NaN	NaN
iwerall	NaN	NaN
do	NaN	NaN
,	NaN	NaN
wo	NaN	NaN
e	NaN	NaN
Frau	NaN	NaN
isch	NaN	NaN
;	NaN	NaN
gitt	NaN	NaN
’s	NaN	NaN
kein	NaN	NaN
Unmejlichkeite	NaN	NaN
!	NaN	NaN
Heilich	NaN	NaN
,	NaN	NaN
wie	NaN	NaN
dhuet	NaN	NaN
mir	NaN	NaN
d'r	NaN	NaN
Kopf	NaN	NaN
brumme	NaN	NaN
!	NaN	NaN
Diss	NaN	NaN
isch	NaN	NaN
mir	NaN	NaN
gescht	NaN	NaN
oowe	NaN	NaN
widder	NaN	NaN
emool	NaN	NaN
e	NaN	NaN
langi	NaN	NaN
unn	NaN	NaN
e	NaN	NaN
schwäri	NaN	NaN
Sitzung	NaN	NaN
g’sinn	NaN	NaN
!	NaN	NaN
Unn	NaN	NaN
dezue	NaN	NaN
haw	NaN	NaN
ich	NaN	NaN
noch	NaN	NaN
in	NaN	NaN
de	NaN	NaN
Zorn	NaN	NaN
nyn	NaN	NaN
ge	NaN	NaN
-	NaN	NaN
drunke	NaN	NaN
waje	NaN	NaN
dere	NaN	NaN
kaiwe	NaN	NaN
Gross-Los-Debatt	NaN	NaN
mit	NaN	NaN
mynere	NaN	NaN
Frau	NaN	NaN
!	NaN	NaN
Na	NaN	NaN
,	NaN	NaN
do	NaN	NaN
haw	NaN	NaN
ich	NaN	NaN
schynnt	NaN	NaN
’s	NaN	NaN
in	NaN	NaN
e	NaN	NaN
scheens	NaN	NaN
Weschpel	NaN	NaN
-	NaN	NaN
nescht	NaN	NaN
nyng’stoche	NaN	NaN
!	NaN	NaN
Unser	NaN	NaN
erscht	NaN	NaN
Krach	NaN	NaN
,	NaN	NaN
zytter	NaN	NaN
ass	NaN	NaN
mir	NaN	NaN
g’hyroot	NaN	NaN
sinn	NaN	NaN
!	NaN	NaN
’s	NaN	NaN
Resültat	NaN	NaN
devun	NaN	NaN
isch	NaN	NaN
,	NaN	NaN
ass	NaN	NaN
myni	NaN	NaN
Frau	NaN	NaN
die	NaN	NaN
Nacht	NaN	NaN
im	NaN	NaN
Salon	NaN	NaN
g’schloofe	NaN	NaN
hett	NaN	NaN
!	NaN	NaN
—	NaN	NaN
Au	NaN	NaN
,	NaN	NaN
myner	NaN	NaN
Kopf	NaN	NaN
!	NaN	NaN
Wie	NaN	NaN
der	NaN	NaN
nooch	NaN	NaN
eme	NaN	NaN
Häri	NaN	NaN
miaue	NaN	NaN
dhuet	NaN	NaN
!	NaN	NaN
—	NaN	NaN
Unn	NaN	NaN
kein	NaN	NaN
Blick	NaN	NaN
,	NaN	NaN
kein	NaN	NaN
Wort	NaN	NaN
hett	NaN	NaN
mir	NaN	NaN
’s	NaN	NaN
Lucie	NaN	NaN
gegunnt	NaN	NaN
,	NaN	NaN
wo	NaN	NaN
ich	NaN	NaN
heime	NaN	NaN
bin	NaN	NaN
kumme	NaN	NaN
.	NaN	NaN
Wenn	NaN	NaN
ich	NaN	NaN
numme	NaN	NaN
wisst	NaN	NaN
,	NaN	NaN
wie	NaN	NaN
ich	NaN	NaN
s’	NaN	NaN
e	NaN	NaN
widder	NaN	NaN
versehne	NaN	NaN
kennt	NaN	NaN
,	NaN	NaN
ohne	NaN	NaN
ass	NaN	NaN
ich	NaN	NaN
mir	NaN	NaN
ebbs	NaN	NaN
vergibb	NaN	NaN
,	NaN	NaN
denn	NaN	NaN
ich	NaN	NaN
habb	NaN	NaN
s'	NaN	NaN
e	NaN	NaN
jo	NaN	NaN
doch	NaN	NaN
gar	NaN	NaN
ze	NaN	NaN
lieb	NaN	NaN
!	NaN	NaN
—	NaN	NaN
Jetzt	NaN	NaN
wär	NaN	NaN
’s	NaN	NaN
awer	NaN	NaN
Zytt	NaN	NaN
,	NaN	NaN
ass	NaN	NaN
ich	NaN	NaN
myne	NaN	NaN
Café	NaN	NaN
bekäm	NaN	NaN
!	NaN	NaN
Odder	NaN	NaN
schlooft	NaN	NaN
d'	NaN	NaN
Madame	NaN	NaN
Lucie	NaN	NaN
am	NaN	NaN
End	NaN	NaN
noch	NaN	NaN
,	NaN	NaN
odder	NaN	NaN
will	NaN	NaN
s’	NaN	NaN
e	NaN	NaN
mich	NaN	NaN
durch	NaN	NaN
’s	NaN	NaN
Üsshungere	NaN	NaN
zahm	NaN	NaN
mache	NaN	NaN
?	NaN	NaN
Was	NaN	NaN
isch	NaN	NaN
denn	NaN	NaN
diss	NaN	NaN
fur	NaN	NaN
e	NaN	NaN
Zettel	NaN	NaN
?	NaN	NaN
Ah	NaN	NaN
,	NaN	NaN
vum	NaN	NaN
Lucie	NaN	NaN
!	NaN	NaN
:	NaN	NaN
«	NaN	NaN
Mein	NaN	NaN
Herr	NaN	NaN
!	NaN	NaN
»	NaN	NaN
:	NaN	NaN
Hu	NaN	NaN
,	NaN	NaN
wie	NaN	NaN
zeremoniell	NaN	NaN
!	NaN	NaN
:	NaN	NaN
„	NaN	NaN
Wenn	NaN	NaN
Sie	NaN	NaN
etwas	NaN	NaN
wünschen	NaN	NaN
,	NaN	NaN
läuten	NaN	NaN
Sie	NaN	NaN
dem	NaN	NaN
Dienst	NaN	NaN
-	NaN	NaN
mädchen	NaN	NaN
!	NaN	NaN
Lucie	NaN	NaN
.	NaN	NaN
»	NaN	NaN
:	NaN	NaN
Was	NaN	NaN
soll	NaN	NaN
denn	NaN	NaN
jetzt	NaN	NaN
diss	NaN	NaN
heisse	NaN	NaN
!	NaN	NaN
Zytter	NaN	NaN
wenn	NaN	NaN
hann	NaN	NaN
mir	NaN	NaN
denn	NaN	NaN
e	NaN	NaN
Dienschtmaidel	NaN	NaN
?	NaN	NaN
Ah	NaN	NaN
,	NaN	NaN
diss	NaN	NaN
hett	NaN	NaN
’s	NaN	NaN
Lucie	NaN	NaN
anga	NaN	NaN
-	NaN	NaN
schiert	NaN	NaN
,	NaN	NaN
fur	NaN	NaN
mir	NaN	NaN
ze	NaN	NaN
zeije	NaN	NaN
,	NaN	NaN
ass	NaN	NaN
sie	NaN	NaN
dohinne	NaN	NaN
ze	NaN	NaN
kummediere	NaN	NaN
hett	NaN	NaN
!	NaN	NaN
Na	NaN	NaN
,	NaN	NaN
do	NaN	NaN
redd	NaN	NaN
ich	NaN	NaN
au	NaN	NaN
noch	NaN	NaN
e	NaN	NaN
Wertel	NaN	NaN
mit	NaN	NaN
!	NaN	NaN
Vorerscht	NaN	NaN
will	NaN	NaN
ich	NaN	NaN
mir	NaN	NaN
awer	NaN	NaN
emool	NaN	NaN
denne	NaN	NaN
Kichedragünner	NaN	NaN
angücke	NaN	NaN
!	NaN	NaN
’s	NaN	NaN
Lucie	NaN	NaN
hätt	NaN	NaN
mich	NaN	NaN
doch	NaN	NaN
s’	NaN	NaN
wennischt	NaN	NaN
fröje	NaN	NaN
kenne	NaN	NaN
,	NaN	NaN
wenn	NaN	NaN
s’	NaN	NaN
e	NaN	NaN
mit	NaN	NaN
d'r	NaN	NaN
Arweit	NaN	NaN
nimmi	NaN	NaN
ellein	NaN	NaN
ferti	NaN	NaN
wurd	NaN	NaN
unn	NaN	NaN
e	NaN	NaN
Hilf	NaN	NaN
brücht	NaN	NaN
!	NaN	NaN
Guete	NaN	NaN
Morje	NaN	NaN
,	NaN	NaN
Herr	NaN	NaN
!	NaN	NaN
Was	NaN	NaN
isch	NaN	NaN
denn	NaN	NaN
diss	NaN	NaN
?	NaN	NaN
Wie	NaN	NaN
kummt	NaN	NaN
diss	NaN	NaN
Mannsbild	NaN	NaN
in	NaN	NaN
myni	NaN	NaN
Wohnung	NaN	NaN
?	NaN	NaN
Bin	NaN	NaN
ich	NaN	NaN
denn	NaN	NaN
im	NaN	NaN
Kopf	NaN	NaN
noch	NaN	NaN
nitt	NaN	NaN
ganz	NaN	NaN
klar	NaN	NaN
?	NaN	NaN
Do	NaN	NaN
bring	NaN	NaN
ich	NaN	NaN
de	NaN	NaN
Café	NaN	NaN
,	NaN	NaN
Herr	NaN	NaN
!	NaN	NaN
Ja	NaN	NaN
,	NaN	NaN
wer	NaN	NaN
sinn	NaN	NaN
Sie	NaN	NaN
denn	NaN	NaN
iwerhaupt	NaN	NaN
?	NaN	NaN
Sinn	NaN	NaN
Sie	NaN	NaN
e	NaN	NaN
Maidel	NaN	NaN
,	NaN	NaN
wo	NaN	NaN
Hosse	NaN	NaN
an	NaN	NaN
hett	NaN	NaN
,	NaN	NaN
oder	NaN	NaN
sinn	NaN	NaN
Sie	NaN	NaN
e	NaN	NaN
Bue	NaN	NaN
,	NaN	NaN
wo	NaN	NaN
d’	NaN	NaN
Hoor	NaN	NaN
g’schnitte	NaN	NaN
hett	NaN	NaN
?	NaN	NaN
Wie	NaN	NaN
heisse	NaN	NaN
Sie	NaN	NaN
denn	NaN	NaN
?	NaN	NaN
Albert	NaN	NaN
,	NaN	NaN
Herr	NaN	NaN
!	NaN	NaN
Also	NaN	NaN
doch	NaN	NaN
e	NaN	NaN
Mannsstick	NaN	NaN
!	NaN	NaN
Ja	NaN	NaN
,	NaN	NaN
Mensch	NaN	NaN
,	NaN	NaN
was	NaN	NaN
sueche	NaN	NaN
Sie	NaN	NaN
denn	NaN	NaN
no	NaN	NaN
do	NaN	NaN
in	NaN	NaN
mynere	NaN	NaN
Gerechtigkeit	NaN	NaN
?	NaN	NaN
Ei	NaN	NaN
,	NaN	NaN
ich	NaN	NaN
bin	NaN	NaN
’s	NaN	NaN
nej	NaN	NaN
Dienschtmaidel	NaN	NaN
,	NaN	NaN
Herr	NaN	NaN
!	NaN	NaN
Jetzt	NaN	NaN
schlaat	NaN	NaN
’s	NaN	NaN
dryzeh	NaN	NaN
!	NaN	NaN
Wenn’r	NaN	NaN
s’	NaN	NaN
wennischt	NaN	NaN
noch	NaN	NaN
«	NaN	NaN
Dienschtmann	NaN	NaN
»	NaN	NaN
g’saat	NaN	NaN
hätt	NaN	NaN
!	NaN	NaN
:	NaN	NaN
Entweder	NaN	NaN
isch	NaN	NaN
jetzt	NaN	NaN
der	NaN	NaN
Mensch	NaN	NaN
e	NaN	NaN
Narr	NaN	NaN
odder	NaN	NaN
e	NaN	NaN
Gauner	NaN	NaN
,	NaN	NaN
wo	NaN	NaN
sich	NaN	NaN
by	NaN	NaN
mir	NaN	NaN
yng’schliche	NaN	NaN
hett	NaN	NaN
!	NaN	NaN
:	NaN	NaN
Uff	NaN	NaN
d'r	NaN	NaN
G’stell	NaN	NaN
mache	NaN	NaN
Sie	NaN	NaN
,	NaN	NaN
ass	NaN	NaN
Sie	NaN	NaN
mir	NaN	NaN
zuem	NaN	NaN
Dembel	NaN	NaN
nüsskumme	NaN	NaN
!	NaN	NaN
’s	NaN	NaN
dhuet	NaN	NaN
mir	NaN	NaN
leid	NaN	NaN
.	NaN	NaN
awer	NaN	NaN
ich	NaN	NaN
folj	NaN	NaN
numme	NaN	NaN
in	NaN	NaN
d’r	NaN	NaN
Madame	NaN	NaN
,	NaN	NaN
wo	NaN	NaN
mich	NaN	NaN
angaschiert	NaN	NaN
hett	NaN	NaN
.	NaN	NaN
Wie	NaN	NaN
?	NaN	NaN
Was	NaN	NaN
?	NaN	NaN
Angaschiert	NaN	NaN
?	NaN	NaN
Sie	NaN	NaN
—	NaN	NaN
als	NaN	NaN
Mann	NaN	NaN
?	NaN	NaN
Nein	NaN	NaN
,	NaN	NaN
Herr	NaN	NaN
,	NaN	NaN
nitt	NaN	NaN
als	NaN	NaN
Mann	NaN	NaN
,	NaN	NaN
awer	NaN	NaN
als	NaN	NaN
Dienschtmaidel	NaN	NaN
,	NaN	NaN
wie	NaN	NaN
ich	NaN	NaN
jo	NaN	NaN
vorig	NaN	NaN
schun	NaN	NaN
g’saat	NaN	NaN
habb	NaN	NaN
.	NaN	NaN
Jetzt	NaN	NaN
isch	NaN	NaN
awer	NaN	NaN
Hei	NaN	NaN
genue	NaN	NaN
hunte	NaN	NaN
!	NaN	NaN
Nüss	NaN	NaN
,	NaN	NaN
saa	NaN	NaN
ich	NaN	NaN
,	NaN	NaN
als	NaN	NaN
nüss	NaN	NaN
!	NaN	NaN
Jetzt	NaN	NaN
heisst	NaN	NaN
’s	NaN	NaN
laufe	NaN	NaN
!	NaN	NaN
Diss	NaN	NaN
kapier	NaN	NaN
,	NaN	NaN
wer	NaN	NaN
will	NaN	NaN
!	NaN	NaN
—	NaN	NaN
Au	NaN	NaN
,	NaN	NaN
myner	NaN	NaN
Kopf	NaN	NaN
!	NaN	NaN
—	NaN	NaN
Ich	NaN	NaN
wurr	NaN	NaN
nitt	NaN	NaN
schlöj	NaN	NaN
drüss	NaN	NaN
!	NaN	NaN
Der	NaN	NaN
Fitzer	NaN	NaN
hett	NaN	NaN
jo	NaN	NaN
,	NaN	NaN
weiss	NaN	NaN
Gott	NaN	NaN
,	NaN	NaN
gemacht	NaN	NaN
,	NaN	NaN
wie	NaN	NaN
wenn’r	NaN	NaN
im	NaN	NaN
Rächt	NaN	NaN
wär	NaN	NaN
!	NaN	NaN
Ich	NaN	NaN
muess	NaN	NaN
partout	NaN	NaN
mit	NaN	NaN
’m	NaN	NaN
Lucie	NaN	NaN
redde	NaN	NaN
—	NaN	NaN
ah	NaN	NaN
,	NaN	NaN
do	NaN	NaN
kummt	NaN	NaN
s’	NaN	NaN
e	NaN	NaN
jo	NaN	NaN
!	NaN	NaN
Kein	NaN	NaN
liewe	NaN	NaN
Blick	NaN	NaN
unn	NaN	NaN
kein	NaN	NaN
guet	NaN	NaN
’s	NaN	NaN
Wort	NaN	NaN
gunn	NaN	NaN
ich	NaN	NaN
’m	NaN	NaN
,	NaN	NaN
bis	NaN	NaN
ich	NaN	NaN
ne	NaN	NaN
so	NaN	NaN
wytt	NaN	NaN
habb	NaN	NaN
!	NaN	NaN
Lucie	NaN	NaN
,	NaN	NaN
horich	NaN	NaN
,	NaN	NaN
was	NaN	NaN
isch	NaN	NaN
diss	NaN	NaN
fur	NaN	NaN
e	NaN	NaN
G’schicht	NaN	NaN
mit	NaN	NaN
eme	NaN	NaN
Dienschtmaidel	NaN	NaN
,	NaN	NaN
wo	NaN	NaN
dü	NaN	NaN
angaschiert	NaN	NaN
hesch	NaN	NaN
?	NaN	NaN
Ich	NaN	NaN
habb	NaN	NaN
’s	NaN	NaN
jo	NaN	NaN
uff	NaN	NaN
diss	NaN	NaN
Babier	NaN	NaN
g’schriwe	NaN	NaN
,	NaN	NaN
also	NaN	NaN
stimmt	NaN	NaN
’s	NaN	NaN
au	NaN	NaN
!	NaN	NaN
Wenn	NaN	NaN
dü	NaN	NaN
e	NaN	NaN
Hilf	NaN	NaN
brüchsch	NaN	NaN
,	NaN	NaN
ze	NaN	NaN
will	NaN	NaN
ich	NaN	NaN
jo	NaN	NaN
nix	NaN	NaN
degeje	NaN	NaN
hann	NaN	NaN
…	NaN	NaN
Aha	NaN	NaN
,	NaN	NaN
er	NaN	NaN
isch	NaN	NaN
schun	NaN	NaN
e	NaN	NaN
bissel	NaN	NaN
zahm	NaN	NaN
!	NaN	NaN
…	NaN	NaN
awer	NaN	NaN
saa	NaN	NaN
mir	NaN	NaN
,	NaN	NaN
was	NaN	NaN
diss	NaN	NaN
fur	NaN	NaN
e	NaN	NaN
Kerl	NaN	NaN
isch	NaN	NaN
,	NaN	NaN
wo	NaN	NaN
sieh	NaN	NaN
do	NaN	NaN
in	NaN	NaN
unsrer	NaN	NaN
Wohnung	NaN	NaN
erumtryebt	NaN	NaN
?	NaN	NaN
Monsieur	NaN	NaN
,	NaN	NaN
diss	NaN	NaN
isch	NaN	NaN
jo	NaN	NaN
grad	NaN	NaN
myn	NaN	NaN
Dienschtmaidel	NaN	NaN
!	NaN	NaN
Ass	NaN	NaN
ich	NaN	NaN
verruckt	NaN	NaN
bin	NaN	NaN
,	NaN	NaN
meine	NaN	NaN
Sie	NaN	NaN
,	NaN	NaN
Monsieur	NaN	NaN
?	NaN	NaN
Nitt	NaN	NaN
ass	NaN	NaN
Sie	NaN	NaN
sich	NaN	NaN
drumbiere	NaN	NaN
!	NaN	NaN
Zwische	NaN	NaN
gescht	NaN	NaN
unn	NaN	NaN
hytt	NaN	NaN
isch	NaN	NaN
e	NaN	NaN
grossi	NaN	NaN
Differenz	NaN	NaN
!	NaN	NaN
Mir	NaN	NaN
sinn	NaN	NaN
d’	NaN	NaN
Aue	NaN	NaN
uffgange	NaN	NaN
,	NaN	NaN
unn	NaN	NaN
ich	NaN	NaN
bin	NaN	NaN
nimmi	NaN	NaN
so	NaN	NaN
verruckt	NaN	NaN
,	NaN	NaN
ass	NaN	NaN
ich	NaN	NaN
mich	NaN	NaN
vum	NaN	NaN
e	NaN	NaN
Mann	NaN	NaN
unter	NaN	NaN
-	NaN	NaN
drucke	NaN	NaN
loss	NaN	NaN
.	NaN	NaN
Mir	NaN	NaN
Fraue	NaN	NaN
hann	NaN	NaN
grad	NaN	NaN
so	NaN	NaN
viell	NaN	NaN
Rächter	NaN	NaN
als	NaN	NaN
wie	NaN	NaN
ihr	NaN	NaN
Männer	NaN	NaN
!	NaN	NaN
Gewiss	NaN	NaN
,	NaN	NaN
liewi	NaN	NaN
Lucie	NaN	NaN
,	NaN	NaN
myn	NaN	NaN
guet	NaN	NaN
’s	NaN	NaN
Wyewele	NaN	NaN
,	NaN	NaN
ich	NaN	NaN
gibb	NaN	NaN
jo	NaN	NaN
…	NaN	NaN
So	NaN	NaN
Zärtlichkeite	NaN	NaN
kenne	NaN	NaN
Sie	NaN	NaN
wo	NaN	NaN
andersch	NaN	NaN
ver	NaN	NaN
-	NaN	NaN
schwende	NaN	NaN
,	NaN	NaN
Monsieur	NaN	NaN
!	NaN	NaN
Allons	NaN	NaN
,	NaN	NaN
Lucie	NaN	NaN
,	NaN	NaN
ze	NaN	NaN
sej	NaN	NaN
doch	NaN	NaN
verninftig	NaN	NaN
unn	NaN	NaN
…	NaN	NaN
Ah	NaN	NaN
,	NaN	NaN
Sie	NaN	NaN
meine	NaN	NaN
,	NaN	NaN
ich	NaN	NaN
bin	NaN	NaN
unverninftig	NaN	NaN
?	NaN	NaN
Gewiss	NaN	NaN
,	NaN	NaN
ich	NaN	NaN
bin	NaN	NaN
’s	NaN	NaN
g’sinn	NaN	NaN
,	NaN	NaN
so	NaN	NaN
lang	NaN	NaN
als	NaN	NaN
wie	NaN	NaN
ich	NaN	NaN
gemeint	NaN	NaN
habb	NaN	NaN
,	NaN	NaN
d’	NaN	NaN
Frau	NaN	NaN
wär	NaN	NaN
d'r	NaN	NaN
Sklav	NaN	NaN
vum	NaN	NaN
Mann	NaN	NaN
!	NaN	NaN
Awer	NaN	NaN
was	NaN	NaN
e	NaN	NaN
Amerikanere	NaN	NaN
kann	NaN	NaN
,	NaN	NaN
diss	NaN	NaN
kann	NaN	NaN
ich	NaN	NaN
au	NaN	NaN
!	NaN	NaN
Guet	NaN	NaN
,	NaN	NaN
ich	NaN	NaN
gibb	NaN	NaN
jo	NaN	NaN
alles	NaN	NaN
zue	NaN	NaN
,	NaN	NaN
awer	NaN	NaN
was	NaN	NaN
hett	NaN	NaN
diss	NaN	NaN
alles	NaN	NaN
mit	NaN	NaN
dem	NaN	NaN
Mannsbild	NaN	NaN
im	NaN	NaN
Hüss	NaN	NaN
ze	NaN	NaN
schaffe	NaN	NaN
?	NaN	NaN
Was	NaN	NaN
?	NaN	NaN
Ei	NaN	NaN
,	NaN	NaN
ich	NaN	NaN
habb	NaN	NaN
min	NaN	NaN
halt	NaN	NaN
wie	NaN	NaN
alli	NaN	NaN
moderni	NaN	NaN
Ameri	NaN	NaN
-	NaN	NaN
kanere	NaN	NaN
e	NaN	NaN
männlich	NaN	NaN
’s	NaN	NaN
Dienschtmaidel	NaN	NaN
zuegeleijt	NaN	NaN
!	NaN	NaN
Hett	NaN	NaN
m'r	NaN	NaN
schun	NaN	NaN
emool	NaN	NaN
so	NaN	NaN
ebbs	NaN	NaN
g’heert	NaN	NaN
!	NaN	NaN
Diss	NaN	NaN
duld	NaN	NaN
ich	NaN	NaN
nitt	NaN	NaN
!	NaN	NaN
Uff	NaN	NaN
d'r	NaN	NaN
G’stell	NaN	NaN
fliejt’r	NaN	NaN
mir	NaN	NaN
nüss	NaN	NaN
!	NaN	NaN
Mir	NaN	NaN
ellein	NaN	NaN
isch’r	NaN	NaN
G’horsam	NaN	NaN
schuldi	NaN	NaN
.	NaN	NaN
Ich	NaN	NaN
bin	NaN	NaN
Herr	NaN	NaN
im	NaN	NaN
Hüss	NaN	NaN
!	NaN	NaN
Unn	NaN	NaN
ich	NaN	NaN
habb	NaN	NaN
grad	NaN	NaN
so	NaN	NaN
viell	NaN	NaN
Rächter	NaN	NaN
als	NaN	NaN
wie	NaN	NaN
d'r	NaN	NaN
Mann	NaN	NaN
!	NaN	NaN
So	NaN	NaN
e	NaN	NaN
Dienschtbott	NaN	NaN
schiekt	NaN	NaN
sich	NaN	NaN
nitt	NaN	NaN
fur	NaN	NaN
e	NaN	NaN
Frau	NaN	NaN
!	NaN	NaN
Aha	NaN	NaN
,	NaN	NaN
er	NaN	NaN
wurd	NaN	NaN
schun	NaN	NaN
schalu	NaN	NaN
!	NaN	NaN
:	NaN	NaN
’s	NaN	NaN
schickt	NaN	NaN
sich	NaN	NaN
au	NaN	NaN
nitt	NaN	NaN
,	NaN	NaN
ass	NaN	NaN
Sie	NaN	NaN
ganzi	NaN	NaN
Nächt	NaN	NaN
drüsse	NaN	NaN
rumflieje	NaN	NaN
!	NaN	NaN
Ich	NaN	NaN
werf	NaN	NaN
ejch	NaN	NaN
alli	NaN	NaN
zwei	NaN	NaN
zuem	NaN	NaN
Hüss	NaN	NaN
nüss	NaN	NaN
!	NaN	NaN
Do	NaN	NaN
bin	NaN	NaN
ich	NaN	NaN
d’	NaN	NaN
heim	NaN	NaN
,	NaN	NaN
Monsieur	NaN	NaN
!	NaN	NaN
No	NaN	NaN
geh	NaN	NaN
einfach	NaN	NaN
ich	NaN	NaN
!	NaN	NaN
Wie	NaN	NaN
d'r	NaN	NaN
Herr	NaN	NaN
will	NaN	NaN
!	NaN	NaN
Mir	NaN	NaN
steht	NaN	NaN
d'r	NaN	NaN
Verstand	NaN	NaN
still	NaN	NaN
!	NaN	NaN
Ich	NaN	NaN
habb	NaN	NaN
iwer	NaN	NaN
myni	NaN	NaN
Frau	NaN	NaN
schynnt	NaN	NaN
’s	NaN	NaN
alli	NaN	NaN
Gewalt	NaN	NaN
verlore	NaN	NaN
!	NaN	NaN
Ja	NaN	NaN
,	NaN	NaN
’s	NaN	NaN
schynnt	NaN	NaN
so	NaN	NaN
-	NaN	NaN
gar	NaN	NaN
,	NaN	NaN
ass	NaN	NaN
sie	NaN	NaN
nix	NaN	NaN
meh	NaN	NaN
fur	NaN	NaN
mich	NaN	NaN
iwrig	NaN	NaN
hett	NaN	NaN
!	NaN	NaN
Diss	NaN	NaN
wär	NaN	NaN
mir	NaN	NaN
e	NaN	NaN
scheeni	NaN	NaN
B’scherung	NaN	NaN
!	NaN	NaN
Bin	NaN	NaN
ich	NaN	NaN
am	NaN	NaN
End	NaN	NaN
gescht	NaN	NaN
doch	NaN	NaN
ze	NaN	NaN
hart	NaN	NaN
geje	NaN	NaN
s’	NaN	NaN
e	NaN	NaN
g’sinn	NaN	NaN
?	NaN	NaN
Na	NaN	NaN
,	NaN	NaN
egal	NaN	NaN
;	NaN	NaN
uff	NaN	NaN
alli	NaN	NaN
Fäll	NaN	NaN
gibb	NaN	NaN
ich	NaN	NaN
's	NaN	NaN
Lucie	NaN	NaN
nitt	NaN	NaN
uff	NaN	NaN
,	NaN	NaN
unn	NaN	NaN
ich	NaN	NaN
wych	NaN	NaN
unn	NaN	NaN
wank	NaN	NaN
nitt	NaN	NaN
,	NaN	NaN
bis	NaN	NaN
ass	NaN	NaN
diss	NaN	NaN
Herr	NaN	NaN
Dienschmaidel	NaN	NaN
mit	NaN	NaN
Manier	NaN	NaN
abg’schüfelt	NaN	NaN
isch	NaN	NaN
worre	NaN	NaN
.	NaN	NaN
Der	NaN	NaN
Mensch	NaN	NaN
kennt	NaN	NaN
mir	NaN	NaN
jo	NaN	NaN
noch	NaN	NaN
by	NaN	NaN
mynere	NaN	NaN
Frau	NaN	NaN
g’fähr	NaN	NaN
-	NaN	NaN
lich	NaN	NaN
wäre	NaN	NaN
—	NaN	NaN
schun	NaN	NaN
e	NaN	NaN
manichi	NaN	NaN
Frau	NaN	NaN
isch	NaN	NaN
mit	NaN	NaN
ihrem	NaN	NaN
Chauf	NaN	NaN
-	NaN	NaN
feur	NaN	NaN
odder	NaN	NaN
mit	NaN	NaN
ihrem	NaN	NaN
Koch	NaN	NaN
durch	NaN	NaN
de	NaN	NaN
Räps	NaN	NaN
gange	NaN	NaN
.	NaN	NaN
Uff	NaN	NaN
alli	NaN	NaN
Fäll	NaN	NaN
wurd	NaN	NaN
’s	NaN	NaN
guet	NaN	NaN
sinn	NaN	NaN
,	NaN	NaN
wenn	NaN	NaN
ich	NaN	NaN
d’	NaN	NaN
Aue	NaN	NaN
offe	NaN	NaN
b’halt	NaN	NaN
!	NaN	NaN
Do	NaN	NaN
haw	NaN	NaN
ich	NaN	NaN
mich	NaN	NaN
jo	NaN	NaN
in	NaN	NaN
e	NaN	NaN
nätti	NaN	NaN
Affär	NaN	NaN
yn	NaN	NaN
-	NaN	NaN
gelonn	NaN	NaN
!	NaN	NaN
:	NaN	NaN
Do	NaN	NaN
isch	NaN	NaN
d’	NaN	NaN
Poscht	NaN	NaN
,	NaN	NaN
Herr	NaN	NaN
!	NaN	NaN
Was	NaN	NaN
,	NaN	NaN
dü	NaN	NaN
bisch	NaN	NaN
als	NaN	NaN
noch	NaN	NaN
do	NaN	NaN
?	NaN	NaN
Wart	NaN	NaN
,	NaN	NaN
dir	NaN	NaN
will	NaN	NaN
ich	NaN	NaN
zeije	NaN	NaN
,	NaN	NaN
wo	NaN	NaN
d'r	NaN	NaN
Zimmermann	NaN	NaN
’s	NaN	NaN
Loch	NaN	NaN
gelonn	NaN	NaN
hett	NaN	NaN
!	NaN	NaN
Ich	NaN	NaN
habb	NaN	NaN
au	NaN	NaN
emool	NaN	NaN
laufe	NaN	NaN
gelehrt	NaN	NaN
!	NaN	NaN
Dü	NaN	NaN
hesch	NaN	NaN
grad	NaN	NaN
noch	NaN	NaN
Zytt	NaN	NaN
g’hett	NaN	NaN
,	NaN	NaN
Birschtel	NaN	NaN
!	NaN	NaN
Ich	NaN	NaN
will	NaN	NaN
numme	NaN	NaN
sähn	NaN	NaN
,	NaN	NaN
was	NaN	NaN
diss	NaN	NaN
noch	NaN	NaN
fur	NaN	NaN
e	NaN	NaN
End	NaN	NaN
nemmt	NaN	NaN
?	NaN	NaN
Was	NaN	NaN
sinn	NaN	NaN
denn	NaN	NaN
diss	NaN	NaN
fur	NaN	NaN
Schryewes	NaN	NaN
?	NaN	NaN
:	NaN	NaN
«	NaN	NaN
Heute	NaN	NaN
Nachmittag	NaN	NaN
5	NaN	NaN
Uhr	NaN	NaN
wichtige	NaN	NaN
Parteiver	NaN	NaN
sammlung	NaN	NaN
—	NaN	NaN
unbedingtes	NaN	NaN
Erscheinen	NaN	NaN
erforderlich	NaN	NaN
!	NaN	NaN
»	NaN	NaN
Unn	NaN	NaN
diss	NaN	NaN
?	NaN	NaN
:	NaN	NaN
«	NaN	NaN
Heute	NaN	NaN
Abend	NaN	NaN
8	NaN	NaN
Uhr	NaN	NaN
dringende	NaN	NaN
Auf	NaN	NaN
-	NaN	NaN
sichtsratsitzung	NaN	NaN
.	NaN	NaN
Fehlende	NaN	NaN
werden	NaN	NaN
mit	NaN	NaN
einer	NaN	NaN
Geldstrafe	NaN	NaN
belegt	NaN	NaN
!	NaN	NaN
»	NaN	NaN
—	NaN	NaN
Do	NaN	NaN
muess	NaN	NaN
ich	NaN	NaN
unbedingt	NaN	NaN
anne	NaN	NaN
—	NaN	NaN
nein	NaN	NaN
,	NaN	NaN
uff	NaN	NaN
keine	NaN	NaN
Fall	NaN	NaN
—	NaN	NaN
ich	NaN	NaN
blyeh	NaN	NaN
d’	NaN	NaN
heim	NaN	NaN
!	NaN	NaN
Ich	NaN	NaN
loss	NaN	NaN
myni	NaN	NaN
Frau	NaN	NaN
nitt	NaN	NaN
ellein	NaN	NaN
mit	NaN	NaN
dem	NaN	NaN
Wasserstein-Kavallerischt	NaN	NaN
!	NaN	NaN
Mir	NaN	NaN
kenne	NaN	NaN
jetzt	NaN	NaN
alli	NaN	NaN
Societäte	NaN	NaN
de	NaN	NaN
Buckel	NaN	NaN
nabbrutsche	NaN	NaN
!	NaN	NaN
Wer	NaN	NaN
kann	NaN	NaN
jetzt	NaN	NaN
diss	NaN	NaN
sinn	NaN	NaN
?	NaN	NaN
—	NaN	NaN
Entrez	NaN	NaN
!	NaN	NaN
Bonjour	NaN	NaN
,	NaN	NaN
Cousin	NaN	NaN
Pierre	NaN	NaN
!	NaN	NaN
Was	NaN	NaN
?	NaN	NaN
Dü	NaN	NaN
bisch	NaN	NaN
’s	NaN	NaN
,	NaN	NaN
Cousinel	NaN	NaN
Alice	NaN	NaN
?	NaN	NaN
Wie	NaN	NaN
kummsch	NaN	NaN
denn	NaN	NaN
dü	NaN	NaN
uff	NaN	NaN
hie	NaN	NaN
?	NaN	NaN
Ei	NaN	NaN
,	NaN	NaN
mit	NaN	NaN
d'r	NaN	NaN
Ysebahn	NaN	NaN
nadierlich	NaN	NaN
,	NaN	NaN
wyll	NaN	NaN
mir	NaN	NaN
d’	NaN	NaN
Fliejerej	NaN	NaN
doch	NaN	NaN
noch	NaN	NaN
nitt	NaN	NaN
sicher	NaN	NaN
genue	NaN	NaN
isch	NaN	NaN
.	NaN	NaN
Ich	NaN	NaN
bin	NaN	NaN
schun	NaN	NaN
gescht	NaN	NaN
ankumme	NaN	NaN
unn	NaN	NaN
wohn	NaN	NaN
bym	NaN	NaN
Unkel	NaN	NaN
Jacques	NaN	NaN
,	NaN	NaN
denn	NaN	NaN
jungver	NaN	NaN
-	NaN	NaN
hyrooti	NaN	NaN
Lytt	NaN	NaN
soll	NaN	NaN
m'r	NaN	NaN
ellein	NaN	NaN
lonn	NaN	NaN
.	NaN	NaN
Wo	NaN	NaN
isch	NaN	NaN
denn	NaN	NaN
,	NaN	NaN
du	NaN	NaN
reste	NaN	NaN
,	NaN	NaN
dyni	NaN	NaN
femme	NaN	NaN
?	NaN	NaN
Ich	NaN	NaN
mecht	NaN	NaN
s’	NaN	NaN
e	NaN	NaN
doch	NaN	NaN
au	NaN	NaN
gern	NaN	NaN
emool	NaN	NaN
kenne	NaN	NaN
lehre	NaN	NaN
.	NaN	NaN
Diss	NaN	NaN
isch	NaN	NaN
jetzt	NaN	NaN
grad	NaN	NaN
dr	NaN	NaN
rächt	NaN	NaN
Moment	NaN	NaN
dezue	NaN	NaN
!	NaN	NaN
Na	NaN	NaN
,	NaN	NaN
was	NaN	NaN
machsch	NaN	NaN
de	NaN	NaN
denn	NaN	NaN
fur	NaN	NaN
e	NaN	NaN
G’sicht	NaN	NaN
?	NaN	NaN
Isch	NaN	NaN
dyni	NaN	NaN
Frau	NaN	NaN
dehn	NaN	NaN
nitt	NaN	NaN
do	NaN	NaN
?	NaN	NaN
Ich	NaN	NaN
glabb	NaN	NaN
,	NaN	NaN
sie	NaN	NaN
kummt	NaN	NaN
grad	NaN	NaN
!	NaN	NaN
:	NaN	NaN
Halt	NaN	NaN
,	NaN	NaN
en	NaN	NaN
Idee	NaN	NaN
!	NaN	NaN
«	NaN	NaN
Rache	NaN	NaN
ist	NaN	NaN
Blutwurst	NaN	NaN
!	NaN	NaN
»	NaN	NaN
:	NaN	NaN
Horich	NaN	NaN
,	NaN	NaN
lieb	NaN	NaN
Cousinel	NaN	NaN
,	NaN	NaN
mach	NaN	NaN
m'r	NaN	NaN
de	NaN	NaN
G’falle	NaN	NaN
unn	NaN	NaN
saa	NaN	NaN
mir	NaN	NaN
jetzt	NaN	NaN
zue	NaN	NaN
allem	NaN	NaN
«	NaN	NaN
ja	NaN	NaN
»	NaN	NaN
unn	NaN	NaN
«	NaN	NaN
Amen	NaN	NaN
»	NaN	NaN
,	NaN	NaN
egal	NaN	NaN
was	NaN	NaN
bassiert	NaN	NaN
!	NaN	NaN
Was	NaN	NaN
soll	NaN	NaN
diss	NaN	NaN
heisse	NaN	NaN
,	NaN	NaN
Pierre	NaN	NaN
?	NaN	NaN
Stille	NaN	NaN
,	NaN	NaN
sie	NaN	NaN
kummt	NaN	NaN
!	NaN	NaN
Ich	NaN	NaN
explizier	NaN	NaN
's	NaN	NaN
dir	NaN	NaN
noochher	NaN	NaN
.	NaN	NaN
Dü	NaN	NaN
begehsch	NaN	NaN
kein	NaN	NaN
Verbreche	NaN	NaN
;	NaN	NaN
’s	NaN	NaN
isch	NaN	NaN
numme	NaN	NaN
fur	NaN	NaN
myn	NaN	NaN
Glick	NaN	NaN
!	NaN	NaN
Was	NaN	NaN
sieh	NaN	NaN
ich	NaN	NaN
denn	NaN	NaN
do	NaN	NaN
?	NaN	NaN
Wer	NaN	NaN
isch	NaN	NaN
denn	NaN	NaN
die	NaN	NaN
Person	NaN	NaN
,	NaN	NaN
wo	NaN	NaN
so	NaN	NaN
verliebt	NaN	NaN
mit	NaN	NaN
mym	NaN	NaN
Mann	NaN	NaN
ze	NaN	NaN
büschbre	NaN	NaN
hett	NaN	NaN
?	NaN	NaN
Wie	NaN	NaN
mich	NaN	NaN
diss	NaN	NaN
fraid	NaN	NaN
,	NaN	NaN
lieb	NaN	NaN
’s	NaN	NaN
Kind	NaN	NaN
,	NaN	NaN
ass	NaN	NaN
dü	NaN	NaN
kumme	NaN	NaN
bisch	NaN	NaN
!	NaN	NaN
Hesch	NaN	NaN
dü	NaN	NaN
mich	NaN	NaN
denn	NaN	NaN
au	NaN	NaN
noch	NaN	NaN
gern	NaN	NaN
?	NaN	NaN
Gewiss	NaN	NaN
,	NaN	NaN
Pierre	NaN	NaN
!	NaN	NaN
:	NaN	NaN
Lieb	NaN	NaN
awer	NaN	NaN
haw	NaN	NaN
ich	NaN	NaN
e’n	NaN	NaN
andere	NaN	NaN
!	NaN	NaN
Nein	NaN	NaN
,	NaN	NaN
diss	NaN	NaN
iwerläw	NaN	NaN
ich	NaN	NaN
nitt	NaN	NaN
!	NaN	NaN
Wie	NaN	NaN
meine	NaN	NaN
Sie	NaN	NaN
,	NaN	NaN
Madame	NaN	NaN
?	NaN	NaN
Ich	NaN	NaN
will	NaN	NaN
wisse	NaN	NaN
,	NaN	NaN
was	NaN	NaN
diss	NaN	NaN
fur	NaN	NaN
e	NaN	NaN
Pupp	NaN	NaN
isch	NaN	NaN
,	NaN	NaN
wo	NaN	NaN
dir	NaN	NaN
de	NaN	NaN
Kopf	NaN	NaN
verdrähjt	NaN	NaN
hett	NaN	NaN
?	NaN	NaN
Awer	NaN	NaN
Madame	NaN	NaN
!	NaN	NaN
Madame	NaN	NaN
,	NaN	NaN
diss	NaN	NaN
isch	NaN	NaN
myn	NaN	NaN
Kammerdiener	NaN	NaN
!	NaN	NaN
:	NaN	NaN
Ich	NaN	NaN
will	NaN	NaN
s’	NaN	NaN
e	NaN	NaN
schun	NaN	NaN
weich	NaN	NaN
mache	NaN	NaN
!	NaN	NaN
Nein	NaN	NaN
,	NaN	NaN
diss	NaN	NaN
geht	NaN	NaN
ze	NaN	NaN
witt	NaN	NaN
!	NaN	NaN
Liewer	NaN	NaN
Pierre	NaN	NaN
,	NaN	NaN
myn	NaN	NaN
guet	NaN	NaN
’s	NaN	NaN
Männele	NaN	NaN
,	NaN	NaN
ich	NaN	NaN
gibb	NaN	NaN
jo	NaN	NaN
zue	NaN	NaN
,	NaN	NaN
ass	NaN	NaN
…	NaN	NaN
Madame	NaN	NaN
,	NaN	NaN
so	NaN	NaN
Zärtlichkeite	NaN	NaN
kenne	NaN	NaN
Sie	NaN	NaN
sich	NaN	NaN
spare	NaN	NaN
!	NaN	NaN
:	NaN	NaN
Aha	NaN	NaN
,	NaN	NaN
sie	NaN	NaN
wurd	NaN	NaN
schun	NaN	NaN
zahm	NaN	NaN
!	NaN	NaN
Allons	NaN	NaN
,	NaN	NaN
Pierre	NaN	NaN
,	NaN	NaN
ze	NaN	NaN
sej	NaN	NaN
doch	NaN	NaN
verninftig	NaN	NaN
unn	NaN	NaN
…	NaN	NaN
O	NaN	NaN
,	NaN	NaN
ich	NaN	NaN
bin	NaN	NaN
ganz	NaN	NaN
verninftig	NaN	NaN
!	NaN	NaN
Ich	NaN	NaN
bin	NaN	NaN
’s	NaN	NaN
numme	NaN	NaN
so	NaN	NaN
-	NaN	NaN
lang	NaN	NaN
nitt	NaN	NaN
g’sinn	NaN	NaN
,	NaN	NaN
wo	NaN	NaN
ich	NaN	NaN
noch	NaN	NaN
gemeint	NaN	NaN
habb	NaN	NaN
,	NaN	NaN
ass	NaN	NaN
alli	NaN	NaN
Fraue	NaN	NaN
Engel	NaN	NaN
sinn	NaN	NaN
.	NaN	NaN
LUGIE	NaN	NaN
:	NaN	NaN
Ich	NaN	NaN
duld	NaN	NaN
awer	NaN	NaN
einfach	NaN	NaN
kein	NaN	NaN
anders	NaN	NaN
Wyebsbild	NaN	NaN
im	NaN	NaN
Hüss	NaN	NaN
!	NaN	NaN
Uff	NaN	NaN
d'r	NaN	NaN
G’stell	NaN	NaN
fliejt	NaN	NaN
s’	NaN	NaN
e	NaN	NaN
mir	NaN	NaN
nüss	NaN	NaN
!	NaN	NaN
Mir	NaN	NaN
ellein	NaN	NaN
isch	NaN	NaN
s’	NaN	NaN
e	NaN	NaN
G’horsam	NaN	NaN
schuldi	NaN	NaN
!	NaN	NaN
So	NaN	NaN
e	NaN	NaN
Dienschtbott	NaN	NaN
schickt	NaN	NaN
sich	NaN	NaN
nitt	NaN	NaN
fur	NaN	NaN
e	NaN	NaN
Mann	NaN	NaN
!	NaN	NaN
Was	NaN	NaN
sich	NaN	NaN
fur	NaN	NaN
e	NaN	NaN
Amerikanere	NaN	NaN
schickt	NaN	NaN
,	NaN	NaN
wurd	NaN	NaN
sich	NaN	NaN
doch	NaN	NaN
au	NaN	NaN
fur	NaN	NaN
e	NaN	NaN
Amerikaner	NaN	NaN
schicke	NaN	NaN
!	NaN	NaN
:	NaN	NaN
Aha	NaN	NaN
,	NaN	NaN
sie	NaN	NaN
wurd	NaN	NaN
schun	NaN	NaN
schallu	NaN	NaN
!	NaN	NaN
Ich	NaN	NaN
werf	NaN	NaN
ejch	NaN	NaN
alli	NaN	NaN
zwei	NaN	NaN
zuem	NaN	NaN
Hüss	NaN	NaN
nüss	NaN	NaN
!	NaN	NaN
Do	NaN	NaN
bin	NaN	NaN
ich	NaN	NaN
d’	NaN	NaN
heim	NaN	NaN
,	NaN	NaN
Madame	NaN	NaN
!	NaN	NaN
No	NaN	NaN
geh	NaN	NaN
einfach	NaN	NaN
ich	NaN	NaN
!	NaN	NaN
Wie	NaN	NaN
d’	NaN	NaN
Madame	NaN	NaN
will	NaN	NaN
!	NaN	NaN
Mon	NaN	NaN
Dieu	NaN	NaN
,	NaN	NaN
was	NaN	NaN
muess	NaN	NaN
ich	NaN	NaN
denn	NaN	NaN
do	NaN	NaN
erläwe	NaN	NaN
?	NaN	NaN
Diss	NaN	NaN
d’	NaN	NaN
hät	NaN	NaN
ejch	NaN	NaN
zwei	NaN	NaN
so	NaN	NaN
g’falle	NaN	NaN
!	NaN	NaN
Nein	NaN	NaN
,	NaN	NaN
ich	NaN	NaN
wych	NaN	NaN
unn	NaN	NaN
wank	NaN	NaN
nitt	NaN	NaN
.	NaN	NaN
Unn	NaN	NaN
Ihnne	NaN	NaN
,	NaN	NaN
Sie	NaN	NaN
uffgebutzti	NaN	NaN
Pupp	NaN	NaN
,	NaN	NaN
will	NaN	NaN
ich	NaN	NaN
schun	NaN	NaN
bybringe	NaN	NaN
,	NaN	NaN
ass	NaN	NaN
Sie	NaN	NaN
myn	NaN	NaN
Mann	NaN	NaN
nix	NaN	NaN
angeht	NaN	NaN
!	NaN	NaN
Oh	NaN	NaN
,	NaN	NaN
Madame	NaN	NaN
,	NaN	NaN
ich	NaN	NaN
habb	NaN	NaN
au	NaN	NaN
e	NaN	NaN
Rächt	NaN	NaN
am	NaN	NaN
Pierre	NaN	NaN
!	NaN	NaN
Diss	NaN	NaN
hett	NaN	NaN
s’	NaN	NaN
e	NaN	NaN
guet	NaN	NaN
g’saat	NaN	NaN
!	NaN	NaN
:	NaN	NaN
So	NaN	NaN
isch	NaN	NaN
’s	NaN	NaN
,	NaN	NaN
Madame	NaN	NaN
,	NaN	NaN
ich	NaN	NaN
kenn	NaN	NaN
die	NaN	NaN
Mamsell	NaN	NaN
schun	NaN	NaN
länger	NaN	NaN
als	NaN	NaN
wie	NaN	NaN
Sie	NaN	NaN
.	NaN	NaN
O	NaN	NaN
,	NaN	NaN
ich	NaN	NaN
habb	NaN	NaN
’s	NaN	NaN
jo	NaN	NaN
schun	NaN	NaN
lang	NaN	NaN
g’ahnt	NaN	NaN
,	NaN	NaN
ass	NaN	NaN
dü	NaN	NaN
mich	NaN	NaN
hintergehsch	NaN	NaN
!	NaN	NaN
Dü	NaN	NaN
hesch	NaN	NaN
so	NaN	NaN
e	NaN	NaN
gueti	NaN	NaN
,	NaN	NaN
bravi	NaN	NaN
unn	NaN	NaN
treji	NaN	NaN
Frau	NaN	NaN
wie	NaN	NaN
mich	NaN	NaN
gar	NaN	NaN
nitt	NaN	NaN
verdient	NaN	NaN
!	NaN	NaN
Lucie	NaN	NaN
,	NaN	NaN
ich	NaN	NaN
habb	NaN	NaN
jetzt	NaN	NaN
d’	NaN	NaN
Nas	NaN	NaN
voll	NaN	NaN
!	NaN	NaN
Dü	NaN	NaN
hebbsch	NaN	NaN
mich	NaN	NaN
kein	NaN	NaN
Minütt	NaN	NaN
meh	NaN	NaN
!	NaN	NaN
Dyner	NaN	NaN
Alt	NaN	NaN
isch	NaN	NaN
jo	NaN	NaN
…	NaN	NaN
Allmächtiger	NaN	NaN
,	NaN	NaN
do	NaN	NaN
isch’r	NaN	NaN
jo	NaN	NaN
!	NaN	NaN
Was	NaN	NaN
heer	NaN	NaN
ich	NaN	NaN
do	NaN	NaN
!	NaN	NaN
«	NaN	NaN
Lucie	NaN	NaN
»	NaN	NaN
unn	NaN	NaN
«	NaN	NaN
dü	NaN	NaN
»	NaN	NaN
?	NaN	NaN
Ah	NaN	NaN
,	NaN	NaN
do	NaN	NaN
lehrt	NaN	NaN
m'r	NaN	NaN
jo	NaN	NaN
die	NaN	NaN
trej	NaN	NaN
Madame	NaN	NaN
kenne	NaN	NaN
!	NaN	NaN
Ich	NaN	NaN
bring’	NaN	NaN
ne	NaN	NaN
um	NaN	NaN
,	NaN	NaN
denne	NaN	NaN
miserawel	NaN	NaN
Gauner	NaN	NaN
!	NaN	NaN
Grosser	NaN	NaN
Gott	NaN	NaN
,	NaN	NaN
er	NaN	NaN
wurd	NaN	NaN
’m	NaN	NaN
doch	NaN	NaN
nix	NaN	NaN
andhuen	NaN	NaN
!	NaN	NaN
Diss	NaN	NaN
soll	NaN	NaN
mir	NaN	NaN
kein	NaN	NaN
Theater	NaN	NaN
sinn	NaN	NaN
in	NaN	NaN
dem	NaN	NaN
Hüss	NaN	NaN
!	NaN	NaN
Awer	NaN	NaN
was	NaN	NaN
haw	NaN	NaN
ich	NaN	NaN
denn	NaN	NaN
g’sähn	NaN	NaN
!	NaN	NaN
Diss	NaN	NaN
isch	NaN	NaN
jo	NaN	NaN
der	NaN	NaN
nett	NaN	NaN
Monsieur	NaN	NaN
g’sinn	NaN	NaN
,	NaN	NaN
wo	NaN	NaN
im	NaN	NaN
nämliche	NaN	NaN
Coupé	NaN	NaN
mit	NaN	NaN
mir	NaN	NaN
isch	NaN	NaN
g’fahre	NaN	NaN
!	NaN	NaN
Wie	NaN	NaN
kummt	NaN	NaN
denn	NaN	NaN
der	NaN	NaN
ins	NaN	NaN
Hüss	NaN	NaN
vun	NaN	NaN
mym	NaN	NaN
Cousin	NaN	NaN
?	NaN	NaN
Mon	NaN	NaN
Dieu	NaN	NaN
,	NaN	NaN
ich	NaN	NaN
kann	NaN	NaN
die	NaN	NaN
zwei	NaN	NaN
Männer	NaN	NaN
im	NaN	NaN
ganze	NaN	NaN
Hüss	NaN	NaN
nierigs	NaN	NaN
finde	NaN	NaN
!	NaN	NaN
Wenn	NaN	NaN
diss	NaN	NaN
numme	NaN	NaN
e	NaN	NaN
guet	NaN	NaN
’s	NaN	NaN
End	NaN	NaN
nemme	NaN	NaN
dhuet	NaN	NaN
!	NaN	NaN
:	NaN	NaN
Awer	NaN	NaN
do	NaN	NaN
sinn	NaN	NaN
numme	NaN	NaN
Sie	NaN	NaN
dran	NaN	NaN
schuld	NaN	NaN
,	NaN	NaN
Sie	NaN	NaN
gewisselosi	NaN	NaN
Person	NaN	NaN
!	NaN	NaN
Die	NaN	NaN
bringt	NaN	NaN
mich	NaN	NaN
noch	NaN	NaN
um	NaN	NaN
in	NaN	NaN
ihrem	NaN	NaN
Röjes	NaN	NaN
!	NaN	NaN
Pierre	NaN	NaN
,	NaN	NaN
hälf	NaN	NaN
m'r	NaN	NaN
!	NaN	NaN
Wart	NaN	NaN
,	NaN	NaN
dü	NaN	NaN
Lueder	NaN	NaN
,	NaN	NaN
dich	NaN	NaN
will	NaN	NaN
ich	NaN	NaN
«	NaN	NaN
be	NaN	NaN
-	NaN	NaN
pierrele	NaN	NaN
»	NaN	NaN
!	NaN	NaN
Wo	NaN	NaN
steckt’r	NaN	NaN
denn	NaN	NaN
,	NaN	NaN
mynere	NaN	NaN
Frau	NaN	NaN
ihre	NaN	NaN
Galan	NaN	NaN
?	NaN	NaN
Er	NaN	NaN
soll	NaN	NaN
mir	NaN	NaN
’s	NaN	NaN
biesse	NaN	NaN
!	NaN	NaN
Endlich	NaN	NaN
haw	NaN	NaN
ich’ne	NaN	NaN
kenne	NaN	NaN
ab	NaN	NaN
-	NaN	NaN
schittle	NaN	NaN
!	NaN	NaN
Luft	NaN	NaN
!	NaN	NaN
Ich	NaN	NaN
kann	NaN	NaN
nimmi	NaN	NaN
!	NaN	NaN
Ja	NaN	NaN
—	NaN	NaN
ja	NaN	NaN
—	NaN	NaN
was	NaN	NaN
isch	NaN	NaN
denn	NaN	NaN
diss	NaN	NaN
?	NaN	NaN
Sieh	NaN	NaN
ich	NaN	NaN
denn	NaN	NaN
erächt	NaN	NaN
?	NaN	NaN
Mon	NaN	NaN
Dieu	NaN	NaN
,	NaN	NaN
wie	NaN	NaN
bin	NaN	NaN
ich	NaN	NaN
jetzt	NaN	NaN
verschrocke	NaN	NaN
!	NaN	NaN
Diss	NaN	NaN
isch	NaN	NaN
jo	NaN	NaN
die	NaN	NaN
nett	NaN	NaN
Mamsell	NaN	NaN
,	NaN	NaN
wo	NaN	NaN
gescht	NaN	NaN
mit	NaN	NaN
mir	NaN	NaN
g’fahre	NaN	NaN
isch	NaN	NaN
!	NaN	NaN
:	NaN	NaN
Mademoiselle	NaN	NaN
,	NaN	NaN
Sie	NaN	NaN
glauwe	NaN	NaN
nitt	NaN	NaN
,	NaN	NaN
wie	NaN	NaN
ich	NaN	NaN
mich	NaN	NaN
freij	NaN	NaN
,	NaN	NaN
ich	NaN	NaN
Sie	NaN	NaN
widdersieh	NaN	NaN
!	NaN	NaN
In	NaN	NaN
eim	NaN	NaN
furt	NaN	NaN
haw	NaN	NaN
ich	NaN	NaN
an	NaN	NaN
Sie	NaN	NaN
denke	NaN	NaN
miehn	NaN	NaN
!	NaN	NaN
Unn	NaN	NaN
diss	NaN	NaN
soll	NaN	NaN
ich	NaN	NaN
glauwe	NaN	NaN
nooch	NaN	NaN
dem	NaN	NaN
allem	NaN	NaN
,	NaN	NaN
was	NaN	NaN
ich	NaN	NaN
do	NaN	NaN
in	NaN	NaN
dem	NaN	NaN
Hüss	NaN	NaN
erläbt	NaN	NaN
habb	NaN	NaN
?	NaN	NaN
Ich	NaN	NaN
schweer’s'	NaN	NaN
ne	NaN	NaN
,	NaN	NaN
Mademoiselle	NaN	NaN
!	NaN	NaN
D’r	NaN	NaN
Schynn	NaN	NaN
isch	NaN	NaN
jo	NaN	NaN
allerdings	NaN	NaN
geje	NaN	NaN
mich	NaN	NaN
,	NaN	NaN
awer	NaN	NaN
ich	NaN	NaN
will’ne	NaN	NaN
g’schwind	NaN	NaN
ex	NaN	NaN
-	NaN	NaN
pliziere	NaN	NaN
,	NaN	NaN
wie	NaN	NaN
alles	NaN	NaN
kumme	NaN	NaN
isch	NaN	NaN
.	NaN	NaN
Awer	NaN	NaN
nitt	NaN	NaN
do	NaN	NaN
;	NaN	NaN
ich	NaN	NaN
mecht	NaN	NaN
mich	NaN	NaN
nitt	NaN	NaN
verwitsche	NaN	NaN
lonn	NaN	NaN
,	NaN	NaN
ebb	NaN	NaN
ass	NaN	NaN
alles	NaN	NaN
klar	NaN	NaN
g’stellt	NaN	NaN
isch	NaN	NaN
.	NaN	NaN
Unn	NaN	NaN
ich	NaN	NaN
au	NaN	NaN
nitt	NaN	NaN
.	NaN	NaN
Unn	NaN	NaN
no	NaN	NaN
mecht	NaN	NaN
ich	NaN	NaN
au	NaN	NaN
gern	NaN	NaN
erfahre	NaN	NaN
,	NaN	NaN
wellem	NaN	NaN
Glicks	NaN	NaN
-	NaN	NaN
stern	NaN	NaN
ass	NaN	NaN
ich	NaN	NaN
’s	NaN	NaN
ze	NaN	NaN
verdanke	NaN	NaN
habb	NaN	NaN
,	NaN	NaN
Sie	NaN	NaN
do	NaN	NaN
so	NaN	NaN
unverhofft	NaN	NaN
ze	NaN	NaN
finde	NaN	NaN
.	NaN	NaN
Wenn	NaN	NaN
’s	NaN	NaN
numme	NaN	NaN
kein	NaN	NaN
Unglicksstern	NaN	NaN
isch	NaN	NaN
!	NaN	NaN
Ich	NaN	NaN
glabb	NaN	NaN
,	NaN	NaN
mir	NaN	NaN
gehn	NaN	NaN
am	NaN	NaN
beschte	NaN	NaN
in	NaN	NaN
de	NaN	NaN
Garte	NaN	NaN
.	NaN	NaN
Dorte	NaN	NaN
isch	NaN	NaN
’s	NaN	NaN
noch	NaN	NaN
g’hyer	NaN	NaN
!	NaN	NaN
Der	NaN	NaN
Schuft	NaN	NaN
isch	NaN	NaN
rein	NaN	NaN
wie	NaN	NaN
verschwunde	NaN	NaN
!	NaN	NaN
Ich	NaN	NaN
mecht	NaN	NaN
numme	NaN	NaN
wisse	NaN	NaN
,	NaN	NaN
wo	NaN	NaN
sich	NaN	NaN
diss	NaN	NaN
raffiniert	NaN	NaN
Mensch	NaN	NaN
versteckelt	NaN	NaN
hett	NaN	NaN
!	NaN	NaN
Ah	NaN	NaN
,	NaN	NaN
do	NaN	NaN
isch	NaN	NaN
jo	NaN	NaN
myni	NaN	NaN
süfer	NaN	NaN
Frau	NaN	NaN
!	NaN	NaN
Ah	NaN	NaN
,	NaN	NaN
do	NaN	NaN
isch	NaN	NaN
jo	NaN	NaN
myn	NaN	NaN
proprer	NaN	NaN
Mann	NaN	NaN
!	NaN	NaN
So	NaN	NaN
ebbs	NaN	NaN
hätt	NaN	NaN
ich	NaN	NaN
nie	NaN	NaN
vun’re	NaN	NaN
gedenkt	NaN	NaN
!	NaN	NaN
Hieser	NaN	NaN
hätt	NaN	NaN
ich	NaN	NaN
uff’ne	NaN	NaN
geböjt	NaN	NaN
!	NaN	NaN
Bedracht	NaN	NaN
sich	NaN	NaN
im	NaN	NaN
e	NaN	NaN
anderi	NaN	NaN
hett	NaN	NaN
kenne	NaN	NaN
vergaffe	NaN	NaN
—	NaN	NaN
ich	NaN	NaN
bin	NaN	NaN
!	NaN	NaN
doch	NaN	NaN
kein	NaN	NaN
wischti	NaN	NaN
Frau	NaN	NaN
!	NaN	NaN
D’	NaN	NaN
bescht	NaN	NaN
Frau	NaN	NaN
isch	NaN	NaN
nix	NaN	NaN
nutz	NaN	NaN
.	NaN	NaN
Wie	NaN	NaN
s’	NaN	NaN
e	NaN	NaN
sich	NaN	NaN
numme	NaN	NaN
an	NaN	NaN
so	NaN	NaN
e	NaN	NaN
Kerl	NaN	NaN
hett	NaN	NaN
kenne	NaN	NaN
hänge	NaN	NaN
!	NaN	NaN
Ich	NaN	NaN
bin	NaN	NaN
doch	NaN	NaN
,	NaN	NaN
ma	NaN	NaN
foi	NaN	NaN
,	NaN	NaN
e	NaN	NaN
ganz	NaN	NaN
scheener	NaN	NaN
Mann	NaN	NaN
!	NaN	NaN
Was	NaN	NaN
soll	NaN	NaN
ich	NaN	NaN
numme	NaN	NaN
mache	NaN	NaN
?	NaN	NaN
Wenn	NaN	NaN
ich	NaN	NaN
mir	NaN	NaN
numme	NaN	NaN
e	NaN	NaN
Root	NaN	NaN
wisst	NaN	NaN
!	NaN	NaN
Denn	NaN	NaN
was	NaN	NaN
nutzt	NaN	NaN
’s	NaN	NaN
au	NaN	NaN
,	NaN	NaN
wenn	NaN	NaN
ich’re	NaN	NaN
bycht	NaN	NaN
,	NaN	NaN
ass	NaN	NaN
’s	NaN	NaN
Alice	NaN	NaN
myn	NaN	NaN
Cousinel	NaN	NaN
unn	NaN	NaN
alles	NaN	NaN
numme	NaN	NaN
e	NaN	NaN
Farce	NaN	NaN
isch	NaN	NaN
!	NaN	NaN
Die	NaN	NaN
Affär	NaN	NaN
mit	NaN	NaN
ihrem	NaN	NaN
Liebhawer	NaN	NaN
blyet	NaN	NaN
jo	NaN	NaN
no	NaN	NaN
doch	NaN	NaN
b’stehn	NaN	NaN
!	NaN	NaN
’s	NaN	NaN
hett	NaN	NaN
jo	NaN	NaN
doch	NaN	NaN
kein	NaN	NaN
Wärt	NaN	NaN
,	NaN	NaN
wenn	NaN	NaN
ich	NaN	NaN
’m	NaN	NaN
g’steh	NaN	NaN
,	NaN	NaN
ass	NaN	NaN
d'r	NaN	NaN
Albert	NaN	NaN
myne	NaN	NaN
Brueder	NaN	NaN
isch	NaN	NaN
unn	NaN	NaN
ass	NaN	NaN
ich’ne	NaN	NaN
numme	NaN	NaN
schallu	NaN	NaN
habb	NaN	NaN
welle	NaN	NaN
mache	NaN	NaN
!	NaN	NaN
Mit	NaN	NaN
dem	NaN	NaN
wurd	NaN	NaN
die	NaN	NaN
Affär	NaN	NaN
mit	NaN	NaN
dem	NaN	NaN
Bibbele	NaN	NaN
doch	NaN	NaN
nitt	NaN	NaN
üss	NaN	NaN
d'r	NaN	NaN
Welt	NaN	NaN
g’schafft	NaN	NaN
!	NaN	NaN
Ja	NaN	NaN
,	NaN	NaN
Madame	NaN	NaN
,	NaN	NaN
mir	NaN	NaN
mache	NaN	NaN
am	NaN	NaN
beschte	NaN	NaN
Schluss	NaN	NaN
!	NaN	NaN
’s	NaN	NaN
isch	NaN	NaN
au	NaN	NaN
heechschti	NaN	NaN
Zytt	NaN	NaN
,	NaN	NaN
ass	NaN	NaN
mir	NaN	NaN
anfange	NaN	NaN
,	NaN	NaN
Schluss	NaN	NaN
ze	NaN	NaN
mache	NaN	NaN
,	NaN	NaN
Monsieur	NaN	NaN
!	NaN	NaN
Ich	NaN	NaN
geh	NaN	NaN
zue	NaN	NaN
mynere	NaN	NaN
Mammel	NaN	NaN
Unn	NaN	NaN
ich	NaN	NaN
zue	NaN	NaN
mym	NaN	NaN
Babbe	NaN	NaN
!	NaN	NaN
Ich	NaN	NaN
verlang	NaN	NaN
Trennung	NaN	NaN
vun	NaN	NaN
Disch	NaN	NaN
unn	NaN	NaN
Bett	NaN	NaN
!	NaN	NaN
No	NaN	NaN
schloof	NaN	NaN
ich	NaN	NaN
uff	NaN	NaN
’m	NaN	NaN
Divan	NaN	NaN
unn	NaN	NaN
ess	NaN	NaN
uff	NaN	NaN
'm	NaN	NaN
Kommod	NaN	NaN
!	NaN	NaN
Ich	NaN	NaN
loss	NaN	NaN
mich	NaN	NaN
scheide	NaN	NaN
!	NaN	NaN
Mit	NaN	NaN
Fraide	NaN	NaN
!	NaN	NaN
Gott	NaN	NaN
sej	NaN	NaN
Dank	NaN	NaN
,	NaN	NaN
ass	NaN	NaN
alles	NaN	NaN
so	NaN	NaN
kumme	NaN	NaN
isch	NaN	NaN
!	NaN	NaN
O	NaN	NaN
,	NaN	NaN
wie	NaN	NaN
bin	NaN	NaN
ich	NaN	NaN
so	NaN	NaN
glicklich	NaN	NaN
!	NaN	NaN
Ja	NaN	NaN
,	NaN	NaN
draim	NaN	NaN
ich	NaN	NaN
denn	NaN	NaN
?	NaN	NaN
Sieh	NaN	NaN
ich	NaN	NaN
denn	NaN	NaN
erächt	NaN	NaN
?	NaN	NaN
So	NaN	NaN
?	NaN	NaN
Unn	NaN	NaN
worum	NaN	NaN
sinn	NaN	NaN
Sie	NaN	NaN
denn	NaN	NaN
glick	NaN	NaN
-	NaN	NaN
lich	NaN	NaN
,	NaN	NaN
Mamsell	NaN	NaN
Alice	NaN	NaN
?	NaN	NaN
Ei	NaN	NaN
—	NaN	NaN
ei	NaN	NaN
—	NaN	NaN
wyll	NaN	NaN
…	NaN	NaN
…	NaN	NaN
wyll	NaN	NaN
Sie	NaN	NaN
mir	NaN	NaN
viellycht	NaN	NaN
e	NaN	NaN
bissel	NaN	NaN
guet	NaN	NaN
kennte	NaN	NaN
sinn	NaN	NaN
?	NaN	NaN
Juchhu	NaN	NaN
,	NaN	NaN
jetzt	NaN	NaN
bin	NaN	NaN
au	NaN	NaN
ich	NaN	NaN
glicklich	NaN	NaN
!	NaN	NaN
Nein	NaN	NaN
,	NaN	NaN
diss	NaN	NaN
geht	NaN	NaN
jetzt	NaN	NaN
doch	NaN	NaN
ze	NaN	NaN
wytt	NaN	NaN
!	NaN	NaN
Mir	NaN	NaN
steht	NaN	NaN
d'r	NaN	NaN
Verstand	NaN	NaN
still	NaN	NaN
!	NaN	NaN
Sähn	NaN	NaN
Sie	NaN	NaN
,	NaN	NaN
Madame	NaN	NaN
,	NaN	NaN
was	NaN	NaN
fur	NaN	NaN
e	NaN	NaN
trejer	NaN	NaN
Galan	NaN	NaN
ass	NaN	NaN
Sie	NaN	NaN
hann	NaN	NaN
!	NaN	NaN
Sähn	NaN	NaN
Sie	NaN	NaN
,	NaN	NaN
Monsieur	NaN	NaN
,	NaN	NaN
wie	NaN	NaN
uffrichtig	NaN	NaN
ass	NaN	NaN
’s	NaN	NaN
die	NaN	NaN
Mamsell	NaN	NaN
do	NaN	NaN
mit	NaN	NaN
Ihnne	NaN	NaN
meint	NaN	NaN
!	NaN	NaN
Awer	NaN	NaN
ich	NaN	NaN
bitt	NaN	NaN
Sie	NaN	NaN
,	NaN	NaN
Monsieur	NaN	NaN
!	NaN	NaN
’s	NaN	NaN
isch	NaN	NaN
endlich	NaN	NaN
Zytt	NaN	NaN
,	NaN	NaN
ass	NaN	NaN
…	NaN	NaN
…	NaN	NaN
ass	NaN	NaN
ich	NaN	NaN
mit	NaN	NaN
Ihnne	NaN	NaN
abreche	NaN	NaN
dhue	NaN	NaN
:	NaN	NaN
Was	NaN	NaN
fallt	NaN	NaN
Ihnne	NaN	NaN
erschtens	NaN	NaN
yn	NaN	NaN
,	NaN	NaN
mir	NaN	NaN
Herner	NaN	NaN
uffzesetze	NaN	NaN
?	NaN	NaN
Lonn	NaN	NaN
uns	NaN	NaN
doch	NaN	NaN
numme	NaN	NaN
üssredde	NaN	NaN
!	NaN	NaN
Diss	NaN	NaN
hett	NaN	NaN
’s	NaN	NaN
ball	NaN	NaN
:	NaN	NaN
Was	NaN	NaN
fallt	NaN	NaN
Ihnne	NaN	NaN
erschtens	NaN	NaN
yn	NaN	NaN
,	NaN	NaN
mir	NaN	NaN
Herner	NaN	NaN
uffzesetze	NaN	NaN
?	NaN	NaN
Was	NaN	NaN
fallt	NaN	NaN
Ihnne	NaN	NaN
zweitens	NaN	NaN
yn	NaN	NaN
,	NaN	NaN
myni	NaN	NaN
Frau	NaN	NaN
mit	NaN	NaN
dere	NaN	NaN
Mamsell	NaN	NaN
do	NaN	NaN
ze	NaN	NaN
hintergehn	NaN	NaN
?	NaN	NaN
Was	NaN	NaN
fallt	NaN	NaN
Ihnne	NaN	NaN
zweitens	NaN	NaN
yn	NaN	NaN
,	NaN	NaN
myne	NaN	NaN
Mann	NaN	NaN
mit	NaN	NaN
dem	NaN	NaN
Monsieur	NaN	NaN
do	NaN	NaN
ze	NaN	NaN
hintergehn	NaN	NaN
?	NaN	NaN
O	NaN	NaN
,	NaN	NaN
Lucie	NaN	NaN
,	NaN	NaN
wie	NaN	NaN
hesch	NaN	NaN
dü	NaN	NaN
dich	NaN	NaN
vun	NaN	NaN
dym	NaN	NaN
Mann	NaN	NaN
am	NaN	NaN
Narreseil	NaN	NaN
erumfiehre	NaN	NaN
lonn	NaN	NaN
!	NaN	NaN
O	NaN	NaN
,	NaN	NaN
Pierre	NaN	NaN
,	NaN	NaN
dü	NaN	NaN
hesch	NaN	NaN
dich	NaN	NaN
vun	NaN	NaN
dynere	NaN	NaN
Frau	NaN	NaN
scheen	NaN	NaN
nynleije	NaN	NaN
lonn	NaN	NaN
!	NaN	NaN
E	NaN	NaN
Diss	NaN	NaN
weiss	NaN	NaN
ich	NaN	NaN
sälwer	NaN	NaN
zytter	NaN	NaN
hytt	NaN	NaN
!	NaN	NaN
Awer	NaN	NaN
nitt	NaN	NaN
,	NaN	NaN
ass	NaN	NaN
ich	NaN	NaN
d'r	NaN	NaN
Brueder	NaN	NaN
vum	NaN	NaN
Lucie	NaN	NaN
bin	NaN	NaN
!	NaN	NaN
Unn	NaN	NaN
ich	NaN	NaN
d’	NaN	NaN
Cousine	NaN	NaN
vum	NaN	NaN
Pierre	NaN	NaN
!	NaN	NaN
Ja	NaN	NaN
,	NaN	NaN
unn	NaN	NaN
myni	NaN	NaN
lieb	NaN	NaN
fiancée	NaN	NaN
!	NaN	NaN
PIERRE	NaN	NaN
unn	NaN	NaN
Isch	NaN	NaN
’s	NaN	NaN
denn	NaN	NaN
mej	NaN	NaN
-	NaN	NaN
lich	NaN	NaN
?	NaN	NaN
Worum	NaN	NaN
denn	NaN	NaN
no	NaN	NaN
diss	NaN	NaN
ganz	NaN	NaN
Theater	NaN	NaN
?	NaN	NaN
Ei	NaN	NaN
,	NaN	NaN
wyll	NaN	NaN
ich	NaN	NaN
dich	NaN	NaN
schallu	NaN	NaN
habb	NaN	NaN
welle	NaN	NaN
mache	NaN	NaN
!	NaN	NaN
Unn	NaN	NaN
ich	NaN	NaN
dich	NaN	NaN
au	NaN	NaN
,	NaN	NaN
lieb	NaN	NaN
’s	NaN	NaN
Wyewele	NaN	NaN
!	NaN	NaN
O	NaN	NaN
,	NaN	NaN
wie	NaN	NaN
sinn	NaN	NaN
mir	NaN	NaN
alli	NaN	NaN
zwei	NaN	NaN
doch	NaN	NaN
so	NaN	NaN
arich	NaN	NaN
dumm	NaN	NaN
g’sinn	NaN	NaN
!	NaN	NaN
Welle	NaN	NaN
mir	NaN	NaN
uns	NaN	NaN
wieder	NaN	NaN
verdraawe	NaN	NaN
unn	NaN	NaN
alles	NaN	NaN
vergesse	NaN	NaN
?	NaN	NaN
Vun	NaN	NaN
Härze	NaN	NaN
gern	NaN	NaN
!	NaN	NaN
Mir	NaN	NaN
welle	NaN	NaN
uns	NaN	NaN
awer	NaN	NaN
au	NaN	NaN
allewyll	NaN	NaN
widder	NaN	NaN
verdröje	NaN	NaN
unn	NaN	NaN
…	NaN	NaN
…	NaN	NaN
unn	NaN	NaN
numme	NaN	NaN
noch	NaN	NaN
’s	NaN	NaN
Bescht	NaN	NaN
vun	NaN	NaN
enand	NaN	NaN
denke	NaN	NaN
!	NaN	NaN
Was	NaN	NaN
isch	NaN	NaN
,	NaN	NaN
liewer	NaN	NaN
Albert	NaN	NaN
,	NaN	NaN
welle	NaN	NaN
mir	NaN	NaN
uns	NaN	NaN
e	NaN	NaN
Lehr	NaN	NaN
dran	NaN	NaN
nemme	NaN	NaN
?	NaN	NaN
Gewiss	NaN	NaN
,	NaN	NaN
denn	NaN	NaN
ich	NaN	NaN
mach	NaN	NaN
’s	NaN	NaN
jetzt	NaN	NaN
au	NaN	NaN
so	NaN	NaN
,	NaN	NaN
wie	NaN	NaN
's	NaN	NaN
die	NaN	NaN
zwei	NaN	NaN
dort	NaN	NaN
mache	NaN	NaN
!	NaN	NaN
Bonjour	NaN	NaN
,	NaN	NaN
bysamme	NaN	NaN
!	NaN	NaN
Do	NaN	NaN
isch	NaN	NaN
e	NaN	NaN
Brief	NaN	NaN
!	NaN	NaN
Au	NaN	NaN
revoir	NaN	NaN
!	NaN	NaN
Was	NaN	NaN
isch	NaN	NaN
’s	NaN	NaN
,	NaN	NaN
Pierre	NaN	NaN
?	NaN	NaN
D’	NaN	NaN
Ziehungslischt	NaN	NaN
isch	NaN	NaN
’s	NaN	NaN
,	NaN	NaN
Frau	NaN	NaN
!	NaN	NaN
Unn	NaN	NaN
?	NaN	NaN
Mir	NaN	NaN
hann	NaN	NaN
’s	NaN	NaN
gross	NaN	NaN
Los	NaN	NaN
—	NaN	NaN
nitt	NaN	NaN
gewunne	NaN	NaN
!	NaN	NaN
Gott	NaN	NaN
sej	NaN	NaN
Dank	NaN	NaN
!	NaN	NaN
Mir	NaN	NaN
wäre	NaN	NaN
d’	NaN	NaN
unglicklichschte	NaN	NaN
Mensche	NaN	NaN
g’sinn	NaN	NaN
,	NaN	NaN
wenn	NaN	NaN
mir	NaN	NaN
gewunne	NaN	NaN
hätte	NaN	NaN
!	NaN	NaN
Dü	NaN	NaN
hesch	NaN	NaN
erächt	NaN	NaN
,	NaN	NaN
Lucie	NaN	NaN
!	NaN	NaN
’s	NaN	NaN
gitt	NaN	NaN
numme	NaN	NaN
ein	NaN	NaN
gross	NaN	NaN
Los	NaN	NaN
uff	NaN	NaN
dere	NaN	NaN
Welt	NaN	NaN
!	NaN	NaN
Der	NaN	NaN
hett	NaN	NaN
’s	NaN	NaN
gewunne	NaN	NaN
,	NaN	NaN
wo	NaN	NaN
e	NaN	NaN
bravi	NaN	NaN
Frau	NaN	NaN
unn	NaN	NaN
e	NaN	NaN
gueti	NaN	NaN
Mamme	NaN	NaN
fur	NaN	NaN
syni	NaN	NaN
Kinder	NaN	NaN
g’funde	NaN	NaN
hett	NaN	NaN
!	NaN	NaN
In	NaN	NaN
dem	NaN	NaN
Fall	NaN	NaN
haw	NaN	NaN
ich	NaN	NaN
hytt	NaN	NaN
in	NaN	NaN
alle	NaN	NaN
mejliche	NaN	NaN
Lotterie	NaN	NaN
vun	NaN	NaN
d'r	NaN	NaN
Welt	NaN	NaN
gewunne	NaN	NaN
!	NaN	NaN
