Ze	NaN	NaN
bass	NaN	NaN
doch	NaN	NaN
uff	NaN	NaN
,	NaN	NaN
Michel	NaN	NaN
!	NaN	NaN
Dü	NaN	NaN
verdrucksch	NaN	NaN
mir	NaN	NaN
jo	NaN	NaN
de	NaN	NaN
Büch	NaN	NaN
!	NaN	NaN
Ei	NaN	NaN
,	NaN	NaN
's	NaN	NaN
isch	NaN	NaN
au	NaN	NaN
so	NaN	NaN
arich	NaN	NaN
eng	NaN	NaN
do	NaN	NaN
hinne	NaN	NaN
!	NaN	NaN
Enfin	NaN	NaN
,	NaN	NaN
hätte	NaN	NaN
mir'ne	NaN	NaN
so	NaN	NaN
wytt	NaN	NaN
!	NaN	NaN
Ich	NaN	NaN
schwitz	NaN	NaN
wajer	NaN	NaN
wie	NaN	NaN
e	NaN	NaN
Daadieb	NaN	NaN
,	NaN	NaN
wo	NaN	NaN
in're	NaN	NaN
Arweit	NaN	NaN
züegückt	NaN	NaN
!	NaN	NaN
Diss	NaN	NaN
soll	NaN	NaN
mir	NaN	NaN
kein	NaN	NaN
unb'holfes	NaN	NaN
Stickel	NaN	NaN
Meewel	NaN	NaN
sinn	NaN	NaN
!	NaN	NaN
Diss	NaN	NaN
isch	NaN	NaN
jo	NaN	NaN
d'r	NaN	NaN
reinscht	NaN	NaN
Sarich	NaN	NaN
!	NaN	NaN
Was	NaN	NaN
witt	NaN	NaN
de	NaN	NaN
denn	NaN	NaN
mit	NaN	NaN
anfange	NaN	NaN
,	NaN	NaN
Schorsch	NaN	NaN
?	NaN	NaN
Ei	NaN	NaN
,	NaN	NaN
liewer	NaN	NaN
Brueder	NaN	NaN
,	NaN	NaN
dü	NaN	NaN
weisch	NaN	NaN
doch	NaN	NaN
,	NaN	NaN
ass	NaN	NaN
ich	NaN	NaN
demnächscht	NaN	NaN
e	NaN	NaN
paar	NaN	NaN
Wuche	NaN	NaN
in	NaN	NaN
d'	NaN	NaN
Vakanze	NaN	NaN
will	NaN	NaN
.	NaN	NaN
Wyll	NaN	NaN
awer	NaN	NaN
e	NaN	NaN
nejer	NaN	NaN
Kuffer	NaN	NaN
hyttzedaas	NaN	NaN
e	NaN	NaN
Hüffe	NaN	NaN
Geld	NaN	NaN
koscht	NaN	NaN
,	NaN	NaN
ze	NaN	NaN
loss	NaN	NaN
ich	NaN	NaN
mir	NaN	NaN
einfach	NaN	NaN
in	NaN	NaN
denne	NaN	NaN
alt	NaN	NaN
Kaschte	NaN	NaN
,	NaN	NaN
wo	NaN	NaN
schunscht	NaN	NaN
noch	NaN	NaN
ganz	NaN	NaN
guet	NaN	NaN
isch	NaN	NaN
,	NaN	NaN
e	NaN	NaN
neje	NaN	NaN
Bodde	NaN	NaN
nynmache	NaN	NaN
,	NaN	NaN
wyll	NaN	NaN
d'r	NaN	NaN
alt	NaN	NaN
füddi	NaN	NaN
isch	NaN	NaN
.	NaN	NaN
D'r	NaN	NaN
Schrynner	NaN	NaN
losst'ne	NaN	NaN
hytt	NaN	NaN
noch	NaN	NaN
abhole	NaN	NaN
.	NaN	NaN
Do	NaN	NaN
hesch	NaN	NaN
de	NaN	NaN
rächt	NaN	NaN
,	NaN	NaN
Brueder	NaN	NaN
,	NaN	NaN
als	NaN	NaN
spare	NaN	NaN
!	NaN	NaN
Awer	NaN	NaN
was	NaN	NaN
isch	NaN	NaN
,	NaN	NaN
hesch	NaN	NaN
de	NaN	NaN
schun	NaN	NaN
mit	NaN	NaN
unsrem	NaN	NaN
Neveu	NaN	NaN
geredd	NaN	NaN
?	NaN	NaN
Nein	NaN	NaN
,	NaN	NaN
Michel	NaN	NaN
,	NaN	NaN
ich	NaN	NaN
habb	NaN	NaN
hytt	NaN	NaN
noch	NaN	NaN
gar	NaN	NaN
kein	NaN	NaN
Zytt	NaN	NaN
g'hett	NaN	NaN
,	NaN	NaN
fur	NaN	NaN
mit	NaN	NaN
'm	NaN	NaN
Robert	NaN	NaN
e'n	NaN	NaN
ernscht	NaN	NaN
's	NaN	NaN
Wertel	NaN	NaN
ze	NaN	NaN
redde	NaN	NaN
!	NaN	NaN
's	NaN	NaN
muess	NaN	NaN
awer	NaN	NaN
partout	NaN	NaN
sinn	NaN	NaN
,	NaN	NaN
Schorsch	NaN	NaN
.	NaN	NaN
Als	NaN	NaN
syne	NaN	NaN
Unkel	NaN	NaN
isch	NaN	NaN
diss	NaN	NaN
au	NaN	NaN
dyni	NaN	NaN
Sach	NaN	NaN
…	NaN	NaN
ich	NaN	NaN
habb	NaN	NaN
myn	NaN	NaN
Deil	NaN	NaN
gemacht	NaN	NaN
.	NaN	NaN
Ich	NaN	NaN
habb	NaN	NaN
myne	NaN	NaN
Frynd	NaN	NaN
Burjer	NaN	NaN
extra	NaN	NaN
dohere	NaN	NaN
b'stellt	NaN	NaN
,	NaN	NaN
fur'ne	NaN	NaN
mit	NaN	NaN
dir	NaN	NaN
unn	NaN	NaN
mit	NaN	NaN
'm	NaN	NaN
Robert	NaN	NaN
bekannt	NaN	NaN
ze	NaN	NaN
mache	NaN	NaN
.	NaN	NaN
By	NaN	NaN
dere	NaN	NaN
Affär	NaN	NaN
will'r	NaN	NaN
no	NaN	NaN
nadierlich	NaN	NaN
au	NaN	NaN
wisse	NaN	NaN
,	NaN	NaN
wie	NaN	NaN
d'	NaN	NaN
g'schäftliche	NaN	NaN
Conditione	NaN	NaN
fur	NaN	NaN
e	NaN	NaN
Hyroot	NaN	NaN
zwische	NaN	NaN
'm	NaN	NaN
Robert	NaN	NaN
unn	NaN	NaN
synere	NaN	NaN
Dochter	NaN	NaN
sinn	NaN	NaN
.	NaN	NaN
Hm	NaN	NaN
,	NaN	NaN
hm	NaN	NaN
!	NaN	NaN
E	NaN	NaN
kaiwe	NaN	NaN
Affär	NaN	NaN
diss	NaN	NaN
!	NaN	NaN
Ich	NaN	NaN
habb	NaN	NaN
jo	NaN	NaN
im	NaN	NaN
Robert	NaN	NaN
schun	NaN	NaN
so	NaN	NaN
drumrum	NaN	NaN
gebabbelt	NaN	NaN
unn	NaN	NaN
Andyttunge	NaN	NaN
gemacht	NaN	NaN
;	NaN	NaN
er	NaN	NaN
schynt	NaN	NaN
awer	NaN	NaN
gar	NaN	NaN
kein	NaN	NaN
Interesse	NaN	NaN
fur	NaN	NaN
so	NaN	NaN
e	NaN	NaN
Verbindung	NaN	NaN
zu	NaN	NaN
hann	NaN	NaN
.	NaN	NaN
Er	NaN	NaN
muess	NaN	NaN
einfach	NaN	NaN
!	NaN	NaN
Diss	NaN	NaN
isch	NaN	NaN
schun	NaN	NaN
allein	NaN	NaN
e'n	NaN	NaN
Ehresach	NaN	NaN
fur	NaN	NaN
unseri	NaN	NaN
Firma	NaN	NaN
,	NaN	NaN
ass	NaN	NaN
s'	NaN	NaN
e	NaN	NaN
sich	NaN	NaN
am	NaN	NaN
e	NaN	NaN
scheene	NaN	NaN
Daa	NaN	NaN
mit	NaN	NaN
d'r	NaN	NaN
Firma	NaN	NaN
Burjer	NaN	NaN
z'	NaN	NaN
sammeschliesse	NaN	NaN
dhuet	NaN	NaN
!	NaN	NaN
Gewiss	NaN	NaN
,	NaN	NaN
so	NaN	NaN
isch	NaN	NaN
's	NaN	NaN
:	NaN	NaN
e'n	NaN	NaN
Ehresach	NaN	NaN
,	NaN	NaN
denn	NaN	NaN
finanziell	NaN	NaN
hätte	NaN	NaN
mir	NaN	NaN
jo	NaN	NaN
so	NaN	NaN
e	NaN	NaN
Z'	NaN	NaN
sammeschluss	NaN	NaN
gar	NaN	NaN
nitt	NaN	NaN
neetig	NaN	NaN
.	NaN	NaN
Unn	NaN	NaN
wyll	NaN	NaN
d'r	NaN	NaN
Robert	NaN	NaN
doch	NaN	NaN
emool	NaN	NaN
unser	NaN	NaN
G'schäft	NaN	NaN
bekummt	NaN	NaN
,	NaN	NaN
ze	NaN	NaN
muess'r	NaN	NaN
einfach	NaN	NaN
…	NaN	NaN
…	NaN	NaN
d'	NaN	NaN
Mamsell	NaN	NaN
Yvonne	NaN	NaN
hyroote	NaN	NaN
!	NaN	NaN
So	NaN	NaN
isch	NaN	NaN
's	NaN	NaN
!	NaN	NaN
Unn	NaN	NaN
mir	NaN	NaN
miehn	NaN	NaN
guet	NaN	NaN
uffbasse	NaN	NaN
,	NaN	NaN
ass	NaN	NaN
uns	NaN	NaN
der	NaN	NaN
Bue	NaN	NaN
nitt	NaN	NaN
noch	NaN	NaN
im	NaN	NaN
letschte	NaN	NaN
Moment	NaN	NaN
e	NaN	NaN
Striffe	NaN	NaN
durich	NaN	NaN
unseri	NaN	NaN
Rechnung	NaN	NaN
macht	NaN	NaN
!	NaN	NaN
Mit	NaN	NaN
so	NaN	NaN
junge	NaN	NaN
Lytt	NaN	NaN
kamm'r	NaN	NaN
nitt	NaN	NaN
vorsichtig	NaN	NaN
genue	NaN	NaN
sinn	NaN	NaN
,	NaN	NaN
denn	NaN	NaN
schunscht	NaN	NaN
mache	NaN	NaN
s'	NaN	NaN
e	NaN	NaN
hinter	NaN	NaN
'm	NaN	NaN
Buckel	NaN	NaN
vun	NaN	NaN
de	NaN	NaN
Alte	NaN	NaN
d'	NaN	NaN
greeschte	NaN	NaN
Daubheite	NaN	NaN
,	NaN	NaN
wo	NaN	NaN
s'	NaN	NaN
e	NaN	NaN
ihre	NaN	NaN
Läbdesdaa	NaN	NaN
dran	NaN	NaN
ze	NaN	NaN
daue	NaN	NaN
hann	NaN	NaN
.	NaN	NaN
Waje	NaN	NaN
dem	NaN	NaN
haw	NaN	NaN
ich	NaN	NaN
dir	NaN	NaN
jo	NaN	NaN
au	NaN	NaN
de	NaN	NaN
guet	NaN	NaN
Root	NaN	NaN
gänn	NaN	NaN
,	NaN	NaN
alle	NaN	NaN
Daa	NaN	NaN
syni	NaN	NaN
Kleider	NaN	NaN
ze	NaN	NaN
visitiere	NaN	NaN
.	NaN	NaN
So	NaN	NaN
erfahrt	NaN	NaN
m'r	NaN	NaN
am	NaN	NaN
beschte	NaN	NaN
,	NaN	NaN
was	NaN	NaN
fur	NaN	NaN
Gedanke	NaN	NaN
unn	NaN	NaN
was	NaN	NaN
fur	NaN	NaN
Spring	NaN	NaN
ass	NaN	NaN
so	NaN	NaN
e	NaN	NaN
Fitzer	NaN	NaN
im	NaN	NaN
Kopf	NaN	NaN
hett	NaN	NaN
!	NaN	NaN
's	NaN	NaN
isch	NaN	NaN
jo	NaN	NaN
wohr	NaN	NaN
!	NaN	NaN
Ich	NaN	NaN
bin	NaN	NaN
hytt	NaN	NaN
noch	NaN	NaN
gar	NaN	NaN
nitt	NaN	NaN
dezue	NaN	NaN
kumme	NaN	NaN
!	NaN	NaN
Ah	NaN	NaN
,	NaN	NaN
do	NaN	NaN
hängt	NaN	NaN
jo	NaN	NaN
noch	NaN	NaN
im	NaN	NaN
Robert	NaN	NaN
syner	NaN	NaN
Pardessü	NaN	NaN
!	NaN	NaN
Ich	NaN	NaN
will	NaN	NaN
glych	NaN	NaN
emool	NaN	NaN
lueje	NaN	NaN
!	NaN	NaN
Gibb	NaN	NaN
e	NaN	NaN
bissel	NaN	NaN
acht	NaN	NaN
,	NaN	NaN
ass'r	NaN	NaN
uns	NaN	NaN
nitt	NaN	NaN
verwitscht	NaN	NaN
,	NaN	NaN
Michel	NaN	NaN
!	NaN	NaN
Hesch	NaN	NaN
ebbs	NaN	NaN
g'funde	NaN	NaN
,	NaN	NaN
Schorsch	NaN	NaN
?	NaN	NaN
Ja	NaN	NaN
,	NaN	NaN
do	NaN	NaN
isch	NaN	NaN
syn	NaN	NaN
Portefeuille	NaN	NaN
!	NaN	NaN
Isch	NaN	NaN
ebbs	NaN	NaN
drinne	NaN	NaN
?	NaN	NaN
Wart	NaN	NaN
,	NaN	NaN
wart	NaN	NaN
!	NaN	NaN
Aha	NaN	NaN
,	NaN	NaN
was	NaN	NaN
isch	NaN	NaN
denn	NaN	NaN
diss	NaN	NaN
?	NaN	NaN
«	NaN	NaN
Unfehlbare	NaN	NaN
Berechnungstabelle	NaN	NaN
für	NaN	NaN
alle	NaN	NaN
Kartenspiele	NaN	NaN
.	NaN	NaN
»	NaN	NaN
Michel	NaN	NaN
,	NaN	NaN
was	NaN	NaN
saasch	NaN	NaN
de	NaN	NaN
do	NaN	NaN
dezue	NaN	NaN
?	NaN	NaN
Herrjeh	NaN	NaN
,	NaN	NaN
der	NaN	NaN
Bue	NaN	NaN
wurd	NaN	NaN
doch	NaN	NaN
nitt	NaN	NaN
e	NaN	NaN
Hazard-Spieler	NaN	NaN
sinn	NaN	NaN
?	NaN	NaN
Am	NaN	NaN
End	NaN	NaN
verkehrt'r	NaN	NaN
gar	NaN	NaN
in	NaN	NaN
Spielhöehle	NaN	NaN
!	NaN	NaN
.	NaN	NaN
Unn	NaN	NaN
verbulvert	NaN	NaN
unser	NaN	NaN
Vermeje	NaN	NaN
!	NaN	NaN
Erscht	NaN	NaN
gescht	NaN	NaN
hett'r	NaN	NaN
mich	NaN	NaN
um	NaN	NaN
ganzi	NaN	NaN
finf	NaN	NaN
Franke	NaN	NaN
angebumbt	NaN	NaN
!	NaN	NaN
Unn	NaN	NaN
do	NaN	NaN
isch	NaN	NaN
e	NaN	NaN
Trambillet	NaN	NaN
,	NaN	NaN
Michel	NaN	NaN
!	NaN	NaN
Fur	NaN	NaN
wo	NaN	NaN
anne	NaN	NaN
isch	NaN	NaN
's	NaN	NaN
denn	NaN	NaN
g'striche	NaN	NaN
?	NaN	NaN
Fur	NaN	NaN
an	NaN	NaN
de	NaN	NaN
Käferplatz	NaN	NaN
!	NaN	NaN
Mâtin	NaN	NaN
,	NaN	NaN
dorte	NaN	NaN
isch	NaN	NaN
jo	NaN	NaN
's	NaN	NaN
Westminster-Bar	NaN	NaN
,	NaN	NaN
wie	NaN	NaN
ich	NaN	NaN
üss	NaN	NaN
Erfahrung	NaN	NaN
weiss	NaN	NaN
…	NaN	NaN
äh	NaN	NaN
,	NaN	NaN
ich	NaN	NaN
will	NaN	NaN
saawe	NaN	NaN
…	NaN	NaN
ich	NaN	NaN
mein	NaN	NaN
,	NaN	NaN
wyll	NaN	NaN
ich	NaN	NaN
als	NaN	NaN
ab	NaN	NaN
unn	NaN	NaN
zue	NaN	NaN
mit	NaN	NaN
'm	NaN	NaN
Tram	NaN	NaN
dran	NaN	NaN
durchfahre	NaN	NaN
dhue	NaN	NaN
!	NaN	NaN
Ah	NaN	NaN
,	NaN	NaN
waje	NaN	NaN
dem	NaN	NaN
hett	NaN	NaN
d'r	NaN	NaN
Robert	NaN	NaN
gescht	NaN	NaN
,	NaN	NaN
middles	NaN	NaN
in	NaN	NaN
d'r	NaN	NaN
Wuch	NaN	NaN
,	NaN	NaN
e	NaN	NaN
frische	NaN	NaN
Stellkraawe	NaN	NaN
angezöje	NaN	NaN
!	NaN	NaN
—	NaN	NaN
Was	NaN	NaN
isch	NaN	NaN
denn	NaN	NaN
diss	NaN	NaN
fur	NaN	NaN
e	NaN	NaN
Ansichtskart	NaN	NaN
?	NaN	NaN
Ah	NaN	NaN
,	NaN	NaN
üss	NaN	NaN
Italie	NaN	NaN
!	NaN	NaN
Was	NaN	NaN
steht	NaN	NaN
druff	NaN	NaN
?	NaN	NaN
«	NaN	NaN
Lieber	NaN	NaN
Robert	NaN	NaN
!	NaN	NaN
Im	NaN	NaN
schönen	NaN	NaN
Italien	NaN	NaN
sitze	NaN	NaN
ich	NaN	NaN
am	NaN	NaN
Meeresgestade	NaN	NaN
und	NaN	NaN
gedenke	NaN	NaN
Dein	NaN	NaN
.	NaN	NaN
Ich	NaN	NaN
bin	NaN	NaN
entzückt	NaN	NaN
.	NaN	NaN
Du	NaN	NaN
musst	NaN	NaN
die	NaN	NaN
stolze	NaN	NaN
,	NaN	NaN
blaue	NaN	NaN
Adria	NaN	NaN
unbedingt	NaN	NaN
auch	NaN	NaN
einmal	NaN	NaN
kennen	NaN	NaN
lernen	NaN	NaN
.	NaN	NaN
Sie	NaN	NaN
bezaubert	NaN	NaN
Dich	NaN	NaN
und	NaN	NaN
lässt	NaN	NaN
Dich	NaN	NaN
nicht	NaN	NaN
mehr	NaN	NaN
frei	NaN	NaN
!	NaN	NaN
Dein	NaN	NaN
Freund	NaN	NaN
Louis	NaN	NaN
!	NaN	NaN
»	NaN	NaN
—	NaN	NaN
Was	NaN	NaN
,	NaN	NaN
«	NaN	NaN
Adria	NaN	NaN
»	NaN	NaN
?	NaN	NaN
Diss	NaN	NaN
wurd	NaN	NaN
allewäj	NaN	NaN
so	NaN	NaN
e	NaN	NaN
italienisch	NaN	NaN
's	NaN	NaN
Menschel	NaN	NaN
sinn	NaN	NaN
!	NaN	NaN
Kein	NaN	NaN
Zwyefel	NaN	NaN
!	NaN	NaN
Awer	NaN	NaN
ass	NaN	NaN
diss	NaN	NaN
Lueder	NaN	NaN
blöj	NaN	NaN
isch	NaN	NaN
,	NaN	NaN
kapier	NaN	NaN
ich	NaN	NaN
nitt	NaN	NaN
!	NaN	NaN
D'	NaN	NaN
Italienere	NaN	NaN
sinn	NaN	NaN
doch	NaN	NaN
gewehnlich	NaN	NaN
schwarz	NaN	NaN
.	NaN	NaN
Viellycht	NaN	NaN
süfft	NaN	NaN
s'	NaN	NaN
e	NaN	NaN
viel	NaN	NaN
unn	NaN	NaN
isch	NaN	NaN
no	NaN	NaN
als	NaN	NaN
«	NaN	NaN
blöj	NaN	NaN
»	NaN	NaN
,	NaN	NaN
wie	NaN	NaN
m'r	NaN	NaN
saat	NaN	NaN
?	NaN	NaN
Ich	NaN	NaN
glabb	NaN	NaN
ehnder	NaN	NaN
,	NaN	NaN
ass	NaN	NaN
die	NaN	NaN
grien	NaN	NaN
isch	NaN	NaN
,	NaN	NaN
denn	NaN	NaN
schunscht	NaN	NaN
wär	NaN	NaN
s'	NaN	NaN
e	NaN	NaN
nitt	NaN	NaN
so	NaN	NaN
frech	NaN	NaN
unn	NaN	NaN
dhät	NaN	NaN
eine	NaN	NaN
nimmi	NaN	NaN
los	NaN	NaN
lonn	NaN	NaN
!	NaN	NaN
Bref	NaN	NaN
,	NaN	NaN
der	NaN	NaN
Bue	NaN	NaN
muess	NaN	NaN
so	NaN	NaN
ball	NaN	NaN
ass	NaN	NaN
mejlich	NaN	NaN
hyroote	NaN	NaN
,	NaN	NaN
schunscht	NaN	NaN
fallt'r	NaN	NaN
dere	NaN	NaN
Person	NaN	NaN
doch	NaN	NaN
noch	NaN	NaN
in	NaN	NaN
d'	NaN	NaN
Finger	NaN	NaN
!	NaN	NaN
G'schwind	NaN	NaN
,	NaN	NaN
Schorsch	NaN	NaN
,	NaN	NaN
g'schwind	NaN	NaN
!	NaN	NaN
Er	NaN	NaN
kummt	NaN	NaN
!	NaN	NaN
Loss	NaN	NaN
dir	NaN	NaN
jo	NaN	NaN
nix	NaN	NaN
anmerke	NaN	NaN
!	NaN	NaN
Awer	NaN	NaN
umso	NaN	NaN
besser	NaN	NaN
will	NaN	NaN
ich	NaN	NaN
jetzt	NaN	NaN
uff'ne	NaN	NaN
uffbasse	NaN	NaN
!	NaN	NaN
Bonjour	NaN	NaN
,	NaN	NaN
Unkel	NaN	NaN
Michel	NaN	NaN
!	NaN	NaN
Bonjour	NaN	NaN
,	NaN	NaN
Unkel	NaN	NaN
Schorsch	NaN	NaN
!	NaN	NaN
Was	NaN	NaN
gitts	NaN	NaN
fur	NaN	NaN
Nejigkeite	NaN	NaN
?	NaN	NaN
Arich	NaN	NaN
viel	NaN	NaN
,	NaN	NaN
Robert	NaN	NaN
!	NaN	NaN
Unn	NaN	NaN
wichtigi	NaN	NaN
!	NaN	NaN
So	NaN	NaN
?	NaN	NaN
Unn	NaN	NaN
diss	NaN	NaN
wär	NaN	NaN
?	NaN	NaN
D'r	NaN	NaN
Monsieur	NaN	NaN
Burjer	NaN	NaN
kummt	NaN	NaN
hytt	NaN	NaN
unn	NaN	NaN
will	NaN	NaN
unseri	NaN	NaN
Bekanntschaft	NaN	NaN
mache	NaN	NaN
!	NaN	NaN
Unn	NaN	NaN
dü	NaN	NaN
wursch	NaN	NaN
wisse	NaN	NaN
,	NaN	NaN
worum	NaN	NaN
,	NaN	NaN
Robert	NaN	NaN
?	NaN	NaN
Numme	NaN	NaN
ze	NaN	NaN
guet	NaN	NaN
;	NaN	NaN
awer	NaN	NaN
die	NaN	NaN
Visit	NaN	NaN
interessiert	NaN	NaN
mich	NaN	NaN
nitt	NaN	NaN
!	NaN	NaN
Oho	NaN	NaN
!	NaN	NaN
Awer	NaN	NaN
uns	NaN	NaN
umsomeh	NaN	NaN
!	NaN	NaN
Dü	NaN	NaN
hesch	NaN	NaN
einfach	NaN	NaN
ze	NaN	NaN
mache	NaN	NaN
,	NaN	NaN
was	NaN	NaN
dyni	NaN	NaN
Pflicht	NaN	NaN
isch	NaN	NaN
!	NaN	NaN
Diss	NaN	NaN
isch	NaN	NaN
mir	NaN	NaN
e	NaN	NaN
scheeni	NaN	NaN
Moral	NaN	NaN
,	NaN	NaN
wenn	NaN	NaN
m'r	NaN	NaN
ebber	NaN	NaN
numme	NaN	NaN
üss	NaN	NaN
Pflicht	NaN	NaN
lieb	NaN	NaN
soll	NaN	NaN
hann	NaN	NaN
.	NaN	NaN
Ach	NaN	NaN
was	NaN	NaN
,	NaN	NaN
«	NaN	NaN
Moral	NaN	NaN
»	NaN	NaN
—	NaN	NaN
«	NaN	NaN
lieb	NaN	NaN
hann	NaN	NaN
»	NaN	NaN
!	NaN	NaN
G'schäftsmann	NaN	NaN
,	NaN	NaN
Kaufmann	NaN	NaN
muess	NaN	NaN
m'r	NaN	NaN
sinn	NaN	NaN
,	NaN	NaN
wenn	NaN	NaN
m'r	NaN	NaN
sich	NaN	NaN
e	NaN	NaN
solid	NaN	NaN
's	NaN	NaN
Glick	NaN	NaN
sichere	NaN	NaN
will	NaN	NaN
!	NaN	NaN
Ja	NaN	NaN
,	NaN	NaN
denn	NaN	NaN
die	NaN	NaN
Partie	NaN	NaN
,	NaN	NaN
wo	NaN	NaN
mir	NaN	NaN
dir	NaN	NaN
üssg'suecht	NaN	NaN
hann	NaN	NaN
,	NaN	NaN
isch	NaN	NaN
e	NaN	NaN
Kapital	NaN	NaN
vun	NaN	NaN
jährlich	NaN	NaN
100	NaN	NaN
000	NaN	NaN
Franke	NaN	NaN
Zinse	NaN	NaN
!	NaN	NaN
Unn	NaN	NaN
beidi	NaN	NaN
G'schäfter	NaN	NaN
dhäte	NaN	NaN
no	NaN	NaN
in	NaN	NaN
ein	NaN	NaN
Famili	NaN	NaN
kumme	NaN	NaN
unn	NaN	NaN
blyewe	NaN	NaN
!	NaN	NaN
Diss	NaN	NaN
isch	NaN	NaN
's	NaN	NaN
jo	NaN	NaN
!	NaN	NaN
Ihr	NaN	NaN
welle	NaN	NaN
ejer	NaN	NaN
Glick	NaN	NaN
mache	NaN	NaN
,	NaN	NaN
awer	NaN	NaN
nitt	NaN	NaN
myn	NaN	NaN
's	NaN	NaN
.	NaN	NaN
Non	NaN	NaN
,	NaN	NaN
jamais	NaN	NaN
!	NaN	NaN
Myni	NaN	NaN
Frejheit	NaN	NaN
unn	NaN	NaN
myni	NaN	NaN
G'fiehler	NaN	NaN
dhue	NaN	NaN
unn	NaN	NaN
kann	NaN	NaN
ich	NaN	NaN
nitt	NaN	NaN
verkaufe	NaN	NaN
!	NaN	NaN
Robert	NaN	NaN
,	NaN	NaN
ze	NaN	NaN
luej	NaN	NaN
dir	NaN	NaN
doch	NaN	NaN
diss	NaN	NaN
Maidel	NaN	NaN
erscht	NaN	NaN
emool	NaN	NaN
an	NaN	NaN
!	NaN	NaN
By	NaN	NaN
so're	NaN	NaN
ginschtige	NaN	NaN
Partie	NaN	NaN
wott	NaN	NaN
ich	NaN	NaN
myni	NaN	NaN
Frau	NaN	NaN
iwerhaupt	NaN	NaN
am	NaN	NaN
liebschte	NaN	NaN
gar	NaN	NaN
nie	NaN	NaN
sähn	NaN	NaN
!	NaN	NaN
Nein	NaN	NaN
,	NaN	NaN
wenn	NaN	NaN
ich	NaN	NaN
hyroote	NaN	NaN
will	NaN	NaN
,	NaN	NaN
ze	NaN	NaN
suech	NaN	NaN
ich	NaN	NaN
mir	NaN	NaN
myni	NaN	NaN
Frau	NaN	NaN
sälwer	NaN	NaN
unn	NaN	NaN
zwar	NaN	NaN
eini	NaN	NaN
,	NaN	NaN
wo	NaN	NaN
mir	NaN	NaN
g'fallt	NaN	NaN
!	NaN	NaN
So	NaN	NaN
?	NaN	NaN
Diss	NaN	NaN
welle	NaN	NaN
mir	NaN	NaN
sähn	NaN	NaN
!	NaN	NaN
Ich	NaN	NaN
bin	NaN	NaN
dyner	NaN	NaN
Unkel	NaN	NaN
,	NaN	NaN
unn	NaN	NaN
dü	NaN	NaN
hesch	NaN	NaN
ze	NaN	NaN
mache	NaN	NaN
,	NaN	NaN
was	NaN	NaN
ich	NaN	NaN
will	NaN	NaN
!	NaN	NaN
Iwerleij	NaN	NaN
dir	NaN	NaN
's	NaN	NaN
bis	NaN	NaN
denne	NaN	NaN
Middaa	NaN	NaN
!	NaN	NaN
Unn	NaN	NaN
ich	NaN	NaN
bin	NaN	NaN
au	NaN	NaN
dyner	NaN	NaN
Unkel	NaN	NaN
,	NaN	NaN
unn	NaN	NaN
dü	NaN	NaN
hesch	NaN	NaN
au	NaN	NaN
ze	NaN	NaN
mache	NaN	NaN
,	NaN	NaN
was	NaN	NaN
ich	NaN	NaN
will	NaN	NaN
!	NaN	NaN
Do	NaN	NaN
haw	NaN	NaN
ich	NaN	NaN
d'	NaN	NaN
Bscherung	NaN	NaN
ohne	NaN	NaN
Wyhnachte	NaN	NaN
!	NaN	NaN
Soll	NaN	NaN
ich	NaN	NaN
noochgänn	NaN	NaN
unn	NaN	NaN
diss	NaN	NaN
Maidel	NaN	NaN
hyroote	NaN	NaN
,	NaN	NaN
wo	NaN	NaN
ich	NaN	NaN
noch	NaN	NaN
nitt	NaN	NaN
emool	NaN	NaN
g'sähn	NaN	NaN
habb	NaN	NaN
?	NaN	NaN
Wenn	NaN	NaN
s'	NaN	NaN
e	NaN	NaN
so	NaN	NaN
arich	NaN	NaN
rych	NaN	NaN
isch	NaN	NaN
,	NaN	NaN
wie	NaN	NaN
myni	NaN	NaN
zwei	NaN	NaN
Unkel	NaN	NaN
saawe	NaN	NaN
,	NaN	NaN
ze	NaN	NaN
kann	NaN	NaN
ich	NaN	NaN
mir	NaN	NaN
schun	NaN	NaN
vorstelle	NaN	NaN
,	NaN	NaN
ass	NaN	NaN
s'	NaN	NaN
e	NaN	NaN
noch	NaN	NaN
im	NaN	NaN
letschte	NaN	NaN
Johrhundert	NaN	NaN
uff	NaN	NaN
d'	NaN	NaN
Welt	NaN	NaN
isch	NaN	NaN
kumme	NaN	NaN
.	NaN	NaN
Nein	NaN	NaN
,	NaN	NaN
ich	NaN	NaN
kann	NaN	NaN
einfach	NaN	NaN
nitt	NaN	NaN
,	NaN	NaN
denn	NaN	NaN
myn	NaN	NaN
Härz	NaN	NaN
g'heert	NaN	NaN
jo	NaN	NaN
schun	NaN	NaN
lang	NaN	NaN
dir	NaN	NaN
,	NaN	NaN
Yvonne	NaN	NaN
,	NaN	NaN
dir	NaN	NaN
,	NaN	NaN
wo	NaN	NaN
ich	NaN	NaN
bis	NaN	NaN
jetzt	NaN	NaN
numme	NaN	NaN
vum	NaN	NaN
Sähn	NaN	NaN
kenne	NaN	NaN
dhue	NaN	NaN
.	NaN	NaN
Bis	NaN	NaN
jetzt	NaN	NaN
haw	NaN	NaN
ich	NaN	NaN
vun	NaN	NaN
dem	NaN	NaN
liewe	NaN	NaN
,	NaN	NaN
scheene	NaN	NaN
Kind	NaN	NaN
numme	NaN	NaN
de	NaN	NaN
Vorname	NaN	NaN
erfahre	NaN	NaN
kenne	NaN	NaN
,	NaN	NaN
schunscht	NaN	NaN
nix	NaN	NaN
;	NaN	NaN
awer	NaN	NaN
,	NaN	NaN
wenn	NaN	NaN
ich	NaN	NaN
mich	NaN	NaN
nitt	NaN	NaN
drumpier	NaN	NaN
,	NaN	NaN
ze	NaN	NaN
haw	NaN	NaN
ich	NaN	NaN
in	NaN	NaN
syne	NaN	NaN
Aue	NaN	NaN
läse	NaN	NaN
kenne	NaN	NaN
,	NaN	NaN
ass	NaN	NaN
's	NaN	NaN
mich	NaN	NaN
au	NaN	NaN
nitt	NaN	NaN
schlächt	NaN	NaN
lyede	NaN	NaN
kann	NaN	NaN
…	NaN	NaN
Unn	NaN	NaN
jetzt	NaN	NaN
g'schwind	NaN	NaN
in	NaN	NaN
d'	NaN	NaN
Stadt	NaN	NaN
;	NaN	NaN
viellycht	NaN	NaN
sieh	NaN	NaN
ich	NaN	NaN
diss	NaN	NaN
härzig	NaN	NaN
Maidel	NaN	NaN
hytt	NaN	NaN
widder	NaN	NaN
uff	NaN	NaN
d'r	NaN	NaN
Promenad	NaN	NaN
!	NaN	NaN
Ah	NaN	NaN
,	NaN	NaN
ebb	NaN	NaN
ass	NaN	NaN
ich	NaN	NaN
's	NaN	NaN
vergesse	NaN	NaN
d'	NaN	NaN
hue	NaN	NaN
:	NaN	NaN
mir	NaN	NaN
kummt	NaN	NaN
's	NaN	NaN
als	NaN	NaN
so	NaN	NaN
vor	NaN	NaN
,	NaN	NaN
wie	NaN	NaN
wenn	NaN	NaN
mir	NaN	NaN
ebber	NaN	NaN
myni	NaN	NaN
Kleider	NaN	NaN
üssmüse	NaN	NaN
dhät	NaN	NaN
—	NaN	NaN
's	NaN	NaN
isch	NaN	NaN
allewyli	NaN	NaN
alles	NaN	NaN
am	NaN	NaN
lätze	NaN	NaN
Platz	NaN	NaN
!	NaN	NaN
Diss	NaN	NaN
Mool	NaN	NaN
haw	NaN	NaN
ich	NaN	NaN
awer	NaN	NaN
e	NaN	NaN
Zeiche	NaN	NaN
gemacht	NaN	NaN
,	NaN	NaN
unn	NaN	NaN
wenn	NaN	NaN
ich	NaN	NaN
mich	NaN	NaN
nitt	NaN	NaN
drumpier	NaN	NaN
—	NaN	NaN
—	NaN	NaN
ei	NaN	NaN
,	NaN	NaN
nadierlich	NaN	NaN
!	NaN	NaN
,	NaN	NaN
's	NaN	NaN
isch	NaN	NaN
so	NaN	NaN
!	NaN	NaN
's	NaN	NaN
isch	NaN	NaN
ebber	NaN	NaN
an	NaN	NaN
mym	NaN	NaN
Portefeuille	NaN	NaN
g'sinn	NaN	NaN
!	NaN	NaN
Unn	NaN	NaN
wer	NaN	NaN
kann	NaN	NaN
's	NaN	NaN
andersch	NaN	NaN
sinn	NaN	NaN
als	NaN	NaN
wie	NaN	NaN
myni	NaN	NaN
zwei	NaN	NaN
liewe	NaN	NaN
Unkel	NaN	NaN
,	NaN	NaN
wo	NaN	NaN
waje	NaN	NaN
dere	NaN	NaN
geplant	NaN	NaN
Hyroot	NaN	NaN
gewiss	NaN	NaN
erfahre	NaN	NaN
welle	NaN	NaN
,	NaN	NaN
was	NaN	NaN
ich	NaN	NaN
alles	NaN	NaN
anstell	NaN	NaN
!	NaN	NaN
Na	NaN	NaN
,	NaN	NaN
sie	NaN	NaN
halte	NaN	NaN
mich	NaN	NaN
jo	NaN	NaN
knapp	NaN	NaN
genue	NaN	NaN
,	NaN	NaN
fur	NaN	NaN
ass	NaN	NaN
's	NaN	NaN
mir	NaN	NaN
nitt	NaN	NaN
ze	NaN	NaN
wohl	NaN	NaN
wurd	NaN	NaN
!	NaN	NaN
—	NaN	NaN
Awer	NaN	NaN
was	NaN	NaN
fang	NaN	NaN
ich	NaN	NaN
numme	NaN	NaN
an	NaN	NaN
?	NaN	NaN
Die	NaN	NaN
Kleidervisitation	NaN	NaN
will	NaN	NaN
ich'ne	NaN	NaN
schun	NaN	NaN
vertriewe	NaN	NaN
mitsamt	NaN	NaN
dere	NaN	NaN
Hyrootsg'schieht	NaN	NaN
!	NaN	NaN
Ich	NaN	NaN
bin	NaN	NaN
doch	NaN	NaN
kenn	NaN	NaN
Kind	NaN	NaN
meh	NaN	NaN
!	NaN	NaN
Ich	NaN	NaN
muess	NaN	NaN
s'	NaN	NaN
e	NaN	NaN
partout	NaN	NaN
uff	NaN	NaN
anderi	NaN	NaN
Gedanke	NaN	NaN
bringe	NaN	NaN
!	NaN	NaN
Halt	NaN	NaN
,	NaN	NaN
e'n	NaN	NaN
Idee	NaN	NaN
!	NaN	NaN
Diss	NaN	NaN
wurd	NaN	NaN
gemacht	NaN	NaN
!	NaN	NaN
Sie	NaN	NaN
hann	NaN	NaN
jo	NaN	NaN
alli	NaN	NaN
zwei	NaN	NaN
e	NaN	NaN
Mordsrespekt	NaN	NaN
vor	NaN	NaN
d'r	NaN	NaN
Rejierung	NaN	NaN
unn	NaN	NaN
e	NaN	NaN
Helleangscht	NaN	NaN
vor	NaN	NaN
jedere	NaN	NaN
Partejpolitik	NaN	NaN
.	NaN	NaN
Diss	NaN	NaN
kummt	NaN	NaN
mir	NaN	NaN
fur	NaN	NaN
myne	NaN	NaN
Plan	NaN	NaN
wie	NaN	NaN
gewunsche	NaN	NaN
.	NaN	NaN
Ich	NaN	NaN
will	NaN	NaN
ejch	NaN	NaN
emool	NaN	NaN
e	NaN	NaN
Begriff	NaN	NaN
devun	NaN	NaN
mache	NaN	NaN
,	NaN	NaN
wie	NaN	NaN
's	NaN	NaN
isch	NaN	NaN
,	NaN	NaN
wenn	NaN	NaN
m'r	NaN	NaN
allewyll	NaN	NaN
in	NaN	NaN
d'r	NaN	NaN
Angscht	NaN	NaN
läwe	NaN	NaN
muess	NaN	NaN
,	NaN	NaN
ass	NaN	NaN
eim	NaN	NaN
syni	NaN	NaN
privatschte	NaN	NaN
Saches	NaN	NaN
üssg'spioniert	NaN	NaN
wäre	NaN	NaN
!	NaN	NaN
Babier	NaN	NaN
,	NaN	NaN
e'n	NaN	NaN
Enveloppe	NaN	NaN
unn	NaN	NaN
e	NaN	NaN
Fillfedder	NaN	NaN
haw	NaN	NaN
ich	NaN	NaN
jo	NaN	NaN
by	NaN	NaN
mir	NaN	NaN
—	NaN	NaN
also	NaN	NaN
los	NaN	NaN
unn	NaN	NaN
e	NaN	NaN
heilsams	NaN	NaN
Briefel	NaN	NaN
g'schriwe	NaN	NaN
.	NaN	NaN
:	NaN	NaN
«	NaN	NaN
An	NaN	NaN
die	NaN	NaN
Herren	NaN	NaN
Gebrüder	NaN	NaN
Frosch	NaN	NaN
!	NaN	NaN
Ein	NaN	NaN
wohlmeinender	NaN	NaN
Freund	NaN	NaN
macht	NaN	NaN
Sie	NaN	NaN
darauf	NaN	NaN
aufmerksam	NaN	NaN
,	NaN	NaN
dass	NaN	NaN
Sie	NaN	NaN
in	NaN	NaN
politischer	NaN	NaN
Beziehung	NaN	NaN
verdächtigt	NaN	NaN
worden	NaN	NaN
sind	NaN	NaN
und	NaN	NaN
dass	NaN	NaN
daher	NaN	NaN
eine	NaN	NaN
polizeiliche	NaN	NaN
Haussuchung	NaN	NaN
bei	NaN	NaN
Ihnen	NaN	NaN
zu	NaN	NaN
erwarten	NaN	NaN
steht	NaN	NaN
.	NaN	NaN
Treffen	NaN	NaN
Sie	NaN	NaN
Ihre	NaN	NaN
Massnahmen	NaN	NaN
.	NaN	NaN
»	NaN	NaN
So	NaN	NaN
,	NaN	NaN
Schluss	NaN	NaN
—	NaN	NaN
Punkt	NaN	NaN
!	NaN	NaN
Ja	NaN	NaN
,	NaN	NaN
myni	NaN	NaN
liewi	NaN	NaN
Unkel	NaN	NaN
,	NaN	NaN
wenn	NaN	NaN
ihr	NaN	NaN
mir	NaN	NaN
nitt	NaN	NaN
myni	NaN	NaN
Ruehj	NaN	NaN
lonn	NaN	NaN
,	NaN	NaN
ze	NaN	NaN
loss	NaN	NaN
ich	NaN	NaN
ejch	NaN	NaN
ejri	NaN	NaN
au	NaN	NaN
nitt	NaN	NaN
!	NaN	NaN
Am	NaN	NaN
beschte	NaN	NaN
leij	NaN	NaN
ich	NaN	NaN
diss	NaN	NaN
Schryewes	NaN	NaN
do	NaN	NaN
unter	NaN	NaN
die	NaN	NaN
Zyttunge	NaN	NaN
unn	NaN	NaN
Brief	NaN	NaN
,	NaN	NaN
wo	NaN	NaN
denne	NaN	NaN
Morje	NaN	NaN
kumme	NaN	NaN
unn	NaN	NaN
noch	NaN	NaN
nitt	NaN	NaN
uffgemacht	NaN	NaN
sinn	NaN	NaN
worre	NaN	NaN
.	NaN	NaN
Briefele	NaN	NaN
,	NaN	NaN
Briefele	NaN	NaN
,	NaN	NaN
bring	NaN	NaN
mir	NaN	NaN
jo	NaN	NaN
bonne	NaN	NaN
chance	NaN	NaN
!	NaN	NaN
Ich	NaN	NaN
habb	NaN	NaN
jo	NaN	NaN
iwer	NaN	NaN
dere	NaN	NaN
Hyroots-Affär	NaN	NaN
d'	NaN	NaN
Poscht	NaN	NaN
vun	NaN	NaN
hytt	NaN	NaN
noch	NaN	NaN
gar	NaN	NaN
nitt	NaN	NaN
durichgeluejt	NaN	NaN
!	NaN	NaN
Unn	NaN	NaN
ich	NaN	NaN
habb	NaN	NaN
noch	NaN	NaN
kein	NaN	NaN
Blick	NaN	NaN
in	NaN	NaN
d'	NaN	NaN
Zyttunge	NaN	NaN
geworfe	NaN	NaN
!	NaN	NaN
Ich	NaN	NaN
bitt	NaN	NaN
dich	NaN	NaN
,	NaN	NaN
Michel	NaN	NaN
,	NaN	NaN
loss	NaN	NaN
mich	NaN	NaN
mit	NaN	NaN
de	NaN	NaN
Zyttunge	NaN	NaN
zefridde	NaN	NaN
!	NaN	NaN
Ja	NaN	NaN
,	NaN	NaN
fur	NaN	NaN
e	NaN	NaN
gueti	NaN	NaN
G'schäftsreklam	NaN	NaN
drinne	NaN	NaN
ze	NaN	NaN
mache	NaN	NaN
,	NaN	NaN
do	NaN	NaN
sinn	NaN	NaN
s'	NaN	NaN
e	NaN	NaN
guet	NaN	NaN
;	NaN	NaN
im	NaN	NaN
Iwerrescht	NaN	NaN
awer	NaN	NaN
tryewe	NaN	NaN
s'	NaN	NaN
e	NaN	NaN
alli	NaN	NaN
numme	NaN	NaN
Partejpolitik	NaN	NaN
,	NaN	NaN
unn	NaN	NaN
diss	NaN	NaN
isch	NaN	NaN
e	NaN	NaN
g'fährlichi	NaN	NaN
Sach	NaN	NaN
,	NaN	NaN
so	NaN	NaN
lang	NaN	NaN
ass	NaN	NaN
s'	NaN	NaN
e	NaN	NaN
nitt	NaN	NaN
uff	NaN	NaN
d'r	NaN	NaN
Sytt	NaN	NaN
vun	NaN	NaN
d'r	NaN	NaN
Rejierung	NaN	NaN
steht	NaN	NaN
.	NaN	NaN
M'r	NaN	NaN
ryebt	NaN	NaN
sich	NaN	NaN
numme	NaN	NaN
d'	NaN	NaN
Nerve	NaN	NaN
demit	NaN	NaN
uff	NaN	NaN
.	NaN	NaN
Ich	NaN	NaN
bin	NaN	NaN
ganz	NaN	NaN
dynere	NaN	NaN
Ansicht	NaN	NaN
,	NaN	NaN
Schorsch	NaN	NaN
,	NaN	NaN
awer	NaN	NaN
im	NaN	NaN
stille	NaN	NaN
interessiert	NaN	NaN
's	NaN	NaN
eine	NaN	NaN
doch	NaN	NaN
,	NaN	NaN
wie	NaN	NaN
anderi	NaN	NaN
denke	NaN	NaN
.	NaN	NaN
Michel	NaN	NaN
,	NaN	NaN
ich	NaN	NaN
bitt	NaN	NaN
dich	NaN	NaN
,	NaN	NaN
's	NaN	NaN
kann	NaN	NaN
awer	NaN	NaN
emool	NaN	NaN
g'fährlich	NaN	NaN
wäre	NaN	NaN
!	NaN	NaN
Iwerall	NaN	NaN
gitt	NaN	NaN
's	NaN	NaN
Lytt	NaN	NaN
,	NaN	NaN
wo	NaN	NaN
eine	NaN	NaN
fur	NaN	NaN
ihri	NaN	NaN
Partej	NaN	NaN
gewinne	NaN	NaN
welle	NaN	NaN
!	NaN	NaN
So	NaN	NaN
daub	NaN	NaN
bin	NaN	NaN
ich	NaN	NaN
nitt	NaN	NaN
!	NaN	NaN
Ich	NaN	NaN
habb	NaN	NaN
e	NaN	NaN
guete	NaN	NaN
Blick	NaN	NaN
unn	NaN	NaN
kann	NaN	NaN
's	NaN	NaN
Müll	NaN	NaN
halte	NaN	NaN
.	NaN	NaN
Uff	NaN	NaN
jede	NaN	NaN
Fall	NaN	NaN
bin	NaN	NaN
ich	NaN	NaN
mit	NaN	NaN
allem	NaN	NaN
zefridde	NaN	NaN
unn	NaN	NaN
winsch	NaN	NaN
mir	NaN	NaN
gar	NaN	NaN
kein	NaN	NaN
anderi	NaN	NaN
Verhältnisser	NaN	NaN
,	NaN	NaN
obwohl	NaN	NaN
jo	NaN	NaN
d'r	NaN	NaN
letscht	NaN	NaN
Kriej	NaN	NaN
in	NaN	NaN
unserer	NaN	NaN
Fawrik	NaN	NaN
ganz	NaN	NaN
guet	NaN	NaN
gemacht	NaN	NaN
hett	NaN	NaN
.	NaN	NaN
Waje	NaN	NaN
dem	NaN	NaN
denk	NaN	NaN
ich	NaN	NaN
au	NaN	NaN
alle	NaN	NaN
Daa	NaN	NaN
bym	NaN	NaN
Uffstehn	NaN	NaN
:	NaN	NaN
«	NaN	NaN
Was	NaN	NaN
ich	NaN	NaN
bin	NaN	NaN
und	NaN	NaN
was	NaN	NaN
ich	NaN	NaN
habe	NaN	NaN
,	NaN	NaN
dank'	NaN	NaN
ich	NaN	NaN
dir	NaN	NaN
,	NaN	NaN
mein	NaN	NaN
Vaterland	NaN	NaN
!	NaN	NaN
»	NaN	NaN
Gott	NaN	NaN
steh	NaN	NaN
m'r	NaN	NaN
by	NaN	NaN
!	NaN	NaN
Diss	NaN	NaN
iwerläw	NaN	NaN
ich	NaN	NaN
nitt	NaN	NaN
!	NaN	NaN
Schorsch	NaN	NaN
,	NaN	NaN
was	NaN	NaN
gitts	NaN	NaN
?	NaN	NaN
Was	NaN	NaN
hesch	NaN	NaN
de	NaN	NaN
denn	NaN	NaN
?	NaN	NaN
So	NaN	NaN
ebbs	NaN	NaN
isch	NaN	NaN
jo	NaN	NaN
nitt	NaN	NaN
mejlich	NaN	NaN
!	NaN	NaN
Draim	NaN	NaN
ich	NaN	NaN
denn	NaN	NaN
?	NaN	NaN
Nein	NaN	NaN
,	NaN	NaN
's	NaN	NaN
isch	NaN	NaN
Wohret	NaN	NaN
!	NaN	NaN
«	NaN	NaN
Treumeinender	NaN	NaN
Freund	NaN	NaN
—	NaN	NaN
in	NaN	NaN
politischer	NaN	NaN
Beziehung	NaN	NaN
verdächtigt	NaN	NaN
—	NaN	NaN
Haussuchung	NaN	NaN
!	NaN	NaN
»	NaN	NaN
Schorsch	NaN	NaN
!	NaN	NaN
Brueder	NaN	NaN
,	NaN	NaN
ich	NaN	NaN
stärb	NaN	NaN
am	NaN	NaN
lawendige	NaN	NaN
Lyeb	NaN	NaN
!	NaN	NaN
Ich	NaN	NaN
bin	NaN	NaN
wie	NaN	NaN
vor	NaN	NaN
's	NaN	NaN
Hirn	NaN	NaN
g'schlaawe	NaN	NaN
!	NaN	NaN
Mir	NaN	NaN
unn	NaN	NaN
politisch	NaN	NaN
verdächtig	NaN	NaN
?	NaN	NaN
Ehnder	NaN	NaN
fresst	NaN	NaN
's	NaN	NaN
Lamm	NaN	NaN
de	NaN	NaN
Wolf	NaN	NaN
!	NaN	NaN
Wer	NaN	NaN
kennt	NaN	NaN
uns	NaN	NaN
awer	NaN	NaN
numme	NaN	NaN
denunziert	NaN	NaN
hann	NaN	NaN
?	NaN	NaN
Mir	NaN	NaN
hann	NaN	NaN
jo	NaN	NaN
nix	NaN	NaN
als	NaN	NaN
wie	NaN	NaN
Frind	NaN	NaN
unn	NaN	NaN
kimmere	NaN	NaN
uns	NaN	NaN
numme	NaN	NaN
um	NaN	NaN
unser	NaN	NaN
G'schäft	NaN	NaN
!	NaN	NaN
Michel	NaN	NaN
,	NaN	NaN
m'r	NaN	NaN
kann	NaN	NaN
alles	NaN	NaN
erwarte	NaN	NaN
!	NaN	NaN
M'r	NaN	NaN
wurd	NaN	NaN
gar	NaN	NaN
oft	NaN	NaN
hyttzedaas	NaN	NaN
vun	NaN	NaN
Welf	NaN	NaN
iwerfalle	NaN	NaN
,	NaN	NaN
wo	NaN	NaN
im	NaN	NaN
Schoofsbelz	NaN	NaN
erumlaufe	NaN	NaN
.	NaN	NaN
Sogar	NaN	NaN
d'	NaN	NaN
Konkürrenz	NaN	NaN
kann	NaN	NaN
uns	NaN	NaN
boshafterwyes	NaN	NaN
denunziert	NaN	NaN
hann	NaN	NaN
;	NaN	NaN
au	NaN	NaN
e	NaN	NaN
furtg'schickter	NaN	NaN
Arweiter	NaN	NaN
kann	NaN	NaN
's	NaN	NaN
sin	NaN	NaN
.	NaN	NaN
Am	NaN	NaN
End	NaN	NaN
isch	NaN	NaN
's	NaN	NaN
gar	NaN	NaN
der	NaN	NaN
Burscht	NaN	NaN
,	NaN	NaN
wo	NaN	NaN
die	NaN	NaN
Däj	NaN	NaN
mit	NaN	NaN
mir	NaN	NaN
im	NaN	NaN
Tram	NaN	NaN
isch	NaN	NaN
g'fahre	NaN	NaN
?	NaN	NaN
Was	NaN	NaN
fur	NaN	NaN
e	NaN	NaN
Burscht	NaN	NaN
?	NaN	NaN
Do	NaN	NaN
hesch	NaN	NaN
dü	NaN	NaN
mir	NaN	NaN
jo	NaN	NaN
kein	NaN	NaN
Sterweswertel	NaN	NaN
devun	NaN	NaN
gebycht	NaN	NaN
.	NaN	NaN
Viellycht	NaN	NaN
wäre	NaN	NaN
mir	NaN	NaN
unser	NaN	NaN
Läwe	NaN	NaN
lang	NaN	NaN
unglicklich	NaN	NaN
gemacht	NaN	NaN
,	NaN	NaN
wyll	NaN	NaN
m'r	NaN	NaN
dich	NaN	NaN
mit	NaN	NaN
dem	NaN	NaN
Mensch	NaN	NaN
z'	NaN	NaN
samme	NaN	NaN
g'sähn	NaN	NaN
hett	NaN	NaN
!	NaN	NaN
Also	NaN	NaN
,	NaN	NaN
do	NaN	NaN
isch	NaN	NaN
e	NaN	NaN
Mann	NaN	NaN
im	NaN	NaN
e	NaN	NaN
blöje	NaN	NaN
Schurz	NaN	NaN
näwe	NaN	NaN
mir	NaN	NaN
g'sässe	NaN	NaN
unn	NaN	NaN
hett	NaN	NaN
mich	NaN	NaN
in	NaN	NaN
Gejewart	NaN	NaN
vun	NaN	NaN
alle	NaN	NaN
Fahrgäscht	NaN	NaN
angeredd	NaN	NaN
.	NaN	NaN
Was	NaN	NaN
hett'r	NaN	NaN
denn	NaN	NaN
g'saat	NaN	NaN
,	NaN	NaN
Michel	NaN	NaN
,	NaN	NaN
g'schwind	NaN	NaN
?	NaN	NaN
Was'r	NaN	NaN
g'saat	NaN	NaN
hett	NaN	NaN
,	NaN	NaN
Schorsch	NaN	NaN
?	NaN	NaN
O	NaN	NaN
,	NaN	NaN
er	NaN	NaN
hett	NaN	NaN
wytt	NaN	NaN
üssg'holt	NaN	NaN
!	NaN	NaN
Z'erscht	NaN	NaN
hetfr	NaN	NaN
vum	NaN	NaN
schlächte	NaN	NaN
Wätter	NaN	NaN
gebabbelt	NaN	NaN
no	NaN	NaN
vun	NaN	NaN
de	NaN	NaN
noch	NaN	NaN
schlächtere	NaN	NaN
Zytte	NaN	NaN
,	NaN	NaN
no	NaN	NaN
vum	NaN	NaN
Kriej	NaN	NaN
in	NaN	NaN
China	NaN	NaN
.	NaN	NaN
Unn	NaN	NaN
was	NaN	NaN
hesch	NaN	NaN
dü	NaN	NaN
g'saat	NaN	NaN
?	NaN	NaN
Ich	NaN	NaN
?	NaN	NaN
Nix	NaN	NaN
nadierlich	NaN	NaN
!	NaN	NaN
Awer	NaN	NaN
wie	NaN	NaN
lycht	NaN	NaN
hett	NaN	NaN
ebber	NaN	NaN
glauwe	NaN	NaN
kenne	NaN	NaN
,	NaN	NaN
ich	NaN	NaN
wär	NaN	NaN
mit	NaN	NaN
dem	NaN	NaN
Krakeeler	NaN	NaN
syne	NaN	NaN
Reddesarte	NaN	NaN
ynverstande	NaN	NaN
,	NaN	NaN
will	NaN	NaN
ich	NaN	NaN
nix	NaN	NaN
erwidert	NaN	NaN
habb	NaN	NaN
…	NaN	NaN
...	NaN	NaN
oder	NaN	NaN
dü	NaN	NaN
wärdsch	NaN	NaN
gar	NaN	NaN
e	NaN	NaN
Bekannter	NaN	NaN
vun	NaN	NaN
'm	NaN	NaN
,	NaN	NaN
un	NaN	NaN
hett	NaN	NaN
dich	NaN	NaN
no	NaN	NaN
by	NaN	NaN
d'r	NaN	NaN
Bolizej	NaN	NaN
angezejt	NaN	NaN
!	NaN	NaN
Do	NaN	NaN
sieht	NaN	NaN
m'r	NaN	NaN
widder	NaN	NaN
emool	NaN	NaN
,	NaN	NaN
wie	NaN	NaN
m'r	NaN	NaN
uff	NaN	NaN
ganz	NaN	NaN
unschuldigi	NaN	NaN
Wyes	NaN	NaN
in	NaN	NaN
d'	NaN	NaN
greeschte	NaN	NaN
Unannehmlichkeite	NaN	NaN
kann	NaN	NaN
kumme	NaN	NaN
.	NaN	NaN
Grosser	NaN	NaN
Gott	NaN	NaN
,	NaN	NaN
wenn	NaN	NaN
uns	NaN	NaN
die	NaN	NaN
Affär	NaN	NaN
numme	NaN	NaN
nitt	NaN	NaN
de	NaN	NaN
Hals	NaN	NaN
koschte	NaN	NaN
dhuet	NaN	NaN
!	NaN	NaN
's	NaN	NaN
wär	NaN	NaN
myner	NaN	NaN
Dood	NaN	NaN
!	NaN	NaN
Uff	NaN	NaN
jede	NaN	NaN
Fall	NaN	NaN
hann	NaN	NaN
mir	NaN	NaN
e	NaN	NaN
Frind	NaN	NaN
,	NaN	NaN
wo	NaN	NaN
's	NaN	NaN
guet	NaN	NaN
mit	NaN	NaN
uns	NaN	NaN
meint	NaN	NaN
unn	NaN	NaN
uns	NaN	NaN
bezytte	NaN	NaN
gewarnt	NaN	NaN
hett	NaN	NaN
,	NaN	NaN
unn	NaN	NaN
waje	NaN	NaN
dem	NaN	NaN
isch	NaN	NaN
's	NaN	NaN
rootsam	NaN	NaN
,	NaN	NaN
sich	NaN	NaN
uff	NaN	NaN
's	NaN	NaN
Uesserschte	NaN	NaN
g'fasst	NaN	NaN
ze	NaN	NaN
mache	NaN	NaN
,	NaN	NaN
egal	NaN	NaN
,	NaN	NaN
wie	NaN	NaN
's	NaN	NaN
no	NaN	NaN
au	NaN	NaN
kummt	NaN	NaN
.	NaN	NaN
Mir	NaN	NaN
miehn	NaN	NaN
alles	NaN	NaN
,	NaN	NaN
was	NaN	NaN
uns	NaN	NaN
uff	NaN	NaN
ierigs	NaN	NaN
e'n	NaN	NaN
Art	NaN	NaN
g'fährlich	NaN	NaN
kennt	NaN	NaN
wäre	NaN	NaN
,	NaN	NaN
üss	NaN	NaN
d'r	NaN	NaN
Welt	NaN	NaN
schaffe	NaN	NaN
unn	NaN	NaN
zwar	NaN	NaN
uff	NaN	NaN
d'r	NaN	NaN
G'stell	NaN	NaN
!	NaN	NaN
Awer	NaN	NaN
,	NaN	NaN
Schorsch	NaN	NaN
,	NaN	NaN
so	NaN	NaN
Dings	NaN	NaN
hann	NaN	NaN
mir	NaN	NaN
jo	NaN	NaN
gar	NaN	NaN
nitt	NaN	NaN
im	NaN	NaN
Hüss	NaN	NaN
!	NaN	NaN
Pardon	NaN	NaN
!	NaN	NaN
—	NaN	NaN
Vorsicht	NaN	NaN
isch	NaN	NaN
besser	NaN	NaN
als	NaN	NaN
wie	NaN	NaN
's	NaN	NaN
Nochsähn	NaN	NaN
!	NaN	NaN
Wie	NaN	NaN
steht	NaN	NaN
's	NaN	NaN
,	NaN	NaN
par	NaN	NaN
exemple	NaN	NaN
,	NaN	NaN
mit	NaN	NaN
de	NaN	NaN
Brief	NaN	NaN
,	NaN	NaN
wo	NaN	NaN
mir	NaN	NaN
im	NaN	NaN
Hüss	NaN	NaN
hann	NaN	NaN
?	NaN	NaN
Ich	NaN	NaN
wisst	NaN	NaN
nitt	NaN	NaN
,	NaN	NaN
ass	NaN	NaN
e	NaN	NaN
verfänglicher	NaN	NaN
drunter	NaN	NaN
isch	NaN	NaN
,	NaN	NaN
wo	NaN	NaN
m'r	NaN	NaN
uns	NaN	NaN
e	NaN	NaN
Strick	NaN	NaN
drüss	NaN	NaN
drähje	NaN	NaN
kennt	NaN	NaN
.	NaN	NaN
Michel	NaN	NaN
,	NaN	NaN
saa	NaN	NaN
diss	NaN	NaN
nitt	NaN	NaN
!	NaN	NaN
D'r	NaN	NaN
Rebespierre	NaN	NaN
,	NaN	NaN
par	NaN	NaN
exemple	NaN	NaN
,	NaN	NaN
hett	NaN	NaN
emool	NaN	NaN
g'saat	NaN	NaN
:	NaN	NaN
«	NaN	NaN
Gänn	NaN	NaN
mir	NaN	NaN
drej	NaN	NaN
x-beliewigi	NaN	NaN
Werter	NaN	NaN
,	NaN	NaN
wo	NaN	NaN
e	NaN	NaN
Mensch	NaN	NaN
g'schriewe	NaN	NaN
hett	NaN	NaN
,	NaN	NaN
unn	NaN	NaN
ich	NaN	NaN
bring'ne	NaN	NaN
uff	NaN	NaN
's	NaN	NaN
Schafott	NaN	NaN
!	NaN	NaN
»	NaN	NaN
Herrjeh	NaN	NaN
,	NaN	NaN
diss	NaN	NaN
isch	NaN	NaN
jo	NaN	NaN
allerhand	NaN	NaN
!	NaN	NaN
Do	NaN	NaN
heisst	NaN	NaN
's	NaN	NaN
allerdings	NaN	NaN
vorg'sorjt	NaN	NaN
!	NaN	NaN
Was	NaN	NaN
isch	NaN	NaN
diss	NaN	NaN
fur	NaN	NaN
e	NaN	NaN
Brief	NaN	NaN
?	NaN	NaN
Er	NaN	NaN
isch	NaN	NaN
vum	NaN	NaN
fiancé	NaN	NaN
vun	NaN	NaN
unserm	NaN	NaN
Schwöjerg'schwischtertanteenkelkind	NaN	NaN
!	NaN	NaN
Denne	NaN	NaN
kenne	NaN	NaN
mir	NaN	NaN
jo	NaN	NaN
noch	NaN	NaN
nitt	NaN	NaN
emool	NaN	NaN
perseenlich	NaN	NaN
!	NaN	NaN
Unn	NaN	NaN
was	NaN	NaN
isch'r	NaN	NaN
iwerhaupt	NaN	NaN
?	NaN	NaN
Schuelmeischter	NaN	NaN
,	NaN	NaN
glauw-ich	NaN	NaN
!	NaN	NaN
Um	NaN	NaN
's	NaN	NaN
Gott	NaN	NaN
's	NaN	NaN
Will	NaN	NaN
!	NaN	NaN
Diss	NaN	NaN
sinn	NaN	NaN
d'	NaN	NaN
g'fährlichschte	NaN	NaN
!	NaN	NaN
Die	NaN	NaN
sinn	NaN	NaN
's	NaN	NaN
jo	NaN	NaN
,	NaN	NaN
wo	NaN	NaN
in	NaN	NaN
de	NaN	NaN
Kinder	NaN	NaN
's	NaN	NaN
Schryewe	NaN	NaN
bybringe	NaN	NaN
,	NaN	NaN
so	NaN	NaN
ass	NaN	NaN
s'	NaN	NaN
e	NaN	NaN
no	NaN	NaN
,	NaN	NaN
wenn	NaN	NaN
s'	NaN	NaN
e	NaN	NaN
gross	NaN	NaN
sinn	NaN	NaN
,	NaN	NaN
Brandartikel	NaN	NaN
geje	NaN	NaN
d'	NaN	NaN
Re	NaN	NaN
-	NaN	NaN
jierung	NaN	NaN
schryewe	NaN	NaN
kenne	NaN	NaN
!	NaN	NaN
Ich	NaN	NaN
bitt	NaN	NaN
dich	NaN	NaN
,	NaN	NaN
ich	NaN	NaN
bitt	NaN	NaN
dich	NaN	NaN
,	NaN	NaN
verryss	NaN	NaN
denne	NaN	NaN
Brief	NaN	NaN
unn	NaN	NaN
werf'ne	NaN	NaN
dort	NaN	NaN
in	NaN	NaN
de	NaN	NaN
Babierkorb	NaN	NaN
mitzamt	NaN	NaN
denne	NaN	NaN
Zyttunge	NaN	NaN
do	NaN	NaN
!	NaN	NaN
Nochher	NaN	NaN
verbrenne	NaN	NaN
mir	NaN	NaN
alles	NaN	NaN
,	NaN	NaN
was	NaN	NaN
uns	NaN	NaN
g'fährlich	NaN	NaN
kennt	NaN	NaN
wäre	NaN	NaN
.	NaN	NaN
Dü	NaN	NaN
hesch	NaN	NaN
,	NaN	NaN
ma	NaN	NaN
foi	NaN	NaN
,	NaN	NaN
rächt	NaN	NaN
,	NaN	NaN
Georges	NaN	NaN
!	NaN	NaN
Im	NaN	NaN
Photographie-Album	NaN	NaN
miehn	NaN	NaN
mir	NaN	NaN
nadierlich	NaN	NaN
au	NaN	NaN
noochlueje	NaN	NaN
!	NaN	NaN
Wer	NaN	NaN
isch	NaN	NaN
denn	NaN	NaN
diss	NaN	NaN
?	NaN	NaN
Wie	NaN	NaN
isch	NaN	NaN
denn	NaN	NaN
diss	NaN	NaN
Bild	NaN	NaN
do	NaN	NaN
nyngeroote	NaN	NaN
,	NaN	NaN
Michel	NaN	NaN
?	NaN	NaN
Diss	NaN	NaN
isch	NaN	NaN
e	NaN	NaN
Frynd	NaN	NaN
vun	NaN	NaN
mir	NaN	NaN
,	NaN	NaN
wo	NaN	NaN
vor	NaN	NaN
'm	NaN	NaN
Kriej	NaN	NaN
G'freiter	NaN	NaN
by	NaN	NaN
de	NaN	NaN
143er	NaN	NaN
hie	NaN	NaN
isch	NaN	NaN
g'sinn	NaN	NaN
.	NaN	NaN
Also	NaN	NaN
e	NaN	NaN
Schwoob	NaN	NaN
!	NaN	NaN
Am	NaN	NaN
End	NaN	NaN
hett'r	NaN	NaN
im	NaN	NaN
Kriej	NaN	NaN
gar	NaN	NaN
e	NaN	NaN
Schlacht	NaN	NaN
gewunne	NaN	NaN
!	NaN	NaN
Als	NaN	NaN
furt	NaN	NaN
mit	NaN	NaN
!	NaN	NaN
Unn	NaN	NaN
wer	NaN	NaN
isch	NaN	NaN
diss	NaN	NaN
?	NaN	NaN
Ich	NaN	NaN
glabb	NaN	NaN
,	NaN	NaN
's	NaN	NaN
stellt	NaN	NaN
de	NaN	NaN
Trotzki	NaN	NaN
vor	NaN	NaN
.	NaN	NaN
Herrjeh	NaN	NaN
!	NaN	NaN
G'schwind	NaN	NaN
,	NaN	NaN
g'schwind	NaN	NaN
in	NaN	NaN
de	NaN	NaN
Babierkorb	NaN	NaN
mit	NaN	NaN
.	NaN	NaN
Wenn'ne	NaN	NaN
de	NaN	NaN
Rüsse	NaN	NaN
au	NaN	NaN
noch	NaN	NaN
Sibirie	NaN	NaN
g'spediert	NaN	NaN
hann	NaN	NaN
,	NaN	NaN
ze	NaN	NaN
isch	NaN	NaN
diss	NaN	NaN
noch	NaN	NaN
lang	NaN	NaN
kein	NaN	NaN
Grund	NaN	NaN
,	NaN	NaN
ass	NaN	NaN
mich	NaN	NaN
d'	NaN	NaN
Franzose	NaN	NaN
uff	NaN	NaN
Cayenne	NaN	NaN
schicke	NaN	NaN
!	NaN	NaN
—	NaN	NaN
Unn	NaN	NaN
do	NaN	NaN
,	NaN	NaN
ich	NaN	NaN
glabb	NaN	NaN
gar	NaN	NaN
,	NaN	NaN
diss	NaN	NaN
isch	NaN	NaN
's	NaN	NaN
Porträt	NaN	NaN
vun	NaN	NaN
unsere	NaN	NaN
friehjere	NaN	NaN
Hüsshältere	NaN	NaN
üss	NaN	NaN
Pose	NaN	NaN
!	NaN	NaN
Diss	NaN	NaN
Bild	NaN	NaN
isch	NaN	NaN
doch	NaN	NaN
gewiss	NaN	NaN
harmlos	NaN	NaN
!	NaN	NaN
Was	NaN	NaN
?	NaN	NaN
Harmlos	NaN	NaN
?	NaN	NaN
Bedenk	NaN	NaN
,	NaN	NaN
d'r	NaN	NaN
Hindeburj	NaN	NaN
isch	NaN	NaN
jo	NaN	NaN
au	NaN	NaN
üss	NaN	NaN
Pose	NaN	NaN
!	NaN	NaN
Nein	NaN	NaN
,	NaN	NaN
so	NaN	NaN
ebbs	NaN	NaN
!	NaN	NaN
Diss	NaN	NaN
Photographie-Album	NaN	NaN
do	NaN	NaN
isch	NaN	NaN
jo	NaN	NaN
's	NaN	NaN
reinscht	NaN	NaN
Verbrecher-Album	NaN	NaN
!	NaN	NaN
's	NaN	NaN
bescht	NaN	NaN
wurd	NaN	NaN
sinn	NaN	NaN
,	NaN	NaN
ich	NaN	NaN
wärf	NaN	NaN
's	NaN	NaN
ganz	NaN	NaN
furt	NaN	NaN
!	NaN	NaN
Do	NaN	NaN
kennt	NaN	NaN
eim	NaN	NaN
jo	NaN	NaN
sogar	NaN	NaN
e	NaN	NaN
Photographie	NaN	NaN
vum	NaN	NaN
ewige	NaN	NaN
Judd	NaN	NaN
oder	NaN	NaN
vum	NaN	NaN
Adam	NaN	NaN
unn	NaN	NaN
Eva	NaN	NaN
g'fährlich	NaN	NaN
wäre	NaN	NaN
!	NaN	NaN
Ah	NaN	NaN
,	NaN	NaN
guet	NaN	NaN
,	NaN	NaN
ass	NaN	NaN
ich	NaN	NaN
dran	NaN	NaN
denk	NaN	NaN
!	NaN	NaN
Ich	NaN	NaN
habb	NaN	NaN
denne	NaN	NaN
Morje	NaN	NaN
üss	NaN	NaN
d'r	NaN	NaN
Nas	NaN	NaN
gebluete	NaN	NaN
unn	NaN	NaN
…	NaN	NaN
...	NaN	NaN
dyn	NaN	NaN
Nasdiechel	NaN	NaN
bluetig	NaN	NaN
gemacht	NaN	NaN
!	NaN	NaN
Allmächtiger	NaN	NaN
,	NaN	NaN
als	NaN	NaN
furt	NaN	NaN
mit	NaN	NaN
Bluet	NaN	NaN
!	NaN	NaN
Was	NaN	NaN
kamm'r	NaN	NaN
sich	NaN	NaN
nitt	NaN	NaN
alles	NaN	NaN
deby	NaN	NaN
denke	NaN	NaN
!	NaN	NaN
's	NaN	NaN
Schrecklichschte	NaN	NaN
losst	NaN	NaN
sich	NaN	NaN
do	NaN	NaN
gar	NaN	NaN
nitt	NaN	NaN
üssmoole	NaN	NaN
!	NaN	NaN
—	NaN	NaN
Awer	NaN	NaN
was	NaN	NaN
sieh	NaN	NaN
ich	NaN	NaN
denn	NaN	NaN
do	NaN	NaN
!	NaN	NaN
Unseri	NaN	NaN
Dischdeck	NaN	NaN
isch	NaN	NaN
jo	NaN	NaN
knallrot	NaN	NaN
!	NaN	NaN
Richtig	NaN	NaN
,	NaN	NaN
diss	NaN	NaN
isch	NaN	NaN
e	NaN	NaN
revolütionäri	NaN	NaN
Farb	NaN	NaN
!	NaN	NaN
Also	NaN	NaN
als	NaN	NaN
ab	NaN	NaN
ins	NaN	NaN
Krematorium	NaN	NaN
mit	NaN	NaN
dere	NaN	NaN
Deck	NaN	NaN
!	NaN	NaN
Unn	NaN	NaN
die	NaN	NaN
Wandühr	NaN	NaN
do	NaN	NaN
müess	NaN	NaN
au	NaN	NaN
verschwinde	NaN	NaN
!	NaN	NaN
's	NaN	NaN
isch	NaN	NaN
jo	NaN	NaN
e	NaN	NaN
Schwarzwälderühr	NaN	NaN
!	NaN	NaN
Was	NaN	NaN
isch	NaN	NaN
do	NaN	NaN
mit	NaN	NaN
dere	NaN	NaN
Figür	NaN	NaN
,	NaN	NaN
wo	NaN	NaN
dü	NaN	NaN
vor	NaN	NaN
'm	NaN	NaN
Kriej	NaN	NaN
im	NaN	NaN
Kejelklub	NaN	NaN
gewunne	NaN	NaN
hesch	NaN	NaN
?	NaN	NaN
Was	NaN	NaN
steht	NaN	NaN
denn	NaN	NaN
unte	NaN	NaN
?	NaN	NaN
«	NaN	NaN
Dem	NaN	NaN
wackern	NaN	NaN
Kegelschieber	NaN	NaN
Georges	NaN	NaN
Frosch	NaN	NaN
vom	NaN	NaN
Kegelklub	NaN	NaN
«	NaN	NaN
Alleweil	NaN	NaN
gut	NaN	NaN
Holz	NaN	NaN
»	NaN	NaN
!	NaN	NaN
»	NaN	NaN
Grosser	NaN	NaN
Gott	NaN	NaN
,	NaN	NaN
diss	NaN	NaN
isch	NaN	NaN
jo	NaN	NaN
myn	NaN	NaN
weritawels	NaN	NaN
Doodesurdeil	NaN	NaN
!	NaN	NaN
Ab	NaN	NaN
mit	NaN	NaN
uff	NaN	NaN
Nimmerwiddersähn	NaN	NaN
!	NaN	NaN
Wie	NaN	NaN
steht	NaN	NaN
's	NaN	NaN
mit	NaN	NaN
dem	NaN	NaN
Bild	NaN	NaN
do	NaN	NaN
vum	NaN	NaN
Louis	NaN	NaN
quatorze	NaN	NaN
?	NaN	NaN
Guet	NaN	NaN
,	NaN	NaN
ass	NaN	NaN
de	NaN	NaN
mich	NaN	NaN
dran	NaN	NaN
gemahnsch	NaN	NaN
!	NaN	NaN
Au	NaN	NaN
diss	NaN	NaN
muess	NaN	NaN
g'opfert	NaN	NaN
wäre	NaN	NaN
;	NaN	NaN
m'r	NaN	NaN
kennt	NaN	NaN
jo	NaN	NaN
schunscht	NaN	NaN
annemme	NaN	NaN
,	NaN	NaN
mir	NaN	NaN
halte	NaN	NaN
's	NaN	NaN
mit	NaN	NaN
de	NaN	NaN
Royalischte	NaN	NaN
!	NaN	NaN
Hm	NaN	NaN
,	NaN	NaN
unn	NaN	NaN
die	NaN	NaN
Dafel	NaN	NaN
do	NaN	NaN
stellt	NaN	NaN
d'	NaN	NaN
Frejheitsstatüt	NaN	NaN
im	NaN	NaN
Hafe	NaN	NaN
vun	NaN	NaN
New-York	NaN	NaN
vor	NaN	NaN
!	NaN	NaN
Die	NaN	NaN
kamm'r	NaN	NaN
,	NaN	NaN
glauw	NaN	NaN
ich	NaN	NaN
,	NaN	NaN
lonn	NaN	NaN
?	NaN	NaN
Michel	NaN	NaN
,	NaN	NaN
hesch	NaN	NaN
dü	NaN	NaN
e	NaN	NaN
Ahnung	NaN	NaN
!	NaN	NaN
Bedenk	NaN	NaN
:	NaN	NaN
Frejheit	NaN	NaN
!	NaN	NaN
Kennt	NaN	NaN
m'r	NaN	NaN
do	NaN	NaN
nitt	NaN	NaN
drüss	NaN	NaN
schliesse	NaN	NaN
,	NaN	NaN
ass	NaN	NaN
mir	NaN	NaN
mit	NaN	NaN
unserm	NaN	NaN
Los	NaN	NaN
unzefridde	NaN	NaN
und	NaN	NaN
frej	NaN	NaN
welle	NaN	NaN
sinn	NaN	NaN
!	NaN	NaN
Ab	NaN	NaN
mit	NaN	NaN
Schade	NaN	NaN
!	NaN	NaN
Unn	NaN	NaN
die	NaN	NaN
Umhängle	NaN	NaN
do	NaN	NaN
?	NaN	NaN
Die	NaN	NaN
sinn	NaN	NaN
jo	NaN	NaN
au	NaN	NaN
rot	NaN	NaN
!	NaN	NaN
D'	NaN	NaN
scheenschte	NaN	NaN
Raiwer-G'schichte	NaN	NaN
kennt	NaN	NaN
m'r	NaN	NaN
drüss	NaN	NaN
z'	NaN	NaN
samme	NaN	NaN
dichte	NaN	NaN
!	NaN	NaN
M'r	NaN	NaN
kennt	NaN	NaN
denke	NaN	NaN
,	NaN	NaN
mir	NaN	NaN
wotte	NaN	NaN
im	NaN	NaN
rächte	NaN	NaN
Moment	NaN	NaN
revolütionäri	NaN	NaN
Fähne	NaN	NaN
drüss	NaN	NaN
mache	NaN	NaN
!	NaN	NaN
Die	NaN	NaN
miehn	NaN	NaN
verschwinde	NaN	NaN
!	NaN	NaN
Diss	NaN	NaN
Sackmesser	NaN	NaN
do	NaN	NaN
will	NaN	NaN
ich	NaN	NaN
uff	NaN	NaN
alli	NaN	NaN
Fäll	NaN	NaN
au	NaN	NaN
verschmerze	NaN	NaN
.	NaN	NaN
Jetzt	NaN	NaN
simm'r	NaN	NaN
nooch	NaN	NaN
minere	NaN	NaN
Ansicht	NaN	NaN
politisch	NaN	NaN
züverlässig	NaN	NaN
!	NaN	NaN
Bis	NaN	NaN
uff	NaN	NaN
diss	NaN	NaN
Dings	NaN	NaN
do	NaN	NaN
,	NaN	NaN
wo	NaN	NaN
uff	NaN	NaN
d'r	NaN	NaN
G'stell	NaN	NaN
verschwinde	NaN	NaN
muess	NaN	NaN
!	NaN	NaN
Was	NaN	NaN
lycht	NaN	NaN
verbrennbar	NaN	NaN
isch	NaN	NaN
,	NaN	NaN
verbrenn	NaN	NaN
ich	NaN	NaN
jetzt	NaN	NaN
in	NaN	NaN
d'r	NaN	NaN
Kiche	NaN	NaN
,	NaN	NaN
un	NaN	NaN
dü	NaN	NaN
packsch	NaN	NaN
d'	NaN	NaN
andere	NaN	NaN
Sache	NaN	NaN
z'	NaN	NaN
samme	NaN	NaN
uınn	NaN	NaN
wärfsch	NaN	NaN
s'	NaN	NaN
e	NaN	NaN
in	NaN	NaN
de	NaN	NaN
Kanal	NaN	NaN
!	NaN	NaN
No	NaN	NaN
kann	NaN	NaN
vun	NaN	NaN
mir	NaN	NaN
üss	NaN	NaN
d'	NaN	NaN
Bolizej	NaN	NaN
hüssüeche	NaN	NaN
,	NaN	NaN
so	NaN	NaN
lang	NaN	NaN
ass	NaN	NaN
s'	NaN	NaN
e	NaN	NaN
Luscht	NaN	NaN
hett	NaN	NaN
!	NaN	NaN
Dü	NaN	NaN
,	NaN	NaN
Georges	NaN	NaN
,	NaN	NaN
diss	NaN	NaN
isch	NaN	NaN
e	NaN	NaN
g'fährlichi	NaN	NaN
Sach	NaN	NaN
!	NaN	NaN
Am	NaN	NaN
End	NaN	NaN
dhuet	NaN	NaN
m'r	NaN	NaN
uns	NaN	NaN
jetzt	NaN	NaN
schun	NaN	NaN
iwerwache	NaN	NaN
,	NaN	NaN
unn	NaN	NaN
wenn	NaN	NaN
m'r	NaN	NaN
mich	NaN	NaN
mit	NaN	NaN
dem	NaN	NaN
Dings	NaN	NaN
do	NaN	NaN
verwitscht	NaN	NaN
,	NaN	NaN
ze	NaN	NaN
simm'r	NaN	NaN
erscht	NaN	NaN
rächt	NaN	NaN
geliffert	NaN	NaN
!	NaN	NaN
Ei	NaN	NaN
,	NaN	NaN
dü	NaN	NaN
muesch	NaN	NaN
's	NaN	NaN
halt	NaN	NaN
schlöj	NaN	NaN
anfange	NaN	NaN
,	NaN	NaN
Michel	NaN	NaN
.	NaN	NaN
Dü	NaN	NaN
bisch	NaN	NaN
doch	NaN	NaN
schunscht	NaN	NaN
nitt	NaN	NaN
grad	NaN	NaN
uff	NaN	NaN
de	NaN	NaN
Kopf	NaN	NaN
g'falle	NaN	NaN
!	NaN	NaN
E	NaN	NaN
kaiwe	NaN	NaN
Affär	NaN	NaN
diss	NaN	NaN
!	NaN	NaN
Was	NaN	NaN
fang	NaN	NaN
ich	NaN	NaN
numme	NaN	NaN
an	NaN	NaN
,	NaN	NaN
ass	NaN	NaN
mich	NaN	NaN
niemes	NaN	NaN
sieht	NaN	NaN
,	NaN	NaN
wenn	NaN	NaN
ich	NaN	NaN
an	NaN	NaN
de	NaN	NaN
Kanal	NaN	NaN
geh	NaN	NaN
?	NaN	NaN
Ich	NaN	NaN
kumm'r	NaN	NaN
grad	NaN	NaN
vor	NaN	NaN
wie	NaN	NaN
einer	NaN	NaN
,	NaN	NaN
wo	NaN	NaN
e	NaN	NaN
Verbreche	NaN	NaN
begehn	NaN	NaN
will	NaN	NaN
!	NaN	NaN
Halt	NaN	NaN
,	NaN	NaN
do	NaN	NaN
kummt	NaN	NaN
mir	NaN	NaN
e	NaN	NaN
Gedanke	NaN	NaN
vum	NaN	NaN
Schiller	NaN	NaN
üss	NaN	NaN
d'r	NaN	NaN
Krütenau	NaN	NaN
:	NaN	NaN
Ich	NaN	NaN
verkleid	NaN	NaN
mich	NaN	NaN
,	NaN	NaN
unn	NaN	NaN
zwar	NaN	NaN
zej	NaN	NaN
ich	NaN	NaN
d'	NaN	NaN
Kleider	NaN	NaN
vun	NaN	NaN
unsere	NaN	NaN
Hüsshältere	NaN	NaN
an	NaN	NaN
,	NaN	NaN
no	NaN	NaN
kennt	NaN	NaN
mich	NaN	NaN
kein	NaN	NaN
Mensch	NaN	NaN
!	NaN	NaN
Ich	NaN	NaN
sieh	NaN	NaN
no	NaN	NaN
grad	NaN	NaN
dryn	NaN	NaN
wie	NaN	NaN
e	NaN	NaN
Frau	NaN	NaN
,	NaN	NaN
wo	NaN	NaN
uff	NaN	NaN
's	NaN	NaN
Versatzhüs	NaN	NaN
geht	NaN	NaN
!	NaN	NaN
Ich	NaN	NaN
bin	NaN	NaN
iwerglicklich	NaN	NaN
—	NaN	NaN
ich	NaN	NaN
habb	NaN	NaN
's	NaN	NaN
Yvonne	NaN	NaN
uff	NaN	NaN
d'r	NaN	NaN
Promenad	NaN	NaN
g'sähn	NaN	NaN
!	NaN	NaN
Wie	NaN	NaN
sieht	NaN	NaN
's	NaN	NaN
awer	NaN	NaN
denn	NaN	NaN
do	NaN	NaN
üss	NaN	NaN
?	NaN	NaN
Wie	NaN	NaN
wenn	NaN	NaN
,	NaN	NaN
d'	NaN	NaN
Raiwer	NaN	NaN
do	NaN	NaN
hinne	NaN	NaN
gewiet	NaN	NaN
unn	NaN	NaN
geplindert	NaN	NaN
hätte	NaN	NaN
!	NaN	NaN
Oder	NaN	NaN
wie	NaN	NaN
e	NaN	NaN
Wald	NaN	NaN
im	NaN	NaN
Dezember	NaN	NaN
!	NaN	NaN
Was	NaN	NaN
soll	NaN	NaN
diss	NaN	NaN
bedytte	NaN	NaN
?	NaN	NaN
—	NaN	NaN
Ah	NaN	NaN
,	NaN	NaN
mir	NaN	NaN
geht	NaN	NaN
e	NaN	NaN
Licht	NaN	NaN
uff	NaN	NaN
!	NaN	NaN
Do	NaN	NaN
isch	NaN	NaN
gewiss	NaN	NaN
myner	NaN	NaN
Brief	NaN	NaN
dran	NaN	NaN
d'	NaN	NaN
Schuld	NaN	NaN
!	NaN	NaN
Die	NaN	NaN
zwei	NaN	NaN
alte	NaN	NaN
Herre	NaN	NaN
sinn	NaN	NaN
ihr	NaN	NaN
Läwe	NaN	NaN
nimmi	NaN	NaN
sicher	NaN	NaN
unn	NaN	NaN
hann	NaN	NaN
«	NaN	NaN
alle	NaN	NaN
Spuren	NaN	NaN
verwischt	NaN	NaN
»	NaN	NaN
,	NaN	NaN
wie	NaN	NaN
's	NaN	NaN
als	NaN	NaN
in	NaN	NaN
de	NaN	NaN
Detektiv-Romane	NaN	NaN
heisst	NaN	NaN
!	NaN	NaN
Na	NaN	NaN
,	NaN	NaN
d'	NaN	NaN
Hauptsach	NaN	NaN
isch	NaN	NaN
,	NaN	NaN
wenn	NaN	NaN
se	NaN	NaN
mir	NaN	NaN
in	NaN	NaN
Zuekunft	NaN	NaN
myni	NaN	NaN
Ruehj	NaN	NaN
lonn	NaN	NaN
!	NaN	NaN
's	NaN	NaN
hett	NaN	NaN
geklopft	NaN	NaN
!	NaN	NaN
Wer	NaN	NaN
kann	NaN	NaN
diss	NaN	NaN
sinn	NaN	NaN
?	NaN	NaN
Entrez	NaN	NaN
!	NaN	NaN
Pardon	NaN	NaN
,	NaN	NaN
Monsieur	NaN	NaN
,	NaN	NaN
myn	NaN	NaN
Name	NaN	NaN
isch	NaN	NaN
Burjer	NaN	NaN
,	NaN	NaN
unn	NaN	NaN
ich	NaN	NaN
bin	NaN	NaN
e	NaN	NaN
ami	NaN	NaN
vum	NaN	NaN
Monsieur	NaN	NaN
Michel	NaN	NaN
Frosch	NaN	NaN
!	NaN	NaN
Dü	NaN	NaN
liewer	NaN	NaN
Strohsack	NaN	NaN
,	NaN	NaN
dem	NaN	NaN
syni	NaN	NaN
Dochter	NaN	NaN
soll	NaN	NaN
ich	NaN	NaN
jo	NaN	NaN
hyroote	NaN	NaN
!	NaN	NaN
i	NaN	NaN
Unn	NaN	NaN
ich	NaN	NaN
bin	NaN	NaN
kumme	NaN	NaN
,	NaN	NaN
fur	NaN	NaN
d'	NaN	NaN
Bekanntschaft	NaN	NaN
vun	NaN	NaN
sym	NaN	NaN
Bruder	NaN	NaN
Georges	NaN	NaN
unn	NaN	NaN
sym	NaN	NaN
Neveu	NaN	NaN
Robert	NaN	NaN
ze	NaN	NaN
mache	NaN	NaN
.	NaN	NaN
Ich	NaN	NaN
nemm	NaN	NaN
an	NaN	NaN
,	NaN	NaN
ass	NaN	NaN
Sie	NaN	NaN
d'r	NaN	NaN
Neveu	NaN	NaN
sinn	NaN	NaN
?	NaN	NaN
Jetzt	NaN	NaN
odder	NaN	NaN
nie	NaN	NaN
!	NaN	NaN
Ich	NaN	NaN
will	NaN	NaN
dem	NaN	NaN
Monsieur	NaN	NaN
Burjer	NaN	NaN
e	NaN	NaN
Denkzettel	NaN	NaN
gänn	NaN	NaN
,	NaN	NaN
ass'r	NaN	NaN
sich	NaN	NaN
hiete	NaN	NaN
wurd	NaN	NaN
,	NaN	NaN
mir	NaN	NaN
syni	NaN	NaN
Dochter	NaN	NaN
anzevertröje	NaN	NaN
!	NaN	NaN
:	NaN	NaN
Sie	NaN	NaN
drumpiere	NaN	NaN
sich	NaN	NaN
,	NaN	NaN
Monsieur	NaN	NaN
Burjer	NaN	NaN
!	NaN	NaN
Myn	NaN	NaN
Name	NaN	NaN
isch	NaN	NaN
…	NaN	NaN
isch	NaN	NaN
,	NaN	NaN
ja	NaN	NaN
,	NaN	NaN
isch	NaN	NaN
Meier	NaN	NaN
mit	NaN	NaN
'e-me	NaN	NaN
weiche	NaN	NaN
Ei	NaN	NaN
!	NaN	NaN
Ich	NaN	NaN
bin	NaN	NaN
numme	NaN	NaN
e	NaN	NaN
Bekannter	NaN	NaN
vun	NaN	NaN
de	NaN	NaN
Gebrieder	NaN	NaN
Frosch	NaN	NaN
!	NaN	NaN
Diss	NaN	NaN
ändert	NaN	NaN
's	NaN	NaN
Bild	NaN	NaN
!	NaN	NaN
:	NaN	NaN
Do	NaN	NaN
hinne	NaN	NaN
sieht	NaN	NaN
's	NaN	NaN
nitt	NaN	NaN
grad	NaN	NaN
arich	NaN	NaN
nooch	NaN	NaN
Millione	NaN	NaN
üss	NaN	NaN
!	NaN	NaN
Awer	NaN	NaN
durch	NaN	NaN
fremdi	NaN	NaN
Lytt	NaN	NaN
erfahrt	NaN	NaN
m'r	NaN	NaN
als	NaN	NaN
am	NaN	NaN
beschte	NaN	NaN
,	NaN	NaN
wie	NaN	NaN
's	NaN	NaN
um	NaN	NaN
anderi	NaN	NaN
b'stellt	NaN	NaN
isch	NaN	NaN
!	NaN	NaN
Awer	NaN	NaN
Sie	NaN	NaN
kenne	NaN	NaN
doch	NaN	NaN
gewiss	NaN	NaN
de	NaN	NaN
Monsieur	NaN	NaN
Robert	NaN	NaN
?	NaN	NaN
Ich	NaN	NaN
will	NaN	NaN
's	NaN	NaN
meine	NaN	NaN
!	NaN	NaN
Diss	NaN	NaN
isch	NaN	NaN
mir	NaN	NaN
noch	NaN	NaN
einer	NaN	NaN
…	NaN	NaN
na	NaN	NaN
,	NaN	NaN
ich	NaN	NaN
will	NaN	NaN
nix	NaN	NaN
g'saat	NaN	NaN
hann	NaN	NaN
!	NaN	NaN
Im	NaN	NaN
Gejedeil	NaN	NaN
,	NaN	NaN
Sie	NaN	NaN
dhäte	NaN	NaN
mir	NaN	NaN
e	NaN	NaN
grosse	NaN	NaN
G'falle	NaN	NaN
mache	NaN	NaN
,	NaN	NaN
wenn	NaN	NaN
Sie	NaN	NaN
mich	NaN	NaN
iwer	NaN	NaN
syni	NaN	NaN
Perseenlichkeit	NaN	NaN
e	NaN	NaN
bissel	NaN	NaN
uffkläre	NaN	NaN
dhäte	NaN	NaN
.	NaN	NaN
's	NaN	NaN
steht	NaN	NaN
nämlich	NaN	NaN
fur	NaN	NaN
mich	NaN	NaN
ebbs	NaN	NaN
uff	NaN	NaN
'm	NaN	NaN
Spiel	NaN	NaN
,	NaN	NaN
wo	NaN	NaN
myne	NaN	NaN
Geldsack	NaN	NaN
angeht	NaN	NaN
,	NaN	NaN
unn	NaN	NaN
waje	NaN	NaN
dem	NaN	NaN
soll	NaN	NaN
's	NaN	NaN
mir	NaN	NaN
nitt	NaN	NaN
uff	NaN	NaN
döjsig	NaN	NaN
Fränkle	NaN	NaN
ankumme	NaN	NaN
,	NaN	NaN
wenn	NaN	NaN
Sie	NaN	NaN
mich	NaN	NaN
e	NaN	NaN
bissel	NaN	NaN
renseigniere	NaN	NaN
wolte	NaN	NaN
.	NaN	NaN
Geld	NaN	NaN
kann	NaN	NaN
ich	NaN	NaN
allewyll	NaN	NaN
gebrüche	NaN	NaN
!	NaN	NaN
:	NaN	NaN
Monsieur	NaN	NaN
Burjer	NaN	NaN
,	NaN	NaN
mit	NaN	NaN
so	NaN	NaN
'me	NaN	NaN
Schlissel	NaN	NaN
därfe	NaN	NaN
Sie	NaN	NaN
myn	NaN	NaN
Müll	NaN	NaN
noch	NaN	NaN
e	NaN	NaN
paar	NaN	NaN
Mool	NaN	NaN
uffschliesse	NaN	NaN
!	NaN	NaN
Also	NaN	NaN
horiche	NaN	NaN
Sie	NaN	NaN
,	NaN	NaN
was	NaN	NaN
ich	NaN	NaN
Ihne	NaN	NaN
im	NaN	NaN
Vertröje	NaN	NaN
verroot	NaN	NaN
:	NaN	NaN
D'r	NaN	NaN
Robert	NaN	NaN
hett	NaN	NaN
vorerscht	NaN	NaN
emool	NaN	NaN
e	NaN	NaN
G'sicht	NaN	NaN
,	NaN	NaN
wo	NaN	NaN
uff	NaN	NaN
jede	NaN	NaN
Steckbrief	NaN	NaN
basst	NaN	NaN
,	NaN	NaN
unn	NaN	NaN
wer	NaN	NaN
'm	NaN	NaN
z'	NaN	NaN
nachts	NaN	NaN
am	NaN	NaN
zwelfe	NaN	NaN
uff-e-me	NaN	NaN
Kryzwäj	NaN	NaN
am	NaN	NaN
e	NaN	NaN
Gottsacker	NaN	NaN
in	NaN	NaN
de	NaN	NaN
Wäj	NaN	NaN
lauft	NaN	NaN
,	NaN	NaN
der	NaN	NaN
stärbt	NaN	NaN
nitt	NaN	NaN
im	NaN	NaN
Bett	NaN	NaN
!	NaN	NaN
Isch	NaN	NaN
's	NaN	NaN
mejlich	NaN	NaN
!	NaN	NaN
Unn	NaN	NaN
syni	NaN	NaN
Nas	NaN	NaN
glänzt	NaN	NaN
vum	NaN	NaN
viele	NaN	NaN
Süffe	NaN	NaN
so	NaN	NaN
rot	NaN	NaN
,	NaN	NaN
ass'r	NaN	NaN
z'	NaN	NaN
nachts	NaN	NaN
nitt	NaN	NaN
ynschloofe	NaN	NaN
kann	NaN	NaN
.	NaN	NaN
Unn	NaN	NaN
füll	NaN	NaN
isch'r	NaN	NaN
,	NaN	NaN
ass'r	NaN	NaN
sogar	NaN	NaN
ze	NaN	NaN
füll	NaN	NaN
isch	NaN	NaN
,	NaN	NaN
fur	NaN	NaN
d'	NaN	NaN
Umdrähjung	NaN	NaN
vun	NaN	NaN
d'r	NaN	NaN
Erd	NaN	NaN
mitzemache	NaN	NaN
!	NaN	NaN
Was	NaN	NaN
Sie	NaN	NaN
nitt	NaN	NaN
saawe	NaN	NaN
!	NaN	NaN
Diss	NaN	NaN
isch	NaN	NaN
jo	NaN	NaN
allerhand	NaN	NaN
!	NaN	NaN
Unn	NaN	NaN
um	NaN	NaN
e	NaN	NaN
Härel	NaN	NaN
wär'r	NaN	NaN
waje	NaN	NaN
Unterschlaawung	NaN	NaN
vun	NaN	NaN
20	NaN	NaN
000	NaN	NaN
Franke	NaN	NaN
yng'spunne	NaN	NaN
worre	NaN	NaN
,	NaN	NaN
awer	NaN	NaN
syni	NaN	NaN
zwei	NaN	NaN
Unkel	NaN	NaN
hann	NaN	NaN
diss	NaN	NaN
Geld	NaN	NaN
widder	NaN	NaN
ersetzt	NaN	NaN
.	NaN	NaN
Er	NaN	NaN
soll	NaN	NaN
awer	NaN	NaN
waje	NaN	NaN
noch	NaN	NaN
ganz	NaN	NaN
andere	NaN	NaN
Verbreche	NaN	NaN
verhaft	NaN	NaN
wäre	NaN	NaN
!	NaN	NaN
Diss	NaN	NaN
langt	NaN	NaN
!	NaN	NaN
Diss	NaN	NaN
langt	NaN	NaN
!	NaN	NaN
Unn	NaN	NaN
so	NaN	NaN
'me	NaN	NaN
Luftibüs	NaN	NaN
soll	NaN	NaN
ich	NaN	NaN
myni	NaN	NaN
Dochter	NaN	NaN
gänn	NaN	NaN
?	NaN	NaN
Non	NaN	NaN
,	NaN	NaN
jamais	NaN	NaN
de	NaN	NaN
la	NaN	NaN
vie	NaN	NaN
!	NaN	NaN
Endlich	NaN	NaN
haw	NaN	NaN
ich	NaN	NaN
'ne	NaN	NaN
so	NaN	NaN
wytt	NaN	NaN
!	NaN	NaN
:	NaN	NaN
Do	NaN	NaN
wär	NaN	NaN
ihri	NaN	NaN
Dochter	NaN	NaN
scheen	NaN	NaN
ang'schmiert	NaN	NaN
,	NaN	NaN
!	NaN	NaN
Er	NaN	NaN
isch	NaN	NaN
jo	NaN	NaN
schun	NaN	NaN
g'hyroot	NaN	NaN
—	NaN	NaN
ganz	NaN	NaN
heimlich	NaN	NaN
—	NaN	NaN
niemes	NaN	NaN
weiss	NaN	NaN
ebbs	NaN	NaN
devun	NaN	NaN
.	NaN	NaN
Sie	NaN	NaN
kenne	NaN	NaN
sich	NaN	NaN
also	NaN	NaN
vorstelle	NaN	NaN
,	NaN	NaN
welle	NaN	NaN
Wäj	NaN	NaN
ass	NaN	NaN
no	NaN	NaN
Ihr	NaN	NaN
Geld	NaN	NaN
nemme	NaN	NaN
dhät	NaN	NaN
!	NaN	NaN
Numme	NaN	NaN
waje	NaN	NaN
dem	NaN	NaN
will'r	NaN	NaN
jo	NaN	NaN
Ihri	NaN	NaN
Dochter	NaN	NaN
hyroote	NaN	NaN
!	NaN	NaN
Unn	NaN	NaN
was	NaN	NaN
syni	NaN	NaN
zwei	NaN	NaN
Unkel	NaN	NaN
angeht	NaN	NaN
,	NaN	NaN
ze	NaN	NaN
sinn	NaN	NaN
s'	NaN	NaN
e	NaN	NaN
ärmer	NaN	NaN
als	NaN	NaN
wie	NaN	NaN
arm	NaN	NaN
.	NaN	NaN
Junger	NaN	NaN
Mann	NaN	NaN
,	NaN	NaN
Sie	NaN	NaN
hann	NaN	NaN
mir	NaN	NaN
e	NaN	NaN
grosser	NaN	NaN
Dienscht	NaN	NaN
geleischt	NaN	NaN
,	NaN	NaN
wo	NaN	NaN
mit	NaN	NaN
döjsig	NaN	NaN
Franke	NaN	NaN
niti	NaN	NaN
ze	NaN	NaN
dyer	NaN	NaN
bezahlt	NaN	NaN
isch	NaN	NaN
,	NaN	NaN
unn	NaN	NaN
fur	NaN	NaN
myni	NaN	NaN
Dochter	NaN	NaN
wurr	NaN	NaN
ich	NaN	NaN
schun	NaN	NaN
noch	NaN	NaN
e	NaN	NaN
anderi	NaN	NaN
Partie	NaN	NaN
finde	NaN	NaN
.	NaN	NaN
Gott	NaN	NaN
sej	NaN	NaN
Dank	NaN	NaN
!	NaN	NaN
Par	NaN	NaN
exemple	NaN	NaN
,	NaN	NaN
so	NaN	NaN
e	NaN	NaN
Mann	NaN	NaN
wie	NaN	NaN
Sie	NaN	NaN
dhät	NaN	NaN
mir	NaN	NaN
schun	NaN	NaN
ehnder	NaN	NaN
zuesaawe	NaN	NaN
un	NaN	NaN
mynere	NaN	NaN
Dochter	NaN	NaN
gewiss	NaN	NaN
au	NaN	NaN
,	NaN	NaN
wie	NaN	NaN
ich	NaN	NaN
myn	NaN	NaN
Kind	NaN	NaN
kenn	NaN	NaN
…	NaN	NaN
Sie	NaN	NaN
hann	NaN	NaN
so	NaN	NaN
ebbs	NaN	NaN
Frisch	NaN	NaN
's	NaN	NaN
,	NaN	NaN
Ehrlich	NaN	NaN
's	NaN	NaN
unn	NaN	NaN
Unverdorwes	NaN	NaN
im	NaN	NaN
G'sicht	NaN	NaN
!	NaN	NaN
Diss	NaN	NaN
hett	NaN	NaN
mir	NaN	NaN
jetzt	NaN	NaN
grad	NaN	NaN
noch	NaN	NaN
g'fählt	NaN	NaN
!	NaN	NaN
:	NaN	NaN
Vun	NaN	NaN
Härze	NaN	NaN
gern	NaN	NaN
,	NaN	NaN
Monsieur	NaN	NaN
Burjer	NaN	NaN
,	NaN	NaN
awer	NaN	NaN
leider	NaN	NaN
bin	NaN	NaN
ich	NaN	NaN
schun	NaN	NaN
nyngedappt	NaN	NaN
—	NaN	NaN
ich	NaN	NaN
mein	NaN	NaN
,	NaN	NaN
in	NaN	NaN
de	NaN	NaN
Ehstand	NaN	NaN
yngeträtte	NaN	NaN
—	NaN	NaN
unn	NaN	NaN
wie	NaN	NaN
!	NaN	NaN
…	NaN	NaN
unn	NaN	NaN
wie	NaN	NaN
lang	NaN	NaN
schun	NaN	NaN
,	NaN	NaN
mein	NaN	NaN
ich	NaN	NaN
!	NaN	NaN
Schad	NaN	NaN
!	NaN	NaN
Na	NaN	NaN
,	NaN	NaN
's	NaN	NaN
gitt	NaN	NaN
jo	NaN	NaN
noch	NaN	NaN
genue	NaN	NaN
anderi	NaN	NaN
,	NaN	NaN
bravi	NaN	NaN
,	NaN	NaN
jungi	NaN	NaN
Männer	NaN	NaN
!	NaN	NaN
Also	NaN	NaN
noch	NaN	NaN
emool	NaN	NaN
vielmools	NaN	NaN
merci	NaN	NaN
unn	NaN	NaN
au	NaN	NaN
revoir	NaN	NaN
!	NaN	NaN
Allons	NaN	NaN
,	NaN	NaN
au	NaN	NaN
revoir	NaN	NaN
,	NaN	NaN
Monsieur	NaN	NaN
Burjer	NaN	NaN
!	NaN	NaN
:	NaN	NaN
So	NaN	NaN
,	NaN	NaN
diss	NaN	NaN
haw	NaN	NaN
ich	NaN	NaN
guet	NaN	NaN
gemacht	NaN	NaN
!	NaN	NaN
Dem	NaN	NaN
liewe	NaN	NaN
Monsieur	NaN	NaN
Burjer	NaN	NaN
haw	NaN	NaN
ich	NaN	NaN
's	NaN	NaN
grindlich	NaN	NaN
vertriwe	NaN	NaN
,	NaN	NaN
uff	NaN	NaN
mich	NaN	NaN
als	NaN	NaN
Dochtermann	NaN	NaN
ze	NaN	NaN
speküliere	NaN	NaN
!	NaN	NaN
Ich	NaN	NaN
habb	NaN	NaN
m'r	NaN	NaN
's	NaN	NaN
iwerleijt	NaN	NaN
!	NaN	NaN
Ich	NaN	NaN
will	NaN	NaN
mit	NaN	NaN
denne	NaN	NaN
zwei	NaN	NaN
Gebrieder	NaN	NaN
Frosch	NaN	NaN
doch	NaN	NaN
noch	NaN	NaN
e'n-	NaN	NaN
ernscht	NaN	NaN
's	NaN	NaN
Wort	NaN	NaN
redde	NaN	NaN
,	NaN	NaN
nitt	NaN	NaN
ass	NaN	NaN
s'	NaN	NaN
e	NaN	NaN
meine	NaN	NaN
,	NaN	NaN
ass	NaN	NaN
s'	NaN	NaN
e	NaN	NaN
e	NaN	NaN
Dummer	NaN	NaN
vor	NaN	NaN
sich	NaN	NaN
hann	NaN	NaN
,	NaN	NaN
wo	NaN	NaN
froh	NaN	NaN
miesst	NaN	NaN
sinn	NaN	NaN
,	NaN	NaN
ass	NaN	NaN
ihre	NaN	NaN
Neveu	NaN	NaN
myni	NaN	NaN
Dochter	NaN	NaN
iwerhaupt	NaN	NaN
nemmt	NaN	NaN
!	NaN	NaN
Die	NaN	NaN
zwei	NaN	NaN
speküliere	NaN	NaN
grad	NaN	NaN
so	NaN	NaN
uff	NaN	NaN
myn	NaN	NaN
Geld	NaN	NaN
unn	NaN	NaN
uff	NaN	NaN
myn	NaN	NaN
guet	NaN	NaN
's	NaN	NaN
G'schäft	NaN	NaN
wie	NaN	NaN
ihre	NaN	NaN
proper	NaN	NaN
Herr	NaN	NaN
Neveu	NaN	NaN
!	NaN	NaN
Schun	NaN	NaN
wie	NaN	NaN
's	NaN	NaN
by	NaN	NaN
denne	NaN	NaN
do	NaN	NaN
hinne	NaN	NaN
üssieht	NaN	NaN
,	NaN	NaN
bewyest	NaN	NaN
,	NaN	NaN
ass	NaN	NaN
s'	NaN	NaN
e	NaN	NaN
armi	NaN	NaN
Dejfel	NaN	NaN
sinn	NaN	NaN
unn	NaN	NaN
ass	NaN	NaN
ihr	NaN	NaN
G'schäft	NaN	NaN
nitt	NaN	NaN
so	NaN	NaN
glänzend	NaN	NaN
floriert	NaN	NaN
,	NaN	NaN
wie	NaN	NaN
's	NaN	NaN
als	NaN	NaN
heisse	NaN	NaN
dhuet	NaN	NaN
!	NaN	NaN
So	NaN	NaN
,	NaN	NaN
alles	NaN	NaN
isch	NaN	NaN
verbrennt	NaN	NaN
—	NaN	NaN
jetzt	NaN	NaN
kann	NaN	NaN
uns	NaN	NaN
kein	NaN	NaN
Mensch	NaN	NaN
ebbs	NaN	NaN
welle	NaN	NaN
.	NaN	NaN
Hoffetlich	NaN	NaN
hett	NaN	NaN
au	NaN	NaN
d'r	NaN	NaN
Michel	NaN	NaN
chance	NaN	NaN
g'hett	NaN	NaN
unn	NaN	NaN
sich	NaN	NaN
syn	NaN	NaN
Päckel	NaN	NaN
vum	NaN	NaN
Hals	NaN	NaN
g'schafft	NaN	NaN
!	NaN	NaN
Wer	NaN	NaN
isch	NaN	NaN
denn	NaN	NaN
diss	NaN	NaN
?	NaN	NaN
Wie	NaN	NaN
kummt	NaN	NaN
denn	NaN	NaN
der	NaN	NaN
do	NaN	NaN
ryn	NaN	NaN
,	NaN	NaN
ohne	NaN	NaN
angemeld	NaN	NaN
!	NaN	NaN
Herrjeh	NaN	NaN
!	NaN	NaN
Diss	NaN	NaN
isch	NaN	NaN
am	NaN	NaN
End	NaN	NaN
gar	NaN	NaN
schun	NaN	NaN
einer	NaN	NaN
vun	NaN	NaN
d'r	NaN	NaN
Polizej	NaN	NaN
—	NaN	NaN
die	NaN	NaN
verstehn	NaN	NaN
's	NaN	NaN
jo	NaN	NaN
bekanntlich	NaN	NaN
,	NaN	NaN
sich	NaN	NaN
iwerall	NaN	NaN
ynzeschlyche	NaN	NaN
!	NaN	NaN
Diss	NaN	NaN
isch	NaN	NaN
gewiss	NaN	NaN
d'r	NaN	NaN
Brueder	NaN	NaN
vum	NaN	NaN
Michel	NaN	NaN
Frosch	NaN	NaN
,	NaN	NaN
wo	NaN	NaN
ich	NaN	NaN
schun	NaN	NaN
perseenlich	NaN	NaN
kenn	NaN	NaN
!	NaN	NaN
Na	NaN	NaN
,	NaN	NaN
dem	NaN	NaN
kann	NaN	NaN
ich	NaN	NaN
's	NaN	NaN
jo	NaN	NaN
au	NaN	NaN
stecke	NaN	NaN
!	NaN	NaN
:	NaN	NaN
Sinn	NaN	NaN
Sie	NaN	NaN
d'r	NaN	NaN
Monsieur	NaN	NaN
Georges	NaN	NaN
Frosch	NaN	NaN
?	NaN	NaN
Gewiss	NaN	NaN
…	NaN	NaN
gewiss	NaN	NaN
,	NaN	NaN
der	NaN	NaN
bin	NaN	NaN
ich	NaN	NaN
,	NaN	NaN
Monsieur	NaN	NaN
!	NaN	NaN
Unn	NaN	NaN
wisse	NaN	NaN
Sie	NaN	NaN
,	NaN	NaN
wer	NaN	NaN
ich	NaN	NaN
bin	NaN	NaN
unn	NaN	NaN
worum	NaN	NaN
ass	NaN	NaN
ich	NaN	NaN
do	NaN	NaN
bin	NaN	NaN
?	NaN	NaN
Nadierlich	NaN	NaN
vun	NaN	NaN
d'r	NaN	NaN
Police	NaN	NaN
unn	NaN	NaN
waje	NaN	NaN
d'r	NaN	NaN
Hüssuechung	NaN	NaN
!	NaN	NaN
:	NaN	NaN
Leider	NaN	NaN
nitt	NaN	NaN
,	NaN	NaN
Monsieur	NaN	NaN
!	NaN	NaN
So	NaN	NaN
?	NaN	NaN
Ihre	NaN	NaN
Bruder	NaN	NaN
unn	NaN	NaN
Sie	NaN	NaN
hann	NaN	NaN
mich	NaN	NaN
jo	NaN	NaN
hytt	NaN	NaN
erwart	NaN	NaN
!	NaN	NaN
Grosser	NaN	NaN
Gott	NaN	NaN
,	NaN	NaN
also	NaN	NaN
haw	NaN	NaN
ich	NaN	NaN
doch	NaN	NaN
erächt	NaN	NaN
!	NaN	NaN
:	NaN	NaN
Ich	NaN	NaN
kann	NaN	NaN
's	NaN	NaN
nitt	NaN	NaN
leigle	NaN	NaN
!	NaN	NaN
Bon	NaN	NaN
!	NaN	NaN
Ze	NaN	NaN
will	NaN	NaN
ich	NaN	NaN
Ihne	NaN	NaN
glych	NaN	NaN
ganz	NaN	NaN
kurz	NaN	NaN
saawe	NaN	NaN
,	NaN	NaN
ass	NaN	NaN
ihr	NaN	NaN
mir	NaN	NaN
noch	NaN	NaN
e	NaN	NaN
scheeni	NaN	NaN
Pratik	NaN	NaN
sinn	NaN	NaN
!	NaN	NaN
Saawe	NaN	NaN
Sie	NaN	NaN
diss	NaN	NaN
nitt	NaN	NaN
,	NaN	NaN
Monsieur	NaN	NaN
!	NaN	NaN
Numme	NaN	NaN
stille	NaN	NaN
!	NaN	NaN
Ich	NaN	NaN
habb	NaN	NaN
Bewyes	NaN	NaN
!	NaN	NaN
Die	NaN	NaN
sinn	NaN	NaN
,	NaN	NaN
Gottlob	NaN	NaN
,	NaN	NaN
verbrennt	NaN	NaN
unn	NaN	NaN
im	NaN	NaN
Kanal	NaN	NaN
!	NaN	NaN
Im	NaN	NaN
stille	NaN	NaN
haw	NaN	NaN
ich	NaN	NaN
ejch	NaN	NaN
jo	NaN	NaN
allewyll	NaN	NaN
im	NaN	NaN
Verdacht	NaN	NaN
g'hett	NaN	NaN
,	NaN	NaN
ass	NaN	NaN
by	NaN	NaN
ejch	NaN	NaN
nit	NaN	NaN
alles	NaN	NaN
so	NaN	NaN
isch	NaN	NaN
,	NaN	NaN
wie	NaN	NaN
's	NaN	NaN
sinn	NaN	NaN
soll	NaN	NaN
,	NaN	NaN
unn	NaN	NaN
ass	NaN	NaN
ihr	NaN	NaN
's	NaN	NaN
nitt	NaN	NaN
ehrlich	NaN	NaN
meine	NaN	NaN
!	NaN	NaN
Diss	NaN	NaN
kenne	NaN	NaN
numme	NaN	NaN
beesi	NaN	NaN
Lytt	NaN	NaN
behaupt	NaN	NaN
hann	NaN	NaN
!	NaN	NaN
Meine	NaN	NaN
Sie	NaN	NaN
?	NaN	NaN
M'r	NaN	NaN
brücht	NaN	NaN
numme	NaN	NaN
ze	NaN	NaN
sähn	NaN	NaN
,	NaN	NaN
wie	NaN	NaN
's	NaN	NaN
by	NaN	NaN
ejch	NaN	NaN
drynsieht	NaN	NaN
!	NaN	NaN
Er	NaN	NaN
weiss	NaN	NaN
,	NaN	NaN
ma	NaN	NaN
foi	NaN	NaN
,	NaN	NaN
schun	NaN	NaN
,	NaN	NaN
ass	NaN	NaN
mir	NaN	NaN
do	NaN	NaN
Dings	NaN	NaN
verschwinde	NaN	NaN
hann	NaN	NaN
mache	NaN	NaN
!	NaN	NaN
Mir	NaN	NaN
sinn	NaN	NaN
verlore	NaN	NaN
!	NaN	NaN
Halt	NaN	NaN
,	NaN	NaN
e	NaN	NaN
Idee	NaN	NaN
!	NaN	NaN
Monsieur	NaN	NaN
,	NaN	NaN
mir	NaN	NaN
sinn	NaN	NaN
halt	NaN	NaN
armi	NaN	NaN
Lytt	NaN	NaN
!	NaN	NaN
Waje	NaN	NaN
dem	NaN	NaN
hann	NaN	NaN
ihr	NaN	NaN
au	NaN	NaN
uff	NaN	NaN
Geld	NaN	NaN
speküliert	NaN	NaN
unn	NaN	NaN
zwar	NaN	NaN
uff	NaN	NaN
e	NaN	NaN
ganz	NaN	NaN
gemeini	NaN	NaN
Art	NaN	NaN
unn	NaN	NaN
Wyes	NaN	NaN
!	NaN	NaN
Wisse	NaN	NaN
Sie	NaN	NaN
,	NaN	NaN
was	NaN	NaN
diss	NaN	NaN
isch	NaN	NaN
?	NaN	NaN
Diss	NaN	NaN
isch	NaN	NaN
Verroot	NaN	NaN
!	NaN	NaN
Millione	NaN	NaN
,	NaN	NaN
au	NaN	NaN
diss	NaN	NaN
noch	NaN	NaN
!	NaN	NaN
Jetzt	NaN	NaN
solle	NaN	NaN
mir	NaN	NaN
au	NaN	NaN
noch	NaN	NaN
Landesverräter	NaN	NaN
sinn	NaN	NaN
!	NaN	NaN
Wer	NaN	NaN
kann	NaN	NaN
diss	NaN	NaN
sinn	NaN	NaN
?	NaN	NaN
Entrez	NaN	NaN
!	NaN	NaN
Ich	NaN	NaN
bin	NaN	NaN
dr	NaN	NaN
Schutzmann	NaN	NaN
Schnappne	NaN	NaN
!	NaN	NaN
Wo	NaN	NaN
isch	NaN	NaN
d'r	NaN	NaN
Monsieur	NaN	NaN
Frosch	NaN	NaN
?	NaN	NaN
Allmächtiger	NaN	NaN
,	NaN	NaN
jetzt	NaN	NaN
wurr	NaN	NaN
ich	NaN	NaN
arretiert	NaN	NaN
!	NaN	NaN
:	NaN	NaN
Der	NaN	NaN
…	NaN	NaN
der	NaN	NaN
bin	NaN	NaN
ich	NaN	NaN
!	NaN	NaN
Ich	NaN	NaN
bin	NaN	NaN
dato	NaN	NaN
uff	NaN	NaN
d'r	NaN	NaN
Suech	NaN	NaN
nooch-e-me	NaN	NaN
g'fährliche	NaN	NaN
Schwerverbrecher	NaN	NaN
…	NaN	NaN
Der	NaN	NaN
Unglicklich	NaN	NaN
bin	NaN	NaN
ich	NaN	NaN
!	NaN	NaN
Ich	NaN	NaN
schmeck	NaN	NaN
schun	NaN	NaN
's	NaN	NaN
Bluet	NaN	NaN
vun	NaN	NaN
d'r	NaN	NaN
Guillotine	NaN	NaN
!	NaN	NaN
Diss	NaN	NaN
wurd	NaN	NaN
allewäj	NaN	NaN
der	NaN	NaN
proper	NaN	NaN
Neveu	NaN	NaN
sinn	NaN	NaN
,	NaN	NaN
wo	NaN	NaN
verhaft	NaN	NaN
soll	NaN	NaN
wäre	NaN	NaN
!	NaN	NaN
Gewehnlich	NaN	NaN
tryebt'r	NaN	NaN
sich	NaN	NaN
in	NaN	NaN
Frauekleider	NaN	NaN
erum	NaN	NaN
,	NaN	NaN
fur	NaN	NaN
lychter	NaN	NaN
ynbreche	NaN	NaN
zu	NaN	NaN
kenne	NaN	NaN
…	NaN	NaN
Gott	NaN	NaN
sej	NaN	NaN
Dank	NaN	NaN
!	NaN	NaN
Mich	NaN	NaN
kann'r	NaN	NaN
nitt	NaN	NaN
meine	NaN	NaN
!	NaN	NaN
Unn	NaN	NaN
grad	NaN	NaN
ewe	NaN	NaN
isch	NaN	NaN
uns	NaN	NaN
uff	NaN	NaN
's	NaN	NaN
Revier	NaN	NaN
getelephoniert	NaN	NaN
worre	NaN	NaN
,	NaN	NaN
ass	NaN	NaN
m'r	NaN	NaN
beobacht	NaN	NaN
hett	NaN	NaN
,	NaN	NaN
wie'r	NaN	NaN
sich	NaN	NaN
in	NaN	NaN
diss	NaN	NaN
Hüss	NaN	NaN
do	NaN	NaN
yng'schliche	NaN	NaN
hett	NaN	NaN
.	NaN	NaN
Hann	NaN	NaN
Sie	NaN	NaN
'ne	NaN	NaN
viellycht	NaN	NaN
g'sähn	NaN	NaN
?	NaN	NaN
Nitt	NaN	NaN
e	NaN	NaN
Zipfel	NaN	NaN
vun	NaN	NaN
'm	NaN	NaN
,	NaN	NaN
was	NaN	NaN
'ne	NaN	NaN
Ihre	NaN	NaN
Kolleg	NaN	NaN
do	NaN	NaN
gewiss	NaN	NaN
au	NaN	NaN
b'stätige	NaN	NaN
wurd	NaN	NaN
kenne	NaN	NaN
!	NaN	NaN
Awer	NaN	NaN
ich	NaN	NaN
bitt	NaN	NaN
Sie	NaN	NaN
!	NaN	NaN
Was	NaN	NaN
?	NaN	NaN
E	NaN	NaN
Kolleg	NaN	NaN
vun	NaN	NaN
mir	NaN	NaN
?	NaN	NaN
Der	NaN	NaN
Monsieur	NaN	NaN
do	NaN	NaN
?	NaN	NaN
Diss	NaN	NaN
stimmt	NaN	NaN
nitt	NaN	NaN
!	NaN	NaN
Ich	NaN	NaN
kenn	NaN	NaN
alli	NaN	NaN
Herre	NaN	NaN
vun	NaN	NaN
d'r	NaN	NaN
Polizej	NaN	NaN
.	NaN	NaN
Ich	NaN	NaN
bin	NaN	NaN
au	NaN	NaN
gar	NaN	NaN
nitt	NaN	NaN
vun	NaN	NaN
d'r	NaN	NaN
Polizej	NaN	NaN
.	NaN	NaN
Er	NaN	NaN
hett	NaN	NaN
sich	NaN	NaN
awer	NaN	NaN
defur	NaN	NaN
üssgänn	NaN	NaN
!	NaN	NaN
Was	NaN	NaN
?	NaN	NaN
Sie	NaN	NaN
gänn	NaN	NaN
jetzt	NaN	NaN
zue	NaN	NaN
,	NaN	NaN
ass	NaN	NaN
Sie	NaN	NaN
nitt	NaN	NaN
vun	NaN	NaN
d'r	NaN	NaN
Polizej	NaN	NaN
sinn	NaN	NaN
?	NaN	NaN
No	NaN	NaN
sinn	NaN	NaN
Sie	NaN	NaN
halt	NaN	NaN
e	NaN	NaN
Gauner	NaN	NaN
!	NaN	NaN
Mir	NaN	NaN
geht	NaN	NaN
e	NaN	NaN
Licht	NaN	NaN
uff	NaN	NaN
!	NaN	NaN
Agent	NaN	NaN
,	NaN	NaN
diss	NaN	NaN
isch	NaN	NaN
am	NaN	NaN
End	NaN	NaN
der	NaN	NaN
Gauner	NaN	NaN
,	NaN	NaN
wo	NaN	NaN
Sie	NaN	NaN
sueche	NaN	NaN
,	NaN	NaN
denn'r	NaN	NaN
isch	NaN	NaN
uff	NaN	NaN
's	NaN	NaN
Mool	NaN	NaN
in	NaN	NaN
mynere	NaN	NaN
Wohnung	NaN	NaN
g'stande	NaN	NaN
,	NaN	NaN
ohne	NaN	NaN
ass	NaN	NaN
ich	NaN	NaN
gewisst	NaN	NaN
habb	NaN	NaN
wie	NaN	NaN
!	NaN	NaN
Ah	NaN	NaN
,	NaN	NaN
so	NaN	NaN
e	NaN	NaN
Frichtel	NaN	NaN
isch	NaN	NaN
diss	NaN	NaN
!	NaN	NaN
Do	NaN	NaN
haw	NaN	NaN
ich	NaN	NaN
schynnt	NaN	NaN
's	NaN	NaN
schun	NaN	NaN
denne	NaN	NaN
Gauner	NaN	NaN
verwitscht	NaN	NaN
!	NaN	NaN
Marsch	NaN	NaN
—	NaN	NaN
mit	NaN	NaN
!	NaN	NaN
Lonn	NaN	NaN
mich	NaN	NaN
au	NaN	NaN
in	NaN	NaN
Ruehj	NaN	NaN
—	NaN	NaN
ich	NaN	NaN
bitt	NaN	NaN
drum	NaN	NaN
!	NaN	NaN
Ich	NaN	NaN
bin	NaN	NaN
jo	NaN	NaN
…	NaN	NaN
Wer	NaN	NaN
Sie	NaN	NaN
sinn	NaN	NaN
,	NaN	NaN
diss	NaN	NaN
stellt	NaN	NaN
sich	NaN	NaN
schun	NaN	NaN
uff	NaN	NaN
d'r	NaN	NaN
Polizej	NaN	NaN
erüss	NaN	NaN
!	NaN	NaN
Also	NaN	NaN
vorwärts	NaN	NaN
unn	NaN	NaN
nimm	NaN	NaN
gemückst	NaN	NaN
!	NaN	NaN
Diss	NaN	NaN
wär	NaN	NaN
noch	NaN	NaN
emool	NaN	NaN
guet	NaN	NaN
abgeloffe	NaN	NaN
!	NaN	NaN
Ich	NaN	NaN
soll	NaN	NaN
kein	NaN	NaN
Angscht	NaN	NaN
üssg'stande	NaN	NaN
hann	NaN	NaN
!	NaN	NaN
Wie	NaN	NaN
der	NaN	NaN
sich	NaN	NaN
uffg'fiehrt	NaN	NaN
hett	NaN	NaN
!	NaN	NaN
Ich	NaN	NaN
habb	NaN	NaN
als	NaN	NaN
gemeint	NaN	NaN
,	NaN	NaN
er	NaN	NaN
wär	NaN	NaN
vun	NaN	NaN
d'r	NaN	NaN
Polizej	NaN	NaN
!	NaN	NaN
E	NaN	NaN
ganz	NaN	NaN
raffinierter	NaN	NaN
Gauner	NaN	NaN
,	NaN	NaN
diss	NaN	NaN
!	NaN	NaN
Verdeckel	NaN	NaN
,	NaN	NaN
diss	NaN	NaN
Mool	NaN	NaN
isch	NaN	NaN
's	NaN	NaN
brenzlich	NaN	NaN
fur	NaN	NaN
mich	NaN	NaN
g'sinn	NaN	NaN
!	NaN	NaN
Um	NaN	NaN
e	NaN	NaN
Härel	NaN	NaN
hätte	NaN	NaN
mich	NaN	NaN
d'	NaN	NaN
Blejele	NaN	NaN
g'schnappt	NaN	NaN
!	NaN	NaN
Awer	NaN	NaN
ich	NaN	NaN
habb	NaN	NaN
noch	NaN	NaN
emool	NaN	NaN
chance	NaN	NaN
g'hett	NaN	NaN
.	NaN	NaN
So	NaN	NaN
,	NaN	NaN
unn	NaN	NaN
jetzt	NaN	NaN
will	NaN	NaN
ich	NaN	NaN
emool	NaN	NaN
sähn	NaN	NaN
,	NaN	NaN
ob	NaN	NaN
ich	NaN	NaN
dohinne	NaN	NaN
e	NaN	NaN
guete	NaN	NaN
Fang	NaN	NaN
kann	NaN	NaN
mache	NaN	NaN
!	NaN	NaN
Ich	NaN	NaN
brüch	NaN	NaN
Geld	NaN	NaN
!	NaN	NaN
Hm	NaN	NaN
,	NaN	NaN
do	NaN	NaN
sieht	NaN	NaN
's	NaN	NaN
jo	NaN	NaN
meh	NaN	NaN
als	NaN	NaN
wie	NaN	NaN
pauvre	NaN	NaN
üss	NaN	NaN
!	NaN	NaN
Awer	NaN	NaN
au	NaN	NaN
gar	NaN	NaN
nix	NaN	NaN
,	NaN	NaN
wo	NaN	NaN
sich	NaN	NaN
rentiert	NaN	NaN
,	NaN	NaN
mitgenumme	NaN	NaN
ze	NaN	NaN
wäre	NaN	NaN
!	NaN	NaN
Habb	NaN	NaN
ich	NaN	NaN
rächt	NaN	NaN
g'heert	NaN	NaN
!	NaN	NaN
Ja	NaN	NaN
,	NaN	NaN
's	NaN	NaN
kummt	NaN	NaN
ebber	NaN	NaN
!	NaN	NaN
Do	NaN	NaN
heisst	NaN	NaN
's	NaN	NaN
sich	NaN	NaN
verdufte	NaN	NaN
!	NaN	NaN
Awer	NaN	NaN
wo	NaN	NaN
anne	NaN	NaN
?	NaN	NaN
Ich	NaN	NaN
mecht	NaN	NaN
nitt	NaN	NaN
doch	NaN	NaN
noch	NaN	NaN
am	NaN	NaN
Schlawittel	NaN	NaN
gepackt	NaN	NaN
wäre	NaN	NaN
!	NaN	NaN
Ah	NaN	NaN
,	NaN	NaN
do	NaN	NaN
isch	NaN	NaN
jo	NaN	NaN
e	NaN	NaN
Kuffer	NaN	NaN
!	NaN	NaN
Isch'r	NaN	NaN
leer	NaN	NaN
?	NaN	NaN
Ja	NaN	NaN
!	NaN	NaN
Also	NaN	NaN
,	NaN	NaN
als	NaN	NaN
nyn	NaN	NaN
unn	NaN	NaN
zwar	NaN	NaN
heijo	NaN	NaN
!	NaN	NaN
:	NaN	NaN
Kücküs	NaN	NaN
…	NaN	NaN
dada	NaN	NaN
!	NaN	NaN
Luft	NaN	NaN
!	NaN	NaN
Ich	NaN	NaN
verstick	NaN	NaN
!	NaN	NaN
Nein	NaN	NaN
,	NaN	NaN
ich	NaN	NaN
soll	NaN	NaN
nitt	NaN	NaN
gerennt	NaN	NaN
sinn	NaN	NaN
!	NaN	NaN
So	NaN	NaN
e	NaN	NaN
Malchance	NaN	NaN
!	NaN	NaN
Wo	NaN	NaN
ich	NaN	NaN
mit	NaN	NaN
mym	NaN	NaN
Pack	NaN	NaN
voll	NaN	NaN
politische	NaN	NaN
«	NaN	NaN
Verdachtsmomenter	NaN	NaN
»	NaN	NaN
nooch	NaN	NaN
'm	NaN	NaN
Kanal	NaN	NaN
unterwäjs	NaN	NaN
bin	NaN	NaN
g'sinn	NaN	NaN
,	NaN	NaN
lauft	NaN	NaN
mir	NaN	NaN
uffs	NaN	NaN
Mool	NaN	NaN
e	NaN	NaN
Schutzmann	NaN	NaN
in	NaN	NaN
de	NaN	NaN
Wäj	NaN	NaN
;	NaN	NaN
im	NaN	NaN
glyche	NaN	NaN
Moment	NaN	NaN
kummt	NaN	NaN
e	NaN	NaN
Windstoss	NaN	NaN
unn	NaN	NaN
wirwelt	NaN	NaN
mir	NaN	NaN
denne	NaN	NaN
elend	NaN	NaN
Wyewerrock	NaN	NaN
iwerm	NaN	NaN
Kopf	NaN	NaN
z'	NaN	NaN
samme	NaN	NaN
;	NaN	NaN
d'r	NaN	NaN
Blejele	NaN	NaN
spanne	NaN	NaN
,	NaN	NaN
ass	NaN	NaN
ich	NaN	NaN
Mannskleider	NaN	NaN
drunter	NaN	NaN
an	NaN	NaN
habb	NaN	NaN
unn	NaN	NaN
mir	NaN	NaN
noochrenne	NaN	NaN
,	NaN	NaN
diss	NaN	NaN
isch	NaN	NaN
eins	NaN	NaN
g'sinn	NaN	NaN
!	NaN	NaN
Na	NaN	NaN
,	NaN	NaN
ich	NaN	NaN
binn	NaN	NaN
g'fiesselt	NaN	NaN
,	NaN	NaN
wie	NaN	NaN
wenn	NaN	NaN
ich	NaN	NaN
's	NaN	NaN
bezahlt	NaN	NaN
bekäm	NaN	NaN
,	NaN	NaN
unn	NaN	NaN
do	NaN	NaN
bin	NaN	NaN
ich	NaN	NaN
jetzt	NaN	NaN
!	NaN	NaN
Ich	NaN	NaN
glaub	NaN	NaN
kümm	NaN	NaN
,	NaN	NaN
ass	NaN	NaN
d'r	NaN	NaN
Schutzmann	NaN	NaN
g'spanne	NaN	NaN
hett	NaN	NaN
,	NaN	NaN
in	NaN	NaN
well	NaN	NaN
Hüss	NaN	NaN
ass	NaN	NaN
ich	NaN	NaN
verschwunde	NaN	NaN
bin	NaN	NaN
,	NaN	NaN
denn	NaN	NaN
schunscht	NaN	NaN
wär	NaN	NaN
's	NaN	NaN
lätz	NaN	NaN
!	NaN	NaN
Fur	NaN	NaN
besser	NaN	NaN
renne	NaN	NaN
zu	NaN	NaN
kenne	NaN	NaN
,	NaN	NaN
haw	NaN	NaN
ich	NaN	NaN
zuedem	NaN	NaN
au	NaN	NaN
noch	NaN	NaN
myne	NaN	NaN
Pack	NaN	NaN
furt	NaN	NaN
miehn	NaN	NaN
wärfe	NaN	NaN
…	NaN	NaN
hoffetlich	NaN	NaN
finde	NaN	NaN
s'	NaN	NaN
e	NaN	NaN
nitt	NaN	NaN
erüss	NaN	NaN
,	NaN	NaN
wem	NaN	NaN
ass'r	NaN	NaN
g'heert	NaN	NaN
,	NaN	NaN
denn	NaN	NaN
schunscht	NaN	NaN
sinn	NaN	NaN
myner	NaN	NaN
Brueder	NaN	NaN
unn	NaN	NaN
ich	NaN	NaN
geliffert	NaN	NaN
!	NaN	NaN
Dü	NaN	NaN
liwer	NaN	NaN
Alledaa	NaN	NaN
!	NaN	NaN
Do	NaN	NaN
isch	NaN	NaN
d'r	NaN	NaN
Schutzmann	NaN	NaN
schun	NaN	NaN
!	NaN	NaN
Mir	NaN	NaN
wurd	NaN	NaN
's	NaN	NaN
schwach	NaN	NaN
!	NaN	NaN
Denne	NaN	NaN
Dieb	NaN	NaN
muess	NaN	NaN
ich	NaN	NaN
schnappe	NaN	NaN
!	NaN	NaN
Ah	NaN	NaN
,	NaN	NaN
do	NaN	NaN
isch'r	NaN	NaN
jo	NaN	NaN
!	NaN	NaN
:	NaN	NaN
Haw	NaN	NaN
ich	NaN	NaN
dich	NaN	NaN
jetzt	NaN	NaN
,	NaN	NaN
Birschtel	NaN	NaN
!	NaN	NaN
Meinsch	NaN	NaN
,	NaN	NaN
ich	NaN	NaN
habb	NaN	NaN
nitt	NaN	NaN
g'spanne	NaN	NaN
,	NaN	NaN
wie	NaN	NaN
de	NaN	NaN
do	NaN	NaN
ryn	NaN	NaN
gewitscht	NaN	NaN
bisch	NaN	NaN
?	NaN	NaN
Ja	NaN	NaN
,	NaN	NaN
d'r	NaN	NaN
Schutzmann	NaN	NaN
Hebbne	NaN	NaN
isch	NaN	NaN
e	NaN	NaN
schlöjer	NaN	NaN
Kadett	NaN	NaN
!	NaN	NaN
Dü	NaN	NaN
bisch	NaN	NaN
uns	NaN	NaN
schun	NaN	NaN
signalisiert	NaN	NaN
worre	NaN	NaN
,	NaN	NaN
ass	NaN	NaN
de	NaN	NaN
dich	NaN	NaN
in're	NaN	NaN
Wyewerkutt	NaN	NaN
erumtryebsch	NaN	NaN
!	NaN	NaN
Allmächtiger	NaN	NaN
!	NaN	NaN
Kein	NaN	NaN
Zwyefel	NaN	NaN
,	NaN	NaN
mir	NaN	NaN
wäre	NaN	NaN
schun	NaN	NaN
iwerwacht	NaN	NaN
!	NaN	NaN
Herr	NaN	NaN
Schutzmann	NaN	NaN
,	NaN	NaN
's	NaN	NaN
handelt	NaN	NaN
sich	NaN	NaN
jo	NaN	NaN
numme	NaN	NaN
um	NaN	NaN
e	NaN	NaN
ganz	NaN	NaN
harmloser	NaN	NaN
Jüx	NaN	NaN
…	NaN	NaN
ich	NaN	NaN
…	NaN	NaN
habb	NaN	NaN
uff	NaN	NaN
de	NaN	NaN
bal	NaN	NaN
masqué	NaN	NaN
gewellt	NaN	NaN
!	NaN	NaN
So	NaN	NaN
?	NaN	NaN
Jetzt	NaN	NaN
im	NaN	NaN
Jüli	NaN	NaN
unn	NaN	NaN
mit	NaN	NaN
dem	NaN	NaN
Dings	NaN	NaN
do	NaN	NaN
?	NaN	NaN
Jetzt	NaN	NaN
simm'r	NaN	NaN
verlore	NaN	NaN
—	NaN	NaN
perdü	NaN	NaN
!	NaN	NaN
Er	NaN	NaN
hett	NaN	NaN
jo	NaN	NaN
unser	NaN	NaN
Doodesurteil	NaN	NaN
uff	NaN	NaN
d'r	NaN	NaN
Strooss	NaN	NaN
uffg'hebbt	NaN	NaN
!	NaN	NaN
Jetzt	NaN	NaN
hälft	NaN	NaN
numme	NaN	NaN
noch	NaN	NaN
frech	NaN	NaN
's	NaN	NaN
Leigle	NaN	NaN
!	NaN	NaN
:	NaN	NaN
Die	NaN	NaN
Sache	NaN	NaN
sinn	NaN	NaN
nitt	NaN	NaN
myne	NaN	NaN
!	NaN	NaN
Diss	NaN	NaN
kenne	NaN	NaN
m'r	NaN	NaN
!	NaN	NaN
Mir	NaN	NaN
kummt	NaN	NaN
's	NaN	NaN
awer	NaN	NaN
als	NaN	NaN
so	NaN	NaN
vor	NaN	NaN
,	NaN	NaN
wie	NaN	NaN
wenn	NaN	NaN
s'	NaN	NaN
e	NaN	NaN
do	NaN	NaN
hinne	NaN	NaN
fähle	NaN	NaN
dhäte	NaN	NaN
,	NaN	NaN
denn	NaN	NaN
do	NaN	NaN
sieht	NaN	NaN
's	NaN	NaN
jo	NaN	NaN
üss	NaN	NaN
,	NaN	NaN
wie	NaN	NaN
finf	NaN	NaN
Minütte	NaN	NaN
nooch	NaN	NaN
Erschaffung	NaN	NaN
vun	NaN	NaN
d'r	NaN	NaN
Welt	NaN	NaN
!	NaN	NaN
Mir	NaN	NaN
welle	NaN	NaN
mool	NaN	NaN
sähn	NaN	NaN
!	NaN	NaN
Mir	NaN	NaN
sinn	NaN	NaN
verratzt	NaN	NaN
!	NaN	NaN
Er	NaN	NaN
weiss	NaN	NaN
alles	NaN	NaN
!	NaN	NaN
Han	NaN	NaN
,	NaN	NaN
was	NaN	NaN
isch	NaN	NaN
diss	NaN	NaN
,	NaN	NaN
Birschtel	NaN	NaN
?	NaN	NaN
Am	NaN	NaN
beschte	NaN	NaN
wurd	NaN	NaN
sinn	NaN	NaN
,	NaN	NaN
wenn	NaN	NaN
ich	NaN	NaN
mich	NaN	NaN
daub	NaN	NaN
stell	NaN	NaN
!	NaN	NaN
:	NaN	NaN
Diss	NaN	NaN
?	NaN	NaN
Diss	NaN	NaN
isch	NaN	NaN
e	NaN	NaN
Sunne-Uehr	NaN	NaN
!	NaN	NaN
Unn	NaN	NaN
dü	NaN	NaN
hesch	NaN	NaN
e	NaN	NaN
Sunnestich	NaN	NaN
!	NaN	NaN
E	NaN	NaN
Schwarzwälderühr	NaN	NaN
isch	NaN	NaN
diss	NaN	NaN
,	NaN	NaN
unn	NaN	NaN
die	NaN	NaN
fählt	NaN	NaN
do	NaN	NaN
!	NaN	NaN
Er	NaN	NaN
weiss	NaN	NaN
alles	NaN	NaN
!	NaN	NaN
Ich	NaN	NaN
sieh	NaN	NaN
mich	NaN	NaN
schun	NaN	NaN
standrächtlich	NaN	NaN
erschosse	NaN	NaN
!	NaN	NaN
Unn	NaN	NaN
was	NaN	NaN
isch	NaN	NaN
diss	NaN	NaN
?	NaN	NaN
Diss	NaN	NaN
…	NaN	NaN
diss	NaN	NaN
isch	NaN	NaN
e	NaN	NaN
Dindefässel	NaN	NaN
!	NaN	NaN
Unn	NaN	NaN
dü	NaN	NaN
hesch	NaN	NaN
Dinde	NaN	NaN
g'soffe	NaN	NaN
!	NaN	NaN
Diss	NaN	NaN
isch	NaN	NaN
e	NaN	NaN
Kejelprys	NaN	NaN
vun	NaN	NaN
de	NaN	NaN
Schwoowe	NaN	NaN
…	NaN	NaN
Ich	NaN	NaN
hab	NaN	NaN
au	NaN	NaN
eine	NaN	NaN
d'	NaN	NaN
heim	NaN	NaN
!	NaN	NaN
…	NaN	NaN
:	NaN	NaN
Unn	NaN	NaN
ass	NaN	NaN
er	NaN	NaN
in	NaN	NaN
die	NaN	NaN
Wohnung	NaN	NaN
do	NaN	NaN
g'heert	NaN	NaN
,	NaN	NaN
sieh	NaN	NaN
ich	NaN	NaN
,	NaN	NaN
wyll	NaN	NaN
do	NaN	NaN
de	NaN	NaN
Name	NaN	NaN
«	NaN	NaN
Frosch	NaN	NaN
»	NaN	NaN
steht	NaN	NaN
!	NaN	NaN
M'r	NaN	NaN
sieht	NaN	NaN
's	NaN	NaN
jo	NaN	NaN
noch	NaN	NaN
am	NaN	NaN
Staub	NaN	NaN
,	NaN	NaN
ass	NaN	NaN
die	NaN	NaN
Figür	NaN	NaN
do	NaN	NaN
g'stande	NaN	NaN
isch	NaN	NaN
!	NaN	NaN
Wenn	NaN	NaN
ich	NaN	NaN
chance	NaN	NaN
habb	NaN	NaN
,	NaN	NaN
wurr	NaN	NaN
ich	NaN	NaN
uff	NaN	NaN
läweslänglich	NaN	NaN
Cayenne	NaN	NaN
begnadigt	NaN	NaN
!	NaN	NaN
Unn	NaN	NaN
wer	NaN	NaN
isch	NaN	NaN
diss	NaN	NaN
?	NaN	NaN
Ich	NaN	NaN
glaub	NaN	NaN
,	NaN	NaN
diss	NaN	NaN
isch	NaN	NaN
d'r	NaN	NaN
Präsident	NaN	NaN
vun	NaN	NaN
Frankrych	NaN	NaN
!	NaN	NaN
Unn	NaN	NaN
dü	NaN	NaN
bisch	NaN	NaN
de	NaN	NaN
Präsident	NaN	NaN
vun	NaN	NaN
de	NaN	NaN
Gauner	NaN	NaN
!	NaN	NaN
De	NaN	NaN
Louis	NaN	NaN
quatorze	NaN	NaN
de	NaN	NaN
Fuffzeht	NaN	NaN
isch	NaN	NaN
diss	NaN	NaN
,	NaN	NaN
unn	NaN	NaN
der	NaN	NaN
wurd	NaN	NaN
do	NaN	NaN
uffg'hängt	NaN	NaN
!	NaN	NaN
Am	NaN	NaN
liebschte	NaN	NaN
mecht	NaN	NaN
ich	NaN	NaN
mich	NaN	NaN
denäwe	NaN	NaN
hänge	NaN	NaN
!	NaN	NaN
Unn	NaN	NaN
was	NaN	NaN
isch	NaN	NaN
diss	NaN	NaN
?	NaN	NaN
Diss	NaN	NaN
isch	NaN	NaN
d'	NaN	NaN
Frau	NaN	NaN
Holle	NaN	NaN
!	NaN	NaN
Unn	NaN	NaN
dü	NaN	NaN
bisch	NaN	NaN
e	NaN	NaN
Dolle	NaN	NaN
!	NaN	NaN
Diss	NaN	NaN
stellt	NaN	NaN
ebbs	NaN	NaN
vor	NaN	NaN
,	NaN	NaN
wo	NaN	NaN
dü	NaN	NaN
nimm	NaN	NaN
lang	NaN	NaN
geniesse	NaN	NaN
wursch	NaN	NaN
,	NaN	NaN
nämlich	NaN	NaN
d'	NaN	NaN
Frejheit	NaN	NaN
!	NaN	NaN
Die	NaN	NaN
fählt	NaN	NaN
do	NaN	NaN
…	NaN	NaN
an	NaN	NaN
d'r	NaN	NaN
Wand	NaN	NaN
…	NaN	NaN
...	NaN	NaN
unn	NaN	NaN
noch	NaN	NaN
an	NaN	NaN
viele	NaN	NaN
andere	NaN	NaN
Plätz	NaN	NaN
!	NaN	NaN
Diss	NaN	NaN
Messerle	NaN	NaN
konfiszier	NaN	NaN
ich	NaN	NaN
,	NaN	NaN
bis	NaN	NaN
ass	NaN	NaN
d'r	NaN	NaN
Monsieur	NaN	NaN
Frosch	NaN	NaN
mir	NaN	NaN
syne	NaN	NaN
Waffeschyn	NaN	NaN
gezeijt	NaN	NaN
hett	NaN	NaN
!	NaN	NaN
Oder	NaN	NaN
de	NaN	NaN
Doodesschyn	NaN	NaN
!	NaN	NaN
Unn	NaN	NaN
was	NaN	NaN
isch	NaN	NaN
diss	NaN	NaN
,	NaN	NaN
Männel	NaN	NaN
?	NaN	NaN
Diss	NaN	NaN
sinn	NaN	NaN
e	NaN	NaN
Paar	NaN	NaN
grini	NaN	NaN
Strimpf	NaN	NaN
,	NaN	NaN
unn	NaN	NaN
diss	NaN	NaN
sche	NaN	NaN
e	NaN	NaN
schwarzer	NaN	NaN
Huet	NaN	NaN
!	NaN	NaN
Unn	NaN	NaN
dü	NaN	NaN
bekummsch	NaN	NaN
au	NaN	NaN
glych	NaN	NaN
e	NaN	NaN
paar	NaN	NaN
uff	NaN	NaN
de	NaN	NaN
Huet	NaN	NaN
,	NaN	NaN
wenn	NaN	NaN
dü	NaN	NaN
mich	NaN	NaN
fur	NaN	NaN
daub	NaN	NaN
angücksch	NaN	NaN
!	NaN	NaN
Die	NaN	NaN
rote	NaN	NaN
Umhängle	NaN	NaN
fähle	NaN	NaN
do	NaN	NaN
unn	NaN	NaN
die	NaN	NaN
rot	NaN	NaN
Dischdeck	NaN	NaN
do	NaN	NaN
!	NaN	NaN
Kein	NaN	NaN
chance	NaN	NaN
!	NaN	NaN
Noch	NaN	NaN
nitt	NaN	NaN
emool	NaN	NaN
farweblind	NaN	NaN
isch'r	NaN	NaN
!	NaN	NaN
So	NaN	NaN
,	NaN	NaN
jetzt	NaN	NaN
sieht	NaN	NaN
alles	NaN	NaN
widder	NaN	NaN
üss	NaN	NaN
,	NaN	NaN
wie	NaN	NaN
's	NaN	NaN
friehjer	NaN	NaN
isch	NaN	NaN
g'sinn	NaN	NaN
!	NaN	NaN
Diss	NaN	NaN
langt	NaN	NaN
…	NaN	NaN
diss	NaN	NaN
isch	NaN	NaN
Bewyes	NaN	NaN
genue	NaN	NaN
!	NaN	NaN
Na	NaN	NaN
,	NaN	NaN
in	NaN	NaN
Gott	NaN	NaN
's	NaN	NaN
Namme	NaN	NaN
,	NaN	NaN
ich	NaN	NaN
gibb	NaN	NaN
zue	NaN	NaN
,	NaN	NaN
ass	NaN	NaN
die	NaN	NaN
Sache	NaN	NaN
myne	NaN	NaN
sinn	NaN	NaN
!	NaN	NaN
Ich	NaN	NaN
ergibb	NaN	NaN
mich	NaN	NaN
mit	NaN	NaN
Herz	NaN	NaN
unn	NaN	NaN
mit	NaN	NaN
Hand	NaN	NaN
fur	NaN	NaN
's	NaN	NaN
Vaterland	NaN	NaN
!	NaN	NaN
Enfin	NaN	NaN
hann	NaN	NaN
s'	NaN	NaN
e	NaN	NaN
mich	NaN	NaN
laufe	NaN	NaN
lonn	NaN	NaN
…	NaN	NaN
awer	NaN	NaN
's	NaN	NaN
hett	NaN	NaN
Hitz	NaN	NaN
genue	NaN	NaN
koscht	NaN	NaN
!	NaN	NaN
E	NaN	NaN
Schand	NaN	NaN
isch	NaN	NaN
so	NaN	NaN
ebbs	NaN	NaN
,	NaN	NaN
e'n-	NaN	NaN
ehrliche	NaN	NaN
Mensch	NaN	NaN
ze	NaN	NaN
verhafte	NaN	NaN
!	NaN	NaN
Awer	NaN	NaN
do	NaN	NaN
isch	NaN	NaN
numme	NaN	NaN
de	NaN	NaN
Monsieur	NaN	NaN
Georges	NaN	NaN
Frosch	NaN	NaN
dran	NaN	NaN
schuld	NaN	NaN
!	NaN	NaN
Na	NaN	NaN
,	NaN	NaN
dem	NaN	NaN
will	NaN	NaN
ich	NaN	NaN
's	NaN	NaN
stecke	NaN	NaN
!	NaN	NaN
Ja	NaN	NaN
,	NaN	NaN
sieh	NaN	NaN
ich	NaN	NaN
denn	NaN	NaN
erächt	NaN	NaN
?	NaN	NaN
Isch	NaN	NaN
diss	NaN	NaN
nitt	NaN	NaN
myner	NaN	NaN
ami	NaN	NaN
Michel	NaN	NaN
Frosch	NaN	NaN
?	NaN	NaN
Ja	NaN	NaN
,	NaN	NaN
liewer	NaN	NaN
Burjer	NaN	NaN
,	NaN	NaN
ich	NaN	NaN
bin	NaN	NaN
's	NaN	NaN
!	NaN	NaN
Ja	NaN	NaN
,	NaN	NaN
Mensch	NaN	NaN
,	NaN	NaN
wie	NaN	NaN
kummsch	NaN	NaN
dü	NaN	NaN
denn	NaN	NaN
in	NaN	NaN
die	NaN	NaN
Wyewerklift	NaN	NaN
?	NaN	NaN
Ei	NaN	NaN
,	NaN	NaN
wyll	NaN	NaN
ich	NaN	NaN
politisch	NaN	NaN
verdächtig	NaN	NaN
bin	NaN	NaN
!	NaN	NaN
Siehsch	NaN	NaN
's	NaN	NaN
denn	NaN	NaN
nitt	NaN	NaN
?	NaN	NaN
Was	NaN	NaN
heer	NaN	NaN
ich	NaN	NaN
do	NaN	NaN
?	NaN	NaN
Diss	NaN	NaN
geht	NaN	NaN
iwer	NaN	NaN
d'	NaN	NaN
Kräfte	NaN	NaN
vun	NaN	NaN
mym	NaN	NaN
Denkapperat	NaN	NaN
!	NaN	NaN
Do	NaN	NaN
hinne	NaN	NaN
sieht	NaN	NaN
's	NaN	NaN
jo	NaN	NaN
uff	NaN	NaN
's	NaN	NaN
Mool	NaN	NaN
widder	NaN	NaN
ganz	NaN	NaN
wohnlich	NaN	NaN
dryn	NaN	NaN
!	NaN	NaN
Also	NaN	NaN
,	NaN	NaN
Monsieur	NaN	NaN
Frosch	NaN	NaN
,	NaN	NaN
wie	NaN	NaN
g'saat	NaN	NaN
,	NaN	NaN
's	NaN	NaN
isch	NaN	NaN
leider	NaN	NaN
e	NaN	NaN
Versähn	NaN	NaN
g'sinn	NaN	NaN
!	NaN	NaN
Der	NaN	NaN
Monsieur	NaN	NaN
isch	NaN	NaN
daadsächlich	NaN	NaN
de	NaN	NaN
Monsieur	NaN	NaN
Burjer	NaN	NaN
unn	NaN	NaN
kein	NaN	NaN
Gauner	NaN	NaN
g'sinn	NaN	NaN
!	NaN	NaN
Nein	NaN	NaN
,	NaN	NaN
so	NaN	NaN
ebbs	NaN	NaN
!	NaN	NaN
Diss	NaN	NaN
isch	NaN	NaN
jo	NaN	NaN
unser	NaN	NaN
bescht	NaN	NaN
G'schäftsfrind	NaN	NaN
,	NaN	NaN
numme	NaN	NaN
haw	NaN	NaN
ich'ne	NaN	NaN
noch	NaN	NaN
nitt	NaN	NaN
perseenlich	NaN	NaN
kennt	NaN	NaN
!	NaN	NaN
:	NaN	NaN
Allmächtiger	NaN	NaN
,	NaN	NaN
do	NaN	NaN
hänge	NaN	NaN
jo	NaN	NaN
widder	NaN	NaN
unseri	NaN	NaN
sämtlichi	NaN	NaN
Doodesurdeiler	NaN	NaN
!	NaN	NaN
:	NaN	NaN
Michel	NaN	NaN
!	NaN	NaN
Bisch	NaN	NaN
's	NaN	NaN
odder	NaN	NaN
bisch	NaN	NaN
's	NaN	NaN
nitt	NaN	NaN
!	NaN	NaN
Wie	NaN	NaN
bisch	NaN	NaN
denn	NaN	NaN
dü	NaN	NaN
gemutzt	NaN	NaN
?	NaN	NaN
Hann	NaN	NaN
s'	NaN	NaN
e	NaN	NaN
dich	NaN	NaN
au	NaN	NaN
schun	NaN	NaN
arretiert	NaN	NaN
?	NaN	NaN
Na	NaN	NaN
,	NaN	NaN
ich	NaN	NaN
bin	NaN	NaN
au	NaN	NaN
so	NaN	NaN
wytt	NaN	NaN
!	NaN	NaN
Was	NaN	NaN
soll	NaN	NaN
denn	NaN	NaN
die	NaN	NaN
Uffrejung	NaN	NaN
bedytte	NaN	NaN
?	NaN	NaN
Unn	NaN	NaN
was	NaN	NaN
die	NaN	NaN
Maschkerad	NaN	NaN
?	NaN	NaN
Oh	NaN	NaN
,	NaN	NaN
wenn	NaN	NaN
ich	NaN	NaN
numme	NaN	NaN
denne	NaN	NaN
gewisselos	NaN	NaN
Schuft	NaN	NaN
kenne	NaN	NaN
dhät	NaN	NaN
,	NaN	NaN
wo	NaN	NaN
uns	NaN	NaN
by	NaN	NaN
d'r	NaN	NaN
Polizej	NaN	NaN
denunziert	NaN	NaN
hett	NaN	NaN
!	NaN	NaN
Ihr	NaN	NaN
,	NaN	NaN
so	NaN	NaN
ehrewärti	NaN	NaN
Lytt	NaN	NaN
,	NaN	NaN
unn	NaN	NaN
denunziert	NaN	NaN
?	NaN	NaN
Do	NaN	NaN
miesst	NaN	NaN
ich	NaN	NaN
au	NaN	NaN
ebbs	NaN	NaN
devun	NaN	NaN
wisse	NaN	NaN
!	NaN	NaN
Et	NaN	NaN
moi	NaN	NaN
aussi	NaN	NaN
!	NaN	NaN
Monsieur	NaN	NaN
Frosch	NaN	NaN
,	NaN	NaN
Sie	NaN	NaN
exküssiere	NaN	NaN
,	NaN	NaN
ass	NaN	NaN
Sie	NaN	NaN
nitt	NaN	NaN
der	NaN	NaN
Gauner	NaN	NaN
sinn	NaN	NaN
,	NaN	NaN
wo	NaN	NaN
ich	NaN	NaN
g'suecht	NaN	NaN
habb	NaN	NaN
!	NaN	NaN
Wie	NaN	NaN
?	NaN	NaN
Was	NaN	NaN
?	NaN	NaN
's	NaN	NaN
isch	NaN	NaN
nitt	NaN	NaN
wohr	NaN	NaN
?	NaN	NaN
Gott	NaN	NaN
sej	NaN	NaN
Dank	NaN	NaN
,	NaN	NaN
d'	NaN	NaN
Guillotine	NaN	NaN
isch	NaN	NaN
noch	NaN	NaN
emool	NaN	NaN
an	NaN	NaN
uns	NaN	NaN
durichgange	NaN	NaN
!	NaN	NaN
Do	NaN	NaN
hett	NaN	NaN
Ihnne	NaN	NaN
gewiss	NaN	NaN
ebber	NaN	NaN
e	NaN	NaN
Streich	NaN	NaN
welle	NaN	NaN
spiele	NaN	NaN
!	NaN	NaN
Awer	NaN	NaN
wer	NaN	NaN
kennt	NaN	NaN
denn	NaN	NaN
e	NaN	NaN
Interesse	NaN	NaN
dran	NaN	NaN
hann	NaN	NaN
,	NaN	NaN
uns	NaN	NaN
so	NaN	NaN
iwel	NaN	NaN
mitzespiele	NaN	NaN
?	NaN	NaN
Am	NaN	NaN
End	NaN	NaN
gar	NaN	NaN
der	NaN	NaN
,	NaN	NaN
wo	NaN	NaN
ejch	NaN	NaN
unn	NaN	NaN
ejere	NaN	NaN
Neveu	NaN	NaN
by	NaN	NaN
mir	NaN	NaN
so	NaN	NaN
schlächt	NaN	NaN
gemacht	NaN	NaN
het	NaN	NaN
,	NaN	NaN
denn	NaN	NaN
nooch	NaN	NaN
allem	NaN	NaN
sieh	NaN	NaN
ich	NaN	NaN
,	NaN	NaN
ass'r	NaN	NaN
mich	NaN	NaN
ganz	NaN	NaN
g'heerig	NaN	NaN
verschwindelt	NaN	NaN
hett	NaN	NaN
!	NaN	NaN
Wer	NaN	NaN
isch	NaN	NaN
der	NaN	NaN
gemein	NaN	NaN
Fetze	NaN	NaN
g'sinn	NaN	NaN
!	NaN	NaN
Ich	NaN	NaN
will	NaN	NaN
'ne	NaN	NaN
kenne	NaN	NaN
unn	NaN	NaN
Mores	NaN	NaN
lehre	NaN	NaN
!	NaN	NaN
Voilà	NaN	NaN
!	NaN	NaN
Do	NaN	NaN
kummt'r	NaN	NaN
wie	NaN	NaN
geruefe	NaN	NaN
!	NaN	NaN
Ich	NaN	NaN
hab'	NaN	NaN
mein	NaN	NaN
Herz	NaN	NaN
in	NaN	NaN
Heidelberg	NaN	NaN
verloren	NaN	NaN
…	NaN	NaN
:	NaN	NaN
Fitzekapores	NaN	NaN
,	NaN	NaN
was	NaN	NaN
isch	NaN	NaN
denn	NaN	NaN
do	NaN	NaN
fur	NaN	NaN
e	NaN	NaN
Velkerbundsversammlung	NaN	NaN
?	NaN	NaN
:	NaN	NaN
Ich	NaN	NaN
ahn	NaN	NaN
beesi	NaN	NaN
Zytte	NaN	NaN
!	NaN	NaN
Was	NaN	NaN
?	NaN	NaN
Der	NaN	NaN
soll	NaN	NaN
's	NaN	NaN
sinn	NaN	NaN
?	NaN	NaN
Uessg'schlosse	NaN	NaN
!	NaN	NaN
Diss	NaN	NaN
isch	NaN	NaN
jo	NaN	NaN
unser	NaN	NaN
Neveu	NaN	NaN
!	NaN	NaN
Wie	NaN	NaN
?	NaN	NaN
Was	NaN	NaN
?	NaN	NaN
Der	NaN	NaN
ejere	NaN	NaN
Neveu	NaN	NaN
?	NaN	NaN
Unn	NaN	NaN
het	NaN	NaN
sich	NaN	NaN
sälwer	NaN	NaN
by	NaN	NaN
mir	NaN	NaN
schlächt	NaN	NaN
gemacht	NaN	NaN
?	NaN	NaN
Diss	NaN	NaN
kapier	NaN	NaN
,	NaN	NaN
wer	NaN	NaN
will	NaN	NaN
!	NaN	NaN
Do	NaN	NaN
bin	NaN	NaN
ich	NaN	NaN
scheen	NaN	NaN
ryngerasselt	NaN	NaN
!	NaN	NaN
Zeij	NaN	NaN
,	NaN	NaN
Robert	NaN	NaN
,	NaN	NaN
kumm	NaN	NaN
emool	NaN	NaN
e	NaN	NaN
bissel	NaN	NaN
here	NaN	NaN
!	NaN	NaN
Was	NaN	NaN
saasch	NaN	NaN
dü	NaN	NaN
zue	NaN	NaN
dere	NaN	NaN
ganz	NaN	NaN
G'schicht	NaN	NaN
?	NaN	NaN
Jetzt	NaN	NaN
heisst	NaN	NaN
's	NaN	NaN
bychte	NaN	NaN
!	NaN	NaN
Na	NaN	NaN
,	NaN	NaN
ja	NaN	NaN
,	NaN	NaN
ich	NaN	NaN
gibb	NaN	NaN
zue	NaN	NaN
,	NaN	NaN
ass	NaN	NaN
d'r	NaN	NaN
Monsieur	NaN	NaN
Burjer	NaN	NaN
rächt	NaN	NaN
hett	NaN	NaN
!	NaN	NaN
So	NaN	NaN
?	NaN	NaN
Unn	NaN	NaN
worum	NaN	NaN
hann	NaN	NaN
Sie	NaN	NaN
mir	NaN	NaN
so	NaN	NaN
schlächt	NaN	NaN
's	NaN	NaN
Dings	NaN	NaN
iwer	NaN	NaN
sich	NaN	NaN
sälwer	NaN	NaN
verzählt	NaN	NaN
?	NaN	NaN
Ei	NaN	NaN
,	NaN	NaN
wyll	NaN	NaN
ich	NaN	NaN
nitt	NaN	NaN
an	NaN	NaN
Ihri	NaN	NaN
Dochter	NaN	NaN
verschachert	NaN	NaN
will	NaN	NaN
wäre	NaN	NaN
!	NaN	NaN
Diss	NaN	NaN
heisst	NaN	NaN
m'r	NaN	NaN
ehrlich	NaN	NaN
geredd	NaN	NaN
!	NaN	NaN
Unn	NaN	NaN
isch	NaN	NaN
au	NaN	NaN
alles	NaN	NaN
wohr	NaN	NaN
,	NaN	NaN
was	NaN	NaN
Sie	NaN	NaN
vun	NaN	NaN
sich	NaN	NaN
sälwer	NaN	NaN
g'saat	NaN	NaN
hann	NaN	NaN
?	NaN	NaN
Nein	NaN	NaN
…	NaN	NaN
diss	NaN	NaN
heisst	NaN	NaN
doch	NaN	NaN
;	NaN	NaN
's	NaN	NaN
isch	NaN	NaN
noch	NaN	NaN
döjsig	NaN	NaN
Mool	NaN	NaN
schlimmer	NaN	NaN
!	NaN	NaN
Zej	NaN	NaN
,	NaN	NaN
Robert	NaN	NaN
,	NaN	NaN
kumm	NaN	NaN
emool	NaN	NaN
e	NaN	NaN
bissel	NaN	NaN
here	NaN	NaN
!	NaN	NaN
Wer	NaN	NaN
hett	NaN	NaN
uns	NaN	NaN
denn	NaN	NaN
mit	NaN	NaN
dere	NaN	NaN
Denunziation	NaN	NaN
an	NaN	NaN
d'r	NaN	NaN
Nas	NaN	NaN
erumg'fiehrt	NaN	NaN
?	NaN	NaN
Ein	NaN	NaN
Unglick	NaN	NaN
kummt	NaN	NaN
nie	NaN	NaN
ellein	NaN	NaN
!	NaN	NaN
:	NaN	NaN
Diss	NaN	NaN
isch	NaN	NaN
myni	NaN	NaN
Wenigkeit	NaN	NaN
g'sinn	NaN	NaN
,	NaN	NaN
Unkel	NaN	NaN
!	NaN	NaN
So	NaN	NaN
?	NaN	NaN
Unn	NaN	NaN
worum	NaN	NaN
?	NaN	NaN
Fur	NaN	NaN
ass	NaN	NaN
ihr	NaN	NaN
mich	NaN	NaN
mit	NaN	NaN
ejere	NaN	NaN
Hyrootsg'schichte	NaN	NaN
in	NaN	NaN
Fridde	NaN	NaN
lonn	NaN	NaN
!	NaN	NaN
Monsieur	NaN	NaN
,	NaN	NaN
ich	NaN	NaN
verhaft	NaN	NaN
Sie	NaN	NaN
waje	NaN	NaN
growem	NaN	NaN
Unfuej	NaN	NaN
!	NaN	NaN
Monsieur	NaN	NaN
,	NaN	NaN
ich	NaN	NaN
verhaft	NaN	NaN
Sie	NaN	NaN
waje	NaN	NaN
Selbschtbeleidigung	NaN	NaN
!	NaN	NaN
Nemme	NaN	NaN
mich	NaN	NaN
mit	NaN	NaN
;	NaN	NaN
stroofe	NaN	NaN
mich	NaN	NaN
,	NaN	NaN
so	NaN	NaN
hart	NaN	NaN
ass	NaN	NaN
ihr	NaN	NaN
welle	NaN	NaN
,	NaN	NaN
awer	NaN	NaN
mache	NaN	NaN
mich	NaN	NaN
nitt	NaN	NaN
hyroote	NaN	NaN
!	NaN	NaN
Kein	NaN	NaN
Angscht	NaN	NaN
,	NaN	NaN
jeune	NaN	NaN
homme	NaN	NaN
,	NaN	NaN
so	NaN	NaN
e	NaN	NaN
Maidel	NaN	NaN
wie	NaN	NaN
myni	NaN	NaN
Dochter	NaN	NaN
wär	NaN	NaN
fur	NaN	NaN
Sie	NaN	NaN
doch	NaN	NaN
viel	NaN	NaN
ze	NaN	NaN
schad	NaN	NaN
!	NaN	NaN
Was	NaN	NaN
sieh	NaN	NaN
ich	NaN	NaN
?	NaN	NaN
Diss	NaN	NaN
isch	NaN	NaN
jo	NaN	NaN
's	NaN	NaN
Yvonne	NaN	NaN
,	NaN	NaN
myn	NaN	NaN
goldich	NaN	NaN
's	NaN	NaN
Yvonnel	NaN	NaN
!	NaN	NaN
Ich	NaN	NaN
nemm	NaN	NaN
s'	NaN	NaN
e....	NaN	NaN
ich	NaN	NaN
hyroot	NaN	NaN
s'	NaN	NaN
e	NaN	NaN
so	NaN	NaN
lang	NaN	NaN
,	NaN	NaN
als	NaN	NaN
wie	NaN	NaN
m'r	NaN	NaN
will	NaN	NaN
!	NaN	NaN
Der	NaN	NaN
Bue	NaN	NaN
isch	NaN	NaN
verruckt	NaN	NaN
worre	NaN	NaN
…	NaN	NaN
…	NaN	NaN
unn	NaN	NaN
hyroot	NaN	NaN
am	NaN	NaN
End	NaN	NaN
trotzdem	NaN	NaN
!	NaN	NaN
Was	NaN	NaN
?	NaN	NaN
Sie	NaN	NaN
kenne	NaN	NaN
myni	NaN	NaN
Dochter	NaN	NaN
?	NaN	NaN
Schun	NaN	NaN
lang	NaN	NaN
,	NaN	NaN
ich	NaN	NaN
habb	NaN	NaN
awer	NaN	NaN
nitt	NaN	NaN
gewisst	NaN	NaN
,	NaN	NaN
ass	NaN	NaN
diss	NaN	NaN
Ihri	NaN	NaN
Dochter	NaN	NaN
isch	NaN	NaN
,	NaN	NaN
Monsieur	NaN	NaN
!	NaN	NaN
Ihre	NaN	NaN
zelieb	NaN	NaN
haw	NaN	NaN
ich	NaN	NaN
jo	NaN	NaN
die	NaN	NaN
ganze	NaN	NaN
Streich	NaN	NaN
losgelonn	NaN	NaN
,	NaN	NaN
denn	NaN	NaN
sie	NaN	NaN
unn	NaN	NaN
kein	NaN	NaN
anderi	NaN	NaN
haw	NaN	NaN
ich	NaN	NaN
als	NaN	NaN
Frau	NaN	NaN
gewellt	NaN	NaN
!	NaN	NaN
Ah	NaN	NaN
,	NaN	NaN
so	NaN	NaN
stehts	NaN	NaN
!	NaN	NaN
Na	NaN	NaN
,	NaN	NaN
ich	NaN	NaN
mein	NaN	NaN
,	NaN	NaN
ass	NaN	NaN
wemm'r	NaN	NaN
d'r	NaN	NaN
Lieb	NaN	NaN
zelieb	NaN	NaN
so	NaN	NaN
wytt	NaN	NaN
geht	NaN	NaN
,	NaN	NaN
sich	NaN	NaN
sälwer	NaN	NaN
schlächt	NaN	NaN
ze	NaN	NaN
mache	NaN	NaN
,	NaN	NaN
ze	NaN	NaN
kamm'r	NaN	NaN
nitt	NaN	NaN
grad	NaN	NaN
so	NaN	NaN
arich	NaN	NaN
schlächt	NaN	NaN
sinn	NaN	NaN
,	NaN	NaN
denn	NaN	NaN
anderi	NaN	NaN
im	NaN	NaN
glyche	NaN	NaN
Fall	NaN	NaN
wie	NaN	NaN
Sie	NaN	NaN
mache	NaN	NaN
sich	NaN	NaN
als	NaN	NaN
gewehnlich	NaN	NaN
besser	NaN	NaN
als	NaN	NaN
wie	NaN	NaN
s'	NaN	NaN
e	NaN	NaN
sinn	NaN	NaN
!	NaN	NaN
Ich	NaN	NaN
begnadig'ne	NaN	NaN
!	NaN	NaN
Unn	NaN	NaN
ich	NaN	NaN
enthaft'ne	NaN	NaN
!	NaN	NaN
Fur	NaN	NaN
ass'r	NaN	NaN
awer	NaN	NaN
doch	NaN	NaN
nitt	NaN	NaN
ohne	NaN	NaN
Stroof	NaN	NaN
üssgeht	NaN	NaN
…	NaN	NaN
...	NaN	NaN
unn	NaN	NaN
nit	NaN	NaN
noch	NaN	NaN
emool	NaN	NaN
in	NaN	NaN
d'r	NaN	NaN
Wuch	NaN	NaN
zwei	NaN	NaN
Mool	NaN	NaN
e	NaN	NaN
frischer	NaN	NaN
Stellkraawe	NaN	NaN
anzejt	NaN	NaN
…	NaN	NaN
...	NaN	NaN
Unn	NaN	NaN
am	NaN	NaN
End	NaN	NaN
nitt	NaN	NaN
doch	NaN	NaN
noch	NaN	NaN
in	NaN	NaN
d'r	NaN	NaN
blöj	NaN	NaN
Adria	NaN	NaN
in	NaN	NaN
de	NaN	NaN
Wäj	NaN	NaN
lauft	NaN	NaN
…	NaN	NaN
...	NaN	NaN
ze	NaN	NaN
soll'r	NaN	NaN
uff	NaN	NaN
läweslängliche	NaN	NaN
Ehstand	NaN	NaN
mit	NaN	NaN
mynere	NaN	NaN
Dochter	NaN	NaN
verurdeilt	NaN	NaN
wäre	NaN	NaN
!	NaN	NaN
Vielmools	NaN	NaN
merci	NaN	NaN
,	NaN	NaN
Herr	NaN	NaN
Staatsanwalt	NaN	NaN
!	NaN	NaN
Ich	NaN	NaN
leij	NaN	NaN
kein	NaN	NaN
Beruefung	NaN	NaN
geje	NaN	NaN
diss	NaN	NaN
Urdeil	NaN	NaN
yn	NaN	NaN
!	NaN	NaN
Awer	NaN	NaN
die	NaN	NaN
döjsig	NaN	NaN
Franke	NaN	NaN
,	NaN	NaN
wo	NaN	NaN
dü	NaN	NaN
mir	NaN	NaN
abgelüst	NaN	NaN
hesch	NaN	NaN
,	NaN	NaN
zej	NaN	NaN
ich	NaN	NaN
an	NaN	NaN
d'r	NaN	NaN
Mitgift	NaN	NaN
ab	NaN	NaN
!	NaN	NaN
Bysamme	NaN	NaN
,	NaN	NaN
haw	NaN	NaN
ich	NaN	NaN
g'saat	NaN	NaN
!	NaN	NaN
Mir	NaN	NaN
solle	NaN	NaN
denne	NaN	NaN
Kuffer	NaN	NaN
hole	NaN	NaN
,	NaN	NaN
wo	NaN	NaN
repariert	NaN	NaN
soll	NaN	NaN
wäre	NaN	NaN
!	NaN	NaN
Ah	NaN	NaN
,	NaN	NaN
bon	NaN	NaN
!	NaN	NaN
Do	NaN	NaN
steht'r	NaN	NaN
!	NaN	NaN
Hopp	NaN	NaN
,	NaN	NaN
Kamerad	NaN	NaN
,	NaN	NaN
pack'ne	NaN	NaN
!	NaN	NaN
Kücküs	NaN	NaN
—	NaN	NaN
da-da	NaN	NaN
!	NaN	NaN
ich	NaN	NaN
bin	NaN	NaN
geliffert	NaN	NaN
!	NaN	NaN
Was	NaN	NaN
Dejfels	NaN	NaN
,	NaN	NaN
was	NaN	NaN
isch	NaN	NaN
denn	NaN	NaN
nitt	NaN	NaN
diss	NaN	NaN
!	NaN	NaN
Diss	NaN	NaN
isch	NaN	NaN
jo	NaN	NaN
der	NaN	NaN
Gauner	NaN	NaN
,	NaN	NaN
wo	NaN	NaN
mir	NaN	NaN
schun	NaN	NaN
lang	NaN	NaN
sueche	NaN	NaN
!	NaN	NaN
Denne	NaN	NaN
hätte	NaN	NaN
m'r	NaN	NaN
!	NaN	NaN
Wie	NaN	NaN
kummt	NaN	NaN
denn	NaN	NaN
der	NaN	NaN
Halunk	NaN	NaN
in	NaN	NaN
unseri	NaN	NaN
Wohnung	NaN	NaN
?	NaN	NaN
Diss	NaN	NaN
isch	NaN	NaN
doch	NaN	NaN
e	NaN	NaN
boddelosi	NaN	NaN
Frechheit	NaN	NaN
!	NaN	NaN
Saawe	NaN	NaN
liewer	NaN	NaN
,	NaN	NaN
ass	NaN	NaN
diss	NaN	NaN
e	NaN	NaN
boddeloser	NaN	NaN
Kuffer	NaN	NaN
isch	NaN	NaN
g'sinn	NaN	NaN
,	NaN	NaN
denn	NaN	NaN
schunscht	NaN	NaN
hätte	NaN	NaN
ihr	NaN	NaN
mich	NaN	NaN
nitt	NaN	NaN
verwitscht	NaN	NaN
!	NaN	NaN
