Schlächti	NaN	NaN
Zitte	NaN	NaN
,	NaN	NaN
schlächti	NaN	NaN
Gschäfter	NaN	NaN
.	NaN	NaN
Kenn	NaN	NaN
Trinkgälder	NaN	NaN
.	NaN	NaN
Schun	NaN	NaN
de	NaN	NaN
ganz	NaN	NaN
Döj	NaN	NaN
wart	NaN	NaN
ich	NaN	NaN
uff	NaN	NaN
Gäscht	NaN	NaN
,	NaN	NaN
wie	NaN	NaN
d'r	NaN	NaN
Teijfel	NaN	NaN
uff-e	NaN	NaN
-n-	NaN	NaN
armi	NaN	NaN
Seel	NaN	NaN
.	NaN	NaN
Andli	NaN	NaN
hitt	NaN	NaN
owe	NaN	NaN
hett	NaN	NaN
d'r	NaN	NaN
Facteur	NaN	NaN
e	NaN	NaN
Depesch	NaN	NaN
gebrocht	NaN	NaN
«	NaN	NaN
Ersuche	NaN	NaN
um	NaN	NaN
ein	NaN	NaN
ruhiges	NaN	NaN
Zimmer	NaN	NaN
nach	NaN	NaN
hinten	NaN	NaN
heraus	NaN	NaN
»	NaN	NaN
.	NaN	NaN
Diss	NaN	NaN
känne	NaN	NaN
m'r	NaN	NaN
,	NaN	NaN
wenn	NaN	NaN
diss	NaN	NaN
Zimmer	NaN	NaN
bstellt	NaN	NaN
wurd	NaN	NaN
,	NaN	NaN
nach	NaN	NaN
hinten	NaN	NaN
heräus	NaN	NaN
,	NaN	NaN
no	NaN	NaN
sinn	NaN	NaN
's	NaN	NaN
als	NaN	NaN
Hochzittspäärle	NaN	NaN
,	NaN	NaN
die	NaN	NaN
welle	NaN	NaN
nit	NaN	NaN
gstört	NaN	NaN
sinn	NaN	NaN
,	NaN	NaN
drum	NaN	NaN
welle	NaN	NaN
sie	NaN	NaN
nach	NaN	NaN
hinten	NaN	NaN
heräus	NaN	NaN
,	NaN	NaN
Do	NaN	NaN
gitt	NaN	NaN
's	NaN	NaN
Trinkgelder	NaN	NaN
,	NaN	NaN
by	NaN	NaN
de	NaN	NaN
Hochzittspäärle	NaN	NaN
,	NaN	NaN
m'r	NaN	NaN
muess	NaN	NaN
's	NaN	NaN
numme	NaN	NaN
v'rstehn	NaN	NaN
,	NaN	NaN
un	NaN	NaN
ich	NaN	NaN
v'rsteh	NaN	NaN
mich	NaN	NaN
druff	NaN	NaN
,	NaN	NaN
uffs	NaN	NaN
Trinkgeld	NaN	NaN
nämme	NaN	NaN
,	NaN	NaN
wie	NaN	NaN
kenn	NaN	NaN
zwäiter	NaN	NaN
.	NaN	NaN
Bie	NaN	NaN
de	NaN	NaN
Hochzittspäärle	NaN	NaN
mach	NaN	NaN
ich	NaN	NaN
mir	NaN	NaN
alle	NaN	NaN
gälte	NaN	NaN
ebs	NaN	NaN
im	NaN	NaN
Zimmer	NaN	NaN
ze	NaN	NaN
schaffe	NaN	NaN
,	NaN	NaN
no	NaN	NaN
gitt	NaN	NaN
's	NaN	NaN
Trinkgäld	NaN	NaN
,	NaN	NaN
ass	NaN	NaN
ich	NaN	NaN
widder	NaN	NaN
nüss	NaN	NaN
geh	NaN	NaN
,	NaN	NaN
denn	NaN	NaN
sie	NaN	NaN
welle	NaN	NaN
alläin	NaN	NaN
sinn	NaN	NaN
—	NaN	NaN
hehehe	NaN	NaN
—	NaN	NaN
ich	NaN	NaN
wäiss	NaN	NaN
worum	NaN	NaN
.	NaN	NaN
Ich	NaN	NaN
gickel	NaN	NaN
als	NaN	NaN
durch	NaN	NaN
's	NaN	NaN
Schlüsselloch	NaN	NaN
.	NaN	NaN
D'	NaN	NaN
Poschtkütch	NaN	NaN
wurd	NaN	NaN
jetz	NaN	NaN
glich	NaN	NaN
kumme	NaN	NaN
,	NaN	NaN
do	NaN	NaN
wäre	NaN	NaN
sie	NaN	NaN
drinne	NaN	NaN
sinn	NaN	NaN
Alles	NaN	NaN
in	NaN	NaN
schöenschter	NaN	NaN
Ordnung	NaN	NaN
.	NaN	NaN
Blüeme	NaN	NaN
uff'em	NaN	NaN
Tisch	NaN	NaN
,	NaN	NaN
diss	NaN	NaN
macht	NaN	NaN
e	NaN	NaN
gueter	NaN	NaN
Indruck	NaN	NaN
,	NaN	NaN
do	NaN	NaN
gitt	NaN	NaN
's	NaN	NaN
Trinkgälder	NaN	NaN
.	NaN	NaN
Jetz	NaN	NaN
will	NaN	NaN
ich	NaN	NaN
noch	NaN	NaN
niwwer	NaN	NaN
un	NaN	NaN
zäll	NaN	NaN
Zimmer	NaN	NaN
abschliesse	NaN	NaN
Do	NaN	NaN
soll	NaN	NaN
mr	NaN	NaN
nitt	NaN	NaN
wüeti	NaN	NaN
wäre	NaN	NaN
.	NaN	NaN
Endlich	NaN	NaN
allein	NaN	NaN
.	NaN	NaN
Endlich	NaN	NaN
allein	NaN	NaN
,	NaN	NaN
endlich	NaN	NaN
allein	NaN	NaN
!	NaN	NaN
Wenn	NaN	NaN
ich	NaN	NaN
nurre	NaN	NaN
emol	NaN	NaN
endlich	NaN	NaN
allein	NaN	NaN
wär	NaN	NaN
.	NaN	NaN
Wenn	NaN	NaN
mr	NaN	NaN
sich	NaN	NaN
uff	NaN	NaN
eijch	NaN	NaN
Wibslitt	NaN	NaN
vrlosst	NaN	NaN
,	NaN	NaN
no	NaN	NaN
isch	NaN	NaN
me	NaN	NaN
vrlonn	NaN	NaN
.	NaN	NaN
Ich	NaN	NaN
hab	NaN	NaN
d'r	NaN	NaN
noch	NaN	NaN
extra	NaN	NaN
gsaat	NaN	NaN
,	NaN	NaN
dü	NaN	NaN
sollsch	NaN	NaN
im	NaN	NaN
Güschtäffel	NaN	NaN
jo	NaN	NaN
saue	NaN	NaN
,	NaN	NaN
er	NaN	NaN
soll	NaN	NaN
d'r	NaN	NaN
Kinjelestall	NaN	NaN
bschliesse	NaN	NaN
—	NaN	NaN
awer	NaN	NaN
vrgässe	NaN	NaN
—	NaN	NaN
Un	NaN	NaN
wär	NaN	NaN
!	NaN	NaN
Minni	NaN	NaN
Frau	NaN	NaN
—	NaN	NaN
Un	NaN	NaN
die	NaN	NaN
Moor	NaN	NaN
het	NaN	NaN
au	NaN	NaN
noch	NaN	NaN
Jungi	NaN	NaN
.	NaN	NaN
Awer	NaN	NaN
Felix	NaN	NaN
,	NaN	NaN
sej	NaN	NaN
doch	NaN	NaN
nit	NaN	NaN
so	NaN	NaN
hitt	NaN	NaN
.	NaN	NaN
D'r	NaN	NaN
Güschtäffel	NaN	NaN
wurd	NaN	NaN
schun	NaN	NaN
dran	NaN	NaN
dänke	NaN	NaN
.	NaN	NaN
Dran	NaN	NaN
dänke	NaN	NaN
?	NaN	NaN
Hättsch	NaN	NaN
dü	NaN	NaN
dran	NaN	NaN
gedänkt	NaN	NaN
.	NaN	NaN
O	NaN	NaN
Wiewer	NaN	NaN
wenn	NaN	NaN
ihr	NaN	NaN
halt	NaN	NaN
alt	NaN	NaN
wäre	NaN	NaN
.	NaN	NaN
Jo	NaN	NaN
,	NaN	NaN
natirli	NaN	NaN
jetz	NaN	NaN
wur	NaN	NaN
ich	NaN	NaN
alt	NaN	NaN
.	NaN	NaN
Ich	NaN	NaN
hätt	NaN	NaN
mir	NaN	NaN
unsere	NaN	NaN
silwerne	NaN	NaN
Hochzittsdaa	NaN	NaN
doch	NaN	NaN
schöner	NaN	NaN
vorgstellt	NaN	NaN
.	NaN	NaN
—	NaN	NaN
D'	NaN	NaN
Kinjelemoor	NaN	NaN
isch-em	NaN	NaN
hitt	NaN	NaN
liewer	NaN	NaN
ass	NaN	NaN
d'	NaN	NaN
Frau	NaN	NaN
.	NaN	NaN
Do	NaN	NaN
isch	NaN	NaN
frisch	NaN	NaN
Wasser	NaN	NaN
,	NaN	NaN
do	NaN	NaN
wello	NaN	NaN
m'r	NaN	NaN
glich	NaN	NaN
emol	NaN	NaN
e	NaN	NaN
Bad	NaN	NaN
nämme	NaN	NaN
—	NaN	NaN
—	NaN	NaN
ah	NaN	NaN
,	NaN	NaN
isch	NaN	NaN
diss	NaN	NaN
e	NaN	NaN
Genuss	NaN	NaN
.	NaN	NaN
Kenn	NaN	NaN
guet	NaN	NaN
Wort	NaN	NaN
hett-r	NaN	NaN
mr	NaN	NaN
hitt	NaN	NaN
noch	NaN	NaN
gänn	NaN	NaN
—	NaN	NaN
dr	NaN	NaN
Kinjelestall	NaN	NaN
isch	NaN	NaN
d'	NaN	NaN
Hauptsach	NaN	NaN
.	NaN	NaN
Diss	NaN	NaN
isch	NaN	NaN
dr	NaN	NaN
Dank	NaN	NaN
ass	NaN	NaN
ich	NaN	NaN
dr	NaN	NaN
zeh	NaN	NaN
Kinder	NaN	NaN
uffgezöje	NaN	NaN
hab	NaN	NaN
.	NaN	NaN
Jo	NaN	NaN
,	NaN	NaN
jo	NaN	NaN
Alti	NaN	NaN
!	NaN	NaN
!	NaN	NaN
,	NaN	NaN
jetz	NaN	NaN
sej	NaN	NaN
stille	NaN	NaN
,	NaN	NaN
.	NaN	NaN
hiel	NaN	NaN
nitt	NaN	NaN
Mamme	NaN	NaN
s'	NaN	NaN
isch	NaN	NaN
nitt	NaN	NaN
so	NaN	NaN
böes	NaN	NaN
gemeint	NaN	NaN
,	NaN	NaN
ich	NaN	NaN
bin	NaN	NaN
jetz	NaN	NaN
emol	NaN	NaN
eso	NaN	NaN
:	NaN	NaN
—	NaN	NaN
—	NaN	NaN
Ich	NaN	NaN
bin	NaN	NaN
jo	NaN	NaN
widder	NaN	NaN
guet	NaN	NaN
,	NaN	NaN
verdeckel	NaN	NaN
noch	NaN	NaN
emol	NaN	NaN
!	NaN	NaN
Dü	NaN	NaN
wursch	NaN	NaN
halt	NaN	NaN
nitt	NaN	NaN
andersch	NaN	NaN
…	NaN	NaN
Felix	NaN	NaN
!	NaN	NaN
Was	NaN	NaN
denn	NaN	NaN
Schülli	NaN	NaN
?	NaN	NaN
Felix	NaN	NaN
,	NaN	NaN
weisch	NaN	NaN
an	NaN	NaN
was	NaN	NaN
ass	NaN	NaN
ich	NaN	NaN
jetz	NaN	NaN
dänke	NaN	NaN
müess	NaN	NaN
?	NaN	NaN
Kenn	NaN	NaN
Ahnung	NaN	NaN
—	NaN	NaN
an	NaN	NaN
de	NaN	NaN
Kinjelestall	NaN	NaN
?	NaN	NaN
Loss	NaN	NaN
doch	NaN	NaN
jetz	NaN	NaN
de	NaN	NaN
Kinjelestall	NaN	NaN
.	NaN	NaN
…	NaN	NaN
Höer	NaN	NaN
,	NaN	NaN
wie	NaN	NaN
mr	NaN	NaN
hitt	NaN	NaN
vor	NaN	NaN
25	NaN	NaN
Johr	NaN	NaN
als	NaN	NaN
frischgebaches	NaN	NaN
Hochzittspärel	NaN	NaN
do	NaN	NaN
im	NaN	NaN
«	NaN	NaN
Kalte	NaN	NaN
Jäger	NaN	NaN
»	NaN	NaN
unser	NaN	NaN
erscht	NaN	NaN
Logie	NaN	NaN
genumme	NaN	NaN
hann	NaN	NaN
,	NaN	NaN
hesch	NaN	NaN
mich	NaN	NaN
do	NaN	NaN
in	NaN	NaN
dem	NaN	NaN
Zimmer	NaN	NaN
in	NaN	NaN
d'	NaN	NaN
Aerm	NaN	NaN
genumme	NaN	NaN
,	NaN	NaN
hesch	NaN	NaN
mr	NaN	NaN
e	NaN	NaN
Schmutz	NaN	NaN
gänn	NaN	NaN
un	NaN	NaN
wäiseh	NaN	NaN
noch	NaN	NaN
wie	NaN	NaN
gsaat	NaN	NaN
hesch	NaN	NaN
?	NaN	NaN
…	NaN	NaN
Mini	NaN	NaN
liewi	NaN	NaN
,	NaN	NaN
goldichi	NaN	NaN
,	NaN	NaN
einzichi	NaN	NaN
Schülli	NaN	NaN
»	NaN	NaN
.	NaN	NaN
—	NaN	NaN
Un	NaN	NaN
hitt	NaN	NaN
?	NaN	NaN
—	NaN	NaN
Hitt	NaN	NaN
wäscht	NaN	NaN
er	NaN	NaN
d'	NaN	NaN
Händ	NaN	NaN
.	NaN	NaN
Do	NaN	NaN
haw	NaN	NaN
ich	NaN	NaN
jetz	NaN	NaN
gar	NaN	NaN
nitt	NaN	NaN
dran	NaN	NaN
gedänkt	NaN	NaN
,	NaN	NaN
ass	NaN	NaN
mr	NaN	NaN
hitt	NaN	NaN
uff	NaN	NaN
dr	NaN	NaN
Hochzittsreiss	NaN	NaN
sinn	NaN	NaN
,	NaN	NaN
mit	NaN	NaN
dere	NaN	NaN
Moor	NaN	NaN
do	NaN	NaN
.	NaN	NaN
—	NaN	NaN
Na	NaN	NaN
kumm	NaN	NaN
here	NaN	NaN
Mamme	NaN	NaN
.	NaN	NaN
Mini	NaN	NaN
liewi	NaN	NaN
gueti	NaN	NaN
alti	NaN	NaN
Schülli	NaN	NaN
.	NaN	NaN
Pardon	NaN	NaN
,	NaN	NaN
ich	NaN	NaN
hab	NaN	NaN
nitt	NaN	NaN
gewüsst	NaN	NaN
,	NaN	NaN
ass	NaN	NaN
die	NaN	NaN
Herrschafte	NaN	NaN
schun	NaN	NaN
do	NaN	NaN
sinn	NaN	NaN
.	NaN	NaN
Oh	NaN	NaN
diss	NaN	NaN
macht	NaN	NaN
nix	NaN	NaN
,	NaN	NaN
nurre	NaN	NaN
erin	NaN	NaN
.	NaN	NaN
Eins	NaN	NaN
vun	NaN	NaN
de	NaN	NaN
Rösser	NaN	NaN
vun	NaN	NaN
dr	NaN	NaN
Poscht	NaN	NaN
isch	NaN	NaN
gfalle	NaN	NaN
un	NaN	NaN
no	NaN	NaN
sinn	NaN	NaN
m'r	NaN	NaN
zue	NaN	NaN
Fues	NaN	NaN
here	NaN	NaN
gewalzt	NaN	NaN
.	NaN	NaN
Mir	NaN	NaN
sinn	NaN	NaN
nämlich	NaN	NaN
hie	NaN	NaN
bekannt	NaN	NaN
.	NaN	NaN
Diss	NaN	NaN
isch	NaN	NaN
doch	NaN	NaN
kenn	NaN	NaN
Hochzittspäärel	NaN	NaN
die	NaN	NaN
zwei	NaN	NaN
Alte	NaN	NaN
.	NaN	NaN
-	NaN	NaN
Ah	NaN	NaN
die	NaN	NaN
Herrschafte	NaN	NaN
sinn	NaN	NaN
schun	NaN	NaN
emol	NaN	NaN
do	NaN	NaN
gsinn	NaN	NaN
?	NaN	NaN
Jaja	NaN	NaN
.	NaN	NaN
Lang	NaN	NaN
,	NaN	NaN
lang	NaN	NaN
ist	NaN	NaN
's	NaN	NaN
her	NaN	NaN
,	NaN	NaN
…	NaN	NaN
Diss	NaN	NaN
isch	NaN	NaN
e	NaN	NaN
-n-	NaN	NaN
alter	NaN	NaN
Schmüser	NaN	NaN
.	NaN	NaN
Alle	NaN	NaN
no	NaN	NaN
bhalte	NaN	NaN
sie	NaN	NaN
diss	NaN	NaN
Zimmer	NaN	NaN
.	NaN	NaN
Wann	NaN	NaN
's	NaN	NaN
beliebt	NaN	NaN
,	NaN	NaN
schriewe	NaN	NaN
Sie	NaN	NaN
sich	NaN	NaN
do	NaN	NaN
in	NaN	NaN
.	NaN	NaN
«	NaN	NaN
Felix	NaN	NaN
Kächele	NaN	NaN
,	NaN	NaN
Friseurmeister	NaN	NaN
aus	NaN	NaN
Strasbourg	NaN	NaN
mit	NaN	NaN
sinere	NaN	NaN
Alte	NaN	NaN
»	NaN	NaN
.	NaN	NaN
Awer	NaN	NaN
Felix	NaN	NaN
,	NaN	NaN
schäm	NaN	NaN
di	NaN	NaN
doch	NaN	NaN
.	NaN	NaN
Na	NaN	NaN
schriewe	NaN	NaN
mr	NaN	NaN
:	NaN	NaN
«	NaN	NaN
mit	NaN	NaN
sinere	NaN	NaN
liewe	NaN	NaN
Frau	NaN	NaN
»	NaN	NaN
…	NaN	NaN
Da	NaN	NaN
…	NaN	NaN
Merci	NaN	NaN
Monsieur	NaN	NaN
Kächele	NaN	NaN
.	NaN	NaN
S'	NaN	NaN
isch	NaN	NaN
gern	NaN	NaN
gschähne	NaN	NaN
,	NaN	NaN
—	NaN	NaN
awer	NaN	NaN
ich	NaN	NaN
hab	NaN	NaN
jetz	NaN	NaN
e	NaN	NaN
Durscht	NaN	NaN
vun	NaN	NaN
dem	NaN	NaN
schriewe	NaN	NaN
.	NaN	NaN
Bringe	NaN	NaN
emol	NaN	NaN
e	NaN	NaN
Flasch	NaN	NaN
Win	NaN	NaN
,	NaN	NaN
awer	NaN	NaN
ebs	NaN	NaN
wie	NaN	NaN
lüpft	NaN	NaN
,	NaN	NaN
—	NaN	NaN
hann-er	NaN	NaN
Türkemer	NaN	NaN
Brand	NaN	NaN
?	NaN	NaN
«	NaN	NaN
Dr	NaN	NaN
kalt	NaN	NaN
Jäger	NaN	NaN
»	NaN	NaN
hett	NaN	NaN
alles	NaN	NaN
.	NaN	NaN
Na	NaN	NaN
zo	NaN	NaN
bringe	NaN	NaN
glich	NaN	NaN
zwei	NaN	NaN
Flasche	NaN	NaN
.	NaN	NaN
Hitt	NaN	NaN
kummts	NaN	NaN
nitt	NaN	NaN
druff	NaN	NaN
an	NaN	NaN
,	NaN	NaN
hitt	NaN	NaN
solls	NaN	NaN
ebbs	NaN	NaN
koschte	NaN	NaN
,	NaN	NaN
gäll	NaN	NaN
Mamme	NaN	NaN
?	NaN	NaN
C'est	NaN	NaN
ça	NaN	NaN
,	NaN	NaN
im	NaN	NaN
kalte	NaN	NaN
Jäger	NaN	NaN
wäre	NaN	NaN
nr	NaN	NaN
guet	NaN	NaN
bsorit	NaN	NaN
,	NaN	NaN
wande	NaN	NaN
ejch	NaN	NaN
nurre	NaN	NaN
an	NaN	NaN
mich	NaN	NaN
.	NaN	NaN
Hann-er	NaN	NaN
schun	NaN	NaN
gsahne	NaN	NaN
,	NaN	NaN
frischi	NaN	NaN
Blueme	NaN	NaN
haw	NaN	NaN
ich	NaN	NaN
in	NaN	NaN
s'	NaN	NaN
Zimmet	NaN	NaN
gstellt	NaN	NaN
,	NaN	NaN
diss	NaN	NaN
isch	NaN	NaN
natt	NaN	NaN
,	NaN	NaN
galle	NaN	NaN
?	NaN	NaN
Merci	NaN	NaN
,	NaN	NaN
…	NaN	NaN
äh	NaN	NaN
,	NaN	NaN
wie	NaN	NaN
häisse	NaN	NaN
nr	NaN	NaN
denn	NaN	NaN
?	NaN	NaN
Dominik	NaN	NaN
häiss	NaN	NaN
i.	NaN	NaN
Der	NaN	NaN
isch	NaN	NaN
awer	NaN	NaN
zah	NaN	NaN
.	NaN	NaN
Weisch	NaN	NaN
dü	NaN	NaN
Mamme	NaN	NaN
,	NaN	NaN
die	NaN	NaN
Stubb	NaN	NaN
isch	NaN	NaN
noch	NaN	NaN
ganz	NaN	NaN
genau	NaN	NaN
wie	NaN	NaN
vor	NaN	NaN
25	NaN	NaN
Johr	NaN	NaN
.	NaN	NaN
Noch	NaN	NaN
d'	NaN	NaN
nämlich	NaN	NaN
Dapet	NaN	NaN
,	NaN	NaN
noch	NaN	NaN
d'	NaN	NaN
nämliche	NaN	NaN
Bilder	NaN	NaN
an	NaN	NaN
de	NaN	NaN
Wänd	NaN	NaN
,	NaN	NaN
nix	NaN	NaN
hett	NaN	NaN
sich	NaN	NaN
verändert	NaN	NaN
in	NaN	NaN
dere	NaN	NaN
Zitt	NaN	NaN
,	NaN	NaN
…	NaN	NaN
nurre	NaN	NaN
mir	NaN	NaN
.	NaN	NaN
Nurre	NaN	NaN
mir	NaN	NaN
.	NaN	NaN
Schülli	NaN	NaN
,	NaN	NaN
was	NaN	NaN
bisch	NaN	NaN
dü	NaN	NaN
doch	NaN	NaN
vor	NaN	NaN
25	NaN	NaN
Johr	NaN	NaN
e	NaN	NaN
herzichs	NaN	NaN
Mäidele	NaN	NaN
gsinn	NaN	NaN
,	NaN	NaN
rotbackig	NaN	NaN
,	NaN	NaN
e	NaN	NaN
goldichblunder	NaN	NaN
Lockekopf	NaN	NaN
un	NaN	NaN
hitt	NaN	NaN
—	NaN	NaN
e	NaN	NaN
-n-	NaN	NaN
alti	NaN	NaN
Pflutt	NaN	NaN
.	NaN	NaN
Psst	NaN	NaN
,	NaN	NaN
Alterle	NaN	NaN
,	NaN	NaN
bild	NaN	NaN
dir	NaN	NaN
jo	NaN	NaN
nitt	NaN	NaN
in	NaN	NaN
,	NaN	NaN
ass	NaN	NaN
dü	NaN	NaN
zitter	NaN	NaN
schöener	NaN	NaN
bisch	NaN	NaN
worre	NaN	NaN
,	NaN	NaN
zällemols	NaN	NaN
e	NaN	NaN
nätter	NaN	NaN
Barickes	NaN	NaN
mit-eme	NaN	NaN
Strüwelkopf	NaN	NaN
un	NaN	NaN
jetz	NaN	NaN
e	NaN	NaN
nätter	NaN	NaN
Bluttkopf	NaN	NaN
.	NaN	NaN
Poh	NaN	NaN
,	NaN	NaN
wenn	NaN	NaN
i	NaN	NaN
au	NaN	NaN
e	NaN	NaN
paar	NaN	NaN
Hoor	NaN	NaN
verlore	NaN	NaN
hab	NaN	NaN
,	NaN	NaN
ze	NaN	NaN
bin	NaN	NaN
ich	NaN	NaN
doch	NaN	NaN
noch	NaN	NaN
e	NaN	NaN
ganz	NaN	NaN
nätter	NaN	NaN
Mann	NaN	NaN
un	NaN	NaN
näm	NaN	NaN
's	NaN	NaN
mit-eme	NaN	NaN
jede	NaN	NaN
Junge	NaN	NaN
uff	NaN	NaN
im	NaN	NaN
trinke	NaN	NaN
.	NaN	NaN
Diss	NaN	NaN
bringsch	NaN	NaN
noch	NaN	NaN
ferti	NaN	NaN
.	NaN	NaN
Awer	NaN	NaN
jetz	NaN	NaN
rot	NaN	NaN
emol	NaN	NaN
was	NaN	NaN
ich	NaN	NaN
do	NaN	NaN
hab	NaN	NaN
.	NaN	NaN
Dr	NaN	NaN
Schlüssel	NaN	NaN
vum	NaN	NaN
Kinjelestall	NaN	NaN
,	NaN	NaN
gäll	NaN	NaN
?	NaN	NaN
Oh	NaN	NaN
dü	NaN	NaN
,	NaN	NaN
…	NaN	NaN
nein	NaN	NaN
din	NaN	NaN
Strissel	NaN	NaN
als	NaN	NaN
Hochzitter	NaN	NaN
,	NaN	NaN
diss	NaN	NaN
müen	NaN	NaN
mir	NaN	NaN
doch	NaN	NaN
trawe	NaN	NaN
hitt	NaN	NaN
.	NaN	NaN
Merci	NaN	NaN
Mamme	NaN	NaN
.	NaN	NaN
Dü	NaN	NaN
denksch	NaN	NaN
halt	NaN	NaN
an	NaN	NaN
alles	NaN	NaN
,	NaN	NaN
—	NaN	NaN
nur	NaN	NaN
an	NaN	NaN
de	NaN	NaN
Kinjelestall	NaN	NaN
hesch	NaN	NaN
nitt	NaN	NaN
gedänkt	NaN	NaN
.	NaN	NaN
Felix	NaN	NaN
,	NaN	NaN
wenn	NaN	NaN
de	NaN	NaN
jetz	NaN	NaN
nitt	NaN	NaN
stille	NaN	NaN
bisch	NaN	NaN
…	NaN	NaN
D'	NaN	NaN
Moor	NaN	NaN
hett	NaN	NaN
doch	NaN	NaN
Jungi	NaN	NaN
,	NaN	NaN
wenn	NaN	NaN
se	NaN	NaN
verrecke	NaN	NaN
un	NaN	NaN
no	NaN	NaN
?	NaN	NaN
Stille	NaN	NaN
sollsch	NaN	NaN
sinn	NaN	NaN
,	NaN	NaN
sunsch	NaN	NaN
geh	NaN	NaN
ich	NaN	NaN
heim	NaN	NaN
zue	NaN	NaN
mine	NaN	NaN
Kinder	NaN	NaN
.	NaN	NaN
Eim	NaN	NaN
so	NaN	NaN
de	NaN	NaN
Hochzittsdaa	NaN	NaN
ze	NaN	NaN
verderwe	NaN	NaN
.	NaN	NaN
Verstehsch	NaN	NaN
denn	NaN	NaN
kenn	NaN	NaN
Gspass	NaN	NaN
.	NaN	NaN
Sej	NaN	NaN
zefridde	NaN	NaN
.	NaN	NaN
Bisch	NaN	NaN
doch	NaN	NaN
mini	NaN	NaN
lieb	NaN	NaN
,	NaN	NaN
guet	NaN	NaN
,	NaN	NaN
alt	NaN	NaN
Schülli	NaN	NaN
.	NaN	NaN
Sott	NaN	NaN
diss	NaN	NaN
am	NaN	NaN
And	NaN	NaN
doch	NaN	NaN
e	NaN	NaN
Hochzitspärel	NaN	NaN
sinn	NaN	NaN
?	NaN	NaN
…	NaN	NaN
Exküsiere	NaN	NaN
ihr	NaN	NaN
Herrschafte	NaN	NaN
,	NaN	NaN
ich	NaN	NaN
hab	NaN	NaN
geklopft	NaN	NaN
awer	NaN	NaN
es	NaN	NaN
hett	NaN	NaN
nieme	NaN	NaN
«	NaN	NaN
Entrez	NaN	NaN
»	NaN	NaN
gsäit	NaN	NaN
.	NaN	NaN
Do	NaN	NaN
bring	NaN	NaN
i	NaN	NaN
dr	NaN	NaN
Win	NaN	NaN
.	NaN	NaN
Die	NaN	NaN
selle	NaN	NaN
nitt	NaN	NaN
schmüse	NaN	NaN
die	NaN	NaN
zwei	NaN	NaN
alte	NaN	NaN
Drachheetle	NaN	NaN
,	NaN	NaN
hoffentli	NaN	NaN
wichst	NaN	NaN
er	NaN	NaN
jetz	NaN	NaN
ebs	NaN	NaN
erüss	NaN	NaN
.	NaN	NaN
Do	NaN	NaN
isch	NaN	NaN
ingschankt	NaN	NaN
,	NaN	NaN
lonns	NaN	NaN
ejch	NaN	NaN
gschmecke	NaN	NaN
.	NaN	NaN
Merci	NaN	NaN
,	NaN	NaN
.	NaN	NaN
wie	NaN	NaN
heisse	NaN	NaN
nr	NaN	NaN
?	NaN	NaN
Als	NaN	NaN
noch	NaN	NaN
Dominik	NaN	NaN
wann'r	NaN	NaN
nix	NaN	NaN
dergeje	NaN	NaN
hann	NaN	NaN
.	NaN	NaN
Aba	NaN	NaN
,	NaN	NaN
ich	NaN	NaN
hab	NaN	NaN
nix	NaN	NaN
dergeje	NaN	NaN
,	NaN	NaN
ich	NaN	NaN
kann	NaN	NaN
nurre	NaN	NaN
dene	NaN	NaN
dauwe	NaN	NaN
Name	NaN	NaN
niit	NaN	NaN
b'halte	NaN	NaN
.	NaN	NaN
Isch	NaN	NaN
Dominik	NaN	NaN
e	NaN	NaN
dauwer	NaN	NaN
Name	NaN	NaN
?	NaN	NaN
Nitt	NaN	NaN
ass	NaN	NaN
ihr	NaN	NaN
e	NaN	NaN
dauwere	NaN	NaN
hann	NaN	NaN
,	NaN	NaN
Ihr	NaN	NaN
sahn	NaN	NaN
grad	NaN	NaN
so	NaN	NaN
üss	NaN	NaN
.	NaN	NaN
Gitzkräuje	NaN	NaN
!	NaN	NaN
Hahaha	NaN	NaN
,	NaN	NaN
der	NaN	NaN
isch	NaN	NaN
schun	NaN	NaN
uffgepumpt	NaN	NaN
.	NaN	NaN
Un	NaN	NaN
e	NaN	NaN
Durscht	NaN	NaN
haw	NaN	NaN
ich	NaN	NaN
.	NaN	NaN
Gsundheit	NaN	NaN
silwerichi	NaN	NaN
Hochzittere	NaN	NaN
!	NaN	NaN
Weisch	NaN	NaN
noch	NaN	NaN
Felix	NaN	NaN
wie	NaN	NaN
mir	NaN	NaN
hitt	NaN	NaN
vor	NaN	NaN
25	NaN	NaN
Johr	NaN	NaN
do	NaN	NaN
gsässe	NaN	NaN
sinn	NaN	NaN
,	NaN	NaN
am	NaN	NaN
nämliche	NaN	NaN
Platz	NaN	NaN
,	NaN	NaN
no	NaN	NaN
hesch	NaN	NaN
de	NaN	NaN
Arm	NaN	NaN
um	NaN	NaN
mich	NaN	NaN
gelajt	NaN	NaN
un	NaN	NaN
hesch	NaN	NaN
gsunge	NaN	NaN
:	NaN	NaN
…	NaN	NaN
«	NaN	NaN
Du	NaN	NaN
bischt	NaN	NaN
mein	NaN	NaN
Glück	NaN	NaN
mein	NaN	NaN
Augenstern	NaN	NaN
,	NaN	NaN
dü	NaN	NaN
bischt	NaN	NaN
so	NaN	NaN
schön	NaN	NaN
,	NaN	NaN
ich	NaN	NaN
hab	NaN	NaN
dich	NaN	NaN
gern	NaN	NaN
»	NaN	NaN
!	NaN	NaN
Un	NaN	NaN
grad	NaN	NaN
in	NaN	NaN
dem	NaN	NaN
Moment	NaN	NaN
hett	NaN	NaN
's	NaN	NaN
Oweglöchel	NaN	NaN
uffem	NaN	NaN
Kapellele	NaN	NaN
anfange	NaN	NaN
litte	NaN	NaN
,	NaN	NaN
…	NaN	NaN
diss	NaN	NaN
isch	NaN	NaN
so	NaN	NaN
ernscht	NaN	NaN
,	NaN	NaN
so	NaN	NaN
feierlich	NaN	NaN
gsinn	NaN	NaN
.	NaN	NaN
So	NaN	NaN
feierlich	NaN	NaN
—	NaN	NaN
e	NaN	NaN
schöner	NaN	NaN
Momant	NaN	NaN
isch	NaN	NaN
's	NaN	NaN
gsinn	NaN	NaN
,	NaN	NaN
gell	NaN	NaN
Mammele	NaN	NaN
?	NaN	NaN
Wenn	NaN	NaN
nur	NaN	NaN
de	NaN	NaN
Lüsangel	NaN	NaN
de	NaN	NaN
Kinjelestall	NaN	NaN
…	NaN	NaN
!	NaN	NaN
Felix	NaN	NaN
!	NaN	NaN
Entrez	NaN	NaN
!	NaN	NaN
Ich	NaN	NaN
mues	NaN	NaN
alle	NaN	NaN
bezitte	NaN	NaN
erin	NaN	NaN
kumme	NaN	NaN
.	NaN	NaN
Do	NaN	NaN
haw	NaN	NaN
ich	NaN	NaN
dr	NaN	NaN
Bougie	NaN	NaN
.	NaN	NaN
Un	NaN	NaN
weisch	NaN	NaN
noch	NaN	NaN
wie	NaN	NaN
no	NaN	NaN
dr	NaN	NaN
Hüssknächt	NaN	NaN
isch	NaN	NaN
kumme	NaN	NaN
un	NaN	NaN
hett	NaN	NaN
gfröjt	NaN	NaN
:	NaN	NaN
«	NaN	NaN
Wenn	NaN	NaN
welle	NaN	NaN
die	NaN	NaN
Herrschaft	NaN	NaN
geweckt	NaN	NaN
sinn	NaN	NaN
»	NaN	NaN
?	NaN	NaN
Weisch	NaN	NaN
noch	NaN	NaN
was	NaN	NaN
de	NaN	NaN
gsaat	NaN	NaN
hesch	NaN	NaN
?	NaN	NaN
Ich	NaN	NaN
hab	NaN	NaN
gsaat	NaN	NaN
:	NaN	NaN
«	NaN	NaN
Zuem	NaN	NaN
Zmiddaesse	NaN	NaN
»	NaN	NaN
.	NaN	NaN
Wann	NaN	NaN
welle	NaN	NaN
die	NaN	NaN
Herrschafte	NaN	NaN
morje	NaN	NaN
frühj	NaN	NaN
geweckt	NaN	NaN
sinn	NaN	NaN
?	NaN	NaN
Am	NaN	NaN
fünfe	NaN	NaN
,	NaN	NaN
gell	NaN	NaN
Frau	NaN	NaN
?	NaN	NaN
E	NaN	NaN
guet	NaN	NaN
's	NaN	NaN
Bett	NaN	NaN
hann'r	NaN	NaN
,	NaN	NaN
ächti	NaN	NaN
Sprungfederematraz	NaN	NaN
,	NaN	NaN
Mir	NaN	NaN
brüche	NaN	NaN
kenn	NaN	NaN
Sprungfedermatraz	NaN	NaN
mir	NaN	NaN
schlofe	NaN	NaN
doch	NaN	NaN
guet	NaN	NaN
.	NaN	NaN
Widder	NaN	NaN
nix	NaN	NaN
,	NaN	NaN
dü	NaN	NaN
kannsch	NaN	NaN
mir	NaN	NaN
am	NaN	NaN
fünfe	NaN	NaN
de	NaN	NaN
Buckel	NaN	NaN
nuff	NaN	NaN
rutsche	NaN	NaN
,	NaN	NaN
Gitskräuje	NaN	NaN
.	NaN	NaN
Jaja	NaN	NaN
Mamme	NaN	NaN
,	NaN	NaN
morje	NaN	NaN
fruej	NaN	NaN
am	NaN	NaN
fünfe	NaN	NaN
geht	NaN	NaN
's	NaN	NaN
rüss	NaN	NaN
un	NaN	NaN
no	NaN	NaN
gehn	NaN	NaN
mr	NaN	NaN
nuff	NaN	NaN
uff	NaN	NaN
d'	NaN	NaN
Burig	NaN	NaN
un	NaN	NaN
lueje	NaN	NaN
wie	NaN	NaN
d'	NaN	NaN
Sunn	NaN	NaN
uffgeht	NaN	NaN
.	NaN	NaN
Vor	NaN	NaN
25	NaN	NaN
Johr	NaN	NaN
hesch	NaN	NaN
gar	NaN	NaN
nitt	NaN	NaN
welle	NaN	NaN
lueje	NaN	NaN
wie	NaN	NaN
d'	NaN	NaN
Sunn	NaN	NaN
uffgeht	NaN	NaN
.	NaN	NaN
Ja	NaN	NaN
zällemols	NaN	NaN
un	NaN	NaN
hitt	NaN	NaN
.	NaN	NaN
Witt	NaN	NaN
au	NaN	NaN
einer	NaN	NaN
?	NaN	NaN
Dini	NaN	NaN
Schupfdüwacksbüchs	NaN	NaN
hesch	NaN	NaN
mit	NaN	NaN
müen	NaN	NaN
näme	NaN	NaN
,	NaN	NaN
die	NaN	NaN
muesch	NaN	NaN
halt	NaN	NaN
hann	NaN	NaN
.	NaN	NaN
Weisch	NaN	NaN
Mamme	NaN	NaN
,	NaN	NaN
sigsch	NaN	NaN
ich	NaN	NaN
hab	NaN	NaN
in	NaN	NaN
mim	NaN	NaN
Läwe	NaN	NaN
nurre	NaN	NaN
zwei	NaN	NaN
Liebschti	NaN	NaN
kett	NaN	NaN
,	NaN	NaN
dich	NaN	NaN
un	NaN	NaN
mini	NaN	NaN
Schnupftüwacksbüchs	NaN	NaN
,	NaN	NaN
dene	NaN	NaN
zwei	NaN	NaN
bin	NaN	NaN
ich	NaN	NaN
nie	NaN	NaN
untrej	NaN	NaN
worre	NaN	NaN
.	NaN	NaN
—	NaN	NaN
Kumm	NaN	NaN
jetz	NaN	NaN
gehn	NaN	NaN
mr	NaN	NaN
noch	NaN	NaN
e	NaN	NaN
bissel	NaN	NaN
in	NaN	NaN
de	NaN	NaN
Garte	NaN	NaN
,	NaN	NaN
wottsch	NaN	NaN
?	NaN	NaN
Erscht	NaN	NaN
noch	NaN	NaN
,	NaN	NaN
es	NaN	NaN
isch	NaN	NaN
so	NaN	NaN
e	NaN	NaN
schöner	NaN	NaN
Owe	NaN	NaN
.	NaN	NaN
Kumm	NaN	NaN
Manne	NaN	NaN
.	NaN	NaN
Gib	NaN	NaN
acht	NaN	NaN
Emma	NaN	NaN
,	NaN	NaN
dass	NaN	NaN
de	NaN	NaN
nitt	NaN	NaN
fallsch	NaN	NaN
.	NaN	NaN
Endlich	NaN	NaN
allein	NaN	NaN
!	NaN	NaN
Min	NaN	NaN
süsses	NaN	NaN
Herzele	NaN	NaN
!	NaN	NaN
Min	NaN	NaN
liewer	NaN	NaN
Alphons	NaN	NaN
!	NaN	NaN
Was	NaN	NaN
wurd	NaN	NaN
mini	NaN	NaN
Mamme	NaN	NaN
mache	NaN	NaN
?	NaN	NaN
Awer	NaN	NaN
Emmäjele	NaN	NaN
grien	NaN	NaN
doch	NaN	NaN
nitt	NaN	NaN
,	NaN	NaN
ich	NaN	NaN
bin	NaN	NaN
jo	NaN	NaN
bie	NaN	NaN
dir	NaN	NaN
.	NaN	NaN
Isch	NaN	NaN
's	NaN	NaN
erlaubt	NaN	NaN
Schnukele	NaN	NaN
?	NaN	NaN
ab	NaN	NaN
)	NaN	NaN
.	NaN	NaN
Oh	NaN	NaN
ich	NaN	NaN
bekumm	NaN	NaN
schun	NaN	NaN
widder	NaN	NaN
mini	NaN	NaN
nervöse	NaN	NaN
Kopfschmerze	NaN	NaN
.	NaN	NaN
Ums	NaN	NaN
Gottswille	NaN	NaN
,	NaN	NaN
wo	NaN	NaN
hab	NaN	NaN
denn	NaN	NaN
ich	NaN	NaN
mine	NaN	NaN
Migränstift	NaN	NaN
?	NaN	NaN
Do	NaN	NaN
isch'r	NaN	NaN
.	NaN	NaN
Da	NaN	NaN
Liewele	NaN	NaN
,	NaN	NaN
rich	NaN	NaN
dran	NaN	NaN
.	NaN	NaN
Aah	NaN	NaN
,	NaN	NaN
diss	NaN	NaN
kühlt	NaN	NaN
.	NaN	NaN
Isch	NaN	NaN
's	NaN	NaN
dir	NaN	NaN
jetz	NaN	NaN
besser	NaN	NaN
min	NaN	NaN
Miesele	NaN	NaN
?	NaN	NaN
Ja	NaN	NaN
.	NaN	NaN
—	NaN	NaN
Wart	NaN	NaN
Schätzel	NaN	NaN
ich	NaN	NaN
hilf	NaN	NaN
dir	NaN	NaN
—	NaN	NaN
so	NaN	NaN
.	NaN	NaN
Un	NaN	NaN
jetz	NaN	NaN
kummts	NaN	NaN
ander	NaN	NaN
Batschhandele	NaN	NaN
.	NaN	NaN
Soo	NaN	NaN
.	NaN	NaN
Wie	NaN	NaN
guet	NaN	NaN
dü	NaN	NaN
bisch	NaN	NaN
min	NaN	NaN
goldicher	NaN	NaN
Alfons	NaN	NaN
.	NaN	NaN
Noch	NaN	NaN
besser	NaN	NaN
bin	NaN	NaN
ich	NaN	NaN
.	NaN	NaN
Soll	NaN	NaN
ich	NaN	NaN
dir	NaN	NaN
au	NaN	NaN
dr	NaN	NaN
Huet	NaN	NaN
abnämme	NaN	NaN
?	NaN	NaN
Soo	NaN	NaN
.	NaN	NaN
Wie	NaN	NaN
gschickt	NaN	NaN
dü	NaN	NaN
diss	NaN	NaN
fertich	NaN	NaN
bringsch	NaN	NaN
—	NaN	NaN
gell	NaN	NaN
dü	NaN	NaN
hesch	NaN	NaN
's	NaN	NaN
bie-re	NaN	NaN
andere	NaN	NaN
au	NaN	NaN
schun	NaN	NaN
gemacht	NaN	NaN
?	NaN	NaN
Ich	NaN	NaN
?	NaN	NaN
Noch	NaN	NaN
nie	NaN	NaN
Emma	NaN	NaN
.	NaN	NaN
Autsch	NaN	NaN
!	NaN	NaN
Was	NaN	NaN
hesch	NaN	NaN
Alfons	NaN	NaN
?	NaN	NaN
Ich	NaN	NaN
hab	NaN	NaN
mich	NaN	NaN
gstoche	NaN	NaN
an	NaN	NaN
dr	NaN	NaN
Huetnodel	NaN	NaN
.	NaN	NaN
Wie	NaN	NaN
denn	NaN	NaN
,	NaN	NaN
.	NaN	NaN
do	NaN	NaN
?	NaN	NaN
Armer	NaN	NaN
Alfons	NaN	NaN
.	NaN	NaN
Heile	NaN	NaN
,	NaN	NaN
heile	NaN	NaN
Säje	NaN	NaN
…	NaN	NaN
Oh	NaN	NaN
wie	NaN	NaN
guet	NaN	NaN
diss	NaN	NaN
macht	NaN	NaN
!	NaN	NaN
—	NaN	NaN
Emma	NaN	NaN
derf	NaN	NaN
ich	NaN	NaN
dir	NaN	NaN
jetz	NaN	NaN
dr	NaN	NaN
erschte	NaN	NaN
Schmutz	NaN	NaN
gänn	NaN	NaN
?	NaN	NaN
Jo	NaN	NaN
Alfons	NaN	NaN
,	NaN	NaN
ich	NaN	NaN
schäm	NaN	NaN
mich	NaN	NaN
so	NaN	NaN
.	NaN	NaN
Emmäjele	NaN	NaN
,	NaN	NaN
bisch	NaN	NaN
jo	NaN	NaN
jetz	NaN	NaN
min	NaN	NaN
einzichs	NaN	NaN
,	NaN	NaN
goldichs	NaN	NaN
Wiewele	NaN	NaN
.	NaN	NaN
Alle	NaN	NaN
,	NaN	NaN
es	NaN	NaN
sieht	NaN	NaN
's	NaN	NaN
jo	NaN	NaN
niemes	NaN	NaN
.	NaN	NaN
Alle	NaN	NaN
,	NaN	NaN
alle	NaN	NaN
!	NaN	NaN
—	NaN	NaN
Was	NaN	NaN
Schinders	NaN	NaN
,	NaN	NaN
was	NaN	NaN
mache	NaN	NaN
denn	NaN	NaN
die	NaN	NaN
?	NaN	NaN
S'	NaN	NaN
Bleiwiss	NaN	NaN
isch	NaN	NaN
mr	NaN	NaN
nab	NaN	NaN
gfalle	NaN	NaN
.	NaN	NaN
Ja	NaN	NaN
,	NaN	NaN
.	NaN	NaN
diss	NaN	NaN
sinn	NaN	NaN
jo	NaN	NaN
zwei	NaN	NaN
anderi	NaN	NaN
.	NaN	NaN
Höere	NaN	NaN
,	NaN	NaN
sinn	NaN	NaN
d'	NaN	NaN
andere	NaN	NaN
nimmi	NaN	NaN
do	NaN	NaN
?	NaN	NaN
Welli	NaN	NaN
andere	NaN	NaN
?	NaN	NaN
Ich	NaN	NaN
versteh	NaN	NaN
sie	NaN	NaN
nitt	NaN	NaN
.	NaN	NaN
Ei	NaN	NaN
,	NaN	NaN
die	NaN	NaN
wie	NaN	NaN
do	NaN	NaN
in	NaN	NaN
dem	NaN	NaN
Zimmer	NaN	NaN
logiere	NaN	NaN
.	NaN	NaN
Ja	NaN	NaN
sie	NaN	NaN
muehn	NaN	NaN
sich	NaN	NaN
dittlicher	NaN	NaN
üssdrucke	NaN	NaN
.	NaN	NaN
S'	NaN	NaN
Maidel	NaN	NaN
hett	NaN	NaN
uns	NaN	NaN
do	NaN	NaN
in	NaN	NaN
diss	NaN	NaN
Zimmer	NaN	NaN
N	NaN	NaN
°	NaN	NaN
9	NaN	NaN
gschickt	NaN	NaN
.	NaN	NaN
Die	NaN	NaN
Gans	NaN	NaN
,	NaN	NaN
die	NaN	NaN
Rossgettel	NaN	NaN
die	NaN	NaN
däub	NaN	NaN
.	NaN	NaN
—	NaN	NaN
Diss	NaN	NaN
Zimmer	NaN	NaN
isch	NaN	NaN
jo	NaN	NaN
verlehnt	NaN	NaN
.	NaN	NaN
Diss	NaN	NaN
isch	NaN	NaN
jetz	NaN	NaN
unangenehm	NaN	NaN
,	NaN	NaN
…	NaN	NaN
was	NaN	NaN
mache	NaN	NaN
mr	NaN	NaN
jetz	NaN	NaN
.	NaN	NaN
…	NaN	NaN
Ich	NaN	NaN
bin	NaN	NaN
mit	NaN	NaN
minere	NaN	NaN
Frau	NaN	NaN
uff	NaN	NaN
dr	NaN	NaN
Hochzittsreis	NaN	NaN
un	NaN	NaN
hab	NaN	NaN
doch	NaN	NaN
telephoniert	NaN	NaN
an	NaN	NaN
de	NaN	NaN
kalte	NaN	NaN
Jager	NaN	NaN
um	NaN	NaN
e	NaN	NaN
Zimmer	NaN	NaN
.	NaN	NaN
Diss	NaN	NaN
isch	NaN	NaN
e	NaN	NaN
Hochzittsparel	NaN	NaN
,	NaN	NaN
do	NaN	NaN
gitts	NaN	NaN
Trinkgelder	NaN	NaN
.	NaN	NaN
Bliewe	NaN	NaN
Sie	NaN	NaN
numme	NaN	NaN
do	NaN	NaN
,	NaN	NaN
ich	NaN	NaN
,	NaN	NaN
dr	NaN	NaN
Dominik	NaN	NaN
rangier	NaN	NaN
die	NaN	NaN
Sach	NaN	NaN
schun	NaN	NaN
,	NaN	NaN
mit	NaN	NaN
mir	NaN	NaN
muess	NaN	NaN
mr	NaN	NaN
redde	NaN	NaN
.	NaN	NaN
Mine	NaN	NaN
beschte	NaN	NaN
Dank	NaN	NaN
.	NaN	NaN
—	NaN	NaN
Diss	NaN	NaN
due	NaN	NaN
ich	NaN	NaN
Ihne	NaN	NaN
nie	NaN	NaN
vergässe	NaN	NaN
.	NaN	NaN
Ich	NaN	NaN
zehl	NaN	NaN
druff	NaN	NaN
ass	NaN	NaN
Sie	NaN	NaN
mirs	NaN	NaN
nitt	NaN	NaN
vergasse	NaN	NaN
.	NaN	NaN
Ich	NaN	NaN
will	NaN	NaN
jetz	NaN	NaN
dere	NaN	NaN
däuwe	NaN	NaN
Gans	NaN	NaN
e	NaN	NaN
Hüffe	NaN	NaN
Söjerej	NaN	NaN
mache	NaN	NaN
,	NaN	NaN
ass	NaN	NaN
se	NaN	NaN
dem	NaN	NaN
alte	NaN	NaN
Gitzkräue	NaN	NaN
diss	NaN	NaN
Zimmer	NaN	NaN
gänn	NaN	NaN
hett	NaN	NaN
.	NaN	NaN
Do	NaN	NaN
gitts	NaN	NaN
Tringalder	NaN	NaN
.	NaN	NaN
O	NaN	NaN
ich	NaN	NaN
bin	NaN	NaN
so	NaN	NaN
unruehich	NaN	NaN
,	NaN	NaN
wenns	NaN	NaN
nurre	NaN	NaN
kenn	NaN	NaN
Unglück	NaN	NaN
gitt	NaN	NaN
.	NaN	NaN
—	NaN	NaN
Diss	NaN	NaN
Pferd	NaN	NaN
wie	NaN	NaN
am	NaN	NaN
Omnibüs	NaN	NaN
gstulpert	NaN	NaN
isch	NaN	NaN
,	NaN	NaN
…	NaN	NaN
O	NaN	NaN
diss	NaN	NaN
kummt	NaN	NaN
alle	NaN	NaN
Daa	NaN	NaN
vor	NaN	NaN
dass	NaN	NaN
e	NaN	NaN
Pferd	NaN	NaN
stulpert	NaN	NaN
.	NaN	NaN
Un	NaN	NaN
no	NaN	NaN
bisch	NaN	NaN
dü	NaN	NaN
gstulpert	NaN	NaN
wie	NaN	NaN
de	NaN	NaN
Tuer	NaN	NaN
erin	NaN	NaN
bisch	NaN	NaN
.	NaN	NaN
Diss	NaN	NaN
kummt	NaN	NaN
au	NaN	NaN
alle	NaN	NaN
Daa	NaN	NaN
e	NaN	NaN
paar	NaN	NaN
mol	NaN	NaN
vor	NaN	NaN
.	NaN	NaN
Alfons	NaN	NaN
,	NaN	NaN
gib	NaN	NaN
mir	NaN	NaN
doch	NaN	NaN
de	NaN	NaN
Schlüssel	NaN	NaN
vun	NaN	NaN
minere	NaN	NaN
Tasch	NaN	NaN
.	NaN	NaN
Vo	NaN	NaN
Herze	NaN	NaN
gern	NaN	NaN
Emmäjele	NaN	NaN
.	NaN	NaN
—	NaN	NaN
Wo	NaN	NaN
haw	NaN	NaN
ich	NaN	NaN
ne	NaN	NaN
denn	NaN	NaN
nurre	NaN	NaN
anegsteckt	NaN	NaN
.	NaN	NaN
—	NaN	NaN
Dü	NaN	NaN
sollsch	NaN	NaN
de	NaN	NaN
Schlüssel	NaN	NaN
immer	NaN	NaN
ins	NaN	NaN
Portemonai	NaN	NaN
stecke	NaN	NaN
,	NaN	NaN
hett	NaN	NaN
dir	NaN	NaN
minni	NaN	NaN
Mama	NaN	NaN
gsaat	NaN	NaN
,	NaN	NaN
erscht	NaN	NaN
dene	NaN	NaN
Morje	NaN	NaN
noch	NaN	NaN
.	NaN	NaN
Oh	NaN	NaN
mini	NaN	NaN
Mamme	NaN	NaN
.	NaN	NaN
Nitt	NaN	NaN
griene	NaN	NaN
.	NaN	NaN
Oh	NaN	NaN
ich	NaN	NaN
bekumm	NaN	NaN
schun	NaN	NaN
widder	NaN	NaN
mini	NaN	NaN
nervöse	NaN	NaN
Kopfschmerze	NaN	NaN
.	NaN	NaN
Wo	NaN	NaN
isch	NaN	NaN
dr	NaN	NaN
Migränstift	NaN	NaN
?	NaN	NaN
Es	NaN	NaN
isch	NaN	NaN
doch	NaN	NaN
guet	NaN	NaN
ass	NaN	NaN
ich	NaN	NaN
de	NaN	NaN
Migränstift	NaN	NaN
bie	NaN	NaN
mir	NaN	NaN
hab	NaN	NaN
.	NaN	NaN
Wie	NaN	NaN
schön	NaN	NaN
de	NaN	NaN
bisch	NaN	NaN
mit	NaN	NaN
Träne	NaN	NaN
in	NaN	NaN
de	NaN	NaN
Auwe	NaN	NaN
.	NaN	NaN
—	NaN	NaN
Emmäjele	NaN	NaN
,	NaN	NaN
derf	NaN	NaN
ich	NaN	NaN
dir	NaN	NaN
jetz	NaN	NaN
dr	NaN	NaN
erschte	NaN	NaN
Schmutz	NaN	NaN
gänn	NaN	NaN
?	NaN	NaN
Ja	NaN	NaN
dü	NaN	NaN
Plöjgeischt	NaN	NaN
.	NaN	NaN
Min	NaN	NaN
Zuckerwäfele	NaN	NaN
!	NaN	NaN
…	NaN	NaN
Es	NaN	NaN
hett	NaN	NaN
geklopft	NaN	NaN
,	NaN	NaN
.	NaN	NaN
Herein	NaN	NaN
!	NaN	NaN
Ich	NaN	NaN
loss-em	NaN	NaN
ken	NaN	NaN
Ruehj	NaN	NaN
,	NaN	NaN
wäje	NaN	NaN
de	NaN	NaN
Trinkgalder	NaN	NaN
.	NaN	NaN
Exküsiere	NaN	NaN
ass	NaN	NaN
ich	NaN	NaN
Sie	NaN	NaN
derangier	NaN	NaN
,	NaN	NaN
ich	NaN	NaN
hab	NaN	NaN
ejch	NaN	NaN
numme	NaN	NaN
welle	NaN	NaN
s'	NaN	NaN
Bett	NaN	NaN
zäje	NaN	NaN
.	NaN	NaN
S'	NaN	NaN
Bett	NaN	NaN
?	NaN	NaN
Do	NaN	NaN
lueje	NaN	NaN
emol	NaN	NaN
was	NaN	NaN
e	NaN	NaN
schöens	NaN	NaN
ett	NaN	NaN
.	NaN	NaN
Nurre	NaN	NaN
eins	NaN	NaN
?	NaN	NaN
Eijo	NaN	NaN
dann	NaN	NaN
,	NaN	NaN
nurre	NaN	NaN
eins	NaN	NaN
,	NaN	NaN
awer	NaN	NaN
ihr	NaN	NaN
hann	NaN	NaN
Platz	NaN	NaN
,	NaN	NaN
ass	NaN	NaN
isch	NaN	NaN
zwäischläfrich	NaN	NaN
…	NaN	NaN
un	NaN	NaN
e	NaN	NaN
ächti	NaN	NaN
Sprungfedermatraz	NaN	NaN
.	NaN	NaN
Höersch	NaN	NaN
Emma	NaN	NaN
,	NaN	NaN
Sprungfedermatraz	NaN	NaN
.	NaN	NaN
Ah	NaN	NaN
,	NaN	NaN
ass	NaN	NaN
ich	NaN	NaN
d'	NaN	NaN
Redd	NaN	NaN
nitt	NaN	NaN
vergiss	NaN	NaN
…	NaN	NaN
Wann	NaN	NaN
welle	NaN	NaN
nr	NaN	NaN
morje	NaN	NaN
früehj	NaN	NaN
geweckt	NaN	NaN
sinn	NaN	NaN
?	NaN	NaN
Diss	NaN	NaN
hann	NaN	NaN
mir	NaN	NaN
vergesse	NaN	NaN
fuer	NaN	NaN
d'	NaN	NaN
Mamme	NaN	NaN
ze	NaN	NaN
:	NaN	NaN
fröje	NaN	NaN
.	NaN	NaN
Ich	NaN	NaN
,	NaN	NaN
ich	NaN	NaN
.	NaN	NaN
na	NaN	NaN
ja	NaN	NaN
.	NaN	NaN
ich	NaN	NaN
due	NaN	NaN
ne	NaN	NaN
klingle	NaN	NaN
.	NaN	NaN
stelle	NaN	NaN
Sie	NaN	NaN
noch	NaN	NaN
diss	NaN	NaN
Gepäck	NaN	NaN
ins	NaN	NaN
Zimmer	NaN	NaN
.	NaN	NaN
Eijo	NaN	NaN
!	NaN	NaN
…	NaN	NaN
Do	NaN	NaN
isch	NaN	NaN
's	NaN	NaN
au	NaN	NaN
Schätte	NaN	NaN
mit	NaN	NaN
Trinkgelder	NaN	NaN
bie	NaN	NaN
dem	NaN	NaN
Affedutter	NaN	NaN
.	NaN	NaN
Komm	NaN	NaN
ans	NaN	NaN
Fenschter	NaN	NaN
Emma	NaN	NaN
,	NaN	NaN
dr	NaN	NaN
Owe	NaN	NaN
isch	NaN	NaN
so	NaN	NaN
schön	NaN	NaN
.	NaN	NaN
E	NaN	NaN
wunderbare	NaN	NaN
Owe	NaN	NaN
.	NaN	NaN
Un	NaN	NaN
wie	NaN	NaN
guet	NaN	NaN
dr	NaN	NaN
Holder	NaN	NaN
riecht	NaN	NaN
.	NaN	NaN
Diss	NaN	NaN
kummt	NaN	NaN
üss-em	NaN	NaN
Garte	NaN	NaN
.	NaN	NaN
Wie	NaN	NaN
stille	NaN	NaN
isch	NaN	NaN
alles	NaN	NaN
,	NaN	NaN
…	NaN	NaN
so	NaN	NaN
feierlich	NaN	NaN
.	NaN	NaN
Ja	NaN	NaN
so	NaN	NaN
stimmungsvoll	NaN	NaN
.	NaN	NaN
«	NaN	NaN
Goldich	NaN	NaN
fahrt	NaN	NaN
dr	NaN	NaN
Sunnewaue	NaN	NaN
,	NaN	NaN
D'	NaN	NaN
Vöjele	NaN	NaN
duen	NaN	NaN
guet	NaN	NaN
Nacht	NaN	NaN
sich	NaN	NaN
saue	NaN	NaN
.	NaN	NaN
Am	NaN	NaN
Himmel	NaN	NaN
wissi	NaN	NaN
Schäfle	NaN	NaN
stehnUn	NaN	NaN
d'	NaN	NaN
Natür	NaN	NaN
will	NaN	NaN
schlofe	NaN	NaN
gehn	NaN	NaN
»	NaN	NaN
.	NaN	NaN
Welle	NaN	NaN
mir	NaN	NaN
au	NaN	NaN
schlofe	NaN	NaN
gehn	NaN	NaN
?	NaN	NaN
«	NaN	NaN
Goldich	NaN	NaN
fahrt	NaN	NaN
dr	NaN	NaN
Sunnewaue	NaN	NaN
,	NaN	NaN
D'	NaN	NaN
Vöjele	NaN	NaN
duen	NaN	NaN
guet	NaN	NaN
Nacht	NaN	NaN
sich	NaN	NaN
saue	NaN	NaN
.	NaN	NaN
Am	NaN	NaN
Himmel	NaN	NaN
wissi	NaN	NaN
Schäfle	NaN	NaN
stehn	NaN	NaN
Un	NaN	NaN
d'	NaN	NaN
Natür	NaN	NaN
will	NaN	NaN
schlofe	NaN	NaN
gehn	NaN	NaN
»	NaN	NaN
.	NaN	NaN
D'	NaN	NaN
Sunn	NaN	NaN
schickt	NaN	NaN
de	NaN	NaN
letschte	NaN	NaN
Gruess	NaN	NaN
eb	NaN	NaN
se	NaN	NaN
untergeht	NaN	NaN
,	NaN	NaN
no	NaN	NaN
kumme	NaN	NaN
d'	NaN	NaN
Sternle	NaN	NaN
,	NaN	NaN
alles	NaN	NaN
sehnt	NaN	NaN
sich	NaN	NaN
noch	NaN	NaN
Ruehj	NaN	NaN
…	NaN	NaN
d'	NaN	NaN
Blüemle	NaN	NaN
hänke	NaN	NaN
d'	NaN	NaN
Köpfle	NaN	NaN
zamme	NaN	NaN
un	NaN	NaN
schmüse	NaN	NaN
mitnand	NaN	NaN
.	NaN	NaN
Emma	NaN	NaN
welle	NaN	NaN
mir	NaN	NaN
's	NaN	NaN
au	NaN	NaN
so	NaN	NaN
mache	NaN	NaN
wie	NaN	NaN
d'	NaN	NaN
Blüemle	NaN	NaN
?	NaN	NaN
Ach	NaN	NaN
jetz	NaN	NaN
möcht	NaN	NaN
ich	NaN	NaN
so	NaN	NaN
unter	NaN	NaN
Blueme	NaN	NaN
leje	NaN	NaN
un	NaN	NaN
in	NaN	NaN
e	NaN	NaN
Zauberschlof	NaN	NaN
versinke	NaN	NaN
un	NaN	NaN
träume	NaN	NaN
,	NaN	NaN
…	NaN	NaN
ewig	NaN	NaN
traime	NaN	NaN
.	NaN	NaN
«	NaN	NaN
Wenn	NaN	NaN
lieblig	NaN	NaN
s'	NaN	NaN
Oweglöckel	NaN	NaN
töntIm	NaN	NaN
küehle	NaN	NaN
Owewind	NaN	NaN
,	NaN	NaN
»	NaN	NaN
Do	NaN	NaN
isch	NaN	NaN
's	NaN	NaN
so	NaN	NaN
heimlig	NaN	NaN
,	NaN	NaN
so	NaN	NaN
schön	NaN	NaN
,	NaN	NaN
|:Daheim	NaN	NaN
bie	NaN	NaN
Frau	NaN	NaN
un	NaN	NaN
Kind	NaN	NaN
:|	NaN	NaN
.	NaN	NaN
Alfons	NaN	NaN
,	NaN	NaN
gib	NaN	NaN
mir	NaN	NaN
jetz	NaN	NaN
e	NaN	NaN
Schmutz	NaN	NaN
.	NaN	NaN
«	NaN	NaN
Wenn	NaN	NaN
lieblig	NaN	NaN
s'	NaN	NaN
Oweglöckel	NaN	NaN
tönt	NaN	NaN
Im	NaN	NaN
küehle	NaN	NaN
Owewind	NaN	NaN
,	NaN	NaN
»	NaN	NaN
Do	NaN	NaN
isch	NaN	NaN
's	NaN	NaN
so	NaN	NaN
heimlig	NaN	NaN
,	NaN	NaN
so	NaN	NaN
schön	NaN	NaN
,	NaN	NaN
|:Daheim	NaN	NaN
bie	NaN	NaN
Frau	NaN	NaN
un	NaN	NaN
Kind	NaN	NaN
:|	NaN	NaN
.	NaN	NaN
Alfons	NaN	NaN
,	NaN	NaN
gib	NaN	NaN
mir	NaN	NaN
jetz	NaN	NaN
e	NaN	NaN
Schmutz	NaN	NaN
.	NaN	NaN
Der	NaN	NaN
erscht	NaN	NaN
.	NaN	NaN
Min	NaN	NaN
goldichs	NaN	NaN
Emmäjele	NaN	NaN
,	NaN	NaN
min	NaN	NaN
Herzkäferle	NaN	NaN
.	NaN	NaN
Helaba	NaN	NaN
,	NaN	NaN
…	NaN	NaN
was	NaN	NaN
mache	NaN	NaN
denn	NaN	NaN
die	NaN	NaN
uff	NaN	NaN
unserem	NaN	NaN
Zimmer	NaN	NaN
?	NaN	NaN
Pardon	NaN	NaN
,	NaN	NaN
mit	NaN	NaN
wem	NaN	NaN
haw	NaN	NaN
ich	NaN	NaN
d'	NaN	NaN
Ehr	NaN	NaN
?	NaN	NaN
Diss	NaN	NaN
Zimmer	NaN	NaN
isch	NaN	NaN
schun	NaN	NaN
bsetzt	NaN	NaN
.	NaN	NaN
Wie	NaN	NaN
Sie	NaN	NaN
sehn	NaN	NaN
vun	NaN	NaN
uns	NaN	NaN
.	NaN	NaN
Ja	NaN	NaN
,	NaN	NaN
awer	NaN	NaN
vun	NaN	NaN
uns	NaN	NaN
au	NaN	NaN
.	NaN	NaN
Diss	NaN	NaN
versteh	NaN	NaN
ich	NaN	NaN
nitt	NaN	NaN
.	NaN	NaN
Diss-isch	NaN	NaN
licht	NaN	NaN
ze	NaN	NaN
verstehn	NaN	NaN
.	NaN	NaN
Ich	NaN	NaN
hab	NaN	NaN
mich	NaN	NaN
mit	NaN	NaN
minere	NaN	NaN
Frau	NaN	NaN
vor-ere	NaN	NaN
halwe	NaN	NaN
Stund	NaN	NaN
do	NaN	NaN
inlogiert	NaN	NaN
.	NaN	NaN
Diss	NaN	NaN
isch	NaN	NaN
jetz	NaN	NaN
awer	NaN	NaN
dumm	NaN	NaN
.	NaN	NaN
Ich	NaN	NaN
hab	NaN	NaN
doch	NaN	NaN
telephonisch	NaN	NaN
e	NaN	NaN
Zimmer	NaN	NaN
bstellt	NaN	NaN
un	NaN	NaN
no	NaN	NaN
hett	NaN	NaN
uns	NaN	NaN
s'	NaN	NaN
Maidel	NaN	NaN
diss	NaN	NaN
Zimmer	NaN	NaN
gänn	NaN	NaN
.	NaN	NaN
Jetz	NaN	NaN
wurd	NaN	NaN
's	NaN	NaN
hell	NaN	NaN
.	NaN	NaN
Ich	NaN	NaN
hab	NaN	NaN
e	NaN	NaN
Depesch	NaN	NaN
gschickt	NaN	NaN
un	NaN	NaN
bin	NaN	NaN
no	NaN	NaN
direkt	NaN	NaN
in	NaN	NaN
in	NaN	NaN
diss	NaN	NaN
Zimmer	NaN	NaN
.	NaN	NaN
—	NaN	NaN
—	NaN	NaN
Dü	NaN	NaN
Mamme	NaN	NaN
,	NaN	NaN
do	NaN	NaN
welle	NaN	NaN
mr	NaN	NaN
halt	NaN	NaN
unser	NaN	NaN
Bimbelebaasch	NaN	NaN
nämme	NaN	NaN
un	NaN	NaN
uff	NaN	NaN
d'	NaN	NaN
Wohnungsjacht	NaN	NaN
gehn	NaN	NaN
.	NaN	NaN
Diss	NaN	NaN
isch	NaN	NaN
mir	NaN	NaN
jetz	NaN	NaN
sehr	NaN	NaN
leid	NaN	NaN
.	NaN	NaN
Alfons	NaN	NaN
Lieblich	NaN	NaN
,	NaN	NaN
Schriftsteller	NaN	NaN
,	NaN	NaN
…	NaN	NaN
mini	NaN	NaN
Frau	NaN	NaN
.	NaN	NaN
Felix	NaN	NaN
Kächele	NaN	NaN
,	NaN	NaN
Friseurmeischter	NaN	NaN
,	NaN	NaN
mini	NaN	NaN
Frau	NaN	NaN
Schülli	NaN	NaN
,	NaN	NaN
geboreni	NaN	NaN
Spritzer	NaN	NaN
.	NaN	NaN
Höer	NaN	NaN
Alfons	NaN	NaN
,	NaN	NaN
diss	NaN	NaN
kenne	NaN	NaN
mir	NaN	NaN
nitt	NaN	NaN
zue	NaN	NaN
gànn	NaN	NaN
,	NaN	NaN
mir	NaN	NaN
Jungi	NaN	NaN
solle	NaN	NaN
do	NaN	NaN
bliewe	NaN	NaN
un	NaN	NaN
die	NaN	NaN
zwei	NaN	NaN
Alte	NaN	NaN
solle	NaN	NaN
gehn	NaN	NaN
?	NaN	NaN
.	NaN	NaN
Nein	NaN	NaN
Alfons	NaN	NaN
.	NaN	NaN
Wenn	NaN	NaN
dü	NaN	NaN
meinsch	NaN	NaN
.	NaN	NaN
Herr	NaN	NaN
Kächele	NaN	NaN
,	NaN	NaN
mini	NaN	NaN
Frau	NaN	NaN
will	NaN	NaN
nitt	NaN	NaN
hann	NaN	NaN
,	NaN	NaN
dass	NaN	NaN
sie	NaN	NaN
so	NaN	NaN
viel	NaN	NaN
Umständ	NaN	NaN
solle	NaN	NaN
hann	NaN	NaN
,	NaN	NaN
.	NaN	NaN
also	NaN	NaN
wäre	NaN	NaN
mir	NaN	NaN
uns	NaN	NaN
e	NaN	NaN
ander	NaN	NaN
Zimmer	NaN	NaN
gänn	NaN	NaN
lonn	NaN	NaN
.	NaN	NaN
Diss	NaN	NaN
isch	NaN	NaN
jo	NaN	NaN
alles	NaN	NaN
racht	NaN	NaN
natt	NaN	NaN
vun	NaN	NaN
Ihne	NaN	NaN
,	NaN	NaN
awer	NaN	NaN
diss	NaN	NaN
könne	NaN	NaN
mir	NaN	NaN
nitt	NaN	NaN
annäme	NaN	NaN
.	NaN	NaN
—	NaN	NaN
Mir	NaN	NaN
Alti	NaN	NaN
muehn	NaN	NaN
de	NaN	NaN
Junge	NaN	NaN
Platz	NaN	NaN
mache	NaN	NaN
,	NaN	NaN
diss	NaN	NaN
isch	NaN	NaN
emol	NaN	NaN
eso	NaN	NaN
im	NaN	NaN
Läwe	NaN	NaN
.	NaN	NaN
Wenn	NaN	NaN
ich	NaN	NaN
mich	NaN	NaN
nitt	NaN	NaN
trumbier	NaN	NaN
Madame	NaN	NaN
Lieblich	NaN	NaN
,	NaN	NaN
sinn	NaN	NaN
Sie	NaN	NaN
uff	NaN	NaN
dr	NaN	NaN
Hochzittsreis	NaN	NaN
?	NaN	NaN
Ja	NaN	NaN
Madame	NaN	NaN
Kächele	NaN	NaN
ich	NaN	NaN
un	NaN	NaN
min	NaN	NaN
Mann	NaN	NaN
,	NaN	NaN
…	NaN	NaN
hitt	NaN	NaN
isch	NaN	NaN
unser	NaN	NaN
Hochzittsdaa	NaN	NaN
.	NaN	NaN
Unsere	NaN	NaN
au	NaN	NaN
…	NaN	NaN
gell	NaN	NaN
Frau	NaN	NaN
?	NaN	NaN
Was	NaN	NaN
…	NaN	NaN
Sie	NaN	NaN
hann	NaN	NaN
hitt	NaN	NaN
au	NaN	NaN
Hochzitt	NaN	NaN
kett	NaN	NaN
?	NaN	NaN
Ja	NaN	NaN
Madamele	NaN	NaN
«	NaN	NaN
hitt	NaN	NaN
»	NaN	NaN
vor	NaN	NaN
25	NaN	NaN
Johr	NaN	NaN
.	NaN	NaN
Ja	NaN	NaN
mir	NaN	NaN
fiehre	NaN	NaN
hitt	NaN	NaN
«	NaN	NaN
Silwerni	NaN	NaN
Hochzitt	NaN	NaN
»	NaN	NaN
.	NaN	NaN
Un	NaN	NaN
drum	NaN	NaN
hann	NaN	NaN
mr	NaN	NaN
de	NaN	NaN
«	NaN	NaN
Kalte	NaN	NaN
Jager	NaN	NaN
»	NaN	NaN
widder	NaN	NaN
uffgsuecht	NaN	NaN
,	NaN	NaN
will	NaN	NaN
m'r	NaN	NaN
do	NaN	NaN
s'	NaN	NaN
erschte	NaN	NaN
Mol	NaN	NaN
gschlofe	NaN	NaN
hann	NaN	NaN
,	NaN	NaN
gell	NaN	NaN
Mamme	NaN	NaN
.	NaN	NaN
O	NaN	NaN
wie	NaN	NaN
nett	NaN	NaN
.	NaN	NaN
Unseri	NaN	NaN
herzlichschti	NaN	NaN
Gratulation	NaN	NaN
!	NaN	NaN
Au	NaN	NaN
mir	NaN	NaN
wünsche	NaN	NaN
ihne	NaN	NaN
alles	NaN	NaN
Glück	NaN	NaN
.	NaN	NaN
Dito	NaN	NaN
,	NaN	NaN
dito	NaN	NaN
mit	NaN	NaN
Sänft	NaN	NaN
.	NaN	NaN
Felix	NaN	NaN
,	NaN	NaN
redd	NaN	NaN
nitt	NaN	NaN
so	NaN	NaN
wüescht	NaN	NaN
.	NaN	NaN
Was	NaN	NaN
heisst	NaN	NaN
wüescht	NaN	NaN
,	NaN	NaN
bie	NaN	NaN
mir	NaN	NaN
kummt	NaN	NaN
's	NaN	NaN
vun	NaN	NaN
Härze	NaN	NaN
.	NaN	NaN
Dü	NaN	NaN
hesch	NaN	NaN
allewill	NaN	NaN
ebs	NaN	NaN
an	NaN	NaN
mir	NaN	NaN
üsszestze	NaN	NaN
.	NaN	NaN
—	NaN	NaN
Un	NaN	NaN
e	NaN	NaN
Dursch	NaN	NaN
haw	NaN	NaN
ich	NaN	NaN
jetz	NaN	NaN
vun	NaN	NaN
dem	NaN	NaN
viele	NaN	NaN
babble	NaN	NaN
.	NaN	NaN
Hopp	NaN	NaN
,	NaN	NaN
do	NaN	NaN
here	NaN	NaN
,	NaN	NaN
…	NaN	NaN
es	NaN	NaN
gilt	NaN	NaN
,	NaN	NaN
Gsundheit	NaN	NaN
!	NaN	NaN
Ja	NaN	NaN
,	NaN	NaN
ihr	NaN	NaN
Jungi	NaN	NaN
do	NaN	NaN
betrachte	NaN	NaN
uns	NaN	NaN
Alti	NaN	NaN
,	NaN	NaN
…	NaN	NaN
un	NaN	NaN
do	NaN	NaN
mini	NaN	NaN
lieb	NaN	NaN
,	NaN	NaN
alt	NaN	NaN
Pflutt	NaN	NaN
,	NaN	NaN
12	NaN	NaN
Kinder	NaN	NaN
hett	NaN	NaN
se	NaN	NaN
mir	NaN	NaN
gschenkt	NaN	NaN
.	NaN	NaN
Joo	NaN	NaN
,	NaN	NaN
…	NaN	NaN
lüj	NaN	NaN
nitt	NaN	NaN
eso	NaN	NaN
,	NaN	NaN
…	NaN	NaN
nurre	NaN	NaN
10	NaN	NaN
Madame	NaN	NaN
.	NaN	NaN
Poo	NaN	NaN
,	NaN	NaN
es	NaN	NaN
kummt	NaN	NaN
uff	NaN	NaN
zwei	NaN	NaN
nitt	NaN	NaN
an	NaN	NaN
:	NaN	NaN
«	NaN	NaN
Schön	NaN	NaN
ist	NaN	NaN
die	NaN	NaN
Jugend	NaN	NaN
sie	NaN	NaN
kommt	NaN	NaN
nicht	NaN	NaN
mehr	NaN	NaN
»	NaN	NaN
.	NaN	NaN
Entrez	NaN	NaN
!	NaN	NaN
Jetz	NaN	NaN
huckt	NaN	NaN
der	NaN	NaN
alt	NaN	NaN
Gitzkräuje	NaN	NaN
au	NaN	NaN
noch	NaN	NaN
do	NaN	NaN
.	NaN	NaN
Höre	NaN	NaN
,	NaN	NaN
diss	NaN	NaN
Zimmer	NaN	NaN
isch	NaN	NaN
bsetzt	NaN	NaN
.	NaN	NaN
Ich	NaN	NaN
weiss-es	NaN	NaN
Isidor	NaN	NaN
.	NaN	NaN
Nix	NaN	NaN
ze	NaN	NaN
Isidor	NaN	NaN
…	NaN	NaN
Dominik	NaN	NaN
häiss	NaN	NaN
ich	NaN	NaN
als	NaN	NaN
noch	NaN	NaN
verstande	NaN	NaN
?	NaN	NaN
Mintwäje	NaN	NaN
au	NaN	NaN
Dominik	NaN	NaN
,	NaN	NaN
.	NaN	NaN
also	NaN	NaN
mir	NaN	NaN
sinn	NaN	NaN
einig	NaN	NaN
.	NaN	NaN
Do	NaN	NaN
näme	NaN	NaN
ihr	NaN	NaN
e	NaN	NaN
anderes	NaN	NaN
Zimmer	NaN	NaN
?	NaN	NaN
Nein	NaN	NaN
,	NaN	NaN
nein	NaN	NaN
!	NaN	NaN
Ja	NaN	NaN
,	NaN	NaN
welle	NaN	NaN
ihr	NaN	NaN
e	NaN	NaN
anders	NaN	NaN
Zimmer	NaN	NaN
?	NaN	NaN
Nein	NaN	NaN
,	NaN	NaN
nein	NaN	NaN
,	NaN	NaN
diss	NaN	NaN
gänn	NaN	NaN
mir	NaN	NaN
nitt	NaN	NaN
zue	NaN	NaN
.	NaN	NaN
Ja	NaN	NaN
,	NaN	NaN
do	NaN	NaN
kummt	NaN	NaN
jetz	NaN	NaN
kenn	NaN	NaN
Söj	NaN	NaN
drüss	NaN	NaN
,	NaN	NaN
gschweje	NaN	NaN
ich	NaN	NaN
.	NaN	NaN
Ja	NaN	NaN
welle	NaN	NaN
nr	NaN	NaN
alli	NaN	NaN
vier	NaN	NaN
in	NaN	NaN
diss	NaN	NaN
einte	NaN	NaN
Bett	NaN	NaN
leije	NaN	NaN
?	NaN	NaN
Nein	NaN	NaN
,	NaN	NaN
nein	NaN	NaN
!	NaN	NaN
Gänn	NaN	NaN
uns	NaN	NaN
e	NaN	NaN
ander	NaN	NaN
Zimmer	NaN	NaN
,	NaN	NaN
mir	NaN	NaN
bliewe	NaN	NaN
noch	NaN	NaN
e	NaN	NaN
bissel	NaN	NaN
bienander	NaN	NaN
.	NaN	NaN
Näme	NaN	NaN
unser	NaN	NaN
Gepäck	NaN	NaN
glich	NaN	NaN
mit	NaN	NaN
,	NaN	NaN
gälle	NaN	NaN
Hironimus	NaN	NaN
.	NaN	NaN
Dominik	NaN	NaN
häiss	NaN	NaN
i	NaN	NaN
!	NaN	NaN
Dräkender	NaN	NaN
Möbe	NaN	NaN
…	NaN	NaN
un	NaN	NaN
kenn	NaN	NaN
Centime	NaN	NaN
Trinkgald	NaN	NaN
.	NaN	NaN
Also	NaN	NaN
hat	NaN	NaN
Gott	NaN	NaN
die	NaN	NaN
Welt	NaN	NaN
geliebt	NaN	NaN
un	NaN	NaN
ich	NaN	NaN
minni	NaN	NaN
Frau	NaN	NaN
!	NaN	NaN
…	NaN	NaN
Gsundheit	NaN	NaN
!	NaN	NaN
Wenn	NaN	NaN
ich	NaN	NaN
Sie	NaN	NaN
so	NaN	NaN
betracht	NaN	NaN
Madame	NaN	NaN
Kächele	NaN	NaN
muess	NaN	NaN
ich	NaN	NaN
grad	NaN	NaN
an	NaN	NaN
mini	NaN	NaN
Mama	NaN	NaN
denke	NaN	NaN
.	NaN	NaN
—	NaN	NaN
O	NaN	NaN
mini	NaN	NaN
Mama	NaN	NaN
.	NaN	NaN
Awer	NaN	NaN
,	NaN	NaN
awer	NaN	NaN
nitt	NaN	NaN
griene	NaN	NaN
.	NaN	NaN
Joo	NaN	NaN
,	NaN	NaN
es	NaN	NaN
macht	NaN	NaN
jo	NaN	NaN
nitt	NaN	NaN
weh	NaN	NaN
.	NaN	NaN
Alfons	NaN	NaN
,	NaN	NaN
geh	NaN	NaN
dätsch	NaN	NaN
mir	NaN	NaN
doch	NaN	NaN
e	NaN	NaN
frisch	NaN	NaN
's	NaN	NaN
Mouchoir	NaN	NaN
hole	NaN	NaN
im	NaN	NaN
Koffer	NaN	NaN
.	NaN	NaN
Ich	NaN	NaN
lauf	NaN	NaN
Herzele	NaN	NaN
.	NaN	NaN
Ich	NaN	NaN
will	NaN	NaN
doch	NaN	NaN
au	NaN	NaN
lueje	NaN	NaN
ob	NaN	NaN
unser	NaN	NaN
Gepäck	NaN	NaN
alles	NaN	NaN
bsorit	NaN	NaN
isch	NaN	NaN
un	NaN	NaN
was	NaN	NaN
füer	NaN	NaN
e	NaN	NaN
Zimmer	NaN	NaN
ass	NaN	NaN
m'r	NaN	NaN
hann	NaN	NaN
.	NaN	NaN
Allons	NaN	NaN
Madame	NaN	NaN
Lieblich	NaN	NaN
,	NaN	NaN
mr	NaN	NaN
grient	NaN	NaN
doch	NaN	NaN
nitt	NaN	NaN
wenn	NaN	NaN
mr	NaN	NaN
uff	NaN	NaN
dr	NaN	NaN
Hochzittsreis	NaN	NaN
isch	NaN	NaN
,	NaN	NaN
do	NaN	NaN
isch	NaN	NaN
mr	NaN	NaN
luschti	NaN	NaN
,	NaN	NaN
stosse	NaN	NaN
mr	NaN	NaN
an	NaN	NaN
un	NaN	NaN
trinke	NaN	NaN
,	NaN	NaN
diss	NaN	NaN
gitt	NaN	NaN
Stimmung	NaN	NaN
.	NaN	NaN
Gsundheit	NaN	NaN
!	NaN	NaN
Jo	NaN	NaN
Monsieur	NaN	NaN
Kächele	NaN	NaN
,	NaN	NaN
ich	NaN	NaN
bin	NaN	NaN
dr	NaN	NaN
Win	NaN	NaN
nitt	NaN	NaN
gewohnt	NaN	NaN
.	NaN	NaN
uff	NaN	NaN
einmol	NaN	NaN
stejt	NaN	NaN
er	NaN	NaN
mir	NaN	NaN
in	NaN	NaN
de	NaN	NaN
Kopf	NaN	NaN
.	NaN	NaN
Diss	NaN	NaN
isch	NaN	NaN
jo	NaN	NaN
grad	NaN	NaN
racht	NaN	NaN
am	NaN	NaN
Hochzittsdaa	NaN	NaN
.	NaN	NaN
Un	NaN	NaN
e	NaN	NaN
Frau	NaN	NaN
isch	NaN	NaN
nitt	NaN	NaN
netter	NaN	NaN
,	NaN	NaN
ass	NaN	NaN
wenn	NaN	NaN
se	NaN	NaN
e	NaN	NaN
bissel	NaN	NaN
angspritzt	NaN	NaN
isch	NaN	NaN
.	NaN	NaN
Ich	NaN	NaN
weiss	NaN	NaN
gar	NaN	NaN
nitt	NaN	NaN
,	NaN	NaN
ich	NaN	NaN
hab	NaN	NaN
so	NaN	NaN
e	NaN	NaN
Angscht	NaN	NaN
uff	NaN	NaN
mir	NaN	NaN
,	NaN	NaN
ich	NaN	NaN
bin	NaN	NaN
hitt	NaN	NaN
zuem	NaN	NaN
ersehte	NaN	NaN
Mol	NaN	NaN
mit	NaN	NaN
mim	NaN	NaN
Mann	NaN	NaN
allein	NaN	NaN
.	NaN	NaN
Zum	NaN	NaN
erschte	NaN	NaN
Mol	NaN	NaN
,	NaN	NaN
…	NaN	NaN
ja	NaN	NaN
wie	NaN	NaN
lang	NaN	NaN
kenne	NaN	NaN
denn	NaN	NaN
ihr	NaN	NaN
enander	NaN	NaN
?	NaN	NaN
Zwei	NaN	NaN
Monet	NaN	NaN
.	NaN	NaN
Ich	NaN	NaN
hab	NaN	NaN
mine	NaN	NaN
Alfons	NaN	NaN
lehre	NaN	NaN
kenne	NaN	NaN
im	NaN	NaN
Concert	NaN	NaN
vum	NaN	NaN
Jungfraueverein	NaN	NaN
un	NaN	NaN
will	NaN	NaN
er	NaN	NaN
minere	NaN	NaN
Mama	NaN	NaN
so	NaN	NaN
guet	NaN	NaN
gfalle	NaN	NaN
hett	NaN	NaN
,	NaN	NaN
haw	NaN	NaN
ich	NaN	NaN
ne	NaN	NaN
ghirot	NaN	NaN
.	NaN	NaN
Mir	NaN	NaN
kenne	NaN	NaN
uns	NaN	NaN
küm	NaN	NaN
,	NaN	NaN
ich	NaN	NaN
hab-em	NaN	NaN
noch	NaN	NaN
nitt	NaN	NaN
emol	NaN	NaN
e	NaN	NaN
Schmutz	NaN	NaN
gänn	NaN	NaN
.	NaN	NaN
Joo	NaN	NaN
,	NaN	NaN
diss	NaN	NaN
glauwi	NaN	NaN
jetz	NaN	NaN
doch	NaN	NaN
nitt	NaN	NaN
,	NaN	NaN
er	NaN	NaN
isch	NaN	NaN
doch	NaN	NaN
jetz	NaN	NaN
Ihr	NaN	NaN
Mann	NaN	NaN
.	NaN	NaN
Ei	NaN	NaN
jeds	NaN	NaN
Mol	NaN	NaN
wenn	NaN	NaN
ich-em	NaN	NaN
e	NaN	NaN
Schmutz	NaN	NaN
hab	NaN	NaN
welle	NaN	NaN
gan	NaN	NaN
isch	NaN	NaN
ebber	NaN	NaN
kumme	NaN	NaN
.	NaN	NaN
Diss	NaN	NaN
isch	NaN	NaN
dumm	NaN	NaN
.	NaN	NaN
Awer	NaN	NaN
wie	NaN	NaN
er	NaN	NaN
jetz	NaN	NaN
kummt	NaN	NaN
no	NaN	NaN
gänn	NaN	NaN
Sie-em	NaN	NaN
e	NaN	NaN
Schmutz	NaN	NaN
,	NaN	NaN
do	NaN	NaN
kann	NaN	NaN
kumme	NaN	NaN
wer	NaN	NaN
will	NaN	NaN
,	NaN	NaN
der	NaN	NaN
Mann	NaN	NaN
isch	NaN	NaN
jo	NaN	NaN
ze	NaN	NaN
bedüre	NaN	NaN
.	NaN	NaN
Un	NaN	NaN
dr	NaN	NaN
Alfons	NaN	NaN
isch	NaN	NaN
doch	NaN	NaN
so	NaN	NaN
guet	NaN	NaN
,	NaN	NaN
so	NaN	NaN
herzensguet	NaN	NaN
geje	NaN	NaN
mich	NaN	NaN
,	NaN	NaN
wenn	NaN	NaN
er	NaN	NaN
nurre	NaN	NaN
so	NaN	NaN
bliet	NaN	NaN
,	NaN	NaN
denn	NaN	NaN
ich	NaN	NaN
hab	NaN	NaN
als	NaN	NaN
schun	NaN	NaN
vun	NaN	NaN
mine	NaN	NaN
Kamrädle	NaN	NaN
ghöert	NaN	NaN
,	NaN	NaN
ass	NaN	NaN
d'	NaN	NaN
Männer	NaN	NaN
als	NaN	NaN
andersch	NaN	NaN
wäre	NaN	NaN
,	NaN	NaN
wenn	NaN	NaN
mr	NaN	NaN
e	NaN	NaN
Wiel	NaN	NaN
ghirot	NaN	NaN
isch	NaN	NaN
.	NaN	NaN
Do	NaN	NaN
wär	NaN	NaN
ich	NaN	NaN
tiefunglücklich	NaN	NaN
,	NaN	NaN
wenn	NaN	NaN
minner	NaN	NaN
Mann	NaN	NaN
grob	NaN	NaN
geje	NaN	NaN
mich	NaN	NaN
dät	NaN	NaN
wäre	NaN	NaN
.	NaN	NaN
Ich	NaN	NaN
hab	NaN	NaN
ganz	NaN	NaN
vergässe	NaN	NaN
für	NaN	NaN
d'	NaN	NaN
Mamme	NaN	NaN
ze	NaN	NaN
fröje	NaN	NaN
,	NaN	NaN
was	NaN	NaN
ich	NaN	NaN
no	NaN	NaN
mache	NaN	NaN
soll	NaN	NaN
,	NaN	NaN
ass	NaN	NaN
er	NaN	NaN
widder	NaN	NaN
guet	NaN	NaN
geje	NaN	NaN
mich	NaN	NaN
isch	NaN	NaN
.	NaN	NaN
Mini	NaN	NaN
guet	NaN	NaN
Mamme	NaN	NaN
,	NaN	NaN
…	NaN	NaN
ich	NaN	NaN
hätt	NaN	NaN
nitt	NaN	NaN
solle	NaN	NaN
hirote	NaN	NaN
.	NaN	NaN
Nit	NaN	NaN
verzwiefle	NaN	NaN
Madämele	NaN	NaN
,	NaN	NaN
mir	NaN	NaN
Männer	NaN	NaN
sinn	NaN	NaN
nitt	NaN	NaN
so	NaN	NaN
böes	NaN	NaN
.	NaN	NaN
E	NaN	NaN
jeds	NaN	NaN
Wiewele	NaN	NaN
hett	NaN	NaN
e	NaN	NaN
Mittel	NaN	NaN
um	NaN	NaN
de	NaN	NaN
Mann	NaN	NaN
widder	NaN	NaN
guet	NaN	NaN
ze	NaN	NaN
mache	NaN	NaN
,	NaN	NaN
mr	NaN	NaN
mues	NaN	NaN
es	NaN	NaN
nurre	NaN	NaN
wisse	NaN	NaN
anzewände	NaN	NaN
.	NaN	NaN
O	NaN	NaN
saue	NaN	NaN
Sie	NaN	NaN
mir	NaN	NaN
's	NaN	NaN
Monsieur	NaN	NaN
Kächele	NaN	NaN
,	NaN	NaN
ich	NaN	NaN
bin	NaN	NaN
ne	NaN	NaN
arich	NaN	NaN
dankbar	NaN	NaN
defuer	NaN	NaN
.	NaN	NaN
Vun	NaN	NaN
Härze	NaN	NaN
gärn	NaN	NaN
,	NaN	NaN
worum	NaN	NaN
soll	NaN	NaN
ich	NaN	NaN
denn	NaN	NaN
im	NaN	NaN
e	NaN	NaN
so	NaN	NaN
e	NaN	NaN
liewe	NaN	NaN
,	NaN	NaN
junge	NaN	NaN
Frauele	NaN	NaN
kenn	NaN	NaN
Gfalle	NaN	NaN
mache	NaN	NaN
.	NaN	NaN
Trinke	NaN	NaN
mr	NaN	NaN
noch	NaN	NaN
e	NaN	NaN
mol	NaN	NaN
no	NaN	NaN
will	NaN	NaN
ich	NaN	NaN
's	NaN	NaN
ne	NaN	NaN
saue	NaN	NaN
.	NaN	NaN
Uff	NaN	NaN
Ihr	NaN	NaN
Wohl	NaN	NaN
!	NaN	NaN
Der	NaN	NaN
Win	NaN	NaN
isch	NaN	NaN
awer	NaN	NaN
starik	NaN	NaN
ich	NaN	NaN
bekumm	NaN	NaN
ganz	NaN	NaN
warm	NaN	NaN
devun	NaN	NaN
.	NaN	NaN
Naja	NaN	NaN
Sie	NaN	NaN
soll	NaN	NaN
jo	NaN	NaN
warm	NaN	NaN
wäre	NaN	NaN
.	NaN	NaN
Awer	NaN	NaN
jetz	NaN	NaN
basst	NaN	NaN
Sie	NaN	NaN
uff	NaN	NaN
.	NaN	NaN
Wenn	NaN	NaN
e	NaN	NaN
Mann	NaN	NaN
emol	NaN	NaN
wuetig	NaN	NaN
isch	NaN	NaN
oder	NaN	NaN
brummig	NaN	NaN
,	NaN	NaN
no	NaN	NaN
geht	NaN	NaN
sin	NaN	NaN
Wiewele	NaN	NaN
ane	NaN	NaN
,	NaN	NaN
nimmt	NaN	NaN
ne	NaN	NaN
um	NaN	NaN
de	NaN	NaN
Hals	NaN	NaN
un	NaN	NaN
saat	NaN	NaN
ganz	NaN	NaN
zärtlich	NaN	NaN
:	NaN	NaN
Was	NaN	NaN
hesch	NaN	NaN
denn	NaN	NaN
Männel	NaN	NaN
,	NaN	NaN
alle	NaN	NaN
sej	NaN	NaN
widder	NaN	NaN
guet	NaN	NaN
zue	NaN	NaN
dim	NaN	NaN
Fraule	NaN	NaN
,	NaN	NaN
bekummsch	NaN	NaN
e	NaN	NaN
gueter	NaN	NaN
Schmutz	NaN	NaN
.	NaN	NaN
—	NaN	NaN
Do	NaN	NaN
kann	NaN	NaN
kenn	NaN	NaN
Mann	NaN	NaN
widderstehn	NaN	NaN
,	NaN	NaN
er	NaN	NaN
wurd	NaN	NaN
weich	NaN	NaN
wie	NaN	NaN
dr	NaN	NaN
Butter	NaN	NaN
in	NaN	NaN
dr	NaN	NaN
Sunn	NaN	NaN
.	NaN	NaN
Isch	NaN	NaN
diss	NaN	NaN
sicher	NaN	NaN
wohr	NaN	NaN
?	NaN	NaN
Ganz	NaN	NaN
sicher	NaN	NaN
.	NaN	NaN
Jetz	NaN	NaN
browiere	NaN	NaN
mrs	NaN	NaN
emol	NaN	NaN
glich	NaN	NaN
,	NaN	NaN
ass	NaN	NaN
ich	NaN	NaN
sieh	NaN	NaN
ob	NaN	NaN
Sie	NaN	NaN
's	NaN	NaN
au	NaN	NaN
recht	NaN	NaN
kapiert	NaN	NaN
hett	NaN	NaN
.	NaN	NaN
Also	NaN	NaN
ich	NaN	NaN
bin	NaN	NaN
dr	NaN	NaN
Mann	NaN	NaN
un	NaN	NaN
Sie	NaN	NaN
d'	NaN	NaN
Frau	NaN	NaN
un	NaN	NaN
ich	NaN	NaN
hab	NaN	NaN
e	NaN	NaN
Wuet	NaN	NaN
wäje-nem	NaN	NaN
Zmiddaesse	NaN	NaN
.	NaN	NaN
Wie	NaN	NaN
.	NaN	NaN
ich	NaN	NaN
soll	NaN	NaN
.	NaN	NaN
jo	NaN	NaN
diss	NaN	NaN
schikt	NaN	NaN
sich	NaN	NaN
doch	NaN	NaN
nitt	NaN	NaN
.	NaN	NaN
Allewäj	NaN	NaN
,	NaN	NaN
Sie	NaN	NaN
mues	NaN	NaN
,	NaN	NaN
ass	NaN	NaN
Sie	NaN	NaN
's	NaN	NaN
lehrt	NaN	NaN
,	NaN	NaN
.	NaN	NaN
es	NaN	NaN
isch	NaN	NaN
jo	NaN	NaN
nurre	NaN	NaN
e	NaN	NaN
Prob	NaN	NaN
,	NaN	NaN
.	NaN	NaN
es	NaN	NaN
isch	NaN	NaN
jo	NaN	NaN
nitt	NaN	NaN
ernscht	NaN	NaN
.	NaN	NaN
E	NaN	NaN
Gottsnamme	NaN	NaN
denn	NaN	NaN
,	NaN	NaN
.	NaN	NaN
ja	NaN	NaN
was	NaN	NaN
soll	NaN	NaN
ich	NaN	NaN
mache	NaN	NaN
?	NaN	NaN
Also	NaN	NaN
ich	NaN	NaN
bin	NaN	NaN
Ihr	NaN	NaN
Mann	NaN	NaN
un	NaN	NaN
händel	NaN	NaN
mit-ne	NaN	NaN
wäje-nem	NaN	NaN
Esse	NaN	NaN
,	NaN	NaN
will	NaN	NaN
's	NaN	NaN
angebrännt	NaN	NaN
isch	NaN	NaN
.	NaN	NaN
Zerscht	NaN	NaN
will	NaN	NaN
ich	NaN	NaN
noch	NaN	NaN
eins	NaN	NaN
trinke	NaN	NaN
,	NaN	NaN
ass	NaN	NaN
ich	NaN	NaN
rächt	NaN	NaN
in	NaN	NaN
de	NaN	NaN
Wuet	NaN	NaN
kumm	NaN	NaN
.	NaN	NaN
—	NaN	NaN
So	NaN	NaN
jetz	NaN	NaN
geht	NaN	NaN
's	NaN	NaN
los	NaN	NaN
.	NaN	NaN
Dunterwätter	NaN	NaN
noch	NaN	NaN
emol	NaN	NaN
,	NaN	NaN
was	NaN	NaN
isch	NaN	NaN
diss	NaN	NaN
fuer	NaN	NaN
e	NaN	NaN
Esse	NaN	NaN
hitt	NaN	NaN
.	NaN	NaN
Diss	NaN	NaN
schmekt	NaN	NaN
angebrännt	NaN	NaN
…	NaN	NaN
un	NaN	NaN
ze	NaN	NaN
viel	NaN	NaN
Salz	NaN	NaN
isch	NaN	NaN
au	NaN	NaN
dran	NaN	NaN
.	NaN	NaN
Pfui	NaN	NaN
Dejfel	NaN	NaN
schmeckt	NaN	NaN
diss	NaN	NaN
.	NaN	NaN
—	NaN	NaN
Jetz	NaN	NaN
redd	NaN	NaN
Sie	NaN	NaN
ebbs	NaN	NaN
.	NaN	NaN
Jo	NaN	NaN
weisch	NaN	NaN
Mann	NaN	NaN
ich	NaN	NaN
hab	NaN	NaN
grad	NaN	NaN
e	NaN	NaN
Moment	NaN	NaN
nüssgeluejt	NaN	NaN
un	NaN	NaN
do	NaN	NaN
isch	NaN	NaN
's	NaN	NaN
mir	NaN	NaN
angebrännt	NaN	NaN
,	NaN	NaN
awer	NaN	NaN
nurre	NaN	NaN
e	NaN	NaN
bissele	NaN	NaN
,	NaN	NaN
mr	NaN	NaN
schmeckt	NaN	NaN
's	NaN	NaN
küm	NaN	NaN
.	NaN	NaN
Natirli	NaN	NaN
e	NaN	NaN
Uessredd	NaN	NaN
hesch	NaN	NaN
allewill	NaN	NaN
uff	NaN	NaN
dr	NaN	NaN
Pfann	NaN	NaN
.	NaN	NaN
Herrschaft	NaN	NaN
de	NaN	NaN
ganze	NaN	NaN
Daa	NaN	NaN
schafft	NaN	NaN
mr	NaN	NaN
un	NaN	NaN
wenn	NaN	NaN
mr	NaN	NaN
heim	NaN	NaN
kummt	NaN	NaN
mit-eme	NaN	NaN
Mordshunger	NaN	NaN
,	NaN	NaN
isch	NaN	NaN
's	NaN	NaN
Esse	NaN	NaN
nix	NaN	NaN
.	NaN	NaN
Herr	NaN	NaN
,	NaN	NaN
…	NaN	NaN
e	NaN	NaN
Millione	NaN	NaN
…	NaN	NaN
Hopp	NaN	NaN
,	NaN	NaN
jetz	NaN	NaN
fallt	NaN	NaN
Sie	NaN	NaN
m'r	NaN	NaN
um	NaN	NaN
de	NaN	NaN
Hals	NaN	NaN
un	NaN	NaN
gitt	NaN	NaN
Sie	NaN	NaN
mr	NaN	NaN
e	NaN	NaN
Schmutz	NaN	NaN
.	NaN	NaN
Alle	NaN	NaN
Männel	NaN	NaN
sej	NaN	NaN
doch	NaN	NaN
widder	NaN	NaN
guet	NaN	NaN
mit	NaN	NaN
dim	NaN	NaN
Fraule	NaN	NaN
.	NaN	NaN
Un	NaN	NaN
e	NaN	NaN
Schmutz	NaN	NaN
jetzt	NaN	NaN
sunsch	NaN	NaN
wurr	NaN	NaN
i	NaN	NaN
nitt	NaN	NaN
guet	NaN	NaN
.	NaN	NaN
Bekumsch	NaN	NaN
au	NaN	NaN
e	NaN	NaN
Schmutz	NaN	NaN
liebs	NaN	NaN
Männel	NaN	NaN
.	NaN	NaN
Noch	NaN	NaN
einer	NaN	NaN
!	NaN	NaN
Min	NaN	NaN
liebs	NaN	NaN
goldichs	NaN	NaN
Wiewele	NaN	NaN
.	NaN	NaN
Emma	NaN	NaN
!	NaN	NaN
Felix	NaN	NaN
!	NaN	NaN
Hesch	NaN	NaN
mir	NaN	NaN
e	NaN	NaN
Mouchoir	NaN	NaN
min	NaN	NaN
liewer	NaN	NaN
?	NaN	NaN
Bisch	NaN	NaN
do	NaN	NaN
Schülli	NaN	NaN
,	NaN	NaN
....	NaN	NaN
Da	NaN	NaN
…	NaN	NaN
jerum	NaN	NaN
jetz	NaN	NaN
haw	NaN	NaN
ich	NaN	NaN
e	NaN	NaN
…	NaN	NaN
!	NaN	NaN
Na	NaN	NaN
,	NaN	NaN
es	NaN	NaN
macht	NaN	NaN
nix	NaN	NaN
,	NaN	NaN
es	NaN	NaN
isch	NaN	NaN
üss	NaN	NaN
mit	NaN	NaN
uns	NaN	NaN
zwei	NaN	NaN
,	NaN	NaN
dü	NaN	NaN
hesch	NaN	NaN
mir	NaN	NaN
d'	NaN	NaN
Ehe	NaN	NaN
gebroche	NaN	NaN
in	NaN	NaN
de	NaN	NaN
Aerm	NaN	NaN
vum	NaN	NaN
e	NaN	NaN
andere	NaN	NaN
Mann	NaN	NaN
.	NaN	NaN
Pfui	NaN	NaN
!	NaN	NaN
Alfons	NaN	NaN
,	NaN	NaN
e	NaN	NaN
so	NaN	NaN
ebbs	NaN	NaN
glaubsch	NaN	NaN
dü	NaN	NaN
vun	NaN	NaN
mir	NaN	NaN
?	NaN	NaN
Hesch	NaN	NaN
nitt	NaN	NaN
dr	NaN	NaN
Monsieur	NaN	NaN
verschmutzt	NaN	NaN
vor	NaN	NaN
mine	NaN	NaN
Aue	NaN	NaN
.	NaN	NaN
Was	NaN	NaN
wurd	NaN	NaN
do	NaN	NaN
dini	NaN	NaN
Mame	NaN	NaN
saue	NaN	NaN
?	NaN	NaN
Diss	NaN	NaN
isch	NaN	NaN
nitt	NaN	NaN
nowel	NaN	NaN
vun	NaN	NaN
Ihne	NaN	NaN
Madame	NaN	NaN
e	NaN	NaN
-n-	NaN	NaN
alte	NaN	NaN
Mann	NaN	NaN
ze	NaN	NaN
verfüehre	NaN	NaN
.	NaN	NaN
Noch	NaN	NaN
so	NaN	NaN
jung	NaN	NaN
un	NaN	NaN
schun	NaN	NaN
so	NaN	NaN
verdorwe	NaN	NaN
.	NaN	NaN
So	NaN	NaN
nett	NaN	NaN
kannsch	NaN	NaN
gar	NaN	NaN
nitt	NaN	NaN
zue	NaN	NaN
mir	NaN	NaN
saue	NaN	NaN
:	NaN	NaN
Min	NaN	NaN
goldichs	NaN	NaN
Wiewele	NaN	NaN
.	NaN	NaN
Do	NaN	NaN
hesch	NaN	NaN
nitt	NaN	NaN
an	NaN	NaN
d'	NaN	NaN
Kinjelemoor	NaN	NaN
gedänkt	NaN	NaN
.	NaN	NaN
Sie	NaN	NaN
schiene	NaN	NaN
mir	NaN	NaN
e	NaN	NaN
rächter	NaN	NaN
Kinjelebock	NaN	NaN
ze	NaN	NaN
sinn	NaN	NaN
,	NaN	NaN
Sie	NaN	NaN
.	NaN	NaN
Pfui	NaN	NaN
!	NaN	NaN
E	NaN	NaN
Millione	NaN	NaN
Rasiermesser	NaN	NaN
,	NaN	NaN
ich	NaN	NaN
e	NaN	NaN
Kinjelebock	NaN	NaN
?	NaN	NaN
Diss	NaN	NaN
isch	NaN	NaN
ze	NaN	NaN
starik	NaN	NaN
,	NaN	NaN
diss	NaN	NaN
sollsch	NaN	NaN
mir	NaN	NaN
büese	NaN	NaN
!	NaN	NaN
Was	NaN	NaN
isch	NaN	NaN
denn	NaN	NaN
diss	NaN	NaN
für	NaN	NaN
e	NaN	NaN
Krambol	NaN	NaN
?	NaN	NaN
Do	NaN	NaN
wurd	NaN	NaN
nitt	NaN	NaN
ghän	NaN	NaN
-	NaN	NaN
delt	NaN	NaN
,	NaN	NaN
ihr	NaN	NaN
sinn	NaN	NaN
do	NaN	NaN
nitt	NaN	NaN
in	NaN	NaN
dr	NaN	NaN
Franzesch	NaN	NaN
Kammer	NaN	NaN
,	NaN	NaN
ihr	NaN	NaN
sinn	NaN	NaN
do	NaN	NaN
im	NaN	NaN
Kalte	NaN	NaN
Jager	NaN	NaN
.	NaN	NaN
Ihr	NaN	NaN
sinn	NaN	NaN
m'r	NaN	NaN
noch	NaN	NaN
e	NaN	NaN
Pratik	NaN	NaN
,	NaN	NaN
zerscht	NaN	NaN
trinke	NaN	NaN
nr	NaN	NaN
mitnand	NaN	NaN
un	NaN	NaN
no	NaN	NaN
verhaue	NaN	NaN
nr	NaN	NaN
enander	NaN	NaN
.	NaN	NaN
Bringe	NaN	NaN
Sie	NaN	NaN
mini	NaN	NaN
Köffer	NaN	NaN
ich	NaN	NaN
reis	NaN	NaN
ab	NaN	NaN
.	NaN	NaN
Unser	NaN	NaN
Gepäck	NaN	NaN
au	NaN	NaN
,	NaN	NaN
mir	NaN	NaN
gehn	NaN	NaN
au	NaN	NaN
los	NaN	NaN
.	NaN	NaN
Jo	NaN	NaN
mache	NaN	NaN
ass'r	NaN	NaN
los	NaN	NaN
kumme	NaN	NaN
.	NaN	NaN
Sie	NaN	NaN
gänn	NaN	NaN
jo	NaN	NaN
doch	NaN	NaN
kenn	NaN	NaN
Trinkgelder	NaN	NaN
.	NaN	NaN
Diss	NaN	NaN
isch	NaN	NaN
mir	NaN	NaN
e	NaN	NaN
netti	NaN	NaN
Söjerej	NaN	NaN
un	NaN	NaN
ich	NaN	NaN
hab	NaN	NaN
's	NaN	NaN
so	NaN	NaN
guet	NaN	NaN
gmeint	NaN	NaN
.	NaN	NaN
ab	NaN	NaN
)	NaN	NaN
.	NaN	NaN
Nein	NaN	NaN
so	NaN	NaN
e	NaN	NaN
Hochzittsreis	NaN	NaN
.	NaN	NaN
Nein	NaN	NaN
ich	NaN	NaN
kenn	NaN	NaN
mi	NaN	NaN
nimi	NaN	NaN
,	NaN	NaN
o	NaN	NaN
jeh	NaN	NaN
,	NaN	NaN
jetz	NaN	NaN
bekumm	NaN	NaN
ich	NaN	NaN
au	NaN	NaN
noch	NaN	NaN
Selbstmordgedanke	NaN	NaN
,	NaN	NaN
ich	NaN	NaN
geh	NaN	NaN
ans	NaN	NaN
Wasser	NaN	NaN
un	NaN	NaN
hänk	NaN	NaN
mich	NaN	NaN
uff	NaN	NaN
.	NaN	NaN
Alfons	NaN	NaN
!	NaN	NaN
!	NaN	NaN
Jetz	NaN	NaN
macht	NaN	NaN
Sie	NaN	NaN
's	NaN	NaN
doch	NaN	NaN
,	NaN	NaN
was	NaN	NaN
ich	NaN	NaN
Sie	NaN	NaN
vori	NaN	NaN
gelehrt	NaN	NaN
hab	NaN	NaN
.	NaN	NaN
Alfons	NaN	NaN
,	NaN	NaN
Männel	NaN	NaN
,	NaN	NaN
sej	NaN	NaN
doch	NaN	NaN
widder	NaN	NaN
guet	NaN	NaN
zue	NaN	NaN
dim	NaN	NaN
Fraule	NaN	NaN
,	NaN	NaN
.	NaN	NaN
ich	NaN	NaN
gib	NaN	NaN
dir	NaN	NaN
au	NaN	NaN
e	NaN	NaN
Schmutz	NaN	NaN
,	NaN	NaN
de	NaN	NaN
erschte	NaN	NaN
.	NaN	NaN
—	NaN	NaN
—	NaN	NaN
Vun	NaN	NaN
dim	NaN	NaN
Emmäjele	NaN	NaN
wie	NaN	NaN
dich	NaN	NaN
so	NaN	NaN
gern	NaN	NaN
hett	NaN	NaN
.	NaN	NaN
Ich	NaN	NaN
kann	NaN	NaN
nimi	NaN	NaN
böes	NaN	NaN
sinn	NaN	NaN
.	NaN	NaN
Min	NaN	NaN
goldichs	NaN	NaN
,	NaN	NaN
herzichs	NaN	NaN
,	NaN	NaN
zuckerichs	NaN	NaN
Emmäjele	NaN	NaN
.	NaN	NaN
Bravo	NaN	NaN
,	NaN	NaN
gell	NaN	NaN
s'	NaN	NaN
hett	NaN	NaN
gholfe	NaN	NaN
,	NaN	NaN
…	NaN	NaN
do	NaN	NaN
wurd	NaN	NaN
e	NaN	NaN
jeder	NaN	NaN
Mann	NaN	NaN
weich	NaN	NaN
.	NaN	NaN
Siehsch	NaN	NaN
Schülli	NaN	NaN
ich	NaN	NaN
hab	NaN	NaN
dere	NaN	NaN
junge	NaN	NaN
Frau	NaN	NaN
gsaat	NaN	NaN
,	NaN	NaN
sie	NaN	NaN
soll	NaN	NaN
in	NaN	NaN
ihrem	NaN	NaN
Männel	NaN	NaN
nurre	NaN	NaN
e	NaN	NaN
Schmutz	NaN	NaN
gänn	NaN	NaN
wenn'r	NaN	NaN
böes	NaN	NaN
isch	NaN	NaN
,	NaN	NaN
no	NaN	NaN
wurd	NaN	NaN
er	NaN	NaN
grad	NaN	NaN
widder	NaN	NaN
guet	NaN	NaN
.	NaN	NaN
Isch	NaN	NaN
's	NaN	NaN
nitt	NaN	NaN
oso	NaN	NaN
gsinn	NaN	NaN
,	NaN	NaN
Madame	NaN	NaN
Lieblich	NaN	NaN
?	NaN	NaN
Mir	NaN	NaN
hann	NaN	NaN
's	NaN	NaN
nurre	NaN	NaN
browiert	NaN	NaN
.	NaN	NaN
Doch	NaN	NaN
so	NaN	NaN
isch	NaN	NaN
's	NaN	NaN
gsinn	NaN	NaN
Madame	NaN	NaN
.	NaN	NaN
—	NaN	NaN
Un	NaN	NaN
dü	NaN	NaN
min	NaN	NaN
büeser	NaN	NaN
Alfons	NaN	NaN
hesch	NaN	NaN
so	NaN	NaN
ebbs	NaN	NaN
wüeschts	NaN	NaN
vun	NaN	NaN
mir	NaN	NaN
gedänkt	NaN	NaN
?	NaN	NaN
Ich	NaN	NaN
hab	NaN	NaN
jo	NaN	NaN
nurre	NaN	NaN
dich	NaN	NaN
gern	NaN	NaN
.	NaN	NaN
Höer	NaN	NaN
Alterle	NaN	NaN
,	NaN	NaN
so	NaN	NaN
Lektion	NaN	NaN
losch	NaN	NaN
mir	NaN	NaN
awer	NaN	NaN
in	NaN	NaN
Züekunft	NaN	NaN
unterwäjs	NaN	NaN
.	NaN	NaN
Ejer	NaN	NaN
Gepackdings	NaN	NaN
isch	NaN	NaN
gerüscht	NaN	NaN
,	NaN	NaN
im	NaN	NaN
Hüssgang	NaN	NaN
steht	NaN	NaN
's	NaN	NaN
.	NaN	NaN
Höere	NaN	NaN
Lorenz	NaN	NaN
,	NaN	NaN
…	NaN	NaN
Waas	NaN	NaN
,	NaN	NaN
Lorenz	NaN	NaN
?	NaN	NaN
!	NaN	NaN
E..e..	NaN	NaN
Dominik	NaN	NaN
,	NaN	NaN
…	NaN	NaN
sähn'r	NaN	NaN
jetz	NaN	NaN
weiss	NaN	NaN
ich	NaN	NaN
dene	NaN	NaN
dauwe	NaN	NaN
Name	NaN	NaN
.	NaN	NaN
Also	NaN	NaN
,	NaN	NaN
traue	NaN	NaN
Sie	NaN	NaN
's	NaN	NaN
Gepäck	NaN	NaN
widder	NaN	NaN
nin	NaN	NaN
,	NaN	NaN
mir	NaN	NaN
bliewe	NaN	NaN
alli	NaN	NaN
widder	NaN	NaN
do	NaN	NaN
.	NaN	NaN
Nix	NaN	NaN
do	NaN	NaN
als	NaN	NaN
nüss	NaN	NaN
,	NaN	NaN
ihr	NaN	NaN
Gitzkräje	NaN	NaN
,	NaN	NaN
nitt	NaN	NaN
emol	NaN	NaN
e	NaN	NaN
Trinkgeld	NaN	NaN
…	NaN	NaN
Ah	NaN	NaN
drumm	NaN	NaN
han	NaN	NaN
ihr	NaN	NaN
mir	NaN	NaN
als	NaN	NaN
d'	NaN	NaN
Hand	NaN	NaN
eso	NaN	NaN
aneghebt	NaN	NaN
.	NaN	NaN
Un	NaN	NaN
au	NaN	NaN
von	NaN	NaN
mir	NaN	NaN
.	NaN	NaN
Merci	NaN	NaN
ihr	NaN	NaN
Herrschafte	NaN	NaN
,	NaN	NaN
ich	NaN	NaN
habs	NaN	NaN
jo	NaN	NaN
gewüesst	NaN	NaN
,	NaN	NaN
ass	NaN	NaN
ihr	NaN	NaN
nitt	NaN	NaN
so	NaN	NaN
sinn	NaN	NaN
.	NaN	NaN
Wann'r	NaN	NaN
ebs	NaN	NaN
brüche	NaN	NaN
,	NaN	NaN
saue	NaN	NaN
's	NaN	NaN
nurre	NaN	NaN
im	NaN	NaN
Dominik	NaN	NaN
ich	NaN	NaN
wäiss	NaN	NaN
alles	NaN	NaN
un	NaN	NaN
bsori	NaN	NaN
alle	NaN	NaN
.	NaN	NaN
20	NaN	NaN
Fränkle	NaN	NaN
,	NaN	NaN
ass	NaN	NaN
sinn	NaN	NaN
doch	NaN	NaN
anstandigi	NaN	NaN
Litt	NaN	NaN
.	NaN	NaN
Ich	NaN	NaN
glaub	NaN	NaN
mir	NaN	NaN
kenne	NaN	NaN
abkumme	NaN	NaN
.	NaN	NaN
Ja	NaN	NaN
kumm	NaN	NaN
Mamme	NaN	NaN
mr	NaN	NaN
welle	NaN	NaN
gehn	NaN	NaN
,	NaN	NaN
ass	NaN	NaN
die	NaN	NaN
Litt	NaN	NaN
ins	NaN	NaN
Bett	NaN	NaN
kumme	NaN	NaN
.	NaN	NaN
Alle	NaN	NaN
guet	NaN	NaN
Nacht	NaN	NaN
biesamme	NaN	NaN
!	NaN	NaN
Helaba	NaN	NaN
Alterle	NaN	NaN
,	NaN	NaN
es	NaN	NaN
wurd	NaN	NaN
nimi	NaN	NaN
browiert	NaN	NaN
.	NaN	NaN
Komm	NaN	NaN
jetz	NaN	NaN
.	NaN	NaN
Guet	NaN	NaN
Nacht	NaN	NaN
.	NaN	NaN
—	NaN	NaN
Amesiere	NaN	NaN
ejch	NaN	NaN
guet	NaN	NaN
.	NaN	NaN
Allons	NaN	NaN
—	NaN	NaN
Felix	NaN	NaN
!	NaN	NaN
Wenn	NaN	NaN
nurre	NaN	NaN
der	NaN	NaN
Lüsangel	NaN	NaN
de	NaN	NaN
Kinjelestall	NaN	NaN
züe	NaN	NaN
macht	NaN	NaN
!	NaN	NaN
