Mine	NaN	NaN
Hànschig	NaN	NaN
,	NaN	NaN
mi	NaN	NaN
Eventail	NaN	NaN
…	NaN	NaN
ich	NaN	NaN
ha	NaN	NaN
glaüb	NaN	NaN
alles	NaN	NaN
…	NaN	NaN
jà	NaN	NaN
so	NaN	NaN
…	NaN	NaN
mi	NaN	NaN
brodiert	NaN	NaN
Nastüech	NaN	NaN
…	NaN	NaN
ich	NaN	NaN
ha	NaN	NaN
mi	NaN	NaN
brodiert	NaN	NaN
Nastüech	NaN	NaN
vergesse	NaN	NaN
…	NaN	NaN
jetz	NaN	NaN
müess	NaN	NaN
ich	NaN	NaN
wieder	NaN	NaN
in	NaN	NaN
dr	NaN	NaN
dritte	NaN	NaN
Stock	NaN	NaN
ufekràbse	NaN	NaN
…	NaN	NaN
wenn	NaN	NaN
ich	NaN	NaN
awer	NaN	NaN
dr	NaN	NaN
Portner	NaN	NaN
thàt	NaN	NaN
schicke	NaN	NaN
?	NaN	NaN
…	NaN	NaN
Herr	NaN	NaN
Tschobe	NaN	NaN
!	NaN	NaN
…	NaN	NaN
Herr	NaN	NaN
Tschobe	NaN	NaN
!	NaN	NaN
…	NaN	NaN
Was	NaN	NaN
b'liebt	NaN	NaN
,	NaN	NaN
Madame	NaN	NaN
Türk	NaN	NaN
?	NaN	NaN
Sin	NaN	NaN
Se	NaN	NaN
doch	NaN	NaN
so	NaN	NaN
güet	NaN	NaN
un	NaN	NaN
nàmme	NaN	NaN
Se	NaN	NaN
mi	NaN	NaN
Schlissel	NaN	NaN
un	NaN	NaN
hole	NaN	NaN
Se	NaN	NaN
mr	NaN	NaN
mi	NaN	NaN
brodiert	NaN	NaN
Nastüech	NaN	NaN
in	NaN	NaN
mim	NaN	NaN
Zimmer	NaN	NaN
,	NaN	NaN
's	NaN	NaN
ligt	NaN	NaN
uf	NaN	NaN
em	NaN	NaN
Tisch	NaN	NaN
…	NaN	NaN
Glich	NaN	NaN
,	NaN	NaN
Madame	NaN	NaN
Türk	NaN	NaN
…	NaN	NaN
ich	NaN	NaN
will	NaN	NaN
nur	NaN	NaN
noch	NaN	NaN
dr	NaN	NaN
Katz	NaN	NaN
d'	NaN	NaN
Milch	NaN	NaN
blose	NaN	NaN
…	NaN	NaN
Dummle	NaN	NaN
Sie	NaN	NaN
sich	NaN	NaN
,	NaN	NaN
ich	NaN	NaN
wart	NaN	NaN
uf	NaN	NaN
Se	NaN	NaN
…	NaN	NaN
wenn	NaN	NaN
ich	NaN	NaN
nur	NaN	NaN
nitt	NaN	NaN
z'	NaN	NaN
spot	NaN	NaN
bi	NaN	NaN
…	NaN	NaN
ich	NaN	NaN
glaüb	NaN	NaN
nitt	NaN	NaN
…	NaN	NaN
's	NaN	NaN
isch	NaN	NaN
erst	NaN	NaN
am	NaN	NaN
Nine	NaN	NaN
,	NaN	NaN
wo	NaN	NaN
mich	NaN	NaN
dr	NaN	NaN
Herr	NaN	NaN
Dampf	NaN	NaN
soll	NaN	NaN
ku	NaN	NaN
abhole	NaN	NaN
…	NaN	NaN
do	NaN	NaN
sàit	NaN	NaN
er	NaN	NaN
jo	NaN	NaN
,	NaN	NaN
ass	NaN	NaN
er	NaN	NaN
hit	NaN	NaN
z'	NaN	NaN
Nacht	NaN	NaN
am	NaN	NaN
Nine	NaN	NaN
d'	NaN	NaN
Ehr	NaN	NaN
wird	NaN	NaN
ha	NaN	NaN
,	NaN	NaN
mich	NaN	NaN
abz'hole	NaN	NaN
,	NaN	NaN
fir	NaN	NaN
mich	NaN	NaN
züe	NaN	NaN
dàne	NaN	NaN
Herre	NaN	NaN
z'	NaN	NaN
fiehre	NaN	NaN
,	NaN	NaN
wo	NaN	NaN
-n-	NaN	NaN
ich	NaN	NaN
gern	NaN	NaN
hätt	NaN	NaN
,	NaN	NaN
ass	NaN	NaN
mi	NaN	NaN
Mann	NaN	NaN
Diràcter	NaN	NaN
thàt	NaN	NaN
werde	NaN	NaN
…	NaN	NaN
er	NaN	NaN
meint	NaN	NaN
noch	NaN	NaN
,	NaN	NaN
se	NaN	NaN
werde	NaN	NaN
-n-	NaN	NaN
in	NaN	NaN
eso	NaN	NaN
schöne	NaN	NaN
-n-	NaN	NaN
Aüge	NaN	NaN
nit	NaN	NaN
refüsiere	NaN	NaN
känne	NaN	NaN
,	NaN	NaN
un	NaN	NaN
doch	NaN	NaN
isch	NaN	NaN
's	NaN	NaN
jetz	NaN	NaN
scho	NaN	NaN
vierzeh	NaN	NaN
Tàg	NaN	NaN
,	NaN	NaN
ass	NaN	NaN
me	NaN	NaN
mir	NaN	NaN
allewil	NaN	NaN
verspricht	NaN	NaN
…	NaN	NaN
un	NaN	NaN
dà	NaN	NaN
Herr	NaN	NaN
Dampf	NaN	NaN
hat	NaN	NaN
mich	NaN	NaN
ag'lüegt	NaN	NaN
gestert	NaN	NaN
uf	NaN	NaN
e	NaN	NaN
bedenklige	NaN	NaN
Manier	NaN	NaN
fir	NaN	NaN
e	NaN	NaN
junge	NaN	NaN
Fräu	NaN	NaN
,	NaN	NaN
wo	NaN	NaN
-n-	NaN	NaN
erst	NaN	NaN
sechs	NaN	NaN
Wuche	NaN	NaN
g'hirothe	NaN	NaN
-n-	NaN	NaN
isch	NaN	NaN
…	NaN	NaN
ich	NaN	NaN
ha	NaN	NaN
-n-	NaN	NaN
en	NaN	NaN
awer	NaN	NaN
o	NaN	NaN
nitt	NaN	NaN
in	NaN	NaN
mim	NaN	NaN
Zimmer	NaN	NaN
im	NaN	NaN
Hotel	NaN	NaN
empfange	NaN	NaN
,	NaN	NaN
fir	NaN	NaN
mi	NaN	NaN
abz'hole	NaN	NaN
…	NaN	NaN
ich	NaN	NaN
ha	NaN	NaN
-n-	NaN	NaN
em	NaN	NaN
d'	NaN	NaN
Adresse	NaN	NaN
vo	NaN	NaN
minere	NaN	NaN
Cüsine	NaN	NaN
gà	NaN	NaN
,	NaN	NaN
se	NaN	NaN
wohnt	NaN	NaN
grad	NaN	NaN
do	NaN	NaN
àne	NaN	NaN
…	NaN	NaN
's	NaN	NaN
isch	NaN	NaN
sicher	NaN	NaN
dert	NaN	NaN
…	NaN	NaN
wenn	NaN	NaN
's	NaN	NaN
nur	NaN	NaN
scho	NaN	NaN
umme	NaN	NaN
wàr	NaN	NaN
!	NaN	NaN
…	NaN	NaN
Was	NaN	NaN
macht	NaN	NaN
me	NaN	NaN
doch	NaN	NaN
nitt	NaN	NaN
fir	NaN	NaN
dr	NaN	NaN
Mann	NaN	NaN
!	NaN	NaN
Dà	NaN	NaN
liewe	NaN	NaN
Mann	NaN	NaN
!	NaN	NaN
er	NaN	NaN
hat	NaN	NaN
mich	NaN	NaN
nitt	NaN	NaN
welle	NaN	NaN
lo	NaN	NaN
furt	NaN	NaN
geh	NaN	NaN
…	NaN	NaN
er	NaN	NaN
haltet	NaN	NaN
nitt	NaN	NaN
dra	NaN	NaN
,	NaN	NaN
ebbes	NaN	NaN
z'	NaN	NaN
werde	NaN	NaN
,	NaN	NaN
awer	NaN	NaN
ich	NaN	NaN
desto	NaN	NaN
mehr	NaN	NaN
…	NaN	NaN
we	NaN	NaN
me	NaN	NaN
-n-	NaN	NaN
uf	NaN	NaN
ihn	NaN	NaN
thàt	NaN	NaN
lose	NaN	NaN
,	NaN	NaN
so	NaN	NaN
thàt	NaN	NaN
er	NaN	NaN
si	NaN	NaN
ganz	NaN	NaN
Lewe	NaN	NaN
-n-	NaN	NaN
am	NaN	NaN
gliche	NaN	NaN
Platz	NaN	NaN
bliwe	NaN	NaN
grüpe	NaN	NaN
…	NaN	NaN
Wenn	NaN	NaN
ich	NaN	NaN
thàt	NaN	NaN
uf	NaN	NaN
ihn	NaN	NaN
lose	NaN	NaN
,	NaN	NaN
So	NaN	NaN
wàr	NaN	NaN
bol	NaN	NaN
's	NaN	NaN
Elend	NaN	NaN
Trumpf	NaN	NaN
,	NaN	NaN
Boll	NaN	NaN
hätt	NaN	NaN
er	NaN	NaN
keine	NaN	NaN
Hose	NaN	NaN
Un	NaN	NaN
o	NaN	NaN
kei	NaN	NaN
güeter	NaN	NaN
Strumpf	NaN	NaN
.	NaN	NaN
Doch	NaN	NaN
das	NaN	NaN
Ding	NaN	NaN
ka	NaN	NaN
nitt	NaN	NaN
so	NaN	NaN
bliwe	NaN	NaN
,	NaN	NaN
Ich	NaN	NaN
will	NaN	NaN
ihn	NaN	NaN
scho	NaN	NaN
vorwàrts	NaN	NaN
triwe	NaN	NaN
,	NaN	NaN
Wenn	NaN	NaN
's	NaN	NaN
mir	NaN	NaN
hit	NaN	NaN
nitt	NaN	NaN
fehl	NaN	NaN
thüet	NaN	NaN
schla	NaN	NaN
,	NaN	NaN
Soll	NaN	NaN
er	NaN	NaN
e	NaN	NaN
besser	NaN	NaN
Plàtzle	NaN	NaN
ha	NaN	NaN
.	NaN	NaN
Awer	NaN	NaN
dà	NaN	NaN
Portner	NaN	NaN
kunnt	NaN	NaN
jo	NaN	NaN
gar	NaN	NaN
nitt	NaN	NaN
…	NaN	NaN
wenn	NaN	NaN
nur	NaN	NaN
dr	NaN	NaN
Herr	NaN	NaN
Dampf	NaN	NaN
no	NaN	NaN
nitt	NaN	NaN
aruckt	NaN	NaN
...	NaN	NaN
kämme	NaN	NaN
Se	NaN	NaN
bol	NaN	NaN
,	NaN	NaN
Herr	NaN	NaN
Tschobe	NaN	NaN
?	NaN	NaN
…	NaN	NaN
Do	NaN	NaN
,	NaN	NaN
Madame	NaN	NaN
Türk	NaN	NaN
.	NaN	NaN
Endlig	NaN	NaN
!	NaN	NaN
Sie	NaN	NaN
lehn	NaN	NaN
Nieme	NaN	NaN
-n-	NaN	NaN
in	NaN	NaN
mi	NaN	NaN
Zimmer	NaN	NaN
ufe	NaN	NaN
geh	NaN	NaN
,	NaN	NaN
Se	NaN	NaN
sàhn	NaN	NaN
,	NaN	NaN
ass	NaN	NaN
ich	NaN	NaN
üsgang	NaN	NaN
…	NaN	NaN
Müess	NaN	NaN
me	NaN	NaN
-n-	NaN	NaN
uf	NaN	NaN
Se	NaN	NaN
warte	NaN	NaN
?	NaN	NaN
's	NaN	NaN
isch	NaN	NaN
unnöthig	NaN	NaN
,	NaN	NaN
ich	NaN	NaN
gang	NaN	NaN
an	NaN	NaN
e	NaN	NaN
Soirée	NaN	NaN
un	NaN	NaN
kumm	NaN	NaN
wohrschinlig	NaN	NaN
spot	NaN	NaN
heim	NaN	NaN
…	NaN	NaN
Ich	NaN	NaN
wünsch	NaN	NaN
viel	NaN	NaN
Plaisier	NaN	NaN
,	NaN	NaN
Madame	NaN	NaN
Türk	NaN	NaN
Merci	NaN	NaN
,	NaN	NaN
Herr	NaN	NaN
Tschobe	NaN	NaN
!	NaN	NaN
jetz	NaN	NaN
g'schwind	NaN	NaN
züe	NaN	NaN
miner	NaN	NaN
Cüsine	NaN	NaN
…	NaN	NaN
ich	NaN	NaN
müess	NaN	NaN
lüege	NaN	NaN
,	NaN	NaN
eb	NaN	NaN
se	NaN	NaN
ihre	NaN	NaN
Portner	NaN	NaN
preveniert	NaN	NaN
hat	NaN	NaN
.	NaN	NaN
Hat	NaN	NaN
me	NaN	NaN
-n-	NaN	NaN
Ihne	NaN	NaN
g'sàit	NaN	NaN
,	NaN	NaN
ass	NaN	NaN
wenn	NaN	NaN
hit	NaN	NaN
z'	NaN	NaN
Owe	NaN	NaN
-n-	NaN	NaN
ebber	NaN	NaN
no	NaN	NaN
de	NaN	NaN
Madame	NaN	NaN
Türk	NaN	NaN
kunnt	NaN	NaN
ku	NaN	NaN
froge	NaN	NaN
…	NaN	NaN
Güet	NaN	NaN
,	NaN	NaN
güet	NaN	NaN
…	NaN	NaN
ich	NaN	NaN
weiss	NaN	NaN
es	NaN	NaN
scho	NaN	NaN
…	NaN	NaN
ich	NaN	NaN
schick	NaN	NaN
alle	NaN	NaN
züe	NaN	NaN
-n-	NaN	NaN
Ihrer	NaN	NaN
Cüsine	NaN	NaN
ufe	NaN	NaN
.	NaN	NaN
Sackerdie	NaN	NaN
!	NaN	NaN
…	NaN	NaN
wo	NaN	NaN
bin	NaN	NaN
i	NaN	NaN
jetz	NaN	NaN
do	NaN	NaN
wieder	NaN	NaN
!	NaN	NaN
Scho	NaN	NaN
dreiviertel	NaN	NaN
Stund	NaN	NaN
laüf	NaN	NaN
ich	NaN	NaN
jetz	NaN	NaN
umme	NaN	NaN
-n-	NaN	NaN
un	NaN	NaN
süech	NaN	NaN
d'	NaN	NaN
Schnokegasse	NaN	NaN
un	NaN	NaN
bi	NaN	NaN
nitt	NaN	NaN
g'fuchst	NaN	NaN
,	NaN	NaN
se	NaN	NaN
z'	NaN	NaN
finde	NaN	NaN
…	NaN	NaN
ich	NaN	NaN
bi	NaN	NaN
halt	NaN	NaN
scho	NaN	NaN
lang	NaN	NaN
nimmig	NaN	NaN
z'	NaN	NaN
Milhüse	NaN	NaN
gsi	NaN	NaN
…	NaN	NaN
me	NaN	NaN
hat	NaN	NaN
se	NaN	NaN
viellicht	NaN	NaN
supprimiert	NaN	NaN
,	NaN	NaN
d'	NaN	NaN
Schnokegasse	NaN	NaN
?	NaN	NaN
ich	NaN	NaN
müess	NaN	NaN
halt	NaN	NaN
froge	NaN	NaN
d'	NaN	NaN
Schnokegasse	NaN	NaN
,	NaN	NaN
wenn	NaN	NaN
's	NaN	NaN
i	NaN	NaN
b'liebt	NaN	NaN
!	NaN	NaN
…	NaN	NaN
kei	NaN	NaN
Mensch	NaN	NaN
niene	NaN	NaN
…	NaN	NaN
ich	NaN	NaN
müess	NaN	NaN
das	NaN	NaN
bi	NaN	NaN
-n-	NaN	NaN
ere	NaN	NaN
-n-	NaN	NaN
etablierte	NaN	NaN
Person	NaN	NaN
froge	NaN	NaN
,	NaN	NaN
's	NaN	NaN
Hotel	NaN	NaN
«	NaN	NaN
Billig	NaN	NaN
»	NaN	NaN
soll	NaN	NaN
ewe	NaN	NaN
dert	NaN	NaN
si	NaN	NaN
,	NaN	NaN
wo	NaN	NaN
-n-	NaN	NaN
ich	NaN	NaN
scho	NaN	NaN
vierzeh	NaN	NaN
Tàg	NaN	NaN
halwer	NaN	NaN
drin	NaN	NaN
logier	NaN	NaN
…	NaN	NaN
denn	NaN	NaN
mi	NaN	NaN
Hälfte	NaN	NaN
logiert	NaN	NaN
ewe	NaN	NaN
drin	NaN	NaN
,	NaN	NaN
mi	NaN	NaN
Sàlmele	NaN	NaN
…	NaN	NaN
me	NaN	NaN
macht	NaN	NaN
sich	NaN	NaN
iwerhäupt	NaN	NaN
kei	NaN	NaN
rechter	NaN	NaN
Begriff	NaN	NaN
dervo	NaN	NaN
,	NaN	NaN
wie	NaN	NaN
's	NaN	NaN
eim	NaN	NaN
isch	NaN	NaN
,	NaN	NaN
we	NaN	NaN
me	NaN	NaN
zwölfmol	NaN	NaN
vierezwanzig	NaN	NaN
Stund	NaN	NaN
vo	NaN	NaN
sinere	NaN	NaN
Fraü	NaN	NaN
eweg	NaN	NaN
isch	NaN	NaN
,	NaN	NaN
mehrere	NaN	NaN
Kilometer	NaN	NaN
wit	NaN	NaN
…	NaN	NaN
un	NaN	NaN
b'sunders	NaN	NaN
e	NaN	NaN
junger	NaN	NaN
Mann	NaN	NaN
,	NaN	NaN
wo	NaN	NaN
erst	NaN	NaN
sechs	NaN	NaN
Wuche	NaN	NaN
g'hirothe	NaN	NaN
-n-	NaN	NaN
isch	NaN	NaN
…	NaN	NaN
ich	NaN	NaN
ha	NaN	NaN
's	NaN	NaN
efange	NaN	NaN
nimmig	NaN	NaN
känne	NaN	NaN
-n-	NaN	NaN
üshalte	NaN	NaN
…	NaN	NaN
Tag	NaN	NaN
un	NaN	NaN
Nacht	NaN	NaN
ha	NaN	NaN
-n-	NaN	NaN
i	NaN	NaN
se	NaN	NaN
g'sàh	NaN	NaN
im	NaN	NaN
Traüm	NaN	NaN
in	NaN	NaN
ihrer	NaN	NaN
Hochzitstoilette	NaN	NaN
un	NaN	NaN
andere	NaN	NaN
Costümes	NaN	NaN
…	NaN	NaN
ich	NaN	NaN
ha	NaN	NaN
-n-	NaN	NaN
in	NaN	NaN
dem	NaN	NaN
Ding	NaN	NaN
e	NaN	NaN
-n-	NaN	NaN
End	NaN	NaN
g'macht	NaN	NaN
un	NaN	NaN
ha	NaN	NaN
hit	NaN	NaN
z'	NaN	NaN
Owe	NaN	NaN
dr	NaN	NaN
Isebahn	NaN	NaN
gnu	NaN	NaN
…	NaN	NaN
mine	NaN	NaN
Biecher	NaN	NaN
sin	NaN	NaN
in	NaN	NaN
Ordnung	NaN	NaN
…	NaN	NaN
morn	NaN	NaN
isch	NaN	NaN
Sunntig	NaN	NaN
,	NaN	NaN
wenn	NaN	NaN
ich	NaN	NaN
nur	NaN	NaN
wieder	NaN	NaN
am	NaN	NaN
Màntig	NaN	NaN
am	NaN	NaN
Morge	NaN	NaN
-n-	NaN	NaN
uf	NaN	NaN
em	NaN	NaN
Bureau	NaN	NaN
bi	NaN	NaN
…	NaN	NaN
bis	NaN	NaN
derthi	NaN	NaN
bin	NaN	NaN
ich	NaN	NaN
frei	NaN	NaN
un	NaN	NaN
ka	NaN	NaN
bi	NaN	NaN
minere	NaN	NaN
junge	NaN	NaN
Fraü	NaN	NaN
si	NaN	NaN
.	NaN	NaN
Allons	NaN	NaN
bon	NaN	NaN
,	NaN	NaN
jetz	NaN	NaN
kunnt	NaN	NaN
's	NaN	NaN
noch	NaN	NaN
ku	NaN	NaN
regne	NaN	NaN
…	NaN	NaN
jetz	NaN	NaN
isch	NaN	NaN
's	NaN	NaN
Zit	NaN	NaN
,	NaN	NaN
ass	NaN	NaN
ich	NaN	NaN
das	NaN	NaN
Hotel	NaN	NaN
find	NaN	NaN
…	NaN	NaN
ah	NaN	NaN
çà	NaN	NaN
,	NaN	NaN
geht	NaN	NaN
denn	NaN	NaN
eigentlig	NaN	NaN
kei	NaN	NaN
Mensch	NaN	NaN
do	NaN	NaN
dure	NaN	NaN
,	NaN	NaN
wo	NaN	NaN
-n-	NaN	NaN
ich	NaN	NaN
froge	NaN	NaN
kännt	NaN	NaN
!	NaN	NaN
…	NaN	NaN
Ah	NaN	NaN
!	NaN	NaN
ne	NaN	NaN
Dame	NaN	NaN
…	NaN	NaN
die	NaN	NaN
will	NaN	NaN
ich	NaN	NaN
glich	NaN	NaN
froge	NaN	NaN
…	NaN	NaN
Endlig	NaN	NaN
…	NaN	NaN
bisch	NaN	NaN
Dü	NaN	NaN
's	NaN	NaN
,	NaN	NaN
mi	NaN	NaN
Liewer	NaN	NaN
…	NaN	NaN
Verzeiht	NaN	NaN
Se	NaN	NaN
…	NaN	NaN
Dü	NaN	NaN
hasch	NaN	NaN
mich	NaN	NaN
erwartet	NaN	NaN
…	NaN	NaN
ich	NaN	NaN
ha	NaN	NaN
mr	NaN	NaN
's	NaN	NaN
denkt	NaN	NaN
…	NaN	NaN
Bàh	NaN	NaN
!	NaN	NaN
…	NaN	NaN
Thüe	NaN	NaN
doch	NaN	NaN
dem	NaN	NaN
Herr	NaN	NaN
dert	NaN	NaN
danke	NaN	NaN
,	NaN	NaN
wo	NaN	NaN
durchüs	NaN	NaN
mich	NaN	NaN
hat	NaN	NaN
welle	NaN	NaN
heim	NaN	NaN
begleite	NaN	NaN
.	NaN	NaN
Ah	NaN	NaN
!	NaN	NaN
so	NaN	NaN
!	NaN	NaN
…	NaN	NaN
Dà	NaN	NaN
Herr	NaN	NaN
isch	NaN	NaN
mi	NaN	NaN
Mann	NaN	NaN
.	NaN	NaN
Hein	NaN	NaN
!	NaN	NaN
ich	NaN	NaN
bi	NaN	NaN
ihr	NaN	NaN
…	NaN	NaN
Madame	NaN	NaN
…	NaN	NaN
ich	NaN	NaN
salütier	NaN	NaN
Se	NaN	NaN
Was	NaN	NaN
dr	NaN	NaN
Kückücks	NaN	NaN
isch	NaN	NaN
jetz	NaN	NaN
das	NaN	NaN
fir	NaN	NaN
Eine	NaN	NaN
?	NaN	NaN
Ah	NaN	NaN
!	NaN	NaN
's	NaN	NaN
wird	NaN	NaN
mr	NaN	NaN
glaüb	NaN	NaN
weh	NaN	NaN
!	NaN	NaN
…	NaN	NaN
Was	NaN	NaN
laüft	NaN	NaN
mr	NaN	NaN
in	NaN	NaN
dr	NaN	NaN
Nàcke	NaN	NaN
?	NaN	NaN
…	NaN	NaN
ah	NaN	NaN
,	NaN	NaN
's	NaN	NaN
isch	NaN	NaN
dr	NaN	NaN
Parepli	NaN	NaN
,	NaN	NaN
wo	NaN	NaN
abtropft	NaN	NaN
uf	NaN	NaN
mi	NaN	NaN
Faux-col	NaN	NaN
…	NaN	NaN
derft	NaN	NaN
ich	NaN	NaN
Se	NaN	NaN
froge	NaN	NaN
,	NaN	NaN
dur	NaN	NaN
wer	NaN	NaN
ass	NaN	NaN
ich	NaN	NaN
d'	NaN	NaN
Ehr	NaN	NaN
ha	NaN	NaN
,	NaN	NaN
ne	NaN	NaN
so	NaN	NaN
ig'spretzt	NaN	NaN
z'	NaN	NaN
werde	NaN	NaN
?	NaN	NaN
Awer	NaN	NaN
,	NaN	NaN
was	NaN	NaN
werde	NaN	NaN
Sie	NaN	NaN
denke	NaN	NaN
vo	NaN	NaN
mr	NaN	NaN
,	NaN	NaN
nitt	NaN	NaN
wohr	NaN	NaN
?	NaN	NaN
…	NaN	NaN
Eh	NaN	NaN
,	NaN	NaN
eh	NaN	NaN
,	NaN	NaN
eh	NaN	NaN
!	NaN	NaN
…	NaN	NaN
losst	NaN	NaN
Se	NaN	NaN
mich	NaN	NaN
z'	NaN	NaN
erst	NaN	NaN
emol	NaN	NaN
dà	NaN	NaN
Riflard	NaN	NaN
hewe	NaN	NaN
…	NaN	NaN
das	NaN	NaN
Ding	NaN	NaN
geht	NaN	NaN
jo	NaN	NaN
wie	NaN	NaN
ne	NaN	NaN
Kànel	NaN	NaN
in	NaN	NaN
mi	NaN	NaN
Hals	NaN	NaN
awe	NaN	NaN
…	NaN	NaN
Verfolgt	NaN	NaN
vo	NaN	NaN
dem	NaN	NaN
unverschàmte	NaN	NaN
Mensch	NaN	NaN
,	NaN	NaN
ha	NaN	NaN
-n-	NaN	NaN
ich	NaN	NaN
halt	NaN	NaN
's	NaN	NaN
nächste	NaN	NaN
beste	NaN	NaN
Mittel	NaN	NaN
ergriffe	NaN	NaN
,	NaN	NaN
fir	NaN	NaN
en	NaN	NaN
abz'biku	NaN	NaN
…	NaN	NaN
Sie	NaN	NaN
hat	NaN	NaN
mi	NaN	NaN
Arm	NaN	NaN
unter	NaN	NaN
dr	NaN	NaN
Hand	NaN	NaN
g'ha	NaN	NaN
,	NaN	NaN
un	NaN	NaN
…	NaN	NaN
Un	NaN	NaN
ich	NaN	NaN
möcht	NaN	NaN
Sie	NaN	NaN
bitte	NaN	NaN
,	NaN	NaN
mich	NaN	NaN
vielmol	NaN	NaN
z'	NaN	NaN
excüsiere	NaN	NaN
…	NaN	NaN
Worum	NaN	NaN
denn	NaN	NaN
,	NaN	NaN
worum	NaN	NaN
denn	NaN	NaN
Se	NaN	NaN
schint	NaN	NaN
güet	NaN	NaN
uferzoge	NaN	NaN
z'	NaN	NaN
si	NaN	NaN
we	NaN	NaN
mir	NaN	NaN
thàte	NaN	NaN
das	NaN	NaN
Ding	NaN	NaN
züemache	NaN	NaN
…	NaN	NaN
's	NaN	NaN
regent	NaN	NaN
niene	NaN	NaN
meh	NaN	NaN
as	NaN	NaN
uf	NaN	NaN
mich	NaN	NaN
Ich	NaN	NaN
bi	NaN	NaN
g'wiss	NaN	NaN
froh	NaN	NaN
,	NaN	NaN
ass	NaN	NaN
ich	NaN	NaN
mich	NaN	NaN
an	NaN	NaN
e	NaN	NaN
galanter	NaN	NaN
Herr	NaN	NaN
adressiert	NaN	NaN
ha	NaN	NaN
.	NaN	NaN
Oh	NaN	NaN
!	NaN	NaN
galant	NaN	NaN
…	NaN	NaN
nur	NaN	NaN
am	NaN	NaN
e	NaN	NaN
Sunntig	NaN	NaN
…	NaN	NaN
in	NaN	NaN
dr	NaN	NaN
Wuche	NaN	NaN
ha	NaN	NaN
-n-	NaN	NaN
ich	NaN	NaN
nitt	NaN	NaN
gross	NaN	NaN
dr	NaN	NaN
Zit	NaN	NaN
…	NaN	NaN
ich	NaN	NaN
bi	NaN	NaN
-n-	NaN	NaN
Employerter	NaN	NaN
in	NaN	NaN
Gàwiller	NaN	NaN
,	NaN	NaN
wo	NaN	NaN
dr	NaN	NaN
Kitterle	NaN	NaN
wachst	NaN	NaN
.	NaN	NaN
Wie	NaN	NaN
mehr	NaN	NaN
ass	NaN	NaN
ich	NaN	NaN
ne	NaN	NaN
b'schaü	NaN	NaN
,	NaN	NaN
Thüet	NaN	NaN
er	NaN	NaN
güet	NaN	NaN
mich	NaN	NaN
dunke	NaN	NaN
.	NaN	NaN
Was	NaN	NaN
fir	NaN	NaN
e	NaN	NaN
schöne	NaN	NaN
Frau	NaN	NaN
!	NaN	NaN
Ich	NaN	NaN
bi	NaN	NaN
Fir	NaN	NaN
un	NaN	NaN
Funke	NaN	NaN
.	NaN	NaN
Wenn	NaN	NaN
ich	NaN	NaN
jetz	NaN	NaN
,	NaN	NaN
anstatt	NaN	NaN
Türk	NaN	NaN
nur	NaN	NaN
z'	NaN	NaN
heisse	NaN	NaN
,	NaN	NaN
Wirklig	NaN	NaN
eso	NaN	NaN
ne	NaN	NaN
Landsmann	NaN	NaN
wàr	NaN	NaN
,	NaN	NaN
Miesst	NaN	NaN
Sie	NaN	NaN
mit	NaN	NaN
in	NaN	NaN
mi	NaN	NaN
Serail	NaN	NaN
reise	NaN	NaN
,	NaN	NaN
Un	NaN	NaN
g'wiss	NaN	NaN
,	NaN	NaN
derno	NaN	NaN
gieng	NaN	NaN
's	NaN	NaN
anderscht	NaN	NaN
her	NaN	NaN
.	NaN	NaN
Wenn	NaN	NaN
er	NaN	NaN
doch	NaN	NaN
nur	NaN	NaN
Herr	NaN	NaN
Dampf	NaN	NaN
thàt	NaN	NaN
heisse	NaN	NaN
Un	NaN	NaN
wirklig	NaN	NaN
jetz	NaN	NaN
mi	NaN	NaN
Mànnle	NaN	NaN
wàr	NaN	NaN
,	NaN	NaN
So	NaN	NaN
thàt	NaN	NaN
ich	NaN	NaN
gli	NaN	NaN
mit	NaN	NaN
ihm	NaN	NaN
furt	NaN	NaN
reise	NaN	NaN
Un	NaN	NaN
g'wiss	NaN	NaN
,	NaN	NaN
derno	NaN	NaN
gieng	NaN	NaN
's	NaN	NaN
anderscht	NaN	NaN
her	NaN	NaN
.	NaN	NaN
Aha	NaN	NaN
!	NaN	NaN
ich	NaN	NaN
erkenn	NaN	NaN
mi	NaN	NaN
jetz	NaN	NaN
…	NaN	NaN
ich	NaN	NaN
bi	NaN	NaN
-n-	NaN	NaN
an	NaN	NaN
Ort	NaN	NaN
un	NaN	NaN
Stell	NaN	NaN
ku	NaN	NaN
,	NaN	NaN
ohne	NaN	NaN
-n-	NaN	NaN
ass	NaN	NaN
ich	NaN	NaN
's	NaN	NaN
g'wisst	NaN	NaN
ha	NaN	NaN
…	NaN	NaN
scho	NaN	NaN
Zehne	NaN	NaN
!	NaN	NaN
Ah	NaN	NaN
bah	NaN	NaN
!	NaN	NaN
…	NaN	NaN
dr	NaN	NaN
Zug	NaN	NaN
isch	NaN	NaN
schint	NaN	NaN
's	NaN	NaN
z'	NaN	NaN
spot	NaN	NaN
gsi	NaN	NaN
…	NaN	NaN
ich	NaN	NaN
hätt	NaN	NaN
jo	NaN	NaN
am	NaN	NaN
Achte	NaN	NaN
scho	NaN	NaN
solle	NaN	NaN
-n-	NaN	NaN
aku	NaN	NaN
.	NaN	NaN
Un	NaN	NaN
dr	NaN	NaN
Herr	NaN	NaN
Zitelpost	NaN	NaN
,	NaN	NaN
wo	NaN	NaN
-n-	NaN	NaN
ich	NaN	NaN
hätt	NaN	NaN
solle	NaN	NaN
-n-	NaN	NaN
atreffe	NaN	NaN
do	NaN	NaN
par	NaN	NaN
hasard	NaN	NaN
am	NaN	NaN
Nine	NaN	NaN
…	NaN	NaN
er	NaN	NaN
wird	NaN	NaN
mied	NaN	NaN
gsi	NaN	NaN
si	NaN	NaN
mit	NaN	NaN
warte	NaN	NaN
-n-	NaN	NaN
un	NaN	NaN
isch	NaN	NaN
halt	NaN	NaN
furt	NaN	NaN
.	NaN	NaN
Geht	NaN	NaN
Ihre	NaN	NaN
Ziwele	NaN	NaN
güet	NaN	NaN
?	NaN	NaN
Desto	NaN	NaN
besser	NaN	NaN
…	NaN	NaN
ich	NaN	NaN
ha	NaN	NaN
-n-	NaN	NaN
Unrecht	NaN	NaN
g'ha	NaN	NaN
,	NaN	NaN
ihm	NaN	NaN
das	NaN	NaN
erste	NaN	NaN
Rendez-vous	NaN	NaN
z'	NaN	NaN
gà	NaN	NaN
.	NaN	NaN
's	NaN	NaN
isch	NaN	NaN
also	NaN	NaN
jetz	NaN	NaN
noch	NaN	NaN
e	NaN	NaN
Viertel	NaN	NaN
bis	NaN	NaN
Nine	NaN	NaN
-n-	NaN	NaN
in	NaN	NaN
Gàwiller	NaN	NaN
…	NaN	NaN
die	NaN	NaN
laüfe	NaN	NaN
schint	NaN	NaN
's	NaN	NaN
hinte	NaN	NaN
no	NaN	NaN
?	NaN	NaN
Ich	NaN	NaN
ha	NaN	NaN
-n-	NaN	NaN
in	NaN	NaN
dr	NaN	NaN
Magd	NaN	NaN
g'sàit	NaN	NaN
,	NaN	NaN
wo	NaN	NaN
-n-	NaN	NaN
i	NaN	NaN
furt	NaN	NaN
bi	NaN	NaN
,	NaN	NaN
ich	NaN	NaN
gieng	NaN	NaN
züe	NaN	NaN
dr	NaN	NaN
Nàiere	NaN	NaN
,	NaN	NaN
drum	NaN	NaN
will	NaN	NaN
ich	NaN	NaN
fir	NaN	NaN
alle	NaN	NaN
Fürsorg'	NaN	NaN
e	NaN	NaN
kleine	NaN	NaN
Visite	NaN	NaN
geh	NaN	NaN
mache	NaN	NaN
.	NaN	NaN
Wenn	NaN	NaN
Se	NaN	NaN
will	NaN	NaN
,	NaN	NaN
ass	NaN	NaN
ich	NaN	NaN
Se	NaN	NaN
heimbegleit	NaN	NaN
,	NaN	NaN
so	NaN	NaN
derf	NaN	NaN
Se	NaN	NaN
's	NaN	NaN
nur	NaN	NaN
sage	NaN	NaN
…	NaN	NaN
Ich	NaN	NaN
dank	NaN	NaN
Ene	NaN	NaN
vielmol	NaN	NaN
…	NaN	NaN
awer	NaN	NaN
ich	NaN	NaN
ha	NaN	NaN
ne	NaN	NaN
Visite	NaN	NaN
z'	NaN	NaN
mache	NaN	NaN
dert	NaN	NaN
in	NaN	NaN
dem	NaN	NaN
Hüs	NaN	NaN
's	NaN	NaN
isch	NaN	NaN
also	NaN	NaN
unnöthig	NaN	NaN
…	NaN	NaN
Das	NaN	NaN
macht	NaN	NaN
nit	NaN	NaN
…	NaN	NaN
ich	NaN	NaN
wart	NaN	NaN
uf	NaN	NaN
Se	NaN	NaN
…	NaN	NaN
ich	NaN	NaN
möcht	NaN	NaN
nitt	NaN	NaN
,	NaN	NaN
ass	NaN	NaN
Sie	NaN	NaN
wieder	NaN	NaN
üsg'setzt	NaN	NaN
wàr	NaN	NaN
…	NaN	NaN
wie	NaN	NaN
vorig	NaN	NaN
…	NaN	NaN
also	NaN	NaN
's	NaN	NaN
blibt	NaN	NaN
derbi	NaN	NaN
…	NaN	NaN
ich	NaN	NaN
begleit	NaN	NaN
Se	NaN	NaN
…	NaN	NaN
im	NaN	NaN
e	NaN	NaN
Fiacre	NaN	NaN
.	NaN	NaN
's	NaN	NaN
isch	NaN	NaN
g'wiss	NaN	NaN
unnöthig	NaN	NaN
…	NaN	NaN
ich	NaN	NaN
dank	NaN	NaN
Ene	NaN	NaN
noch	NaN	NaN
emol	NaN	NaN
,	NaN	NaN
Adie	NaN	NaN
Se	NaN	NaN
sàit	NaN	NaN
mr	NaN	NaN
Adie	NaN	NaN
!	NaN	NaN
…	NaN	NaN
das	NaN	NaN
macht	NaN	NaN
awer	NaN	NaN
mi	NaN	NaN
Affaire	NaN	NaN
nitt	NaN	NaN
…	NaN	NaN
tiens	NaN	NaN
,	NaN	NaN
se	NaN	NaN
hat	NaN	NaN
ihr	NaN	NaN
Parepli	NaN	NaN
vergesse	NaN	NaN
…	NaN	NaN
bàh	NaN	NaN
,	NaN	NaN
ich	NaN	NaN
gib	NaN	NaN
's	NaN	NaN
ere	NaN	NaN
,	NaN	NaN
wenn	NaN	NaN
se	NaN	NaN
-n-	NaN	NaN
üse	NaN	NaN
kunnt	NaN	NaN
…	NaN	NaN
wenn	NaN	NaN
se	NaN	NaN
nur	NaN	NaN
wit	NaN	NaN
eweg	NaN	NaN
wohnt	NaN	NaN
…	NaN	NaN
ich	NaN	NaN
sag	NaN	NaN
im	NaN	NaN
Kütschner	NaN	NaN
,	NaN	NaN
er	NaN	NaN
soll	NaN	NaN
Rinkli-Rànkli	NaN	NaN
fahre	NaN	NaN
…	NaN	NaN
un	NaN	NaN
mi	NaN	NaN
Fraü	NaN	NaN
…	NaN	NaN
ich	NaN	NaN
liederliger	NaN	NaN
Zipfel	NaN	NaN
!	NaN	NaN
…	NaN	NaN
bàh	NaN	NaN
,	NaN	NaN
die	NaN	NaN
denkt	NaN	NaN
doch	NaN	NaN
nitt	NaN	NaN
,	NaN	NaN
ass	NaN	NaN
ich	NaN	NaN
z'	NaN	NaN
Milhüse	NaN	NaN
bi	NaN	NaN
!	NaN	NaN
sapristi	NaN	NaN
…	NaN	NaN
's	NaN	NaN
geht	NaN	NaN
gar	NaN	NaN
kei	NaN	NaN
warmer	NaN	NaN
Wind	NaN	NaN
…	NaN	NaN
dà	NaN	NaN
kàtzer	NaN	NaN
's	NaN	NaN
Parepli	NaN	NaN
do	NaN	NaN
hindert	NaN	NaN
mich	NaN	NaN
,	NaN	NaN
d'	NaN	NaN
Hànd	NaN	NaN
in	NaN	NaN
d'	NaN	NaN
Säck	NaN	NaN
z'	NaN	NaN
stosse	NaN	NaN
…	NaN	NaN
er	NaN	NaN
isch	NaN	NaN
nitt	NaN	NaN
wiescht	NaN	NaN
,	NaN	NaN
dà	NaN	NaN
Riflard	NaN	NaN
…	NaN	NaN
er	NaN	NaN
hat	NaN	NaN
e	NaN	NaN
silwrige	NaN	NaN
Plaque	NaN	NaN
mit	NaN	NaN
em	NaN	NaN
Name	NaN	NaN
druf	NaN	NaN
«	NaN	NaN
H.	NaN	NaN
J.	NaN	NaN
D.	NaN	NaN
»	NaN	NaN
…	NaN	NaN
dr	NaN	NaN
Name	NaN	NaN
vo	NaN	NaN
-n-	NaN	NaN
ihrem	NaN	NaN
Mann	NaN	NaN
…	NaN	NaN
Hans	NaN	NaN
Jobi	NaN	NaN
Dabinsmüess	NaN	NaN
viellicht	NaN	NaN
?	NaN	NaN
…	NaN	NaN
un	NaN	NaN
e	NaN	NaN
beiniger	NaN	NaN
Griff	NaN	NaN
…	NaN	NaN
Sackerdie	NaN	NaN
!	NaN	NaN
ich	NaN	NaN
bekumm	NaN	NaN
efange	NaN	NaN
kalt	NaN	NaN
do	NaN	NaN
mi	NaN	NaN
Nase	NaN	NaN
-n-	NaN	NaN
isch	NaN	NaN
wie	NaN	NaN
ne	NaN	NaN
-n-	NaN	NaN
Iszàpfle	NaN	NaN
…	NaN	NaN
wenn	NaN	NaN
ich	NaN	NaN
nur	NaN	NaN
dr	NaN	NaN
Schnüppe	NaN	NaN
nitt	NaN	NaN
verwitsch	NaN	NaN
…	NaN	NaN
das	NaN	NaN
wàr	NaN	NaN
embetant	NaN	NaN
!	NaN	NaN
Aha	NaN	NaN
!	NaN	NaN
…	NaN	NaN
jetz	NaN	NaN
bin	NaN	NaN
i	NaN	NaN
glaüb	NaN	NaN
am	NaN	NaN
Ort	NaN	NaN
,	NaN	NaN
wo	NaN	NaN
se	NaN	NaN
mr	NaN	NaN
g'sàit	NaN	NaN
hat	NaN	NaN
wo	NaN	NaN
ha	NaN	NaN
-n-	NaN	NaN
i	NaN	NaN
dà	NaN	NaN
Brief	NaN	NaN
ane	NaN	NaN
tho	NaN	NaN
?	NaN	NaN
…	NaN	NaN
ah	NaN	NaN
,	NaN	NaN
do	NaN	NaN
isch	NaN	NaN
er	NaN	NaN
…	NaN	NaN
ich	NaN	NaN
will	NaN	NaN
noch	NaN	NaN
emol	NaN	NaN
lüege	NaN	NaN
…	NaN	NaN
Mi	NaN	NaN
Nase	NaN	NaN
g'friert	NaN	NaN
mr	NaN	NaN
alleweg	NaN	NaN
noch	NaN	NaN
ab	NaN	NaN
…	NaN	NaN
«	NaN	NaN
Mi	NaN	NaN
Mann	NaN	NaN
müess	NaN	NaN
no	NaN	NaN
-n-	NaN	NaN
em	NaN	NaN
Nachtesse	NaN	NaN
uf	NaN	NaN
si	NaN	NaN
Bureau	NaN	NaN
z'	NaN	NaN
ruck	NaN	NaN
…	NaN	NaN
ich	NaN	NaN
profetier	NaN	NaN
vo	NaN	NaN
minere	NaN	NaN
Freiheit	NaN	NaN
,	NaN	NaN
fir	NaN	NaN
am	NaN	NaN
Nine	NaN	NaN
züe	NaN	NaN
miner	NaN	NaN
Nàiere	NaN	NaN
z'	NaN	NaN
geh	NaN	NaN
,	NaN	NaN
wo	NaN	NaN
-n-	NaN	NaN
am	NaN	NaN
Ecke	NaN	NaN
vo	NaN	NaN
dr	NaN	NaN
Schnokegasse	NaN	NaN
wohnt	NaN	NaN
.	NaN	NaN
»	NaN	NaN
Ah	NaN	NaN
!	NaN	NaN
das	NaN	NaN
macht	NaN	NaN
mr	NaN	NaN
güet	NaN	NaN
,	NaN	NaN
das	NaN	NaN
…	NaN	NaN
Das	NaN	NaN
isch	NaN	NaN
do	NaN	NaN
…	NaN	NaN
endlig	NaN	NaN
hat	NaN	NaN
se	NaN	NaN
mr	NaN	NaN
emol	NaN	NaN
das	NaN	NaN
erste	NaN	NaN
Rendez-vous	NaN	NaN
gà	NaN	NaN
Geht	NaN	NaN
's	NaN	NaN
jetz	NaN	NaN
eigentlig	NaN	NaN
eso	NaN	NaN
furt	NaN	NaN
!	NaN	NaN
…	NaN	NaN
Se	NaN	NaN
hat	NaN	NaN
e	NaN	NaN
wiescht	NaN	NaN
Quartier	NaN	NaN
g'choisiert	NaN	NaN
.	NaN	NaN
Das	NaN	NaN
ich	NaN	NaN
emol	NaN	NaN
e	NaN	NaN
Faction	NaN	NaN
,	NaN	NaN
wo	NaN	NaN
zählt	NaN	NaN
!	NaN	NaN
…	NaN	NaN
Wenn	NaN	NaN
ich	NaN	NaN
e	NaN	NaN
Cigarettle	NaN	NaN
thàt	NaN	NaN
raüche	NaN	NaN
?	NaN	NaN
…	NaN	NaN
awer	NaN	NaN
nei	NaN	NaN
…	NaN	NaN
am	NaN	NaN
erste	NaN	NaN
Rendez-vous	NaN	NaN
…	NaN	NaN
Tiens	NaN	NaN
,	NaN	NaN
tiens	NaN	NaN
,	NaN	NaN
do	NaN	NaN
isch	NaN	NaN
jo	NaN	NaN
ne	NaN	NaN
Herr	NaN	NaN
,	NaN	NaN
wo	NaN	NaN
schint	NaN	NaN
's	NaN	NaN
o	NaN	NaN
Faction	NaN	NaN
isch	NaN	NaN
,	NaN	NaN
er	NaN	NaN
hat	NaN	NaN
awer	NaN	NaN
keine	NaN	NaN
Waffe	NaN	NaN
bi	NaN	NaN
si	NaN	NaN
…	NaN	NaN
Tiens	NaN	NaN
,	NaN	NaN
was	NaN	NaN
isch	NaN	NaN
jetz	NaN	NaN
das	NaN	NaN
fir	NaN	NaN
Einer	NaN	NaN
.	NaN	NaN
was	NaN	NaN
macht	NaN	NaN
dà	NaN	NaN
do	NaN	NaN
?	NaN	NaN
Will	NaN	NaN
er	NaN	NaN
eigentlig	NaN	NaN
do	NaN	NaN
bliwe	NaN	NaN
?	NaN	NaN
…	NaN	NaN
Wenn	NaN	NaN
se	NaN	NaN
jetz	NaN	NaN
kàm	NaN	NaN
!	NaN	NaN
…	NaN	NaN
Er	NaN	NaN
thüet	NaN	NaN
mich	NaN	NaN
geniere	NaN	NaN
.	NaN	NaN
G'sundheit	NaN	NaN
!	NaN	NaN
…	NaN	NaN
das	NaN	NaN
isch	NaN	NaN
kei	NaN	NaN
güet	NaN	NaN
Wetter	NaN	NaN
fir	NaN	NaN
eso	NaN	NaN
duss	NaN	NaN
z'	NaN	NaN
bliwe	NaN	NaN
,	NaN	NaN
güeter	NaN	NaN
Frind	NaN	NaN
!	NaN	NaN
's	NaN	NaN
isch	NaN	NaN
wohr	NaN	NaN
…	NaN	NaN
e	NaN	NaN
Hundswetter	NaN	NaN
Brrr	NaN	NaN
!	NaN	NaN
's	NaN	NaN
wàr	NaN	NaN
viel	NaN	NaN
besser	NaN	NaN
d'	NaN	NaN
heim	NaN	NaN
.	NaN	NaN
Sie	NaN	NaN
thien	NaN	NaN
wohrschinlig	NaN	NaN
uf	NaN	NaN
ebber	NaN	NaN
warte	NaN	NaN
?	NaN	NaN
…	NaN	NaN
Jà	NaN	NaN
,	NaN	NaN
jà	NaN	NaN
…	NaN	NaN
un	NaN	NaN
Sie	NaN	NaN
?	NaN	NaN
…	NaN	NaN
Ich	NaN	NaN
o.	NaN	NaN
Ne	NaN	NaN
Dame	NaN	NaN
viellicht	NaN	NaN
?	NaN	NaN
Ne	NaN	NaN
Dame	NaN	NaN
,	NaN	NaN
jà	NaN	NaN
…	NaN	NaN
un	NaN	NaN
Sie	NaN	NaN
?	NaN	NaN
Ich	NaN	NaN
o.	NaN	NaN
Wo	NaN	NaN
do	NaN	NaN
in	NaN	NaN
dem	NaN	NaN
Quartier	NaN	NaN
wohnt	NaN	NaN
?	NaN	NaN
In	NaN	NaN
dem	NaN	NaN
Hüs	NaN	NaN
do	NaN	NaN
…	NaN	NaN
un	NaN	NaN
Ihre	NaN	NaN
Dame	NaN	NaN
?	NaN	NaN
Soll	NaN	NaN
o	NaN	NaN
in	NaN	NaN
das	NaN	NaN
Hüs	NaN	NaN
do	NaN	NaN
ku	NaN	NaN
…	NaN	NaN
das	NaN	NaN
isch	NaN	NaN
sunderbar	NaN	NaN
!	NaN	NaN
's	NaN	NaN
isch	NaN	NaN
possig	NaN	NaN
…	NaN	NaN
un	NaN	NaN
Sie	NaN	NaN
wànn	NaN	NaN
do	NaN	NaN
bliwe	NaN	NaN
?	NaN	NaN
Bis	NaN	NaN
ass	NaN	NaN
se	NaN	NaN
kunnt	NaN	NaN
…	NaN	NaN
un	NaN	NaN
Sie	NaN	NaN
?	NaN	NaN
Bis	NaN	NaN
ass	NaN	NaN
se	NaN	NaN
furt	NaN	NaN
geht	NaN	NaN
.	NaN	NaN
Sie	NaN	NaN
verstehn	NaN	NaN
awer	NaN	NaN
doch	NaN	NaN
wohl	NaN	NaN
,	NaN	NaN
ass	NaN	NaN
,	NaN	NaN
we	NaN	NaN
me	NaN	NaN
sich	NaN	NaN
erwartet	NaN	NaN
,	NaN	NaN
nur	NaN	NaN
ei	NaN	NaN
Person	NaN	NaN
z'	NaN	NaN
finde	NaN	NaN
…	NaN	NaN
Un	NaN	NaN
findet	NaN	NaN
zwei	NaN	NaN
,	NaN	NaN
ass	NaN	NaN
das	NaN	NaN
geniert	NaN	NaN
…	NaN	NaN
B'sunders	NaN	NaN
,	NaN	NaN
wenn	NaN	NaN
e	NaN	NaN
Dame	NaN	NaN
sich	NaN	NaN
müess	NaN	NaN
in	NaN	NaN
Acht	NaN	NaN
nàh	NaN	NaN
vor	NaN	NaN
ihrem	NaN	NaN
Mann	NaN	NaN
.	NaN	NaN
's	NaN	NaN
isch	NaN	NaN
ganz	NaN	NaN
das	NaN	NaN
…	NaN	NaN
Ne	NaN	NaN
Fraü	NaN	NaN
in	NaN	NaN
dàre	NaN	NaN
Situation	NaN	NaN
isch	NaN	NaN
misstraüisch	NaN	NaN
,	NaN	NaN
un	NaN	NaN
wenn	NaN	NaN
Sie	NaN	NaN
do	NaN	NaN
bliwe	NaN	NaN
…	NaN	NaN
So	NaN	NaN
traüt	NaN	NaN
se	NaN	NaN
nitt	NaN	NaN
üse	NaN	NaN
ku	NaN	NaN
!	NaN	NaN
Sie	NaN	NaN
wàre	NaN	NaN
g'wiss	NaN	NaN
recht	NaN	NaN
ordlig	NaN	NaN
…	NaN	NaN
Sie	NaN	NaN
thàte	NaN	NaN
mr	NaN	NaN
Freid	NaN	NaN
mache	NaN	NaN
…	NaN	NaN
Wenn	NaN	NaN
Sie	NaN	NaN
furt	NaN	NaN
giengte	NaN	NaN
!	NaN	NaN
Ich	NaN	NaN
wich	NaN	NaN
nitt	NaN	NaN
vom	NaN	NaN
Fleck	NaN	NaN
!	NaN	NaN
Sin	NaN	NaN
Se	NaN	NaN
nitt	NaN	NaN
so	NaN	NaN
stättig	NaN	NaN
…	NaN	NaN
un	NaN	NaN
lehn	NaN	NaN
Se	NaN	NaN
mi	NaN	NaN
allei	NaN	NaN
do	NaN	NaN
.	NaN	NaN
Die	NaN	NaN
Gasse	NaN	NaN
isch	NaN	NaN
in	NaN	NaN
alle	NaN	NaN
Lit	NaN	NaN
…	NaN	NaN
's	NaN	NaN
ka	NaN	NaN
sich	NaN	NaN
drin	NaN	NaN
ufhalte	NaN	NaN
,	NaN	NaN
wer	NaN	NaN
will	NaN	NaN
…	NaN	NaN
Bringe	NaN	NaN
Se	NaN	NaN
mi	NaN	NaN
nitt	NaN	NaN
in	NaN	NaN
d'	NaN	NaN
Hitze	NaN	NaN
!	NaN	NaN
Wenn	NaN	NaN
Sie	NaN	NaN
kalt	NaN	NaN
hätte	NaN	NaN
wie	NaN	NaN
-n-	NaN	NaN
ich	NaN	NaN
,	NaN	NaN
so	NaN	NaN
wàr	NaN	NaN
das	NaN	NaN
höchstens	NaN	NaN
güet	NaN	NaN
fir	NaN	NaN
Se	NaN	NaN
.	NaN	NaN
Ich	NaN	NaN
bi	NaN	NaN
vif	NaN	NaN
,	NaN	NaN
ass	NaN	NaN
Sie	NaN	NaN
's	NaN	NaN
wisse	NaN	NaN
!	NaN	NaN
's	NaN	NaN
Pulver	NaN	NaN
isch	NaN	NaN
nur	NaN	NaN
e	NaN	NaN
Narr	NaN	NaN
gege	NaN	NaN
mir	NaN	NaN
…	NaN	NaN
Se	NaN	NaN
kunnt	NaN	NaN
jetz	NaN	NaN
alleweg	NaN	NaN
glich	NaN	NaN
züem	NaN	NaN
letschte	NaN	NaN
mol	NaN	NaN
jetz	NaN	NaN
,	NaN	NaN
mache	NaN	NaN
Sie	NaN	NaN
sich	NaN	NaN
dervo	NaN	NaN
oder	NaN	NaN
ich	NaN	NaN
…	NaN	NaN
Halt	NaN	NaN
!	NaN	NaN
oder	NaN	NaN
i	NaN	NaN
schiess	NaN	NaN
!	NaN	NaN
Was	NaN	NaN
isch	NaN	NaN
das	NaN	NaN
!	NaN	NaN
ich	NaN	NaN
kenn	NaN	NaN
'n	NaN	NaN
,	NaN	NaN
dà	NaN	NaN
Parepli	NaN	NaN
!	NaN	NaN
Wann	NaN	NaN
Se	NaN	NaN
mr	NaN	NaN
g'schwind	NaN	NaN
das	NaN	NaN
Ding	NaN	NaN
geh	NaN	NaN
lo	NaN	NaN
.	NaN	NaN
Eh	NaN	NaN
alleweg	NaN	NaN
…	NaN	NaN
's	NaN	NaN
isch	NaN	NaN
ihrer	NaN	NaN
!	NaN	NaN
un	NaN	NaN
sie	NaN	NaN
hat	NaN	NaN
ne	NaN	NaN
Ihne	NaN	NaN
gà	NaN	NaN
?	NaN	NaN
…	NaN	NaN
Die	NaN	NaN
Dame	NaN	NaN
?	NaN	NaN
…	NaN	NaN
nei	NaN	NaN
,	NaN	NaN
nur	NaN	NaN
g'lehnt	NaN	NaN
.	NaN	NaN
Sie	NaN	NaN
isch	NaN	NaN
's	NaN	NaN
also	NaN	NaN
,	NaN	NaN
wo	NaN	NaN
dert	NaN	NaN
ine	NaN	NaN
-n-	NaN	NaN
isch	NaN	NaN
?	NaN	NaN
Jà	NaN	NaN
.	NaN	NaN
In	NaN	NaN
das	NaN	NaN
Hüs	NaN	NaN
?	NaN	NaN
Jà	NaN	NaN
.	NaN	NaN
s'	NaN	NaN
isch	NaN	NaN
uf	NaN	NaN
sie	NaN	NaN
,	NaN	NaN
wo	NaN	NaN
Se	NaN	NaN
warte	NaN	NaN
?	NaN	NaN
Jà	NaN	NaN
.	NaN	NaN
Fir	NaN	NaN
se	NaN	NaN
heimz'begleite	NaN	NaN
?	NaN	NaN
Jà	NaN	NaN
.	NaN	NaN
Das	NaN	NaN
g'schieht	NaN	NaN
nitt	NaN	NaN
!	NaN	NaN
Was	NaN	NaN
b'liebt	NaN	NaN
?	NaN	NaN
…	NaN	NaN
Ich	NaN	NaN
verbiet	NaN	NaN
's	NaN	NaN
Ene	NaN	NaN
!	NaN	NaN
Ah	NaN	NaN
!	NaN	NaN
bah	NaN	NaN
!	NaN	NaN
dà	NaN	NaN
g'fallt	NaN	NaN
mr	NaN	NaN
jetzt	NaN	NaN
noch	NaN	NaN
!	NaN	NaN
…	NaN	NaN
Sich	NaN	NaN
vo	NaN	NaN
me	NaN	NaN
-n-	NaN	NaN
Andere	NaN	NaN
lo	NaN	NaN
begleite	NaN	NaN
,	NaN	NaN
no	NaN	NaN
ihrem	NaN	NaN
Brief	NaN	NaN
,	NaN	NaN
wo	NaN	NaN
sie	NaN	NaN
mir	NaN	NaN
e	NaN	NaN
Rendez-vous	NaN	NaN
git	NaN	NaN
drin	NaN	NaN
!	NaN	NaN
das	NaN	NaN
isch	NaN	NaN
e	NaN	NaN
wenig	NaN	NaN
stark	NaN	NaN
!	NaN	NaN
die	NaN	NaN
Dame	NaN	NaN
geht	NaN	NaN
allei	NaN	NaN
heim	NaN	NaN
,	NaN	NaN
ass	NaN	NaN
Sie	NaN	NaN
's	NaN	NaN
wisse	NaN	NaN
!	NaN	NaN
…	NaN	NaN
Ich	NaN	NaN
will	NaN	NaN
nitt	NaN	NaN
,	NaN	NaN
wenn	NaN	NaN
sie	NaN	NaN
scheidet	NaN	NaN
,	NaN	NaN
Ass	NaN	NaN
ebber	NaN	NaN
sie	NaN	NaN
begleitet	NaN	NaN
!	NaN	NaN
Un	NaN	NaN
wer	NaN	NaN
sich	NaN	NaN
untersteht	NaN	NaN
derzüe	NaN	NaN
,	NaN	NaN
Hat	NaN	NaN
's	NaN	NaN
mit	NaN	NaN
mir	NaN	NaN
z'	NaN	NaN
thüe	NaN	NaN
!	NaN	NaN
Un	NaN	NaN
ich	NaN	NaN
loss	NaN	NaN
mir	NaN	NaN
nit	NaN	NaN
sage	NaN	NaN
,	NaN	NaN
Das	NaN	NaN
ka	NaN	NaN
-n-	NaN	NaN
ich	NaN	NaN
nitt	NaN	NaN
vertrage	NaN	NaN
,	NaN	NaN
Ich	NaN	NaN
bi	NaN	NaN
g'wöhnt	NaN	NaN
,	NaN	NaN
immer	NaN	NaN
z'	NaN	NaN
mache	NaN	NaN
halt	NaN	NaN
,	NaN	NaN
Grad	NaN	NaN
wie	NaN	NaN
's	NaN	NaN
mir	NaN	NaN
g'fallt	NaN	NaN
!	NaN	NaN
Eh	NaN	NaN
bien	NaN	NaN
…	NaN	NaN
ich	NaN	NaN
forder	NaN	NaN
Sie	NaN	NaN
üse	NaN	NaN
!	NaN	NaN
Uf	NaN	NaN
d'	NaN	NaN
Pistole	NaN	NaN
…	NaN	NaN
awer	NaN	NaN
glich	NaN	NaN
jetz	NaN	NaN
ne	NaN	NaN
Duell	NaN	NaN
in	NaN	NaN
ere	NaN	NaN
Gasse	NaN	NaN
z'	NaN	NaN
Milhüse	NaN	NaN
z'	NaN	NaN
Nacht	NaN	NaN
am	NaN	NaN
Nine	NaN	NaN
…	NaN	NaN
das	NaN	NaN
hat	NaN	NaN
me	NaN	NaN
no	NaN	NaN
nitt	NaN	NaN
vielmol	NaN	NaN
g'sàh	NaN	NaN
!	NaN	NaN
Güet	NaN	NaN
…	NaN	NaN
ich	NaN	NaN
hol	NaN	NaN
Pistole	NaN	NaN
un	NaN	NaN
e	NaN	NaN
Zige	NaN	NaN
…	NaN	NaN
süeche	NaN	NaN
Sie	NaN	NaN
sich	NaN	NaN
o	NaN	NaN
einer	NaN	NaN
…	NaN	NaN
in	NaN	NaN
zeh	NaN	NaN
Minüte	NaN	NaN
bin	NaN	NaN
i	NaN	NaN
wieder	NaN	NaN
do	NaN	NaN
.	NaN	NaN
Ich	NaN	NaN
gib	NaN	NaN
Ene	NaN	NaN
drizehne	NaN	NaN
,	NaN	NaN
ohne	NaN	NaN
Secunde	NaN	NaN
!	NaN	NaN
Dà	NaN	NaN
müess	NaN	NaN
mir	NaN	NaN
's	NaN	NaN
dasmol	NaN	NaN
biesse	NaN	NaN
,	NaN	NaN
Ich	NaN	NaN
will	NaN	NaN
ne	NaN	NaN
lehre	NaN	NaN
schiesse	NaN	NaN
,	NaN	NaN
Er	NaN	NaN
geht	NaN	NaN
so	NaN	NaN
bol	NaN	NaN
nimm	NaN	NaN
uf	NaN	NaN
dr	NaN	NaN
Strich	NaN	NaN
,	NaN	NaN
Fir	NaN	NaN
das	NaN	NaN
sorg	NaN	NaN
ich	NaN	NaN
!	NaN	NaN
Armer	NaN	NaN
Tropf	NaN	NaN
!	NaN	NaN
er	NaN	NaN
meint	NaN	NaN
,	NaN	NaN
er	NaN	NaN
macht	NaN	NaN
mir	NaN	NaN
Angst	NaN	NaN
…	NaN	NaN
ich	NaN	NaN
,	NaN	NaN
wo	NaN	NaN
als	NaN	NaN
uf	NaN	NaN
dr	NaN	NaN
Foire	NaN	NaN
alle	NaN	NaN
Pfiffeköpf	NaN	NaN
z'	NaN	NaN
àmme	NaN	NaN
schiess	NaN	NaN
!	NaN	NaN
…	NaN	NaN
awer	NaN	NaN
wo	NaN	NaN
ne	NaN	NaN
Zige	NaN	NaN
hernàh	NaN	NaN
?	NaN	NaN
…	NaN	NaN
ich	NaN	NaN
kenn	NaN	NaN
jo	NaN	NaN
Nieme	NaN	NaN
do	NaN	NaN
…	NaN	NaN
wenn	NaN	NaN
ich	NaN	NaN
thàt	NaN	NaN
e	NaN	NaN
Porte-faix	NaN	NaN
lehne	NaN	NaN
?	NaN	NaN
tiens	NaN	NaN
,	NaN	NaN
das	NaN	NaN
isch	NaN	NaN
e	NaN	NaN
-n-	NaN	NaN
Idee	NaN	NaN
!	NaN	NaN
…	NaN	NaN
awer	NaN	NaN
wo	NaN	NaN
einer	NaN	NaN
finde	NaN	NaN
um	NaN	NaN
die	NaN	NaN
Zit	NaN	NaN
?	NaN	NaN
Ne	NaN	NaN
Summervogel	NaN	NaN
isch	NaN	NaN
nitt	NaN	NaN
besser	NaN	NaN
ufg'legt	NaN	NaN
,	NaN	NaN
as	NaN	NaN
ich	NaN	NaN
hit	NaN	NaN
z'	NaN	NaN
Owe	NaN	NaN
,	NaN	NaN
fir	NaN	NaN
e	NaN	NaN
galanter	NaN	NaN
Üsflug	NaN	NaN
z'	NaN	NaN
mache	NaN	NaN
!	NaN	NaN
…	NaN	NaN
Ich	NaN	NaN
ha	NaN	NaN
ne	NaN	NaN
güete	NaN	NaN
-n-	NaN	NaN
Idee	NaN	NaN
g'ha	NaN	NaN
,	NaN	NaN
ass	NaN	NaN
ich	NaN	NaN
alle	NaN	NaN
-n-	NaN	NaN
Ühre	NaN	NaN
d'	NaN	NaN
heim	NaN	NaN
e	NaN	NaN
Stund	NaN	NaN
vorg'richte	NaN	NaN
ha	NaN	NaN
im	NaN	NaN
versteckte	NaN	NaN
…	NaN	NaN
Jà	NaN	NaN
,	NaN	NaN
Jà	NaN	NaN
,	NaN	NaN
wo	NaN	NaN
isch	NaN	NaN
awer	NaN	NaN
jetz	NaN	NaN
einer	NaN	NaN
z'	NaN	NaN
finde	NaN	NaN
?	NaN	NaN
Ich	NaN	NaN
hätt	NaN	NaN
sunscht	NaN	NaN
nie	NaN	NaN
känne	NaN	NaN
mine	NaN	NaN
G'schàfte	NaN	NaN
ferig	NaN	NaN
mache	NaN	NaN
un	NaN	NaN
am	NaN	NaN
Nine	NaN	NaN
do	NaN	NaN
si	NaN	NaN
…	NaN	NaN
Ah	NaN	NaN
…	NaN	NaN
still	NaN	NaN
!	NaN	NaN
dà	NaN	NaN
kunnt	NaN	NaN
jetz	NaN	NaN
wie	NaN	NaN
g'rüete	NaN	NaN
…	NaN	NaN
Wenn	NaN	NaN
mi	NaN	NaN
Fraü	NaN	NaN
wisse	NaN	NaN
thàt	NaN	NaN
,	NaN	NaN
ass	NaN	NaN
ich	NaN	NaN
,	NaN	NaN
anstatt	NaN	NaN
Zahle	NaN	NaN
z'	NaN	NaN
àmme	NaN	NaN
z'	NaN	NaN
zähle	NaN	NaN
,	NaN	NaN
d'	NaN	NaN
Minüte	NaN	NaN
zählt	NaN	NaN
ha	NaN	NaN
,	NaN	NaN
fir	NaN	NaN
an	NaN	NaN
mi	NaN	NaN
Rendez-vous	NaN	NaN
z'	NaN	NaN
geh	NaN	NaN
!	NaN	NaN
…	NaN	NaN
Wie	NaN	NaN
will	NaN	NaN
ich	NaN	NaN
's	NaN	NaN
eigentlig	NaN	NaN
aschicke	NaN	NaN
,	NaN	NaN
fir	NaN	NaN
ne	NaN	NaN
az'rede	NaN	NaN
?	NaN	NaN
Voyons	NaN	NaN
,	NaN	NaN
do	NaN	NaN
bin	NaN	NaN
i	NaN	NaN
jetz	NaN	NaN
emol	NaN	NaN
in	NaN	NaN
dr	NaN	NaN
Gasse	NaN	NaN
…	NaN	NaN
dr	NaN	NaN
Nümero	NaN	NaN
müess	NaN	NaN
do	NaN	NaN
e	NaN	NaN
-n-	NaN	NaN
àime	NaN	NaN
si	NaN	NaN
…	NaN	NaN
Aha	NaN	NaN
,	NaN	NaN
ich	NaN	NaN
'weiss	NaN	NaN
jetz	NaN	NaN
wie	NaN	NaN
!	NaN	NaN
Kännte	NaN	NaN
Se	NaN	NaN
mir	NaN	NaN
sage	NaN	NaN
,	NaN	NaN
wel	NaN	NaN
Zit	NaN	NaN
as	NaN	NaN
es	NaN	NaN
isch	NaN	NaN
!	NaN	NaN
's	NaN	NaN
isch	NaN	NaN
mr	NaN	NaN
Leid	NaN	NaN
…	NaN	NaN
awer	NaN	NaN
ich	NaN	NaN
ha	NaN	NaN
kei	NaN	NaN
Geld	NaN	NaN
uf	NaN	NaN
mr...	NaN	NaN
un	NaN	NaN
gàn	NaN	NaN
Se	NaN	NaN
Achtung	NaN	NaN
,	NaN	NaN
's	NaN	NaN
Polizeibureau	NaN	NaN
isch	NaN	NaN
nitt	NaN	NaN
wit	NaN	NaN
vo	NaN	NaN
do	NaN	NaN
…	NaN	NaN
Pardon	NaN	NaN
…	NaN	NaN
's	NaN	NaN
isch	NaN	NaN
d'	NaN	NaN
Zit	NaN	NaN
un	NaN	NaN
nitt	NaN	NaN
d'	NaN	NaN
Ühre	NaN	NaN
,	NaN	NaN
wo	NaN	NaN
-n-	NaN	NaN
ich	NaN	NaN
Ihne	NaN	NaN
g'heische	NaN	NaN
ha	NaN	NaN
…	NaN	NaN
Verzeihe	NaN	NaN
Se	NaN	NaN
…	NaN	NaN
awer	NaN	NaN
Sie	NaN	NaN
verstehn	NaN	NaN
wohl	NaN	NaN
,	NaN	NaN
we	NaN	NaN
me	NaN	NaN
d'	NaN	NaN
Lit	NaN	NaN
nitt	NaN	NaN
kennt	NaN	NaN
un	NaN	NaN
um	NaN	NaN
die	NaN	NaN
Zit	NaN	NaN
…	NaN	NaN
voilà	NaN	NaN
…	NaN	NaN
Nine	NaN	NaN
un	NaN	NaN
fünf	NaN	NaN
Minüte	NaN	NaN
…	NaN	NaN
Sie	NaN	NaN
gehn	NaN	NaN
z'	NaN	NaN
spot	NaN	NaN
…	NaN	NaN
Ich	NaN	NaN
gang	NaN	NaN
as	NaN	NaN
wie	NaN	NaN
d'	NaN	NaN
Finanze	NaN	NaN
…	NaN	NaN
Enfin	NaN	NaN
,	NaN	NaN
das	NaN	NaN
hat	NaN	NaN
nit	NaN	NaN
z'	NaN	NaN
sage	NaN	NaN
…	NaN	NaN
Sie	NaN	NaN
sin	NaN	NaN
in	NaN	NaN
dr	NaN	NaN
Ordnung	NaN	NaN
kleidet	NaN	NaN
,	NaN	NaN
hàn	NaN	NaN
Hànschig	NaN	NaN
un	NaN	NaN
e	NaN	NaN
güete	NaN	NaN
Tournure	NaN	NaN
,	NaN	NaN
das	NaN	NaN
isch	NaN	NaN
,	NaN	NaN
was	NaN	NaN
ich	NaN	NaN
brüch	NaN	NaN
…	NaN	NaN
Jà	NaN	NaN
un	NaN	NaN
derno	NaN	NaN
…	NaN	NaN
was	NaN	NaN
hàn	NaN	NaN
Se	NaN	NaN
-n-	NaN	NaN
eigentlig	NaN	NaN
im	NaN	NaN
Sinn	NaN	NaN
?	NaN	NaN
…	NaN	NaN
Berüehige	NaN	NaN
Sie	NaN	NaN
sich	NaN	NaN
…	NaN	NaN
ich	NaN	NaN
möcht	NaN	NaN
Se	NaN	NaN
nur	NaN	NaN
bitte	NaN	NaN
,	NaN	NaN
mir	NaN	NaN
als	NaN	NaN
Zige	NaN	NaN
z'	NaN	NaN
diene	NaN	NaN
im	NaN	NaN
e	NaN	NaN
Duell	NaN	NaN
…	NaN	NaN
Ne	NaN	NaN
Duell	NaN	NaN
!	NaN	NaN
…	NaN	NaN
un	NaN	NaN
worum	NaN	NaN
?	NaN	NaN
Ich	NaN	NaN
weiss	NaN	NaN
es	NaN	NaN
nitt	NaN	NaN
recht	NaN	NaN
…	NaN	NaN
Mit	NaN	NaN
wem	NaN	NaN
?	NaN	NaN
Sàll	NaN	NaN
weiss	NaN	NaN
i	NaN	NaN
gar	NaN	NaN
nitt	NaN	NaN
!	NaN	NaN
jetz	NaN	NaN
wisse	NaN	NaN
Se	NaN	NaN
so	NaN	NaN
viel	NaN	NaN
as	NaN	NaN
ich	NaN	NaN
…	NaN	NaN
un	NaN	NaN
das	NaN	NaN
Ding	NaN	NaN
soll	NaN	NaN
do	NaN	NaN
statt	NaN	NaN
ha	NaN	NaN
unter	NaN	NaN
dr	NaN	NaN
Laterne	NaN	NaN
…	NaN	NaN
Uf	NaN	NaN
dr	NaN	NaN
Gasse	NaN	NaN
!	NaN	NaN
Un	NaN	NaN
dà	NaN	NaN
,	NaN	NaN
wo	NaN	NaN
Meister	NaN	NaN
wird	NaN	NaN
,	NaN	NaN
dem	NaN	NaN
isch	NaN	NaN
se	NaN	NaN
si	NaN	NaN
Eigethum	NaN	NaN
…	NaN	NaN
Dà	NaN	NaN
Mensch	NaN	NaN
isch	NaN	NaN
e	NaN	NaN
Narr	NaN	NaN
oder	NaN	NaN
er	NaN	NaN
macht	NaN	NaN
mich	NaN	NaN
z'	NaN	NaN
posiere	NaN	NaN
's	NaN	NaN
isch	NaN	NaN
mr	NaN	NaN
Leid	NaN	NaN
,	NaN	NaN
awer	NaN	NaN
ich	NaN	NaN
ka	NaN	NaN
Ihne	NaN	NaN
dà	NaN	NaN
Dienst	NaN	NaN
nitt	NaN	NaN
leiste	NaN	NaN
…	NaN	NaN
ich	NaN	NaN
ha	NaN	NaN
ebbes	NaN	NaN
pressants	NaN	NaN
vor	NaN	NaN
…	NaN	NaN
e	NaN	NaN
Rendes-vous	NaN	NaN
mit	NaN	NaN
ere	NaN	NaN
junge	NaN	NaN
Dame	NaN	NaN
…	NaN	NaN
ich	NaN	NaN
ha	NaN	NaN
ne	NaN	NaN
fin	NaN	NaN
Nachtessele	NaN	NaN
fir	NaN	NaN
se	NaN	NaN
b'stellt	NaN	NaN
im	NaN	NaN
Hotel	NaN	NaN
…	NaN	NaN
Aha	NaN	NaN
…	NaN	NaN
zwei	NaN	NaN
Couverts	NaN	NaN
…	NaN	NaN
Ne	NaN	NaN
so	NaN	NaN
ne	NaN	NaN
Unschuld	NaN	NaN
e	NaN	NaN
-n-	NaN	NaN
àime	NaN	NaN
üs	NaN	NaN
dr	NaN	NaN
Umgegend	NaN	NaN
,	NaN	NaN
wo	NaN	NaN
meint	NaN	NaN
,	NaN	NaN
ich	NaN	NaN
kumm	NaN	NaN
se	NaN	NaN
ku	NaN	NaN
hole	NaN	NaN
,	NaN	NaN
fir	NaN	NaN
se	NaN	NaN
in	NaN	NaN
mine	NaN	NaN
Patrone	NaN	NaN
z'	NaN	NaN
presentiere	NaN	NaN
,	NaN	NaN
wo	NaN	NaN
sie	NaN	NaN
fir	NaN	NaN
ihre	NaN	NaN
Imbécile	NaN	NaN
vo	NaN	NaN
Mann	NaN	NaN
e	NaN	NaN
Platz	NaN	NaN
erlangt	NaN	NaN
hat	NaN	NaN
,	NaN	NaN
ohne	NaN	NaN
's	NaN	NaN
z'	NaN	NaN
wisse	NaN	NaN
noch	NaN	NaN
…	NaN	NaN
Sie	NaN	NaN
sàhn	NaN	NaN
,	NaN	NaN
ass	NaN	NaN
ich	NaN	NaN
pressiert	NaN	NaN
bi	NaN	NaN
un	NaN	NaN
ass	NaN	NaN
es	NaN	NaN
mir	NaN	NaN
unmöglig	NaN	NaN
isch	NaN	NaN
…	NaN	NaN
's	NaN	NaN
isch	NaN	NaN
eithüen	NaN	NaN
,	NaN	NaN
ich	NaN	NaN
hätt	NaN	NaN
Sie	NaN	NaN
doch	NaN	NaN
gern	NaN	NaN
als	NaN	NaN
Zige	NaN	NaN
g'ha	NaN	NaN
…	NaN	NaN
's	NaN	NaN
isch	NaN	NaN
mr	NaN	NaN
Leid	NaN	NaN
…	NaN	NaN
ich	NaN	NaN
ka	NaN	NaN
rundüs	NaN	NaN
nitt	NaN	NaN
…	NaN	NaN
Allons	NaN	NaN
…	NaN	NaN
ich	NaN	NaN
bi	NaN	NaN
g'rischtet	NaN	NaN
…	NaN	NaN
ein	NaN	NaN
vo	NaN	NaN
mine	NaN	NaN
güete	NaN	NaN
Frind	NaN	NaN
wartet	NaN	NaN
uf	NaN	NaN
is	NaN	NaN
mit	NaN	NaN
Pistole	NaN	NaN
un	NaN	NaN
isch	NaN	NaN
mi	NaN	NaN
Zige	NaN	NaN
…	NaN	NaN
Un	NaN	NaN
do	NaN	NaN
isch	NaN	NaN
miner	NaN	NaN
!	NaN	NaN
.	NaN	NaN
Nei	NaN	NaN
,	NaN	NaN
nei	NaN	NaN
,	NaN	NaN
's	NaN	NaN
ka	NaN	NaN
nitt	NaN	NaN
si	NaN	NaN
!	NaN	NaN
Ah	NaN	NaN
!	NaN	NaN
…	NaN	NaN
Dr	NaN	NaN
Herr	NaN	NaN
Dampf	NaN	NaN
!	NaN	NaN
Dr	NaN	NaN
Herr	NaN	NaN
Zitelpost	NaN	NaN
!	NaN	NaN
Tiens	NaN	NaN
!	NaN	NaN
…	NaN	NaN
se	NaN	NaN
kenne	NaN	NaN
sich	NaN	NaN
!	NaN	NaN
Was	NaN	NaN
…	NaN	NaN
Sie	NaN	NaN
,	NaN	NaN
Herr	NaN	NaN
Zitelpost	NaN	NaN
…	NaN	NaN
Sie	NaN	NaN
wànn	NaN	NaN
sich	NaN	NaN
schlage	NaN	NaN
?	NaN	NaN
…	NaN	NaN
Dà	NaN	NaN
Herr	NaN	NaN
hat	NaN	NaN
mich	NaN	NaN
beleidigt	NaN	NaN
!	NaN	NaN
Was	NaN	NaN
!	NaN	NaN
Sie	NaN	NaN
,	NaN	NaN
im	NaN	NaN
Gegetheil	NaN	NaN
,	NaN	NaN
hàn	NaN	NaN
mich	NaN	NaN
versàgt	NaN	NaN
…	NaN	NaN
embetiert	NaN	NaN
sogar	NaN	NaN
…	NaN	NaN
Worum	NaN	NaN
eigentlig	NaN	NaN
,	NaN	NaN
wànn	NaN	NaN
ihr	NaN	NaN
eüch	NaN	NaN
schlage	NaN	NaN
?	NaN	NaN
Ich	NaN	NaN
will	NaN	NaN
's	NaN	NaN
Ene	NaN	NaN
ufrichtig	NaN	NaN
sage	NaN	NaN
…	NaN	NaN
Sage	NaN	NaN
Se	NaN	NaN
nit	NaN	NaN
…	NaN	NaN
's	NaN	NaN
isch	NaN	NaN
dr	NaN	NaN
Mann	NaN	NaN
!	NaN	NaN
Dr	NaN	NaN
Mann	NaN	NaN
vo	NaN	NaN
dàre	NaN	NaN
junge	NaN	NaN
Dame	NaN	NaN
mit	NaN	NaN
em	NaN	NaN
Parepli	NaN	NaN
?	NaN	NaN
.	NaN	NaN
ah	NaN	NaN
!	NaN	NaN
bah	NaN	NaN
!	NaN	NaN
Jà	NaN	NaN
!	NaN	NaN
Ah	NaN	NaN
…	NaN	NaN
ah	NaN	NaN
…	NaN	NaN
eh	NaN	NaN
bien	NaN	NaN
,	NaN	NaN
wart	NaN	NaN
…	NaN	NaN
ich	NaN	NaN
will	NaN	NaN
in	NaN	NaN
dem	NaN	NaN
eine	NaN	NaN
abinde	NaN	NaN
.	NaN	NaN
ln	NaN	NaN
zwei	NaN	NaN
Worte	NaN	NaN
,	NaN	NaN
das	NaN	NaN
isch	NaN	NaN
,	NaN	NaN
um	NaN	NaN
was	NaN	NaN
es	NaN	NaN
sich	NaN	NaN
handelt	NaN	NaN
…	NaN	NaN
denke	NaN	NaN
Sie	NaN	NaN
sich	NaN	NaN
,	NaN	NaN
Herr	NaN	NaN
Krampf	NaN	NaN
…	NaN	NaN
Dampf	NaN	NaN
.	NaN	NaN
Was	NaN	NaN
wànn	NaN	NaN
Se	NaN	NaN
-n-	NaN	NaN
ihm	NaN	NaN
sage	NaN	NaN
?	NaN	NaN
Ich	NaN	NaN
weiss	NaN	NaN
es	NaN	NaN
no	NaN	NaN
nitt	NaN	NaN
.	NaN	NaN
Denke	NaN	NaN
Sie	NaN	NaN
sich	NaN	NaN
…	NaN	NaN
Sie	NaN	NaN
,	NaN	NaN
denke	NaN	NaN
sich	NaN	NaN
,	NaN	NaN
nitt	NaN	NaN
wohr	NaN	NaN
?	NaN	NaN
Ich	NaN	NaN
mach	NaN	NaN
mi	NaN	NaN
möglig	NaN	NaN
's	NaN	NaN
.	NaN	NaN
Also	NaN	NaN
,	NaN	NaN
ka	NaN	NaN
-n-	NaN	NaN
ich	NaN	NaN
furtfahre	NaN	NaN
…	NaN	NaN
's	NaN	NaN
handelt	NaN	NaN
sich	NaN	NaN
…	NaN	NaN
Um	NaN	NaN
was	NaN	NaN
?	NaN	NaN
Um	NaN	NaN
e	NaN	NaN
Verfiehrung	NaN	NaN
…	NaN	NaN
Gàn	NaN	NaN
Se	NaN	NaN
-n-	NaN	NaN
Achtung	NaN	NaN
!	NaN	NaN
Scho	NaN	NaN
güet	NaN	NaN
.	NaN	NaN
Sie	NaN	NaN
solle	NaN	NaN
das	NaN	NaN
kenne	NaN	NaN
…	NaN	NaN
Sie	NaN	NaN
…	NaN	NaN
Gàn	NaN	NaN
Se	NaN	NaN
-n-	NaN	NaN
Achtung	NaN	NaN
…	NaN	NaN
dr	NaN	NaN
Herr	NaN	NaN
Zitelpost	NaN	NaN
isch	NaN	NaN
g'frindet	NaN	NaN
mit	NaN	NaN
minere	NaN	NaN
Fraü	NaN	NaN
!	NaN	NaN
Mit	NaN	NaN
dr	NaN	NaN
Madame	NaN	NaN
Krampf	NaN	NaN
…	NaN	NaN
Still	NaN	NaN
!	NaN	NaN
Die	NaN	NaN
mach	NaN	NaN
ich	NaN	NaN
z'	NaN	NaN
schwitze	NaN	NaN
!	NaN	NaN
Jà	NaN	NaN
,	NaN	NaN
un	NaN	NaN
derno	NaN	NaN
…	NaN	NaN
die	NaN	NaN
Verfiehrung	NaN	NaN
…	NaN	NaN
wer	NaN	NaN
hàn	NaN	NaN
Se	NaN	NaN
verfiehrt	NaN	NaN
?	NaN	NaN
Hàn	NaN	NaN
Se	NaN	NaN
viellicht	NaN	NaN
e	NaN	NaN
Verwandte	NaN	NaN
?	NaN	NaN
Ne	NaN	NaN
Stiefschwester	NaN	NaN
in	NaN	NaN
Amerika	NaN	NaN
.	NaN	NaN
Güet	NaN	NaN
!	NaN	NaN
Wer	NaN	NaN
ich	NaN	NaN
verfiehrt	NaN	NaN
ha	NaN	NaN
?	NaN	NaN
Im	NaN	NaN
Herr	NaN	NaN
Zitelpost	NaN	NaN
si	NaN	NaN
…	NaN	NaN
Stiefschwester	NaN	NaN
!	NaN	NaN
Tiens	NaN	NaN
!	NaN	NaN
…	NaN	NaN
ich	NaN	NaN
ha	NaN	NaN
nitt	NaN	NaN
g'wisst	NaN	NaN
,	NaN	NaN
ass	NaN	NaN
er	NaN	NaN
e	NaN	NaN
Stiefschwester	NaN	NaN
hat	NaN	NaN
.	NaN	NaN
Das	NaN	NaN
isch	NaN	NaN
kei	NaN	NaN
Wunder	NaN	NaN
…	NaN	NaN
ich	NaN	NaN
ha	NaN	NaN
o	NaN	NaN
nitt	NaN	NaN
g'wisst	NaN	NaN
,	NaN	NaN
ass	NaN	NaN
die	NaN	NaN
güete	NaN	NaN
Jumpfer	NaN	NaN
…	NaN	NaN
Kà-kà-o	NaN	NaN
ne	NaN	NaN
Stiefbrüeder	NaN	NaN
hat	NaN	NaN
.	NaN	NaN
Kà-kà-o	NaN	NaN
!	NaN	NaN
…	NaN	NaN
was	NaN	NaN
dr	NaN	NaN
Kückücks	NaN	NaN
isch	NaN	NaN
das	NaN	NaN
fir	NaN	NaN
e	NaN	NaN
Name	NaN	NaN
?	NaN	NaN
's	NaN	NaN
isch	NaN	NaN
e	NaN	NaN
Negresse	NaN	NaN
.	NaN	NaN
Was	NaN	NaN
will	NaN	NaN
er	NaN	NaN
em	NaN	NaN
eigentlig	NaN	NaN
abinde	NaN	NaN
?	NaN	NaN
…	NaN	NaN
Was	NaN	NaN
!	NaN	NaN
…	NaN	NaN
Sie	NaN	NaN
hàn	NaN	NaN
e	NaN	NaN
Schwarze	NaN	NaN
verfiehrt	NaN	NaN
?	NaN	NaN
…	NaN	NaN
Was	NaN	NaN
wànn	NaN	NaN
Se	NaN	NaN
halt	NaN	NaN
:	NaN	NaN
Brüne	NaN	NaN
-n-	NaN	NaN
un	NaN	NaN
Blunde	NaN	NaN
Ha	NaN	NaN
-n-	NaN	NaN
ich	NaN	NaN
g'nüe	NaN	NaN
g'funde	NaN	NaN
,	NaN	NaN
Un	NaN	NaN
sogar	NaN	NaN
Rothe	NaN	NaN
Sin	NaN	NaN
drunter	NaN	NaN
gsi	NaN	NaN
;	NaN	NaN
Die	NaN	NaN
Farwe	NaN	NaN
-n-	NaN	NaN
alle	NaN	NaN
Hà	NaN	NaN
mir	NaN	NaN
nimm	NaN	NaN
g'falle	NaN	NaN
,	NaN	NaN
's	NaN	NaN
Schwarz	NaN	NaN
isch	NaN	NaN
jetz	NaN	NaN
Mode	NaN	NaN
,	NaN	NaN
Das	NaN	NaN
müess	NaN	NaN
d'	NaN	NaN
Schuld	NaN	NaN
si	NaN	NaN
.	NaN	NaN
Ne	NaN	NaN
ganz	NaN	NaN
schwarze	NaN	NaN
Fraü	NaN	NaN
…	NaN	NaN
oh	NaN	NaN
pfui	NaN	NaN
!	NaN	NaN
un	NaN	NaN
jetz	NaN	NaN
wànn	NaN	NaN
Sie	NaN	NaN
se	NaN	NaN
nitt	NaN	NaN
hirothe	NaN	NaN
?	NaN	NaN
…	NaN	NaN
Ich	NaN	NaN
müess	NaN	NaN
g'steh	NaN	NaN
,	NaN	NaN
ass	NaN	NaN
ich	NaN	NaN
Angst	NaN	NaN
ha	NaN	NaN
…	NaN	NaN
vor	NaN	NaN
de	NaN	NaN
kleine	NaN	NaN
Neger	NaN	NaN
!	NaN	NaN
's	NaN	NaN
isch	NaN	NaN
jetz	NaN	NaN
genüe	NaN	NaN
!	NaN	NaN
's	NaN	NaN
isch	NaN	NaN
nitt	NaN	NaN
im	NaN	NaN
Herr	NaN	NaN
Dampf	NaN	NaN
si	NaN	NaN
Charakter	NaN	NaN
,	NaN	NaN
sich	NaN	NaN
in	NaN	NaN
eso	NaN	NaN
Sache	NaN	NaN
z'	NaN	NaN
meliere	NaN	NaN
…	NaN	NaN
mir	NaN	NaN
wànn	NaN	NaN
's	NaN	NaN
scho	NaN	NaN
üsmache	NaN	NaN
mitnander	NaN	NaN
.	NaN	NaN
Ich	NaN	NaN
ka	NaN	NaN
doch	NaN	NaN
awer	NaN	NaN
nitt	NaN	NaN
lide	NaN	NaN
,	NaN	NaN
ass	NaN	NaN
Sie	NaN	NaN
sich	NaN	NaN
schlage	NaN	NaN
mitnander	NaN	NaN
…	NaN	NaN
Zeige	NaN	NaN
Se	NaN	NaN
,	NaN	NaN
Herr	NaN	NaN
Zitelpost	NaN	NaN
…	NaN	NaN
denke	NaN	NaN
Se	NaN	NaN
doch	NaN	NaN
e	NaN	NaN
wenig	NaN	NaN
no	NaN	NaN
!	NaN	NaN
Herr	NaN	NaN
je	NaN	NaN
!	NaN	NaN
d'	NaN	NaN
Madame	NaN	NaN
Dampf	NaN	NaN
!	NaN	NaN
Ihre	NaN	NaN
Mann	NaN	NaN
isch	NaN	NaN
dert	NaN	NaN
.	NaN	NaN
gehn	NaN	NaN
Se	NaN	NaN
g'schwind	NaN	NaN
wieder	NaN	NaN
ine	NaN	NaN
's	NaN	NaN
isch	NaN	NaN
nitt	NaN	NaN
möglig	NaN	NaN
!	NaN	NaN
Er	NaN	NaN
isch	NaN	NaN
im	NaN	NaN
Fehler	NaN	NaN
,	NaN	NaN
's	NaN	NaN
isch	NaN	NaN
wohr	NaN	NaN
…	NaN	NaN
er	NaN	NaN
sott	NaN	NaN
halt	NaN	NaN
vo	NaN	NaN
Rechtswege	NaN	NaN
die	NaN	NaN
Negresse	NaN	NaN
hirothe	NaN	NaN
…	NaN	NaN
voyons	NaN	NaN
,	NaN	NaN
Sie	NaN	NaN
sin	NaN	NaN
jo	NaN	NaN
schön	NaN	NaN
wiss	NaN	NaN
…	NaN	NaN
Ihre	NaN	NaN
Kinder	NaN	NaN
werde	NaN	NaN
höchstens	NaN	NaN
g'sprickelt	NaN	NaN
…	NaN	NaN
tiens	NaN	NaN
,	NaN	NaN
wo	NaN	NaN
isch	NaN	NaN
er	NaN	NaN
jetz	NaN	NaN
ane	NaN	NaN
ku	NaN	NaN
?	NaN	NaN
Was	NaN	NaN
git	NaN	NaN
's	NaN	NaN
?	NaN	NaN
Er	NaN	NaN
isch	NaN	NaN
jo	NaN	NaN
nimmig	NaN	NaN
do	NaN	NaN
!	NaN	NaN
Er	NaN	NaN
isch	NaN	NaN
verschwunde	NaN	NaN
!	NaN	NaN
Wo	NaN	NaN
mag	NaN	NaN
er	NaN	NaN
jetz	NaN	NaN
ane	NaN	NaN
ku	NaN	NaN
si	NaN	NaN
?	NaN	NaN
Ich	NaN	NaN
merk	NaN	NaN
's	NaN	NaN
scho	NaN	NaN
,	NaN	NaN
wo	NaN	NaN
-n-	NaN	NaN
er	NaN	NaN
ane	NaN	NaN
ku	NaN	NaN
isch	NaN	NaN
!	NaN	NaN
Meine	NaN	NaN
Se	NaN	NaN
?	NaN	NaN
Jo	NaN	NaN
,	NaN	NaN
jo	NaN	NaN
…	NaN	NaN
er	NaN	NaN
isch	NaN	NaN
geh	NaN	NaN
si	NaN	NaN
Dulcinée	NaN	NaN
ufsüeche	NaN	NaN
…	NaN	NaN
er	NaN	NaN
isch	NaN	NaN
in	NaN	NaN
dem	NaN	NaN
Hüs	NaN	NaN
do	NaN	NaN
.	NaN	NaN
Sapristi	NaN	NaN
…	NaN	NaN
un	NaN	NaN
mi	NaN	NaN
Rendez-vous	NaN	NaN
…	NaN	NaN
die	NaN	NaN
güete	NaN	NaN
Fraü	NaN	NaN
wird	NaN	NaN
lange	NaN	NaN
Zit	NaN	NaN
biku	NaN	NaN
!	NaN	NaN
Awer	NaN	NaN
nur	NaN	NaN
Geduld	NaN	NaN
…	NaN	NaN
Se	NaN	NaN
mien	NaN	NaN
emol	NaN	NaN
üsekumme	NaN	NaN
…	NaN	NaN
ich	NaN	NaN
wart	NaN	NaN
uf	NaN	NaN
se	NaN	NaN
un	NaN	NaN
verwitsch	NaN	NaN
ich	NaN	NaN
se	NaN	NaN
binander	NaN	NaN
…	NaN	NaN
derno	NaN	NaN
…	NaN	NaN
Ich	NaN	NaN
ka	NaN	NaN
doch	NaN	NaN
nitt	NaN	NaN
dert	NaN	NaN
ine	NaN	NaN
geh	NaN	NaN
,	NaN	NaN
wenn	NaN	NaN
dr	NaN	NaN
Herr	NaN	NaN
Zitelpost	NaN	NaN
do	NaN	NaN
isch	NaN	NaN
…	NaN	NaN
sunscht	NaN	NaN
miesst	NaN	NaN
ich	NaN	NaN
ihm	NaN	NaN
sage	NaN	NaN
worum	NaN	NaN
?	NaN	NaN
Awer	NaN	NaN
ich	NaN	NaN
ka	NaN	NaN
doch	NaN	NaN
kei	NaN	NaN
Explication	NaN	NaN
mit	NaN	NaN
ihre	NaN	NaN
ha	NaN	NaN
vor	NaN	NaN
ihm	NaN	NaN
…	NaN	NaN
Wenn	NaN	NaN
ich	NaN	NaN
ne	NaN	NaN
nur	NaN	NaN
ab	NaN	NaN
hätt	NaN	NaN
…	NaN	NaN
Ich	NaN	NaN
müess	NaN	NaN
ne	NaN	NaN
süeche	NaN	NaN
abz'schifle	NaN	NaN
…	NaN	NaN
Ich	NaN	NaN
glaüb	NaN	NaN
eher	NaN	NaN
,	NaN	NaN
ass	NaN	NaN
er	NaN	NaN
dert	NaN	NaN
dure	NaN	NaN
-n-	NaN	NaN
isch	NaN	NaN
…	NaN	NaN
Oh	NaN	NaN
!	NaN	NaN
ich	NaN	NaN
find	NaN	NaN
en	NaN	NaN
scho	NaN	NaN
…	NaN	NaN
awer	NaN	NaN
,	NaN	NaN
ich	NaN	NaN
ha	NaN	NaN
g'meint	NaN	NaN
,	NaN	NaN
Sie	NaN	NaN
hàn	NaN	NaN
eso	NaN	NaN
viel	NaN	NaN
z'	NaN	NaN
thüe	NaN	NaN
hit	NaN	NaN
z'	NaN	NaN
Owe	NaN	NaN
uf	NaN	NaN
em	NaN	NaN
Büreau	NaN	NaN
?	NaN	NaN
Aha	NaN	NaN
…	NaN	NaN
jà	NaN	NaN
…	NaN	NaN
's	NaN	NaN
isch	NaN	NaN
güet	NaN	NaN
,	NaN	NaN
ass	NaN	NaN
Sie	NaN	NaN
mich	NaN	NaN
dra	NaN	NaN
mahne	NaN	NaN
,	NaN	NaN
ich	NaN	NaN
bi	NaN	NaN
recht	NaN	NaN
pressiert	NaN	NaN
…	NaN	NaN
Un	NaN	NaN
ich	NaN	NaN
o.	NaN	NaN
Adie	NaN	NaN
!	NaN	NaN
Adie	NaN	NaN
!	NaN	NaN
Was	NaN	NaN
!	NaN	NaN
er	NaN	NaN
blibt	NaN	NaN
do	NaN	NaN
!	NaN	NaN
Ich	NaN	NaN
ha	NaN	NaN
g'meint	NaN	NaN
,	NaN	NaN
er	NaN	NaN
isch	NaN	NaN
furt	NaN	NaN
!	NaN	NaN
Merkt	NaN	NaN
er	NaN	NaN
ebbe	NaN	NaN
-n-	NaN	NaN
ebbes	NaN	NaN
?	NaN	NaN
Er	NaN	NaN
wird	NaN	NaN
doch	NaN	NaN
ebbe	NaN	NaN
nitt	NaN	NaN
soupçonniere	NaN	NaN
…	NaN	NaN
Ich	NaN	NaN
will	NaN	NaN
ne	NaN	NaN
scho	NaN	NaN
verwitsche	NaN	NaN
!	NaN	NaN
Ich	NaN	NaN
müess	NaN	NaN
es	NaN	NaN
halt	NaN	NaN
noch	NaN	NaN
emol	NaN	NaN
prawiere	NaN	NaN
…	NaN	NaN
Au	NaN	NaN
revoir	NaN	NaN
denn	NaN	NaN
!	NaN	NaN
Au	NaN	NaN
revoir	NaN	NaN
!	NaN	NaN
Se	NaN	NaN
sin	NaN	NaN
furt	NaN	NaN
Ich	NaN	NaN
will	NaN	NaN
lüege	NaN	NaN
,	NaN	NaN
ass	NaN	NaN
ich	NaN	NaN
e	NaN	NaN
Fiacre	NaN	NaN
bikumm	NaN	NaN
,	NaN	NaN
Se	NaN	NaN
brücht	NaN	NaN
kei	NaN	NaN
Angst	NaN	NaN
z'	NaN	NaN
ha	NaN	NaN
tiens	NaN	NaN
,	NaN	NaN
dert	NaN	NaN
kunnt	NaN	NaN
grad	NaN	NaN
einer	NaN	NaN
ku	NaN	NaN
z'	NaN	NaN
fahre	NaN	NaN
…	NaN	NaN
He	NaN	NaN
…	NaN	NaN
Kütschner	NaN	NaN
!	NaN	NaN
Voilà	NaN	NaN
…	NaN	NaN
voilà	NaN	NaN
…	NaN	NaN
Kämme	NaN	NaN
ne	NaN	NaN
wenig	NaN	NaN
nàcher	NaN	NaN
mit	NaN	NaN
Eürer	NaN	NaN
Citàdine	NaN	NaN
…	NaN	NaN
so	NaN	NaN
…	NaN	NaN
Hoo	NaN	NaN
,	NaN	NaN
Schimmel	NaN	NaN
!	NaN	NaN
Wo	NaN	NaN
müess	NaN	NaN
i	NaN	NaN
Se	NaN	NaN
-n-	NaN	NaN
ane	NaN	NaN
fiehre	NaN	NaN
?	NaN	NaN
Ich	NaN	NaN
weiss	NaN	NaN
es	NaN	NaN
nitt	NaN	NaN
.	NaN	NaN
Jà	NaN	NaN
…	NaN	NaN
wo	NaN	NaN
halte	NaN	NaN
mr	NaN	NaN
denn	NaN	NaN
drno	NaN	NaN
?	NaN	NaN
's	NaN	NaN
isch	NaN	NaN
mr	NaN	NaN
eis	NaN	NaN
…	NaN	NaN
wo	NaN	NaN
Eüer	NaN	NaN
Pferd	NaN	NaN
will	NaN	NaN
…	NaN	NaN
Ça	NaN	NaN
y	NaN	NaN
est	NaN	NaN
,	NaN	NaN
,	NaN	NaN
wenn	NaN	NaN
ich	NaN	NaN
mi	NaN	NaN
Schimmel	NaN	NaN
loss	NaN	NaN
trappe	NaN	NaN
,	NaN	NaN
so	NaN	NaN
kunnt	NaN	NaN
er	NaN	NaN
wieder	NaN	NaN
do	NaN	NaN
uf	NaN	NaN
dr	NaN	NaN
Platz	NaN	NaN
z'	NaN	NaN
ruck	NaN	NaN
…	NaN	NaN
ich	NaN	NaN
kenn	NaN	NaN
en	NaN	NaN
!	NaN	NaN
…	NaN	NaN
si	NaN	NaN
Stall	NaN	NaN
isch	NaN	NaN
ewe	NaN	NaN
do	NaN	NaN
!	NaN	NaN
…	NaN	NaN
Un	NaN	NaN
jetz	NaN	NaN
vorwärts	NaN	NaN
!	NaN	NaN
…	NaN	NaN
ich	NaN	NaN
fahr	NaN	NaN
mit	NaN	NaN
ere	NaN	NaN
-n-	NaN	NaN
ab	NaN	NaN
,	NaN	NaN
vor	NaN	NaN
dr	NaN	NaN
Nase	NaN	NaN
vo	NaN	NaN
ihrem	NaN	NaN
Mann	NaN	NaN
un	NaN	NaN
vo	NaN	NaN
ihrem	NaN	NaN
…	NaN	NaN
güete	NaN	NaN
Frind	NaN	NaN
…	NaN	NaN
ich	NaN	NaN
will	NaN	NaN
se	NaN	NaN
jetz	NaN	NaN
geh	NaN	NaN
hole	NaN	NaN
Endlig	NaN	NaN
isch	NaN	NaN
dr	NaN	NaN
Herr	NaN	NaN
Dampf	NaN	NaN
jetz	NaN	NaN
furt	NaN	NaN
!	NaN	NaN
tiens	NaN	NaN
…	NaN	NaN
ne	NaN	NaN
Citadine	NaN	NaN
,	NaN	NaN
wo	NaN	NaN
wartet	NaN	NaN
!	NaN	NaN
Still	NaN	NaN
,	NaN	NaN
's	NaN	NaN
kunnt	NaN	NaN
ebber	NaN	NaN
Ich	NaN	NaN
versicher	NaN	NaN
Se	NaN	NaN
,	NaN	NaN
ass	NaN	NaN
kei	NaN	NaN
G'fohr	NaN	NaN
meh	NaN	NaN
isch	NaN	NaN
…	NaN	NaN
's	NaN	NaN
isch	NaN	NaN
ne	NaN	NaN
!	NaN	NaN
Sin	NaN	NaN
Se	NaN	NaN
sicher	NaN	NaN
,	NaN	NaN
ass	NaN	NaN
Nieme	NaN	NaN
meh	NaN	NaN
…	NaN	NaN
's	NaN	NaN
isch	NaN	NaN
se	NaN	NaN
!	NaN	NaN
…	NaN	NaN
ich	NaN	NaN
brüch	NaN	NaN
nimmig	NaN	NaN
zwifle	NaN	NaN
.	NaN	NaN
Ganz	NaN	NaN
sicher	NaN	NaN
…	NaN	NaN
's	NaN	NaN
isch	NaN	NaN
nit	NaN	NaN
meh	NaN	NaN
z'	NaN	NaN
riskiere	NaN	NaN
.	NaN	NaN
Oh	NaN	NaN
!	NaN	NaN
dà	NaN	NaN
gràsslige	NaN	NaN
-n-	NaN	NaN
Owe	NaN	NaN
!	NaN	NaN
…	NaN	NaN
mi	NaN	NaN
ganz	NaN	NaN
Lewe	NaN	NaN
denk	NaN	NaN
i	NaN	NaN
dra	NaN	NaN
!	NaN	NaN
Stigt	NaN	NaN
Se	NaN	NaN
nur	NaN	NaN
i	NaN	NaN
jetz	NaN	NaN
.	NaN	NaN
Un	NaN	NaN
jetz	NaN	NaN
isch	NaN	NaN
's	NaN	NaN
an	NaN	NaN
mir	NaN	NaN
.	NaN	NaN
Herr	NaN	NaN
je	NaN	NaN
!	NaN	NaN
un	NaN	NaN
mi	NaN	NaN
Parepli	NaN	NaN
!	NaN	NaN
Tiens	NaN	NaN
,	NaN	NaN
dà	NaN	NaN
ha	NaN	NaN
-n-	NaN	NaN
i	NaN	NaN
jetz	NaN	NaN
vergesse	NaN	NaN
bim	NaN	NaN
Portner	NaN	NaN
…	NaN	NaN
ich	NaN	NaN
will	NaN	NaN
ne	NaN	NaN
g'schwind	NaN	NaN
geh	NaN	NaN
hole	NaN	NaN
Un	NaN	NaN
ich	NaN	NaN
sott	NaN	NaN
se	NaN	NaN
-n-	NaN	NaN
eso	NaN	NaN
furt	NaN	NaN
lo	NaN	NaN
fahre	NaN	NaN
,	NaN	NaN
ganz	NaN	NaN
riehig	NaN	NaN
mitnander	NaN	NaN
!	NaN	NaN
…	NaN	NaN
Jà	NaN	NaN
nei	NaN	NaN
!	NaN	NaN
…	NaN	NaN
das	NaN	NaN
sin	NaN	NaN
Schnàcketànz	NaN	NaN
Zwanzig	NaN	NaN
Franke	NaN	NaN
fir	NaN	NaN
Euch	NaN	NaN
,	NaN	NaN
wenn	NaN	NaN
Ihr	NaN	NaN
im	NaN	NaN
Galopp	NaN	NaN
dervo	NaN	NaN
fahre	NaN	NaN
.	NaN	NaN
's	NaN	NaN
isch	NaN	NaN
e	NaN	NaN
Wort	NaN	NaN
…	NaN	NaN
un	NaN	NaN
allewil	NaN	NaN
noch	NaN	NaN
,	NaN	NaN
wie	NaN	NaN
mir	NaN	NaN
's	NaN	NaN
üsg'macht	NaN	NaN
hàn	NaN	NaN
?	NaN	NaN
Allewil	NaN	NaN
!	NaN	NaN
…	NaN	NaN
So	NaN	NaN
,	NaN	NaN
jetz	NaN	NaN
will	NaN	NaN
ich	NaN	NaN
emol	NaN	NaN
istige	NaN	NaN
,	NaN	NaN
un	NaN	NaN
hasch	NaN	NaN
mi	NaN	NaN
nitt	NaN	NaN
g'sàh	NaN	NaN
Ah	NaN	NaN
!	NaN	NaN
dr	NaN	NaN
Herr	NaN	NaN
Zitelpost	NaN	NaN
!	NaN	NaN
Allez	NaN	NaN
,	NaN	NaN
hü	NaN	NaN
Schimmel	NaN	NaN
!	NaN	NaN
Dà	NaN	NaN
Portner	NaN	NaN
g'fallt	NaN	NaN
mr	NaN	NaN
noch	NaN	NaN
,	NaN	NaN
wo	NaN	NaN
mr	NaN	NaN
hat	NaN	NaN
welle	NaN	NaN
siner	NaN	NaN
gà	NaN	NaN
,	NaN	NaN
e	NaN	NaN
-n-	NaN	NaN
alter	NaN	NaN
Riflard	NaN	NaN
mit	NaN	NaN
rothe	NaN	NaN
Sticker	NaN	NaN
plàtzt	NaN	NaN
!	NaN	NaN
.	NaN	NaN
Eh	NaN	NaN
bien	NaN	NaN
!	NaN	NaN
wo	NaN	NaN
isch	NaN	NaN
se	NaN	NaN
denn	NaN	NaN
,	NaN	NaN
d'	NaN	NaN
Citàdine	NaN	NaN
?	NaN	NaN
…	NaN	NaN
tiens	NaN	NaN
,	NaN	NaN
dert	NaN	NaN
fahrt	NaN	NaN
se	NaN	NaN
-n-	NaN	NaN
im	NaN	NaN
Kalopp	NaN	NaN
dervo	NaN	NaN
…	NaN	NaN
isch	NaN	NaN
's	NaN	NaN
Ross	NaN	NaN
ebbe	NaN	NaN
verschiche	NaN	NaN
?	NaN	NaN
…	NaN	NaN
he	NaN	NaN
!	NaN	NaN
Kütschner	NaN	NaN
!	NaN	NaN
Ihr	NaN	NaN
vergesse	NaN	NaN
-n-	NaN	NaN
ebber	NaN	NaN
…	NaN	NaN
halte	NaN	NaN
denn	NaN	NaN
Endlig	NaN	NaN
isch	NaN	NaN
er	NaN	NaN
jetz	NaN	NaN
furt	NaN	NaN
,	NaN	NaN
dr	NaN	NaN
Herr	NaN	NaN
Zitelpost	NaN	NaN
…	NaN	NaN
wenn	NaN	NaN
mich	NaN	NaN
nur	NaN	NaN
Nieme	NaN	NaN
sieht	NaN	NaN
in	NaN	NaN
das	NaN	NaN
Hüs	NaN	NaN
ine	NaN	NaN
geh	NaN	NaN
,	NaN	NaN
wo	NaN	NaN
mi	NaN	NaN
kennt	NaN	NaN
…	NaN	NaN
wenn	NaN	NaN
's	NaN	NaN
mi	NaN	NaN
Fraü	NaN	NaN
erfahre	NaN	NaN
thàt	NaN	NaN
!	NaN	NaN
.	NaN	NaN
se	NaN	NaN
-n-	NaN	NaN
isch	NaN	NaN
eso	NaN	NaN
jalouse	NaN	NaN
!	NaN	NaN
…	NaN	NaN
un	NaN	NaN
hat	NaN	NaN
mich	NaN	NaN
eso	NaN	NaN
gern	NaN	NaN
…	NaN	NaN
also	NaN	NaN
wàr	NaN	NaN
's	NaN	NaN
denn	NaN	NaN
do	NaN	NaN
.	NaN	NaN
Ich	NaN	NaN
ha	NaN	NaN
ne	NaN	NaN
nitt	NaN	NaN
känne	NaN	NaN
verwitsche	NaN	NaN
…	NaN	NaN
dà	NaN	NaN
Schimmel	NaN	NaN
laüft	NaN	NaN
as	NaN	NaN
wie	NaN	NaN
dr	NaN	NaN
Deihànker	NaN	NaN
!	NaN	NaN
…	NaN	NaN
Ich	NaN	NaN
will	NaN	NaN
mi	NaN	NaN
doch	NaN	NaN
versichere	NaN	NaN
,	NaN	NaN
eb	NaN	NaN
das	NaN	NaN
dr	NaN	NaN
rechte	NaN	NaN
Nümero	NaN	NaN
isch	NaN	NaN
…	NaN	NaN
Ich	NaN	NaN
bi	NaN	NaN
glaüb	NaN	NaN
efange	NaN	NaN
ne	NaN	NaN
wenig	NaN	NaN
abkiehlt	NaN	NaN
jetz	NaN	NaN
mit	NaN	NaN
dere	NaN	NaN
Nachtschwàrmerei	NaN	NaN
…	NaN	NaN
wenn	NaN	NaN
ich	NaN	NaN
doch	NaN	NaN
nur	NaN	NaN
d'	NaN	NaN
Schnokegasse	NaN	NaN
kännt	NaN	NaN
üsfindig	NaN	NaN
màche	NaN	NaN
!	NaN	NaN
's	NaN	NaN
isch	NaN	NaN
glaüb	NaN	NaN
kei	NaN	NaN
Glocke	NaN	NaN
an	NaN	NaN
dr	NaN	NaN
Thüre	NaN	NaN
,	NaN	NaN
Still	NaN	NaN
!	NaN	NaN
do	NaN	NaN
isch	NaN	NaN
grad	NaN	NaN
ebber	NaN	NaN
,	NaN	NaN
wo	NaN	NaN
heim	NaN	NaN
geht	NaN	NaN
…	NaN	NaN
dà	NaN	NaN
wà	NaN	NaN
mr	NaN	NaN
froge	NaN	NaN
Pardon	NaN	NaN
…	NaN	NaN
kännte	NaN	NaN
Se	NaN	NaN
mir	NaN	NaN
d'	NaN	NaN
Schnokegasse	NaN	NaN
…	NaN	NaN
tiens	NaN	NaN
…	NaN	NaN
's	NaN	NaN
isch	NaN	NaN
dr	NaN	NaN
Herr	NaN	NaN
Krampf	NaN	NaN
!	NaN	NaN
Tiens	NaN	NaN
!	NaN	NaN
…	NaN	NaN
dà	NaN	NaN
wo	NaN	NaN
d'	NaN	NaN
Negresse	NaN	NaN
…	NaN	NaN
ah	NaN	NaN
çà	NaN	NaN
…	NaN	NaN
wo	NaN	NaN
sin	NaN	NaN
Se	NaN	NaN
denn	NaN	NaN
uf	NaN	NaN
eimol	NaN	NaN
ane	NaN	NaN
ku	NaN	NaN
vorig	NaN	NaN
?	NaN	NaN
…	NaN	NaN
unter	NaN	NaN
uns	NaN	NaN
g'sàit	NaN	NaN
sin	NaN	NaN
Sie	NaN	NaN
's	NaN	NaN
,	NaN	NaN
wo	NaN	NaN
Unrecht	NaN	NaN
hàn	NaN	NaN
…	NaN	NaN
sicher	NaN	NaN
...	NaN	NaN
Sie	NaN	NaN
sotte	NaN	NaN
se	NaN	NaN
hirothe	NaN	NaN
.	NaN	NaN
Wer	NaN	NaN
das	NaN	NaN
?	NaN	NaN
…	NaN	NaN
aha	NaN	NaN
…	NaN	NaN
güet	NaN	NaN
…	NaN	NaN
d'	NaN	NaN
Schnokegasse	NaN	NaN
,	NaN	NaN
wenn	NaN	NaN
's	NaN	NaN
I	NaN	NaN
b'liebt	NaN	NaN
?	NaN	NaN
Sie	NaN	NaN
sin	NaN	NaN
jo	NaN	NaN
drin	NaN	NaN
.	NaN	NaN
Ah	NaN	NaN
bah	NaN	NaN
…	NaN	NaN
un	NaN	NaN
's	NaN	NaN
Hotel	NaN	NaN
Billig	NaN	NaN
?	NaN	NaN
Se	NaN	NaN
stehn	NaN	NaN
dervor	NaN	NaN
.	NaN	NaN
Dert	NaN	NaN
?	NaN	NaN
…	NaN	NaN
o	NaN	NaN
sapristi	NaN	NaN
…	NaN	NaN
ich	NaN	NaN
ha	NaN	NaN
d'	NaN	NaN
Nase	NaN	NaN
druf	NaN	NaN
g'ha	NaN	NaN
un	NaN	NaN
find	NaN	NaN
's	NaN	NaN
nitt	NaN	NaN
…	NaN	NaN
merci	NaN	NaN
,	NaN	NaN
Herr	NaN	NaN
Stampf	NaN	NaN
.	NaN	NaN
's	NaN	NaN
isch	NaN	NaN
jetz	NaN	NaN
nitt	NaN	NaN
das	NaN	NaN
…	NaN	NaN
ich	NaN	NaN
will	NaN	NaN
jetz	NaN	NaN
emol	NaN	NaN
mache	NaN	NaN
,	NaN	NaN
ass	NaN	NaN
ich	NaN	NaN
do	NaN	NaN
ine	NaN	NaN
kumm	NaN	NaN
Sage	NaN	NaN
Se	NaN	NaN
…	NaN	NaN
wie	NaN	NaN
sin	NaN	NaN
Se	NaN	NaN
denn	NaN	NaN
züe	NaN	NaN
dàre	NaN	NaN
Negresse	NaN	NaN
ku	NaN	NaN
?	NaN	NaN
…	NaN	NaN
Hein	NaN	NaN
?	NaN	NaN
Dr	NaN	NaN
Herr	NaN	NaN
Zitelpost	NaN	NaN
isch	NaN	NaN
in	NaN	NaN
sim	NaN	NaN
Recht	NaN	NaN
…	NaN	NaN
an	NaN	NaN
Ihrem	NaN	NaN
Platz	NaN	NaN
thàt	NaN	NaN
ich	NaN	NaN
die	NaN	NaN
Jumpfer	NaN	NaN
Kà-kà-o	NaN	NaN
hirothe	NaN	NaN
.	NaN	NaN
Isch	NaN	NaN
denn	NaN	NaN
eigentlig	NaN	NaN
dà	NaN	NaN
Portner	NaN	NaN
taüb	NaN	NaN
?	NaN	NaN
Miner	NaN	NaN
schint	NaN	NaN
mr	NaN	NaN
o	NaN	NaN
nitt	NaN	NaN
d'	NaN	NaN
ganz	NaN	NaN
beste	NaN	NaN
-n-	NaN	NaN
Ohre	NaN	NaN
z'	NaN	NaN
ha	NaN	NaN
…	NaN	NaN
se	NaN	NaN
klopfe	NaN	NaN
beide	NaN	NaN
;	NaN	NaN
d'	NaN	NaN
Thüre	NaN	NaN
gehn	NaN	NaN
uf	NaN	NaN
)	NaN	NaN
Endlig	NaN	NaN
!	NaN	NaN
's	NaN	NaN
isch	NaN	NaN
nimmig	NaN	NaN
z'	NaN	NaN
frieih	NaN	NaN
!	NaN	NaN
Adie	NaN	NaN
.	NaN	NaN
Güetnacht	NaN	NaN
.	NaN	NaN
D'	NaN	NaN
Madame	NaN	NaN
Türk	NaN	NaN
,	NaN	NaN
wenn	NaN	NaN
's	NaN	NaN
I	NaN	NaN
b'liebt	NaN	NaN
.	NaN	NaN
Se	NaN	NaN
-n-	NaN	NaN
isch	NaN	NaN
d'	NaN	NaN
heim	NaN	NaN
…	NaN	NaN
gehn	NaN	NaN
Se	NaN	NaN
nur	NaN	NaN
d'	NaN	NaN
Stege	NaN	NaN
-n-	NaN	NaN
ufe	NaN	NaN
.	NaN	NaN
D'	NaN	NaN
Madame	NaN	NaN
Türk	NaN	NaN
,	NaN	NaN
wenn	NaN	NaN
's	NaN	NaN
I	NaN	NaN
b'liebt	NaN	NaN
.	NaN	NaN
Se	NaN	NaN
-n-	NaN	NaN
isch	NaN	NaN
nitt	NaN	NaN
d'	NaN	NaN
heim	NaN	NaN
.	NaN	NaN
Was	NaN	NaN
!	NaN	NaN
…	NaN	NaN
se	NaN	NaN
-n-	NaN	NaN
isch	NaN	NaN
nitt	NaN	NaN
in	NaN	NaN
ihrem	NaN	NaN
Zimmer	NaN	NaN
?	NaN	NaN
Se	NaN	NaN
-n-	NaN	NaN
isch	NaN	NaN
dà	NaN	NaN
-n-	NaN	NaN
Owe	NaN	NaN
üsgange	NaN	NaN
un	NaN	NaN
hat	NaN	NaN
g'sàit	NaN	NaN
,	NaN	NaN
se	NaN	NaN
kàm	NaN	NaN
erst	NaN	NaN
spot	NaN	NaN
heim	NaN	NaN
,	NaN	NaN
un	NaN	NaN
viellicht	NaN	NaN
gar	NaN	NaN
nitt	NaN	NaN
.	NaN	NaN
Gar	NaN	NaN
nitt	NaN	NaN
!	NaN	NaN
…	NaN	NaN
Was	NaN	NaN
,	NaN	NaN
's	NaN	NaN
Sàlmele	NaN	NaN
isch	NaN	NaN
allei	NaN	NaN
do	NaN	NaN
z'	NaN	NaN
Milhüse	NaN	NaN
…	NaN	NaN
's	NaN	NaN
Sàlmele	NaN	NaN
geht	NaN	NaN
üs	NaN	NaN
z'	NaN	NaN
Nacht	NaN	NaN
un	NaN	NaN
kunnt	NaN	NaN
nitt	NaN	NaN
heim	NaN	NaN
…	NaN	NaN
das	NaN	NaN
isch	NaN	NaN
ebbes	NaN	NaN
süfers	NaN	NaN
!	NaN	NaN
…	NaN	NaN
un	NaN	NaN
ich	NaN	NaN
,	NaN	NaN
wo	NaN	NaN
's	NaN	NaN
ha	NaN	NaN
welle	NaN	NaN
iwerrasche	NaN	NaN
…	NaN	NaN
ich	NaN	NaN
bi	NaN	NaN
iwerrascht	NaN	NaN
ich	NaN	NaN
will	NaN	NaN
uf	NaN	NaN
se	NaN	NaN
warte	NaN	NaN
in	NaN	NaN
ihrem	NaN	NaN
Zimmer	NaN	NaN
…	NaN	NaN
gàn	NaN	NaN
Se	NaN	NaN
mr	NaN	NaN
ihre	NaN	NaN
Schlissel	NaN	NaN
.	NaN	NaN
Das	NaN	NaN
geht	NaN	NaN
nitt	NaN	NaN
…	NaN	NaN
's	NaN	NaN
isch	NaN	NaN
d'	NaN	NaN
Gwohnet	NaN	NaN
nitt	NaN	NaN
vom	NaN	NaN
Hüs	NaN	NaN
.	NaN	NaN
Ich	NaN	NaN
bi	NaN	NaN
jo	NaN	NaN
awer	NaN	NaN
ihre	NaN	NaN
Mann	NaN	NaN
.	NaN	NaN
Jo	NaN	NaN
doch	NaN	NaN
!	NaN	NaN
…	NaN	NaN
die	NaN	NaN
Dame	NaN	NaN
-n-	NaN	NaN
isch	NaN	NaN
jo	NaN	NaN
ne	NaN	NaN
Wittfraü	NaN	NaN
.	NaN	NaN
Hein	NaN	NaN
!	NaN	NaN
…	NaN	NaN
ich	NaN	NaN
bi	NaN	NaN
ganz	NaN	NaN
sicher	NaN	NaN
vom	NaN	NaN
Gegetheil	NaN	NaN
!	NaN	NaN
…	NaN	NaN
So	NaN	NaN
gàn	NaN	NaN
Se	NaN	NaN
mr	NaN	NaN
e	NaN	NaN
-n-	NaN	NaN
ander	NaN	NaN
Zimmer	NaN	NaN
,	NaN	NaN
bis	NaN	NaN
ass	NaN	NaN
mi	NaN	NaN
Fräü	NaN	NaN
z'	NaN	NaN
ruckkunnt	NaN	NaN
…	NaN	NaN
Ich	NaN	NaN
ha	NaN	NaN
keins	NaN	NaN
meh	NaN	NaN
…	NaN	NaN
's	NaN	NaN
sin	NaN	NaN
alle	NaN	NaN
b'setzt	NaN	NaN
…	NaN	NaN
Dà	NaN	NaN
isch	NaN	NaN
jetz	NaN	NaN
noch	NaN	NaN
emol	NaN	NaN
höflig	NaN	NaN
…	NaN	NaN
er	NaN	NaN
g'schbliesst	NaN	NaN
mich	NaN	NaN
üse	NaN	NaN
,	NaN	NaN
mi	NaN	NaN
Fraü	NaN	NaN
hat	NaN	NaN
em	NaN	NaN
viellicht	NaN	NaN
's	NaN	NaN
Wort	NaN	NaN
gà	NaN	NaN
!	NaN	NaN
…	NaN	NaN
awer	NaN	NaN
das	NaN	NaN
isch	NaN	NaN
mir	NaN	NaN
eithüen	NaN	NaN
!	NaN	NaN
…	NaN	NaN
wenn	NaN	NaN
ich	NaN	NaN
müess	NaN	NaN
warte	NaN	NaN
do	NaN	NaN
vor	NaN	NaN
dr	NaN	NaN
Thüre	NaN	NaN
d'	NaN	NaN
ganze	NaN	NaN
Nacht	NaN	NaN
,	NaN	NaN
bis	NaN	NaN
ass	NaN	NaN
se	NaN	NaN
kunt	NaN	NaN
,	NaN	NaN
so	NaN	NaN
wart	NaN	NaN
i...	NaN	NaN
's	NaN	NaN
wàr	NaN	NaN
awer	NaN	NaN
doch	NaN	NaN
unkommod	NaN	NaN
…	NaN	NaN
ich	NaN	NaN
verschnatter	NaN	NaN
schier	NaN	NaN
…	NaN	NaN
wenn	NaN	NaN
ich	NaN	NaN
viellicht	NaN	NaN
noch	NaN	NaN
e	NaN	NaN
Fiacre	NaN	NaN
kännt	NaN	NaN
ha	NaN	NaN
,	NaN	NaN
fir	NaN	NaN
drin	NaN	NaN
z'	NaN	NaN
iwernachte	NaN	NaN
…	NaN	NaN
ich	NaN	NaN
thàt	NaN	NaN
en	NaN	NaN
vo	NaN	NaN
dr	NaN	NaN
Stund	NaN	NaN
zahle	NaN	NaN
…	NaN	NaN
awer	NaN	NaN
's	NaN	NaN
isch	NaN	NaN
halt	NaN	NaN
niene	NaN	NaN
keiner	NaN	NaN
.	NaN	NaN
Stirt	NaN	NaN
Se	NaN	NaN
sich	NaN	NaN
nur	NaN	NaN
herzhaft	NaN	NaN
uf	NaN	NaN
mi	NaN	NaN
Arm	NaN	NaN
,	NaN	NaN
mi	NaN	NaN
liewer	NaN	NaN
Engel	NaN	NaN
…	NaN	NaN
Se	NaN	NaN
brücht	NaN	NaN
kei	NaN	NaN
Angst	NaN	NaN
z'	NaN	NaN
ha	NaN	NaN
,	NaN	NaN
ich	NaN	NaN
fiehr	NaN	NaN
Se	NaN	NaN
,	NaN	NaN
denn	NaN	NaN
mit	NaN	NaN
dem	NaN	NaN
Schleier	NaN	NaN
vor	NaN	NaN
em	NaN	NaN
G'sicht	NaN	NaN
kännt	NaN	NaN
Se	NaN	NaN
gar	NaN	NaN
licht	NaN	NaN
stolpere	NaN	NaN
…	NaN	NaN
mr	NaN	NaN
nàmme	NaN	NaN
derno	NaN	NaN
ne	NaN	NaN
Citadine	NaN	NaN
,	NaN	NaN
fir	NaN	NaN
züe	NaN	NaN
dàne	NaN	NaN
Herre	NaN	NaN
z'	NaN	NaN
fahre	NaN	NaN
.	NaN	NaN
Gar	NaN	NaN
nitt	NaN	NaN
…	NaN	NaN
gar	NaN	NaN
nitt	NaN	NaN
…	NaN	NaN
's	NaN	NaN
isch	NaN	NaN
ganz	NaN	NaN
unnöthig	NaN	NaN
,	NaN	NaN
ass	NaN	NaN
mr	NaN	NaN
e	NaN	NaN
Citadine	NaN	NaN
nàmme	NaN	NaN
!	NaN	NaN
's	NaN	NaN
isch	NaN	NaN
ewe	NaN	NaN
wit	NaN	NaN
…	NaN	NaN
Sie	NaN	NaN
kännt	NaN	NaN
mied	NaN	NaN
werde	NaN	NaN
.	NaN	NaN
Aha	NaN	NaN
!	NaN	NaN
do	NaN	NaN
kunnt	NaN	NaN
einer	NaN	NaN
he	NaN	NaN
!	NaN	NaN
Kütschner	NaN	NaN
!	NaN	NaN
Do	NaN	NaN
kunnt	NaN	NaN
grad	NaN	NaN
eine	NaN	NaN
ku	NaN	NaN
z'	NaN	NaN
fahre	NaN	NaN
.	NaN	NaN
G'schwind	NaN	NaN
denn	NaN	NaN
e	NaN	NaN
wenig	NaN	NaN
…	NaN	NaN
das	NaN	NaN
geht	NaN	NaN
e	NaN	NaN
Länge	NaN	NaN
!	NaN	NaN
Ich	NaN	NaN
kenn	NaN	NaN
die	NaN	NaN
Stimm	NaN	NaN
…	NaN	NaN
un	NaN	NaN
doch	NaN	NaN
…	NaN	NaN
Ho	NaN	NaN
!	NaN	NaN
Schimmel	NaN	NaN
!	NaN	NaN
ho	NaN	NaN
!	NaN	NaN
Ich	NaN	NaN
nimm	NaN	NaN
se	NaN	NaN
!	NaN	NaN
…	NaN	NaN
Nix	NaN	NaN
do	NaN	NaN
…	NaN	NaN
ich	NaN	NaN
ha	NaN	NaN
se	NaN	NaN
z'	NaN	NaN
erst	NaN	NaN
gnu	NaN	NaN
!	NaN	NaN
Ah	NaN	NaN
çà	NaN	NaN
!	NaN	NaN
lehn	NaN	NaN
doch	NaN	NaN
nur	NaN	NaN
z'	NaN	NaN
erst	NaN	NaN
mine	NaN	NaN
Lit	NaN	NaN
üsstige	NaN	NaN
.	NaN	NaN
Ich	NaN	NaN
zwifel	NaN	NaN
nimmig	NaN	NaN
…	NaN	NaN
's	NaN	NaN
isch	NaN	NaN
ne	NaN	NaN
…	NaN	NaN
's	NaN	NaN
isch	NaN	NaN
mi	NaN	NaN
Mann	NaN	NaN
!	NaN	NaN
Ich	NaN	NaN
bi	NaN	NaN
mit	NaN	NaN
ere	NaN	NaN
Dame	NaN	NaN
…	NaN	NaN
lehn	NaN	NaN
Se	NaN	NaN
mir	NaN	NaN
die	NaN	NaN
Citadine	NaN	NaN
.	NaN	NaN
Tiens	NaN	NaN
,	NaN	NaN
scho	NaN	NaN
wieder	NaN	NaN
dr	NaN	NaN
Herr	NaN	NaN
Krampf	NaN	NaN
…	NaN	NaN
isch	NaN	NaN
er	NaN	NaN
denn	NaN	NaN
allewil	NaN	NaN
uf	NaN	NaN
dr	NaN	NaN
Reis'	NaN	NaN
?	NaN	NaN
Dr	NaN	NaN
Negresse-Verfiehrer	NaN	NaN
!	NaN	NaN
…	NaN	NaN
laüft	NaN	NaN
er	NaN	NaN
denn	NaN	NaN
noch	NaN	NaN
allewil	NaN	NaN
umme	NaN	NaN
Wenn	NaN	NaN
mine	NaN	NaN
Lit	NaN	NaN
üsg'stige	NaN	NaN
sin	NaN	NaN
,	NaN	NaN
so	NaN	NaN
arrangiere	NaN	NaN
-n-	NaN	NaN
ihr	NaN	NaN
eüch	NaN	NaN
mitnander	NaN	NaN
.	NaN	NaN
Was	NaN	NaN
isch	NaN	NaN
eigentlig	NaN	NaN
das	NaN	NaN
fir	NaN	NaN
e	NaN	NaN
G'schrei	NaN	NaN
?	NaN	NaN
Dr	NaN	NaN
Herr	NaN	NaN
Zitelpost	NaN	NaN
!	NaN	NaN
Oh	NaN	NaN
!	NaN	NaN
sapristi	NaN	NaN
!	NaN	NaN
…	NaN	NaN
dr	NaN	NaN
Herr	NaN	NaN
Dampf	NaN	NaN
.	NaN	NaN
Herr	NaN	NaN
je	NaN	NaN
!	NaN	NaN
Tiens	NaN	NaN
!	NaN	NaN
tiens	NaN	NaN
!	NaN	NaN
Aïe	NaN	NaN
,	NaN	NaN
aïe	NaN	NaN
!	NaN	NaN
wenn	NaN	NaN
mich	NaN	NaN
dr	NaN	NaN
Herr	NaN	NaN
Zitelpost	NaN	NaN
mit	NaN	NaN
dàre	NaN	NaN
Dame	NaN	NaN
sieht	NaN	NaN
!	NaN	NaN
…	NaN	NaN
Sin	NaN	NaN
Ihr	NaN	NaN
eigentlig	NaN	NaN
g'schosse	NaN	NaN
,	NaN	NaN
ass	NaN	NaN
Ihr	NaN	NaN
mich	NaN	NaN
wieder	NaN	NaN
do	NaN	NaN
ane	NaN	NaN
fiehre	NaN	NaN
!	NaN	NaN
Eh	NaN	NaN
…	NaN	NaN
Sie	NaN	NaN
hàn	NaN	NaN
mir	NaN	NaN
jo	NaN	NaN
g'sàit	NaN	NaN
:	NaN	NaN
wo	NaN	NaN
Eüer	NaN	NaN
Pferd	NaN	NaN
ane	NaN	NaN
will	NaN	NaN
.	NaN	NaN
Ich	NaN	NaN
bitt	NaN	NaN
Se	NaN	NaN
drum	NaN	NaN
…	NaN	NaN
nàmme	NaN	NaN
Se	NaN	NaN
doch	NaN	NaN
die	NaN	NaN
Dame	NaN	NaN
an	NaN	NaN
Arm	NaN	NaN
un	NaN	NaN
sage	NaN	NaN
Se	NaN	NaN
,	NaN	NaN
se	NaN	NaN
seig	NaN	NaN
mit	NaN	NaN
Ihne	NaN	NaN
.	NaN	NaN
Hein	NaN	NaN
?	NaN	NaN
was	NaN	NaN
kunnt	NaN	NaN
Ihne	NaN	NaN
-n-	NaN	NaN
i	NaN	NaN
?	NaN	NaN
Ah	NaN	NaN
ça	NaN	NaN
…	NaN	NaN
thüet	NaN	NaN
Ihre	NaN	NaN
Dame	NaN	NaN
nitt	NaN	NaN
bol	NaN	NaN
üsstige	NaN	NaN
?	NaN	NaN
Ne	NaN	NaN
Dame	NaN	NaN
?	NaN	NaN
…	NaN	NaN
ah	NaN	NaN
,	NaN	NaN
ah	NaN	NaN
!	NaN	NaN
Herr	NaN	NaN
Zitelpost	NaN	NaN
,	NaN	NaN
Sie	NaN	NaN
sin	NaN	NaN
mit	NaN	NaN
ere	NaN	NaN
Dame	NaN	NaN
?	NaN	NaN
Ich	NaN	NaN
,	NaN	NaN
mit	NaN	NaN
ere	NaN	NaN
Dame	NaN	NaN
…	NaN	NaN
z'	NaN	NaN
er	NaN	NaN
Làbtig	NaN	NaN
nitt	NaN	NaN
!	NaN	NaN
Eh	NaN	NaN
!	NaN	NaN
…	NaN	NaN
ich	NaN	NaN
erkenn	NaN	NaN
jo	NaN	NaN
mi	NaN	NaN
Kütschner	NaN	NaN
!	NaN	NaN
…	NaN	NaN
die	NaN	NaN
Dame	NaN	NaN
wàr	NaN	NaN
denn	NaN	NaN
derno	NaN	NaN
d'	NaN	NaN
Madame	NaN	NaN
…	NaN	NaN
Um	NaN	NaN
's	NaN	NaN
Himmelswille	NaN	NaN
,	NaN	NaN
verrothe	NaN	NaN
Se	NaN	NaN
-n-	NaN	NaN
is	NaN	NaN
nitt	NaN	NaN
!	NaN	NaN
's	NaN	NaN
isch	NaN	NaN
se	NaN	NaN
!	NaN	NaN
Isch	NaN	NaN
die	NaN	NaN
Dame	NaN	NaN
viellicht	NaN	NaN
…	NaN	NaN
Grad	NaN	NaN
…	NaN	NaN
Jà	NaN	NaN
wer	NaN	NaN
?	NaN	NaN
Sie	NaN	NaN
hàn	NaN	NaN
's	NaN	NaN
errothe	NaN	NaN
…	NaN	NaN
Wer	NaN	NaN
denn	NaN	NaN
?	NaN	NaN
Sage	NaN	NaN
Se	NaN	NaN
nit	NaN	NaN
!	NaN	NaN
's	NaN	NaN
isch	NaN	NaN
wohr	NaN	NaN
…	NaN	NaN
ich	NaN	NaN
ka	NaN	NaN
-n-	NaN	NaN
em	NaN	NaN
doch	NaN	NaN
nitt	NaN	NaN
sage	NaN	NaN
,	NaN	NaN
ass	NaN	NaN
es	NaN	NaN
si	NaN	NaN
Fraü	NaN	NaN
isch	NaN	NaN
mi	NaN	NaN
…	NaN	NaN
Negresse	NaN	NaN
isch	NaN	NaN
's	NaN	NaN
!	NaN	NaN
D'	NaN	NaN
Jumpfer	NaN	NaN
Kà-kà-o	NaN	NaN
!	NaN	NaN
…	NaN	NaN
ich	NaN	NaN
ha	NaN	NaN
mr	NaN	NaN
's	NaN	NaN
ibildet	NaN	NaN
!	NaN	NaN
Oh	NaN	NaN
!	NaN	NaN
…	NaN	NaN
's	NaN	NaN
wird	NaN	NaN
mr	NaN	NaN
lichter	NaN	NaN
!	NaN	NaN
Was	NaN	NaN
isch	NaN	NaN
jetz	NaN	NaN
das	NaN	NaN
fir	NaN	NaN
e	NaN	NaN
Jumpfer	NaN	NaN
Kà-kà-o	NaN	NaN
?	NaN	NaN
Güet	NaN	NaN
,	NaN	NaN
güet	NaN	NaN
!	NaN	NaN
…	NaN	NaN
ich	NaN	NaN
verstand	NaN	NaN
's	NaN	NaN
jetz	NaN	NaN
…	NaN	NaN
dasmol	NaN	NaN
känne	NaN	NaN
Sie	NaN	NaN
nimmig	NaN	NaN
z'	NaN	NaN
ruck	NaN	NaN
Sie	NaN	NaN
sin	NaN	NaN
se	NaN	NaN
geh	NaN	NaN
hole	NaN	NaN
…	NaN	NaN
Jà	NaN	NaN
…	NaN	NaN
jà	NaN	NaN
…	NaN	NaN
's	NaN	NaN
isch	NaN	NaN
ganz	NaN	NaN
das	NaN	NaN
!	NaN	NaN
Fir	NaN	NaN
ass	NaN	NaN
ihre	NaN	NaN
Thràne	NaN	NaN
-n-	NaN	NaN
ihn	NaN	NaN
bewege	NaN	NaN
,	NaN	NaN
ihre	NaN	NaN
d'	NaN	NaN
Ehr	NaN	NaN
wieder	NaN	NaN
z'	NaN	NaN
ruck	NaN	NaN
z'	NaN	NaN
gà	NaN	NaN
?	NaN	NaN
Sie	NaN	NaN
hàn	NaN	NaN
dr	NaN	NaN
Finger	NaN	NaN
druf	NaN	NaN
.	NaN	NaN
Er	NaN	NaN
hat	NaN	NaN
ne	NaN	NaN
druf	NaN	NaN
!	NaN	NaN
Das	NaN	NaN
isch	NaN	NaN
jo	NaN	NaN
abscheülig	NaN	NaN
!	NaN	NaN
Aïe	NaN	NaN
!	NaN	NaN
die	NaN	NaN
Dame	NaN	NaN
pfàtzt	NaN	NaN
mi	NaN	NaN
!	NaN	NaN
Ich	NaN	NaN
lad	NaN	NaN
mich	NaN	NaN
i	NaN	NaN
an	NaN	NaN
d'	NaN	NaN
Hochzit	NaN	NaN
…	NaN	NaN
das	NaN	NaN
müess	NaN	NaN
g'wiss	NaN	NaN
possig	NaN	NaN
si	NaN	NaN
,	NaN	NaN
ne	NaN	NaN
Brüt	NaN	NaN
vo	NaN	NaN
so	NaN	NaN
-n-	NaN	NaN
ere	NaN	NaN
Farb	NaN	NaN
.	NaN	NaN
's	NaN	NaN
isch	NaN	NaN
recht	NaN	NaN
…	NaN	NaN
's	NaN	NaN
blibt	NaN	NaN
derbi	NaN	NaN
…	NaN	NaN
d'	NaN	NaN
nàchste	NaN	NaN
Wuche	NaN	NaN
hiroth	NaN	NaN
ich	NaN	NaN
se	NaN	NaN
.	NaN	NaN
Ah	NaN	NaN
so	NaN	NaN
!	NaN	NaN
…	NaN	NaN
Dü	NaN	NaN
hirothsch	NaN	NaN
se	NaN	NaN
…	NaN	NaN
Dü	NaN	NaN
Zittel	NaN	NaN
!	NaN	NaN
…	NaN	NaN
un	NaN	NaN
was	NaN	NaN
witt	NaN	NaN
mit	NaN	NaN
Dinere	NaN	NaN
Fraü	NaN	NaN
afange	NaN	NaN
?	NaN	NaN
Si	NaN	NaN
Fraü	NaN	NaN
!	NaN	NaN
's	NaN	NaN
Sàlmele	NaN	NaN
!	NaN	NaN
's	NaN	NaN
Sàlmele	NaN	NaN
,	NaN	NaN
jà	NaN	NaN
…	NaN	NaN
wo	NaN	NaN
Dü	NaN	NaN
trumpiert	NaN	NaN
un	NaN	NaN
hintergange	NaN	NaN
hasch	NaN	NaN
…	NaN	NaN
awer	NaN	NaN
ich	NaN	NaN
will	NaN	NaN
mich	NaN	NaN
ràche	NaN	NaN
!	NaN	NaN
Jà	NaN	NaN
halt	NaN	NaN
!	NaN	NaN
…	NaN	NaN
das	NaN	NaN
Ding	NaN	NaN
isch	NaN	NaN
ganz	NaN	NaN
anderscht	NaN	NaN
!	NaN	NaN
Un	NaN	NaN
die	NaN	NaN
Junpfer	NaN	NaN
Kà-kà-o	NaN	NaN
?	NaN	NaN
Die	NaN	NaN
existiert	NaN	NaN
nitt	NaN	NaN
emol	NaN	NaN
!	NaN	NaN
Hein	NaN	NaN
!	NaN	NaN
Un	NaN	NaN
die	NaN	NaN
Hirothsg'schichte	NaN	NaN
?	NaN	NaN
Das	NaN	NaN
isch	NaN	NaN
alles	NaN	NaN
erfunde	NaN	NaN
!	NaN	NaN
Ah	NaN	NaN
!	NaN	NaN
bah	NaN	NaN
!	NaN	NaN
Wànn	NaN	NaN
Se	NaN	NaN
mich	NaN	NaN
denn	NaN	NaN
verrothe	NaN	NaN
?	NaN	NaN
Nei	NaN	NaN
…	NaN	NaN
ich	NaN	NaN
will	NaN	NaN
Se	NaN	NaN
rette	NaN	NaN
un	NaN	NaN
mich	NaN	NaN
o...	NaN	NaN
's	NaN	NaN
isch	NaN	NaN
nur	NaN	NaN
einer	NaN	NaN
do	NaN	NaN
,	NaN	NaN
wo	NaN	NaN
schuldig	NaN	NaN
isch	NaN	NaN
,	NaN	NaN
un	NaN	NaN
das	NaN	NaN
isch	NaN	NaN
dr	NaN	NaN
Herr	NaN	NaN
Dampf	NaN	NaN
!	NaN	NaN
Ich	NaN	NaN
!	NaN	NaN
Jà	NaN	NaN
Sie	NaN	NaN
.	NaN	NaN
Sie	NaN	NaN
,	NaN	NaN
wo	NaN	NaN
z'	NaN	NaN
Nacht	NaN	NaN
ummeziehn	NaN	NaN
,	NaN	NaN
anstatt	NaN	NaN
uf	NaN	NaN
Ihr	NaN	NaN
Bureau	NaN	NaN
z'	NaN	NaN
geh	NaN	NaN
…	NaN	NaN
sodass	NaN	NaN
Ihne	NaN	NaN
-n-	NaN	NaN
Ihre	NaN	NaN
junge	NaN	NaN
Fraü	NaN	NaN
müess	NaN	NaN
nogeh	NaN	NaN
un	NaN	NaN
ufpasse	NaN	NaN
…	NaN	NaN
Was	NaN	NaN
hör	NaN	NaN
i	NaN	NaN
!	NaN	NaN
…	NaN	NaN
Hàn	NaN	NaN
Sie	NaN	NaN
jetz	NaN	NaN
endlig	NaN	NaN
verstande	NaN	NaN
,	NaN	NaN
Sie	NaN	NaN
alter	NaN	NaN
Sünder	NaN	NaN
,	NaN	NaN
ass	NaN	NaN
es	NaN	NaN
Ihre	NaN	NaN
Fraü	NaN	NaN
isch	NaN	NaN
,	NaN	NaN
wo	NaN	NaN
dert	NaN	NaN
in	NaN	NaN
dr	NaN	NaN
Citadine	NaN	NaN
isch	NaN	NaN
?	NaN	NaN
Mi	NaN	NaN
Fraü	NaN	NaN
im	NaN	NaN
e	NaN	NaN
Fiacre	NaN	NaN
…	NaN	NaN
mit	NaN	NaN
em	NaN	NaN
Herr	NaN	NaN
Zitelpost	NaN	NaN
!	NaN	NaN
Jà	NaN	NaN
…	NaN	NaN
dr	NaN	NaN
Herr	NaN	NaN
Zitelpost	NaN	NaN
…	NaN	NaN
Ihr	NaN	NaN
güeter	NaN	NaN
Frind	NaN	NaN
Zitelpost	NaN	NaN
…	NaN	NaN
e	NaN	NaN
veritawliger	NaN	NaN
Frind	NaN	NaN
…	NaN	NaN
Sie	NaN	NaN
wisse	NaN	NaN
nitt	NaN	NaN
,	NaN	NaN
was	NaN	NaN
er	NaN	NaN
alles	NaN	NaN
scho	NaN	NaN
hat	NaN	NaN
welle	NaN	NaN
mache	NaN	NaN
fir	NaN	NaN
Se	NaN	NaN
…	NaN	NaN
er	NaN	NaN
hat	NaN	NaN
doch	NaN	NaN
Ihre	NaN	NaN
Fraü	NaN	NaN
nitt	NaN	NaN
allei	NaN	NaN
känne	NaN	NaN
lo	NaN	NaN
geh	NaN	NaN
,	NaN	NaN
fir	NaN	NaN
Sie	NaN	NaN
z'	NaN	NaN
süeche	NaN	NaN
.	NaN	NaN
Mi	NaN	NaN
Fraü	NaN	NaN
im	NaN	NaN
e	NaN	NaN
Fiacre	NaN	NaN
!	NaN	NaN
…	NaN	NaN
ich	NaN	NaN
will	NaN	NaN
ere	NaN	NaN
zeige	NaN	NaN
…	NaN	NaN
Se	NaN	NaN
weisst	NaN	NaN
alles	NaN	NaN
,	NaN	NaN
diè	NaN	NaN
güete	NaN	NaN
Fraü	NaN	NaN
…	NaN	NaN
Ihre	NaN	NaN
-n-	NaN	NaN
Üsred	NaN	NaN
fir	NaN	NaN
furtz'geh	NaN	NaN
hit	NaN	NaN
z'	NaN	NaN
Owe	NaN	NaN
un	NaN	NaN
Ihre	NaN	NaN
Rendez-vous	NaN	NaN
mit	NaN	NaN
ere	NaN	NaN
junge	NaN	NaN
Dame	NaN	NaN
.	NaN	NaN
Ich	NaN	NaN
bi	NaN	NaN
im	NaN	NaN
Dunkes	NaN	NaN
!	NaN	NaN
Was	NaN	NaN
verzählt	NaN	NaN
er	NaN	NaN
do	NaN	NaN
?	NaN	NaN
Un	NaN	NaN
ass	NaN	NaN
Sie	NaN	NaN
hàn	NaN	NaN
welle	NaN	NaN
geh	NaN	NaN
z'	NaN	NaN
Nacht	NaN	NaN
esse	NaN	NaN
mit	NaN	NaN
ere	NaN	NaN
…	NaN	NaN
Eh	NaN	NaN
!	NaN	NaN
's	NaN	NaN
isch	NaN	NaN
jo	NaN	NaN
mit	NaN	NaN
minere	NaN	NaN
Fraü	NaN	NaN
,	NaN	NaN
wo	NaN	NaN
-n-	NaN	NaN
er	NaN	NaN
hat	NaN	NaN
welle	NaN	NaN
geh	NaN	NaN
!	NaN	NaN
…	NaN	NaN
das	NaN	NaN
wàr	NaN	NaN
mr	NaN	NaN
jetz	NaN	NaN
emol	NaN	NaN
e	NaN	NaN
süfere	NaN	NaN
G'schichte	NaN	NaN
gsi	NaN	NaN
.	NaN	NaN
Ich	NaN	NaN
schwör	NaN	NaN
Dr	NaN	NaN
,	NaN	NaN
liewer	NaN	NaN
Mann	NaN	NaN
,	NaN	NaN
ass	NaN	NaN
ich	NaN	NaN
nit	NaN	NaN
g'wisst	NaN	NaN
ha	NaN	NaN
…	NaN	NaN
Vo	NaN	NaN
dem	NaN	NaN
Nachtesse	NaN	NaN
…	NaN	NaN
ich	NaN	NaN
weiss	NaN	NaN
es	NaN	NaN
…	NaN	NaN
er	NaN	NaN
hat	NaN	NaN
mr	NaN	NaN
's	NaN	NaN
g'sàit	NaN	NaN
,	NaN	NaN
ich	NaN	NaN
b'sinn	NaN	NaN
mi	NaN	NaN
…	NaN	NaN
Alter	NaN	NaN
Süeri	NaN	NaN
!	NaN	NaN
Nàmme	NaN	NaN
Se	NaN	NaN
's	NaN	NaN
nitt	NaN	NaN
so	NaN	NaN
bös	NaN	NaN
uf	NaN	NaN
…	NaN	NaN
Herr	NaN	NaN
Pascha	NaN	NaN
!	NaN	NaN
Türk	NaN	NaN
,	NaN	NaN
un	NaN	NaN
nitt	NaN	NaN
Pascha	NaN	NaN
…	NaN	NaN
Sie	NaN	NaN
sin	NaN	NaN
e	NaN	NaN
Pascha	NaN	NaN
!	NaN	NaN
Ich	NaN	NaN
ha	NaN	NaN
in	NaN	NaN
dàre	NaN	NaN
junge	NaN	NaN
Dame	NaN	NaN
nur	NaN	NaN
welle	NaN	NaN
Ihre	NaN	NaN
Nomination	NaN	NaN
als	NaN	NaN
Diràcter	NaN	NaN
bringe	NaN	NaN
,	NaN	NaN
Nomination	NaN	NaN
,	NaN	NaN
wo	NaN	NaN
-n-	NaN	NaN
ich	NaN	NaN
eso	NaN	NaN
frei	NaN	NaN
bi	NaN	NaN
,	NaN	NaN
Ihne	NaN	NaN
z'	NaN	NaN
offriere	NaN	NaN
Mi	NaN	NaN
Nomination	NaN	NaN
!	NaN	NaN
Di	NaN	NaN
Brevet	NaN	NaN
…	NaN	NaN
nimm	NaN	NaN
's	NaN	NaN
doch	NaN	NaN
.	NaN	NaN
Er	NaN	NaN
hat	NaN	NaN
mr	NaN	NaN
glaüb	NaN	NaN
zwei	NaN	NaN
welle	NaN	NaN
ahànke	NaN	NaN
;	NaN	NaN
awer	NaN	NaN
ich	NaN	NaN
glaüb	NaN	NaN
,	NaN	NaN
er	NaN	NaN
ka	NaN	NaN
's	NaN	NaN
zweite	NaN	NaN
fir	NaN	NaN
sich	NaN	NaN
b'halte	NaN	NaN
.	NaN	NaN
Dà	NaN	NaN
güete	NaN	NaN
Herr	NaN	NaN
Zittelpost	NaN	NaN
Jà	NaN	NaN
so	NaN	NaN
…	NaN	NaN
awer	NaN	NaN
mi	NaN	NaN
Fraü	NaN	NaN
?	NaN	NaN
Ich	NaN	NaN
bi	NaN	NaN
sicher	NaN	NaN
,	NaN	NaN
ass	NaN	NaN
se	NaN	NaN
güetherzig	NaN	NaN
genüeg	NaN	NaN
isch	NaN	NaN
un	NaN	NaN
stigt	NaN	NaN
üs	NaN	NaN
un	NaN	NaN
kunnt	NaN	NaN
Ihne	NaN	NaN
d'	NaN	NaN
Hand	NaN	NaN
ku	NaN	NaN
gà	NaN	NaN
,	NaN	NaN
fir	NaN	NaN
Ihne	NaN	NaN
z'	NaN	NaN
zeige	NaN	NaN
,	NaN	NaN
ass	NaN	NaN
sie	NaN	NaN
Ihne	NaN	NaN
verzeiht	NaN	NaN
un	NaN	NaN
scho	NaN	NaN
alles	NaN	NaN
vergesse	NaN	NaN
hat	NaN	NaN
…	NaN	NaN
Oh	NaN	NaN
!	NaN	NaN
's	NaN	NaN
isch	NaN	NaN
mr	NaN	NaN
also	NaN	NaN
verzeiht	NaN	NaN
!	NaN	NaN
Sie	NaN	NaN
verdiene	NaN	NaN
's	NaN	NaN
nitt	NaN	NaN
!	NaN	NaN
Mi	NaN	NaN
liewer	NaN	NaN
Herr	NaN	NaN
Pascha	NaN	NaN
!	NaN	NaN
Türk	NaN	NaN
…	NaN	NaN
Herr	NaN	NaN
Krampf	NaN	NaN
…	NaN	NaN
Dampf	NaN	NaN
…	NaN	NaN
Herr	NaN	NaN
Pascha	NaN	NaN
…	NaN	NaN
ich	NaN	NaN
lüeg	NaN	NaN
Sie	NaN	NaN
fir	NaN	NaN
mi	NaN	NaN
güeter	NaN	NaN
Frind	NaN	NaN
a	NaN	NaN
un	NaN	NaN
wenn	NaN	NaN
Se	NaN	NaN
-n-	NaN	NaN
emol	NaN	NaN
ebbes	NaN	NaN
brüche	NaN	NaN
,	NaN	NaN
so	NaN	NaN
bin	NaN	NaN
ich	NaN	NaN
do	NaN	NaN
Allons	NaN	NaN
,	NaN	NaN
Kütschner	NaN	NaN
,	NaN	NaN
uf	NaN	NaN
dr	NaN	NaN
Bock	NaN	NaN
un	NaN	NaN
abg'fahre	NaN	NaN
!	NaN	NaN
Ich	NaN	NaN
will	NaN	NaN
Ene	NaN	NaN
ewig	NaN	NaN
dankbar	NaN	NaN
si	NaN	NaN
!	NaN	NaN
Schön	NaN	NaN
…	NaN	NaN
schön	NaN	NaN
,	NaN	NaN
's	NaN	NaN
wird	NaN	NaN
mi	NaN	NaN
freie	NaN	NaN
!	NaN	NaN
De	NaN	NaN
wirsch	NaN	NaN
mr	NaN	NaN
awer	NaN	NaN
doch	NaN	NaN
ufs	NaN	NaN
wenigst	NaN	NaN
sage	NaN	NaN
,	NaN	NaN
was	NaN	NaN
De	NaN	NaN
bisch	NaN	NaN
ku	NaN	NaN
mache	NaN	NaN
z'	NaN	NaN
Milhüse	NaN	NaN
…	NaN	NaN
Jo	NaN	NaN
,	NaN	NaN
mi	NaN	NaN
liewe	NaN	NaN
Fraü	NaN	NaN
…	NaN	NaN
ich	NaN	NaN
sag	NaN	NaN
Dr	NaN	NaN
's	NaN	NaN
…	NaN	NaN
im	NaN	NaN
Hotel	NaN	NaN
…	NaN	NaN
brrr	NaN	NaN
!	NaN	NaN
ich	NaN	NaN
ha	NaN	NaN
kalt	NaN	NaN
efange	NaN	NaN
vo	NaN	NaN
dem	NaN	NaN
umesteh	NaN	NaN
uf	NaN	NaN
dr	NaN	NaN
Gasse	NaN	NaN
…	NaN	NaN
mr	NaN	NaN
wànn	NaN	NaN
mache	NaN	NaN
,	NaN	NaN
ass	NaN	NaN
mr	NaN	NaN
ins	NaN	NaN
Truckene	NaN	NaN
kämme	NaN	NaN
…	NaN	NaN
's	NaN	NaN
thüet	NaN	NaN
Kein	NaN	NaN
vo	NaN	NaN
alle	NaN	NaN
do	NaN	NaN
,	NaN	NaN
ich	NaN	NaN
wett	NaN	NaN
.	NaN	NaN
Wie	NaN	NaN
-n-	NaN	NaN
ich	NaN	NaN
pressiere	NaN	NaN
,	NaN	NaN
fir	NaN	NaN
ins	NaN	NaN
Bett	NaN	NaN
.	NaN	NaN
Drum	NaN	NaN
ziege	NaN	NaN
mir	NaN	NaN
dr	NaN	NaN
Vorhang	NaN	NaN
züe	NaN	NaN
,	NaN	NaN
Ne	NaN	NaN
jeder	NaN	NaN
ka	NaN	NaN
geh	NaN	NaN
's	NaN	NaN
gliche	NaN	NaN
thüe	NaN	NaN
.	NaN	NaN
