So	NaN	NaN
!	NaN	NaN
…	NaN	NaN
jetz	NaN	NaN
schribt	NaN	NaN
mir	NaN	NaN
grad	NaN	NaN
mi	NaN	NaN
Oncle	NaN	NaN
do	NaN	NaN
vo	NaN	NaN
Colmer	NaN	NaN
,	NaN	NaN
ass	NaN	NaN
er	NaN	NaN
uf	NaN	NaN
hie	NaN	NaN
kunnt	NaN	NaN
un	NaN	NaN
bi	NaN	NaN
mir	NaN	NaN
will	NaN	NaN
ku	NaN	NaN
z'	NaN	NaN
Nacht	NaN	NaN
esse	NaN	NaN
…	NaN	NaN
grad	NaN	NaN
jetz	NaN	NaN
,	NaN	NaN
hit	NaN	NaN
,	NaN	NaN
wo	NaN	NaN
-n-	NaN	NaN
ich	NaN	NaN
Gäst	NaN	NaN
ha	NaN	NaN
…	NaN	NaN
ich	NaN	NaN
mächt	NaN	NaN
ewe	NaN	NaN
hit	NaN	NaN
z'	NaN	NaN
Owe	NaN	NaN
mi	NaN	NaN
Züekünftiger	NaN	NaN
,	NaN	NaN
dr	NaN	NaN
Herr	NaN	NaN
Ledig	NaN	NaN
,	NaN	NaN
in	NaN	NaN
dr	NaN	NaN
G'sellschaft	NaN	NaN
vorstelle	NaN	NaN
un	NaN	NaN
ha	NaN	NaN
's	NaN	NaN
ig'richtet	NaN	NaN
g'ha	NaN	NaN
,	NaN	NaN
ass	NaN	NaN
mr	NaN	NaN
grad	NaN	NaN
zwölf	NaN	NaN
gsi	NaN	NaN
wàre	NaN	NaN
am	NaN	NaN
Tisch	NaN	NaN
…	NaN	NaN
kunnt	NaN	NaN
awer	NaN	NaN
mi	NaN	NaN
Oncle	NaN	NaN
,	NaN	NaN
so	NaN	NaN
si	NaN	NaN
mr	NaN	NaN
drizehne	NaN	NaN
…	NaN	NaN
me	NaN	NaN
meint	NaN	NaN
grad	NaN	NaN
,	NaN	NaN
er	NaN	NaN
macht	NaN	NaN
's	NaN	NaN
express	NaN	NaN
!	NaN	NaN
…	NaN	NaN
un	NaN	NaN
züedem	NaN	NaN
isch	NaN	NaN
's	NaN	NaN
e	NaN	NaN
-n-	NaN	NaN
Original	NaN	NaN
,	NaN	NaN
mi	NaN	NaN
Oncle	NaN	NaN
…	NaN	NaN
er	NaN	NaN
hat	NaN	NaN
allewil	NaN	NaN
ganz	NaN	NaN
andere	NaN	NaN
-n-	NaN	NaN
Idee	NaN	NaN
as	NaN	NaN
andre	NaN	NaN
Lit	NaN	NaN
…	NaN	NaN
wenn	NaN	NaN
ich	NaN	NaN
en	NaN	NaN
ig'lade	NaN	NaN
hätt	NaN	NaN
,	NaN	NaN
so	NaN	NaN
wàr	NaN	NaN
er	NaN	NaN
sicher	NaN	NaN
nitt	NaN	NaN
ku	NaN	NaN
…	NaN	NaN
was	NaN	NaN
isch	NaN	NaN
jetz	NaN	NaN
z'	NaN	NaN
mache	NaN	NaN
?	NaN	NaN
…	NaN	NaN
ich	NaN	NaN
ka	NaN	NaN
doch	NaN	NaN
Nieme	NaN	NaN
furtschicke	NaN	NaN
un	NaN	NaN
will	NaN	NaN
's	NaN	NaN
o	NaN	NaN
in	NaN	NaN
Nieme	NaN	NaN
sage	NaN	NaN
,	NaN	NaN
sunscht	NaN	NaN
thàte	NaN	NaN
se	NaN	NaN
mich	NaN	NaN
üslache	NaN	NaN
…	NaN	NaN
un	NaN	NaN
drizehne	NaN	NaN
will	NaN	NaN
ich	NaN	NaN
durchüs	NaN	NaN
nitt	NaN	NaN
,	NaN	NaN
ass	NaN	NaN
mr	NaN	NaN
sin	NaN	NaN
…	NaN	NaN
unter	NaN	NaN
keine	NaN	NaN
Umstànde	NaN	NaN
,	NaN	NaN
's	NaN	NaN
mag	NaN	NaN
geh	NaN	NaN
wie	NaN	NaN
's	NaN	NaN
will	NaN	NaN
,	NaN	NaN
derf	NaN	NaN
das	NaN	NaN
meh	NaN	NaN
g'schàh	NaN	NaN
…	NaN	NaN
ich	NaN	NaN
thàt	NaN	NaN
eher	NaN	NaN
dr	NaN	NaN
erste	NaN	NaN
beste	NaN	NaN
Bettler	NaN	NaN
derzüe	NaN	NaN
riefe	NaN	NaN
!	NaN	NaN
…	NaN	NaN
's	NaN	NaN
isch	NaN	NaN
mr	NaN	NaN
nur	NaN	NaN
emol	NaN	NaN
vorku	NaN	NaN
un	NaN	NaN
gli	NaN	NaN
druf	NaN	NaN
isch	NaN	NaN
mi	NaN	NaN
Mann	NaN	NaN
selig	NaN	NaN
g'storwe	NaN	NaN
…	NaN	NaN
ich	NaN	NaN
will	NaN	NaN
nitt	NaN	NaN
,	NaN	NaN
ass	NaN	NaN
es	NaN	NaN
mir	NaN	NaN
noch	NaN	NaN
emol	NaN	NaN
eso	NaN	NaN
geht	NaN	NaN
,	NaN	NaN
wenn	NaN	NaN
ich	NaN	NaN
derno	NaN	NaN
küm	NaN	NaN
wieder	NaN	NaN
g'hirothe	NaN	NaN
bi	NaN	NaN
!	NaN	NaN
…	NaN	NaN
Drizehne	NaN	NaN
-n-	NaN	NaN
isch	NaN	NaN
e	NaN	NaN
-n-	NaN	NaN
Unglickszahl	NaN	NaN
,	NaN	NaN
Wo	NaN	NaN
mir	NaN	NaN
brocht	NaN	NaN
hat	NaN	NaN
mi	NaN	NaN
grösste	NaN	NaN
Qual	NaN	NaN
,	NaN	NaN
Drum	NaN	NaN
mach	NaN	NaN
ich	NaN	NaN
mir	NaN	NaN
halt	NaN	NaN
drüs	NaN	NaN
e	NaN	NaN
G'setz	NaN	NaN
,	NaN	NaN
Fir	NaN	NaN
sie	NaN	NaN
als	NaN	NaN
z'	NaN	NaN
vermeide	NaN	NaN
jetz	NaN	NaN
.	NaN	NaN
Ich	NaN	NaN
will	NaN	NaN
halt	NaN	NaN
doch	NaN	NaN
nitt	NaN	NaN
riskiere	NaN	NaN
,	NaN	NaN
Jetz	NaN	NaN
wieder	NaN	NaN
gli	NaN	NaN
mi	NaN	NaN
Mann	NaN	NaN
z'	NaN	NaN
verliere	NaN	NaN
,	NaN	NaN
Denn	NaN	NaN
fir	NaN	NaN
einer	NaN	NaN
wieder	NaN	NaN
z'	NaN	NaN
ha	NaN	NaN
,	NaN	NaN
Ha	NaN	NaN
-n-	NaN	NaN
ich	NaN	NaN
nitt	NaN	NaN
iwel	NaN	NaN
Mieih	NaN	NaN
scho	NaN	NaN
g'ha	NaN	NaN
.	NaN	NaN
Ich	NaN	NaN
sieh	NaN	NaN
nit	NaN	NaN
anders	NaN	NaN
as	NaN	NaN
ich	NaN	NaN
müess	NaN	NaN
im	NaN	NaN
Herr	NaN	NaN
Ledig	NaN	NaN
Hàndel	NaN	NaN
süeche	NaN	NaN
,	NaN	NaN
fir	NaN	NaN
ass	NaN	NaN
er	NaN	NaN
blàit	NaN	NaN
un	NaN	NaN
nitt	NaN	NaN
bim	NaN	NaN
Esse	NaN	NaN
blibt	NaN	NaN
…	NaN	NaN
nochher	NaN	NaN
versöhne	NaN	NaN
mir	NaN	NaN
uns	NaN	NaN
wieder	NaN	NaN
mitnander	NaN	NaN
…	NaN	NaN
ich	NaN	NaN
stell	NaN	NaN
ne	NaN	NaN
halt	NaN	NaN
derno	NaN	NaN
ne	NaN	NaN
-n-	NaN	NaN
andermol	NaN	NaN
vor	NaN	NaN
…	NaN	NaN
ich	NaN	NaN
will	NaN	NaN
das	NaN	NaN
Ding	NaN	NaN
scho	NaN	NaN
arrangiere	NaN	NaN
,	NaN	NaN
er	NaN	NaN
isch	NaN	NaN
e	NaN	NaN
wenig	NaN	NaN
e	NaN	NaN
Hitzkopf	NaN	NaN
,	NaN	NaN
awer	NaN	NaN
sunscht	NaN	NaN
e	NaN	NaN
ganz	NaN	NaN
güeter	NaN	NaN
Mensch	NaN	NaN
,	NaN	NaN
wo	NaN	NaN
um	NaN	NaN
's	NaN	NaN
ummelüege	NaN	NaN
wieder	NaN	NaN
alles	NaN	NaN
vergesse	NaN	NaN
hat	NaN	NaN
…	NaN	NaN
doch	NaN	NaN
still	NaN	NaN
,	NaN	NaN
do	NaN	NaN
kunnt	NaN	NaN
er	NaN	NaN
glaüb	NaN	NaN
grad	NaN	NaN
!	NaN	NaN
Eh	NaN	NaN
,	NaN	NaN
güete	NaN	NaN
-n-	NaN	NaN
Owe	NaN	NaN
,	NaN	NaN
Madame	NaN	NaN
Frisch	NaN	NaN
!	NaN	NaN
…	NaN	NaN
ich	NaN	NaN
frog	NaN	NaN
nitt	NaN	NaN
no	NaN	NaN
Ihrer	NaN	NaN
G'sundheit	NaN	NaN
…	NaN	NaN
Sie	NaN	NaN
kännt	NaN	NaN
doch	NaN	NaN
sicher	NaN	NaN
kei	NaN	NaN
besserer	NaN	NaN
Name	NaN	NaN
ha	NaN	NaN
!	NaN	NaN
…	NaN	NaN
ich	NaN	NaN
bi	NaN	NaN
glaüb	NaN	NaN
dr	NaN	NaN
Erste	NaN	NaN
…	NaN	NaN
Sie	NaN	NaN
hätte	NaN	NaN
ne	NaN	NaN
sotte	NaN	NaN
si	NaN	NaN
,	NaN	NaN
vo	NaN	NaN
rechtswege	NaN	NaN
…	NaN	NaN
awer	NaN	NaN
lüege	NaN	NaN
Se	NaN	NaN
-n-	NaN	NaN
emol	NaN	NaN
in	NaN	NaN
dr	NaN	NaN
Garte	NaN	NaN
…	NaN	NaN
Tiens	NaN	NaN
,	NaN	NaN
's	NaN	NaN
sin	NaN	NaN
scho	NaN	NaN
andere	NaN	NaN
Gast	NaN	NaN
do	NaN	NaN
…	NaN	NaN
verzeiht	NaN	NaN
Se	NaN	NaN
mr	NaN	NaN
,	NaN	NaN
Madame	NaN	NaN
Frisch	NaN	NaN
…	NaN	NaN
ich	NaN	NaN
ha	NaN	NaN
halt	NaN	NaN
noch	NaN	NaN
G'schàfte	NaN	NaN
g'ha	NaN	NaN
…	NaN	NaN
Ich	NaN	NaN
mein	NaN	NaN
doch	NaN	NaN
,	NaN	NaN
ass	NaN	NaN
we	NaN	NaN
me	NaN	NaN
-n-	NaN	NaN
ebber	NaN	NaN
gern	NaN	NaN
hat	NaN	NaN
un	NaN	NaN
uf	NaN	NaN
em	NaN	NaN
Punkt	NaN	NaN
isch	NaN	NaN
z'	NaN	NaN
hirothe	NaN	NaN
,	NaN	NaN
ass	NaN	NaN
die	NaN	NaN
Person	NaN	NaN
vor	NaN	NaN
de	NaN	NaN
G'schàfte	NaN	NaN
geht	NaN	NaN
!	NaN	NaN
Kunnt	NaN	NaN
me	NaN	NaN
z'	NaN	NaN
spot	NaN	NaN
Als	NaN	NaN
vor	NaN	NaN
dr	NaN	NaN
Hiroth	NaN	NaN
scho	NaN	NaN
,	NaN	NaN
Wie	NaN	NaN
wird	NaN	NaN
's	NaN	NaN
denn	NaN	NaN
geh'	NaN	NaN
als	NaN	NaN
do	NaN	NaN
,	NaN	NaN
Wenn	NaN	NaN
's	NaN	NaN
umme	NaN	NaN
-n-	NaN	NaN
isch	NaN	NaN
derno	NaN	NaN
!	NaN	NaN
Ich	NaN	NaN
find	NaN	NaN
doch	NaN	NaN
,	NaN	NaN
ass	NaN	NaN
d'	NaN	NaN
Hiroth	NaN	NaN
Vor	NaN	NaN
allem	NaN	NaN
z'	NaN	NaN
àmme	NaN	NaN
geht	NaN	NaN
Un	NaN	NaN
ass	NaN	NaN
ka	NaN	NaN
si	NaN	NaN
kei	NaN	NaN
Red	NaN	NaN
Vo	NaN	NaN
ebbes	NaN	NaN
anders	NaN	NaN
meh	NaN	NaN
jetz	NaN	NaN
do	NaN	NaN
!	NaN	NaN
Kunnt	NaN	NaN
me	NaN	NaN
z'	NaN	NaN
spot	NaN	NaN
etc...	NaN	NaN
D'	NaN	NaN
Hiroth	NaN	NaN
wird	NaN	NaN
do	NaN	NaN
Mich	NaN	NaN
finde	NaN	NaN
scho	NaN	NaN
,	NaN	NaN
Ich	NaN	NaN
will	NaN	NaN
nitt	NaN	NaN
uf	NaN	NaN
mich	NaN	NaN
warte	NaN	NaN
lo	NaN	NaN
;	NaN	NaN
Ich	NaN	NaN
kumm	NaN	NaN
nitt	NaN	NaN
z'	NaN	NaN
spot	NaN	NaN
,	NaN	NaN
Denn	NaN	NaN
wenn	NaN	NaN
's	NaN	NaN
losgeht	NaN	NaN
,	NaN	NaN
Ka	NaN	NaN
si	NaN	NaN
kei	NaN	NaN
Red	NaN	NaN
Vo	NaN	NaN
ebbes	NaN	NaN
anders	NaN	NaN
meh	NaN	NaN
jetz	NaN	NaN
do	NaN	NaN
!	NaN	NaN
Ich	NaN	NaN
bi	NaN	NaN
awer	NaN	NaN
o	NaN	NaN
ungeduldig	NaN	NaN
gsi	NaN	NaN
un	NaN	NaN
ha	NaN	NaN
mi	NaN	NaN
dummelt	NaN	NaN
…	NaN	NaN
un	NaN	NaN
derno	NaN	NaN
,	NaN	NaN
's	NaN	NaN
isch	NaN	NaN
jo	NaN	NaN
no	NaN	NaN
nitt	NaN	NaN
spot	NaN	NaN
's	NaN	NaN
isch	NaN	NaN
jo	NaN	NaN
erscht	NaN	NaN
…	NaN	NaN
So	NaN	NaN
isch	NaN	NaN
's	NaN	NaN
halt	NaN	NaN
allewil	NaN	NaN
mit	NaN	NaN
dàne	NaN	NaN
Mànner	NaN	NaN
…	NaN	NaN
d'	NaN	NaN
G'schàfte	NaN	NaN
,	NaN	NaN
die	NaN	NaN
gehn	NaN	NaN
allewil	NaN	NaN
vor	NaN	NaN
…	NaN	NaN
wenn	NaN	NaN
Sie	NaN	NaN
denn	NaN	NaN
eso	NaN	NaN
dra	NaN	NaN
halte	NaN	NaN
an	NaN	NaN
Ihre	NaN	NaN
G'schàfte	NaN	NaN
,	NaN	NaN
worum	NaN	NaN
sin	NaN	NaN
Sie	NaN	NaN
nitt	NaN	NaN
gli	NaN	NaN
dra	NaN	NaN
bliwe	NaN	NaN
!	NaN	NaN
…	NaN	NaN
Ah	NaN	NaN
so	NaN	NaN
!	NaN	NaN
…	NaN	NaN
tiens	NaN	NaN
,	NaN	NaN
tiens	NaN	NaN
!	NaN	NaN
…	NaN	NaN
wenn	NaN	NaN
Se	NaN	NaN
meint	NaN	NaN
,	NaN	NaN
ass	NaN	NaN
ich	NaN	NaN
hätt	NaN	NaN
sotte	NaN	NaN
dra	NaN	NaN
bliwe	NaN	NaN
,	NaN	NaN
so	NaN	NaN
ka	NaN	NaN
-n-	NaN	NaN
ich	NaN	NaN
allewil	NaN	NaN
noch	NaN	NaN
geh	NaN	NaN
…	NaN	NaN
's	NaN	NaN
isch	NaN	NaN
noch	NaN	NaN
alle	NaN	NaN
Zit	NaN	NaN
…	NaN	NaN
Adie	NaN	NaN
Madame	NaN	NaN
Frisch	NaN	NaN
!	NaN	NaN
.	NaN	NaN
Dà	NaN	NaN
güete	NaN	NaN
Herr	NaN	NaN
Ledig	NaN	NaN
!	NaN	NaN
…	NaN	NaN
ich	NaN	NaN
mächt	NaN	NaN
grad	NaN	NaN
grine	NaN	NaN
!	NaN	NaN
…	NaN	NaN
ich	NaN	NaN
ha	NaN	NaN
's	NaN	NaN
schier	NaN	NaN
nitt	NaN	NaN
iwer	NaN	NaN
's	NaN	NaN
Herz	NaN	NaN
brocht	NaN	NaN
…	NaN	NaN
awer	NaN	NaN
's	NaN	NaN
isch	NaN	NaN
jo	NaN	NaN
fir	NaN	NaN
si	NaN	NaN
Wohl	NaN	NaN
…	NaN	NaN
ich	NaN	NaN
wott	NaN	NaN
nitt	NaN	NaN
,	NaN	NaN
ass	NaN	NaN
ihm	NaN	NaN
e	NaN	NaN
-n-	NaN	NaN
Unglick	NaN	NaN
thàt	NaN	NaN
widerfahre	NaN	NaN
…	NaN	NaN
bàh	NaN	NaN
…	NaN	NaN
mit	NaN	NaN
eme	NaN	NaN
Wort	NaN	NaN
vo	NaN	NaN
mir	NaN	NaN
kunnt	NaN	NaN
er	NaN	NaN
wieder	NaN	NaN
z'	NaN	NaN
ruck	NaN	NaN
morn	NaN	NaN
…	NaN	NaN
ich	NaN	NaN
kenn	NaN	NaN
en	NaN	NaN
…	NaN	NaN
doch	NaN	NaN
,	NaN	NaN
jetz	NaN	NaN
hör	NaN	NaN
i	NaN	NaN
glaüb	NaN	NaN
mi	NaN	NaN
Oncle	NaN	NaN
…	NaN	NaN
richtig	NaN	NaN
…	NaN	NaN
's	NaN	NaN
isch	NaN	NaN
ne	NaN	NaN
!	NaN	NaN
Aha	NaN	NaN
!	NaN	NaN
…	NaN	NaN
do	NaN	NaN
isch	NaN	NaN
se	NaN	NaN
jo	NaN	NaN
,	NaN	NaN
mi	NaN	NaN
liewe	NaN	NaN
Nièce	NaN	NaN
,	NaN	NaN
Nundebuckel	NaN	NaN
noch	NaN	NaN
emol	NaN	NaN
!	NaN	NaN
wie	NaN	NaN
geht	NaN	NaN
's	NaN	NaN
denn	NaN	NaN
allewil	NaN	NaN
?	NaN	NaN
…	NaN	NaN
noch	NaN	NaN
allewil	NaN	NaN
jung	NaN	NaN
un	NaN	NaN
frisch	NaN	NaN
!	NaN	NaN
…	NaN	NaN
à	NaN	NaN
propos	NaN	NaN
ich	NaN	NaN
stell	NaN	NaN
Dir	NaN	NaN
dr	NaN	NaN
Herr	NaN	NaN
Krach	NaN	NaN
vor	NaN	NaN
,	NaN	NaN
mi	NaN	NaN
züekünftiger	NaN	NaN
Associé	NaN	NaN
,	NaN	NaN
wo	NaN	NaN
mit	NaN	NaN
Din're	NaN	NaN
Erlaübniss	NaN	NaN
mit	NaN	NaN
uns	NaN	NaN
z'	NaN	NaN
Nacht	NaN	NaN
esse	NaN	NaN
wird	NaN	NaN
…	NaN	NaN
Was	NaN	NaN
uf	NaN	NaN
jedefall	NaN	NaN
e	NaN	NaN
grosse	NaN	NaN
-n-	NaN	NaN
Ehr	NaN	NaN
wird	NaN	NaN
si	NaN	NaN
fir	NaN	NaN
mich	NaN	NaN
…	NaN	NaN
Oh	NaN	NaN
sapristi	NaN	NaN
!	NaN	NaN
…	NaN	NaN
jetz	NaN	NaN
si	NaN	NaN
mr	NaN	NaN
scho	NaN	NaN
wieder	NaN	NaN
drizehne	NaN	NaN
!	NaN	NaN
…	NaN	NaN
ich	NaN	NaN
'will	NaN	NaN
gli	NaN	NaN
dr	NaN	NaN
Herr	NaN	NaN
Ledig	NaN	NaN
wieder	NaN	NaN
lo	NaN	NaN
z'	NaN	NaN
ruckriefe	NaN	NaN
,	NaN	NaN
ass	NaN	NaN
mr	NaN	NaN
vierzehne	NaN	NaN
sin	NaN	NaN
.	NaN	NaN
's	NaN	NaN
wird	NaN	NaN
mir	NaN	NaN
g'wiss	NaN	NaN
Freid	NaN	NaN
mache	NaN	NaN
,	NaN	NaN
die	NaN	NaN
Herre	NaN	NaN
z'	NaN	NaN
bediene	NaN	NaN
…	NaN	NaN
doch	NaN	NaN
müess	NaN	NaN
ich	NaN	NaN
se	NaN	NaN
jetz	NaN	NaN
e	NaN	NaN
wenig	NaN	NaN
allei	NaN	NaN
lo	NaN	NaN
,	NaN	NaN
fir	NaN	NaN
geh	NaN	NaN
mine	NaN	NaN
Ordre	NaN	NaN
üsz'theile	NaN	NaN
…	NaN	NaN
nàmme	NaN	NaN
Se	NaN	NaN
ne	NaN	NaN
wenig	NaN	NaN
Platz	NaN	NaN
,	NaN	NaN
ich	NaN	NaN
bi	NaN	NaN
im	NaN	NaN
Aügesblick	NaN	NaN
wieder	NaN	NaN
do	NaN	NaN
.	NaN	NaN
Was	NaN	NaN
isch	NaN	NaN
…	NaN	NaN
wie	NaN	NaN
g'fallt	NaN	NaN
se	NaN	NaN
ne	NaN	NaN
?	NaN	NaN
…	NaN	NaN
nitt	NaN	NaN
wohr	NaN	NaN
,	NaN	NaN
ich	NaN	NaN
ha	NaN	NaN
se	NaN	NaN
nitt	NaN	NaN
z'	NaN	NaN
viel	NaN	NaN
g'riehmt	NaN	NaN
?	NaN	NaN
…	NaN	NaN
das	NaN	NaN
git	NaN	NaN
e	NaN	NaN
pràchtige	NaN	NaN
Fraü	NaN	NaN
fir	NaN	NaN
Sie	NaN	NaN
!	NaN	NaN
…	NaN	NaN
Nundebuckel	NaN	NaN
noch	NaN	NaN
emol	NaN	NaN
!	NaN	NaN
Ich	NaN	NaN
find	NaN	NaN
se	NaN	NaN
,	NaN	NaN
ganz	NaN	NaN
güet	NaN	NaN
…	NaN	NaN
awer	NaN	NaN
sin	NaN	NaN
Se	NaN	NaN
sicher	NaN	NaN
,	NaN	NaN
ass	NaN	NaN
sie	NaN	NaN
mich	NaN	NaN
grad	NaN	NaN
will	NaN	NaN
?	NaN	NaN
…	NaN	NaN
was	NaN	NaN
isch	NaN	NaN
das	NaN	NaN
fir	NaN	NaN
e	NaN	NaN
Herr	NaN	NaN
,	NaN	NaN
wo	NaN	NaN
mir	NaN	NaN
atroffe	NaN	NaN
hàn	NaN	NaN
vorig	NaN	NaN
,	NaN	NaN
un	NaN	NaN
wo	NaN	NaN
grad	NaN	NaN
vo	NaN	NaN
do	NaN	NaN
ku	NaN	NaN
isch	NaN	NaN
?	NaN	NaN
Hàn	NaN	NaN
Se	NaN	NaN
-n-	NaN	NaN
ebbe	NaN	NaN
scho	NaN	NaN
Angst	NaN	NaN
,	NaN	NaN
's	NaN	NaN
isch	NaN	NaN
e	NaN	NaN
Rival	NaN	NaN
?	NaN	NaN
…	NaN	NaN
lehn	NaN	NaN
Se	NaN	NaN
mich	NaN	NaN
nur	NaN	NaN
mache	NaN	NaN
…	NaN	NaN
do	NaN	NaN
isch	NaN	NaN
se	NaN	NaN
jetz	NaN	NaN
wieder	NaN	NaN
!	NaN	NaN
Ich	NaN	NaN
ha	NaN	NaN
-n-	NaN	NaN
em	NaN	NaN
d'	NaN	NaN
Magd	NaN	NaN
nog'schickt	NaN	NaN
…	NaN	NaN
er	NaN	NaN
ka	NaN	NaN
no	NaN	NaN
nitt	NaN	NaN
wit	NaN	NaN
si	NaN	NaN
…	NaN	NaN
jetz	NaN	NaN
,	NaN	NaN
Oncle	NaN	NaN
,	NaN	NaN
känne	NaN	NaN
mr	NaN	NaN
e	NaN	NaN
wenig	NaN	NaN
schwàtze	NaN	NaN
mitnander	NaN	NaN
…	NaN	NaN
was	NaN	NaN
isch	NaN	NaN
,	NaN	NaN
was	NaN	NaN
hat	NaN	NaN
Dich	NaN	NaN
eso	NaN	NaN
unerwarteterwis	NaN	NaN
in	NaN	NaN
mi	NaN	NaN
Hüs	NaN	NaN
g'fiehrt	NaN	NaN
…	NaN	NaN
ich	NaN	NaN
bi	NaN	NaN
's	NaN	NaN
ewe	NaN	NaN
nitt	NaN	NaN
g'wöhnt	NaN	NaN
…	NaN	NaN
wie	NaN	NaN
vielmol	NaN	NaN
ha	NaN	NaN
-n-	NaN	NaN
ich	NaN	NaN
Dich	NaN	NaN
scho	NaN	NaN
ig'lade	NaN	NaN
un	NaN	NaN
nie	NaN	NaN
hasch	NaN	NaN
welle	NaN	NaN
ku	NaN	NaN
…	NaN	NaN
Was	NaN	NaN
witt	NaN	NaN
halt	NaN	NaN
…	NaN	NaN
Dü	NaN	NaN
weisch	NaN	NaN
,	NaN	NaN
wie	NaN	NaN
-n-	NaN	NaN
ich	NaN	NaN
mit	NaN	NaN
Arwet	NaN	NaN
iwerlade	NaN	NaN
bi	NaN	NaN
's	NaN	NaN
ganze	NaN	NaN
Johr	NaN	NaN
un	NaN	NaN
wie	NaN	NaN
ungern	NaN	NaN
as	NaN	NaN
ich	NaN	NaN
mich	NaN	NaN
deplaciere	NaN	NaN
thüe	NaN	NaN
…	NaN	NaN
dasmol	NaN	NaN
isch	NaN	NaN
's	NaN	NaN
jetz	NaN	NaN
üs	NaN	NaN
ere	NaN	NaN
ganz	NaN	NaN
b'sundere	NaN	NaN
-n-	NaN	NaN
Ursach	NaN	NaN
,	NaN	NaN
wo	NaN	NaN
Dü	NaN	NaN
jetz	NaN	NaN
glich	NaN	NaN
erfahre	NaN	NaN
sollsch	NaN	NaN
…	NaN	NaN
Erlaüwe	NaN	NaN
Se	NaN	NaN
,	NaN	NaN
ass	NaN	NaN
ich	NaN	NaN
siter	NaN	NaN
in	NaN	NaN
Garte	NaN	NaN
-n-	NaN	NaN
awe	NaN	NaN
gang	NaN	NaN
,	NaN	NaN
derwilst	NaN	NaN
as	NaN	NaN
Sie	NaN	NaN
schwàtze	NaN	NaN
mitnander	NaN	NaN
…	NaN	NaN
ich	NaN	NaN
glaüb	NaN	NaN
ohnedem	NaN	NaN
,	NaN	NaN
ass	NaN	NaN
ich	NaN	NaN
dert	NaN	NaN
züefàlligerwis	NaN	NaN
e	NaN	NaN
-n-	NaN	NaN
alte	NaN	NaN
Bekanntschaft	NaN	NaN
erkennt	NaN	NaN
ha	NaN	NaN
,	NaN	NaN
wo	NaN	NaN
-n-	NaN	NaN
ich	NaN	NaN
gar	NaN	NaN
nitt	NaN	NaN
denkt	NaN	NaN
hätt	NaN	NaN
do	NaN	NaN
az'treffe	NaN	NaN
…	NaN	NaN
Sie	NaN	NaN
excüsiere	NaN	NaN
mich	NaN	NaN
,	NaN	NaN
nitt	NaN	NaN
wohr	NaN	NaN
.	NaN	NaN
Vor	NaN	NaN
allem	NaN	NaN
mächt	NaN	NaN
ich	NaN	NaN
Dich	NaN	NaN
jetz	NaN	NaN
froge	NaN	NaN
,	NaN	NaN
wie	NaN	NaN
Dir	NaN	NaN
dà	NaN	NaN
Herr	NaN	NaN
g'fallt	NaN	NaN
…	NaN	NaN
güet	NaN	NaN
,	NaN	NaN
nitt	NaN	NaN
wohr	NaN	NaN
?	NaN	NaN
…	NaN	NaN
De	NaN	NaN
weisch	NaN	NaN
,	NaN	NaN
ass	NaN	NaN
ich	NaN	NaN
nitt	NaN	NaN
d'	NaN	NaN
G'wohnet	NaN	NaN
ha	NaN	NaN
,	NaN	NaN
lang	NaN	NaN
hinte	NaN	NaN
-n-	NaN	NaN
umme	NaN	NaN
z'	NaN	NaN
fahre	NaN	NaN
…	NaN	NaN
dr	NaN	NaN
Herr	NaN	NaN
Krach	NaN	NaN
isch	NaN	NaN
in	NaN	NaN
alle	NaN	NaN
Sticke	NaN	NaN
ne	NaN	NaN
charmanter	NaN	NaN
junger	NaN	NaN
Mann	NaN	NaN
…	NaN	NaN
er	NaN	NaN
trittet	NaN	NaN
jetz	NaN	NaN
in	NaN	NaN
mi	NaN	NaN
G'schàft	NaN	NaN
i	NaN	NaN
un	NaN	NaN
wird	NaN	NaN
's	NaN	NaN
sogar	NaN	NaN
später	NaN	NaN
wohrschinlig	NaN	NaN
ganz	NaN	NaN
iwernàmme	NaN	NaN
…	NaN	NaN
also	NaN	NaN
ne	NaN	NaN
güete	NaN	NaN
Parthie	NaN	NaN
,	NaN	NaN
Nundebuckel	NaN	NaN
noch	NaN	NaN
emoll	NaN	NaN
…	NaN	NaN
was	NaN	NaN
meinsch	NaN	NaN
,	NaN	NaN
wàr	NaN	NaN
das	NaN	NaN
nitt	NaN	NaN
eso	NaN	NaN
ne-Mànnle	NaN	NaN
fir	NaN	NaN
Dich	NaN	NaN
?	NaN	NaN
's	NaN	NaN
isch	NaN	NaN
wohr	NaN	NaN
,	NaN	NaN
Oncle	NaN	NaN
,	NaN	NaN
Dü	NaN	NaN
fahrsch	NaN	NaN
nitt	NaN	NaN
lang	NaN	NaN
hinte	NaN	NaN
-n-	NaN	NaN
umme	NaN	NaN
…	NaN	NaN
das	NaN	NaN
heisst	NaN	NaN
me	NaN	NaN
jetz	NaN	NaN
emol	NaN	NaN
eim	NaN	NaN
e	NaN	NaN
Mann	NaN	NaN
atràit	NaN	NaN
uf	NaN	NaN
dr	NaN	NaN
Extrapost	NaN	NaN
…	NaN	NaN
Was	NaN	NaN
isch	NaN	NaN
das	NaN	NaN
fir	NaN	NaN
e	NaN	NaN
Mode	NaN	NaN
?	NaN	NaN
So	NaN	NaN
will	NaN	NaN
ich	NaN	NaN
nitt	NaN	NaN
hirothe	NaN	NaN
,	NaN	NaN
Ich	NaN	NaN
müess	NaN	NaN
jetz	NaN	NaN
doch	NaN	NaN
z'	NaN	NaN
erst	NaN	NaN
wisse	NaN	NaN
,	NaN	NaN
Mit	NaN	NaN
wem	NaN	NaN
as	NaN	NaN
ich	NaN	NaN
's	NaN	NaN
z'	NaN	NaN
thüe	NaN	NaN
ha	NaN	NaN
;	NaN	NaN
Ne	NaN	NaN
so	NaN	NaN
eim	NaN	NaN
iwerfalle	NaN	NaN
!	NaN	NaN
Das	NaN	NaN
geht	NaN	NaN
halt	NaN	NaN
nitt	NaN	NaN
in	NaN	NaN
Alle	NaN	NaN
,	NaN	NaN
Das	NaN	NaN
wàr	NaN	NaN
jo	NaN	NaN
gege	NaN	NaN
's	NaN	NaN
Gwisse	NaN	NaN
;	NaN	NaN
So	NaN	NaN
bind	NaN	NaN
ich	NaN	NaN
mich	NaN	NaN
nitt	NaN	NaN
a	NaN	NaN
!	NaN	NaN
's	NaN	NaN
isch	NaN	NaN
mir	NaN	NaN
nitt	NaN	NaN
z'	NaN	NaN
wohl	NaN	NaN
,	NaN	NaN
Denn	NaN	NaN
gar	NaN	NaN
vielmol	NaN	NaN
Hat	NaN	NaN
me	NaN	NaN
g'sàh	NaN	NaN
do	NaN	NaN
's	NaN	NaN
Unglick	NaN	NaN
scho	NaN	NaN
;	NaN	NaN
Das	NaN	NaN
ka	NaN	NaN
nitt	NaN	NaN
geh	NaN	NaN
,	NaN	NaN
Dü	NaN	NaN
wirsch	NaN	NaN
's	NaN	NaN
ig'steh	NaN	NaN
,	NaN	NaN
So	NaN	NaN
uf	NaN	NaN
eimol	NaN	NaN
,	NaN	NaN
B'sinn	NaN	NaN
Di	NaN	NaN
wohl	NaN	NaN
!	NaN	NaN
Nundebuckel	NaN	NaN
noch	NaN	NaN
emol	NaN	NaN
!	NaN	NaN
Sag	NaN	NaN
,	NaN	NaN
weisch	NaN	NaN
Dü	NaN	NaN
jetz	NaN	NaN
awer	NaN	NaN
wohl	NaN	NaN
,	NaN	NaN
Ass	NaN	NaN
ich	NaN	NaN
mich	NaN	NaN
ha	NaN	NaN
druf	NaN	NaN
verlo	NaN	NaN
Un	NaN	NaN
ihm	NaN	NaN
Hoffnung	NaN	NaN
g'macht	NaN	NaN
ha	NaN	NaN
scho	NaN	NaN
;	NaN	NaN
Ich	NaN	NaN
wird	NaN	NaN
schön	NaN	NaN
jetz	NaN	NaN
vor	NaN	NaN
ihm	NaN	NaN
steh	NaN	NaN
,	NaN	NaN
Wenn	NaN	NaN
Dü	NaN	NaN
das	NaN	NaN
nitt	NaN	NaN
witt	NaN	NaN
igeh	NaN	NaN
;	NaN	NaN
Nundebuckel	NaN	NaN
noch	NaN	NaN
emol	NaN	NaN
!	NaN	NaN
B'sinn	NaN	NaN
Di	NaN	NaN
wohl	NaN	NaN
!	NaN	NaN
De	NaN	NaN
weisch	NaN	NaN
,	NaN	NaN
ich	NaN	NaN
bi	NaN	NaN
allewil	NaN	NaN
eso	NaN	NaN
gsi	NaN	NaN
…	NaN	NaN
wenn	NaN	NaN
ich	NaN	NaN
emol	NaN	NaN
ebbes	NaN	NaN
im	NaN	NaN
Kopf	NaN	NaN
g'ha	NaN	NaN
ha	NaN	NaN
,	NaN	NaN
so	NaN	NaN
hat	NaN	NaN
's	NaN	NaN
gli	NaN	NaN
miesse	NaN	NaN
dure	NaN	NaN
,	NaN	NaN
Nunde	NaN	NaN
…	NaN	NaN
Eh	NaN	NaN
bien	NaN	NaN
,	NaN	NaN
los	NaN	NaN
,	NaN	NaN
Oncle	NaN	NaN
,	NaN	NaN
ich	NaN	NaN
sag	NaN	NaN
Dr	NaN	NaN
d'	NaN	NaN
Antwort	NaN	NaN
am	NaN	NaN
Nachtesse	NaN	NaN
…	NaN	NaN
ich	NaN	NaN
bi	NaN	NaN
froh	NaN	NaN
,	NaN	NaN
ass	NaN	NaN
De	NaN	NaN
ku	NaN	NaN
bisch	NaN	NaN
…	NaN	NaN
Nix	NaN	NaN
do	NaN	NaN
…	NaN	NaN
uf	NaN	NaN
dr	NaN	NaN
Stell	NaN	NaN
müess	NaN	NaN
ich	NaN	NaN
's	NaN	NaN
wisse	NaN	NaN
…	NaN	NaN
wenn	NaN	NaN
Dü	NaN	NaN
-n-	NaN	NaN
en	NaN	NaN
ung'fàhr	NaN	NaN
nitt	NaN	NaN
witt	NaN	NaN
,	NaN	NaN
so	NaN	NaN
ka	NaN	NaN
-n-	NaN	NaN
er	NaN	NaN
nitt	NaN	NaN
dobliwe	NaN	NaN
am	NaN	NaN
Esse	NaN	NaN
…	NaN	NaN
er	NaN	NaN
müess	NaN	NaN
aügeblicklig	NaN	NaN
wieder	NaN	NaN
furt	NaN	NaN
…	NaN	NaN
mr	NaN	NaN
hàn	NaN	NaN
in	NaN	NaN
dem	NaN	NaN
Moment	NaN	NaN
pressante	NaN	NaN
G'schàfte	NaN	NaN
z'	NaN	NaN
b'sorge	NaN	NaN
…	NaN	NaN
nur	NaN	NaN
fir	NaN	NaN
sich	NaN	NaN
z'	NaN	NaN
verlowe	NaN	NaN
wàr	NaN	NaN
dr	NaN	NaN
Grund	NaN	NaN
wichtig	NaN	NaN
g'nüe	NaN	NaN
gsi	NaN	NaN
,	NaN	NaN
fir	NaN	NaN
sich	NaN	NaN
e	NaN	NaN
paar	NaN	NaN
Stund	NaN	NaN
ufz'halte	NaN	NaN
,	NaN	NaN
anderscht	NaN	NaN
nitt	NaN	NaN
…	NaN	NaN
un	NaN	NaN
derno	NaN	NaN
wird	NaN	NaN
er	NaN	NaN
wohrschinlig	NaN	NaN
o	NaN	NaN
gar	NaN	NaN
nitt	NaN	NaN
dra	NaN	NaN
halte	NaN	NaN
doz'bliwe	NaN	NaN
wenn	NaN	NaN
er	NaN	NaN
weisst	NaN	NaN
,	NaN	NaN
ass	NaN	NaN
Dü	NaN	NaN
ne	NaN	NaN
abg'schifelt	NaN	NaN
hasch	NaN	NaN
.	NaN	NaN
Isch	NaN	NaN
jetz	NaN	NaN
das	NaN	NaN
e	NaN	NaN
Fatalität	NaN	NaN
!	NaN	NaN
…	NaN	NaN
jetz	NaN	NaN
ha	NaN	NaN
-n-	NaN	NaN
i	NaN	NaN
dr	NaN	NaN
Herr	NaN	NaN
Ledig	NaN	NaN
lo	NaN	NaN
z'	NaN	NaN
ruckriefe	NaN	NaN
un	NaN	NaN
jetz	NaN	NaN
soll	NaN	NaN
dà	NaN	NaN
Herr	NaN	NaN
Krach	NaN	NaN
wieder	NaN	NaN
furt	NaN	NaN
…	NaN	NaN
was	NaN	NaN
isch	NaN	NaN
jetz	NaN	NaN
z'	NaN	NaN
mache	NaN	NaN
?	NaN	NaN
…	NaN	NaN
Was	NaN	NaN
isch	NaN	NaN
…	NaN	NaN
hasch	NaN	NaN
Di	NaN	NaN
ferig	NaN	NaN
b'sunne	NaN	NaN
?	NaN	NaN
…	NaN	NaN
Nunde	NaN	NaN
…	NaN	NaN
Buckel	NaN	NaN
noch	NaN	NaN
emol	NaN	NaN
!	NaN	NaN
…	NaN	NaN
So	NaN	NaN
loss	NaN	NaN
ne	NaN	NaN
doch	NaN	NaN
nur	NaN	NaN
z'	NaN	NaN
Nacht	NaN	NaN
esse	NaN	NaN
do	NaN	NaN
…	NaN	NaN
mr	NaN	NaN
känne	NaN	NaN
jo	NaN	NaN
derno	NaN	NaN
noch	NaN	NaN
allewil	NaN	NaN
dervo	NaN	NaN
rede	NaN	NaN
…	NaN	NaN
's	NaN	NaN
ka	NaN	NaN
nitt	NaN	NaN
si	NaN	NaN
…	NaN	NaN
d'	NaN	NaN
G'schàfte	NaN	NaN
sin	NaN	NaN
d'	NaN	NaN
G'schàfte	NaN	NaN
…	NaN	NaN
mr	NaN	NaN
hàn	NaN	NaN
nur	NaN	NaN
welle	NaN	NaN
g'schwind	NaN	NaN
im	NaN	NaN
durereise	NaN	NaN
profetiere	NaN	NaN
,	NaN	NaN
fir	NaN	NaN
eüch	NaN	NaN
z'	NaN	NaN
verlowe	NaN	NaN
…	NaN	NaN
wenn	NaN	NaN
's	NaN	NaN
nitt	NaN	NaN
ka	NaN	NaN
si	NaN	NaN
,	NaN	NaN
so	NaN	NaN
fahrt	NaN	NaN
er	NaN	NaN
gli	NaN	NaN
wieder	NaN	NaN
ab	NaN	NaN
…	NaN	NaN
's	NaN	NaN
isch	NaN	NaN
wieder	NaN	NaN
eso	NaN	NaN
viel	NaN	NaN
Zit	NaN	NaN
g'wunne	NaN	NaN
!	NaN	NaN
…	NaN	NaN
ich	NaN	NaN
hingege	NaN	NaN
ka	NaN	NaN
noch	NaN	NaN
dobliwe	NaN	NaN
hit	NaN	NaN
z'	NaN	NaN
Owe	NaN	NaN
.	NaN	NaN
Was	NaN	NaN
mache	NaN	NaN
!	NaN	NaN
…	NaN	NaN
was	NaN	NaN
mache	NaN	NaN
!	NaN	NaN
…	NaN	NaN
ma	NaN	NaN
foi	NaN	NaN
,	NaN	NaN
ich	NaN	NaN
sag	NaN	NaN
,	NaN	NaN
er	NaN	NaN
soll	NaN	NaN
dobliwe	NaN	NaN
…	NaN	NaN
das	NaN	NaN
engagiert	NaN	NaN
mich	NaN	NaN
jo	NaN	NaN
nitt	NaN	NaN
gross	NaN	NaN
…	NaN	NaN
ich	NaN	NaN
ka	NaN	NaN
jo	NaN	NaN
allewil	NaN	NaN
wieder	NaN	NaN
z'	NaN	NaN
ruck	NaN	NaN
…	NaN	NaN
eh	NaN	NaN
bien	NaN	NaN
…	NaN	NaN
Eh	NaN	NaN
bien	NaN	NaN
…	NaN	NaN
Eh	NaN	NaN
bien	NaN	NaN
…	NaN	NaN
er	NaN	NaN
soll	NaN	NaN
dobliwe	NaN	NaN
!	NaN	NaN
A	NaN	NaN
la	NaN	NaN
bonne	NaN	NaN
heure	NaN	NaN
!	NaN	NaN
…	NaN	NaN
ich	NaN	NaN
will	NaN	NaN
ne	NaN	NaN
gli	NaN	NaN
geh	NaN	NaN
ufsüech	NaN	NaN
fir	NaN	NaN
's	NaN	NaN
em	NaN	NaN
z'	NaN	NaN
sage	NaN	NaN
,	NaN	NaN
Nundebuckel	NaN	NaN
noch	NaN	NaN
emol	NaN	NaN
.	NaN	NaN
Wenn	NaN	NaN
er	NaN	NaN
nur	NaN	NaN
doblibt	NaN	NaN
,	NaN	NaN
ass	NaN	NaN
mr	NaN	NaN
nitt	NaN	NaN
drizehne	NaN	NaN
sin	NaN	NaN
am	NaN	NaN
Tisch	NaN	NaN
,	NaN	NaN
das	NaN	NaN
isch	NaN	NaN
d'	NaN	NaN
Haüptsach	NaN	NaN
…	NaN	NaN
ich	NaN	NaN
will	NaN	NaN
ne	NaN	NaN
nochher	NaN	NaN
scho	NaN	NaN
abspediere	NaN	NaN
…	NaN	NaN
isch	NaN	NaN
das	NaN	NaN
e	NaN	NaN
schreckliger	NaN	NaN
Mensch	NaN	NaN
dà	NaN	NaN
Oncle	NaN	NaN
!	NaN	NaN
…	NaN	NaN
wenn	NaN	NaN
er	NaN	NaN
ebbes	NaN	NaN
im	NaN	NaN
Schild	NaN	NaN
fiehrt	NaN	NaN
,	NaN	NaN
so	NaN	NaN
müess	NaN	NaN
es	NaN	NaN
uf	NaN	NaN
dr	NaN	NaN
Stell	NaN	NaN
dure	NaN	NaN
g'fiehrt	NaN	NaN
si	NaN	NaN
…	NaN	NaN
ich	NaN	NaN
ka	NaN	NaN
halt	NaN	NaN
jetz	NaN	NaN
dr	NaN	NaN
Herr	NaN	NaN
Ledig	NaN	NaN
nitt	NaN	NaN
als	NaN	NaN
mi	NaN	NaN
Züekünftiger	NaN	NaN
proklamiere	NaN	NaN
hit	NaN	NaN
z'	NaN	NaN
Owe	NaN	NaN
…	NaN	NaN
's	NaN	NaN
isch	NaN	NaN
fir	NaN	NaN
e	NaN	NaN
-n-	NaN	NaN
anderer	NaN	NaN
Tag	NaN	NaN
…	NaN	NaN
doch	NaN	NaN
,	NaN	NaN
ich	NaN	NaN
will	NaN	NaN
jetz	NaN	NaN
geh	NaN	NaN
lüege	NaN	NaN
,	NaN	NaN
eb	NaN	NaN
alles	NaN	NaN
in	NaN	NaN
Ordnung	NaN	NaN
isch	NaN	NaN
…	NaN	NaN
's	NaN	NaN
wird	NaN	NaN
bol	NaN	NaN
Zit	NaN	NaN
si	NaN	NaN
an	NaN	NaN
dr	NaN	NaN
Tisch	NaN	NaN
z'	NaN	NaN
geh	NaN	NaN
…	NaN	NaN
Was	NaN	NaN
soll	NaN	NaN
eigentiig	NaN	NaN
das	NaN	NaN
bedite	NaN	NaN
,	NaN	NaN
Madame	NaN	NaN
Frisch	NaN	NaN
?	NaN	NaN
…	NaN	NaN
vor	NaN	NaN
ere	NaN	NaN
halb	NaN	NaN
Stund	NaN	NaN
schickt	NaN	NaN
Se	NaN	NaN
mich	NaN	NaN
furt	NaN	NaN
…	NaN	NaN
derno	NaN	NaN
losst	NaN	NaN
Se	NaN	NaN
mich	NaN	NaN
wieder	NaN	NaN
z'	NaN	NaN
ruckriefe	NaN	NaN
…	NaN	NaN
un	NaN	NaN
jetz	NaN	NaN
,	NaN	NaN
wo	NaN	NaN
-n-	NaN	NaN
i	NaN	NaN
z'	NaN	NaN
ruckkumm	NaN	NaN
,	NaN	NaN
so	NaN	NaN
hör	NaN	NaN
i	NaN	NaN
dunte	NaN	NaN
im	NaN	NaN
duregeh	NaN	NaN
,	NaN	NaN
ass	NaN	NaN
dr	NaN	NaN
ältste	NaN	NaN
vo	NaN	NaN
dàne	NaN	NaN
Herre	NaN	NaN
,	NaN	NaN
wo	NaN	NaN
-n-	NaN	NaN
i	NaN	NaN
atroffe	NaN	NaN
ha	NaN	NaN
im	NaN	NaN
furtgeh	NaN	NaN
,	NaN	NaN
züem	NaN	NaN
andre	NaN	NaN
sàit	NaN	NaN
:	NaN	NaN
«	NaN	NaN
Ihre	NaN	NaN
Hiroth	NaN	NaN
isch	NaN	NaN
so	NaN	NaN
viel	NaN	NaN
as	NaN	NaN
arrangiert	NaN	NaN
…	NaN	NaN
d'	NaN	NaN
Madame	NaN	NaN
Frisch	NaN	NaN
willigt	NaN	NaN
i...	NaN	NaN
Sie	NaN	NaN
bliwe	NaN	NaN
-n-	NaN	NaN
also	NaN	NaN
do	NaN	NaN
züem	NaN	NaN
Nachtesse	NaN	NaN
»	NaN	NaN
…	NaN	NaN
ich	NaN	NaN
kumm	NaN	NaN
nimmig	NaN	NaN
üs	NaN	NaN
dàre	NaN	NaN
G'schichte	NaN	NaN
!	NaN	NaN
…	NaN	NaN
uf	NaN	NaN
jedefall	NaN	NaN
,	NaN	NaN
wenn	NaN	NaN
's	NaN	NaN
eso	NaN	NaN
isch	NaN	NaN
,	NaN	NaN
so	NaN	NaN
gang	NaN	NaN
ich	NaN	NaN
furt	NaN	NaN
,	NaN	NaN
wenn	NaN	NaN
er	NaN	NaN
doblibt	NaN	NaN
!	NaN	NaN
…	NaN	NaN
Güet	NaN	NaN
…	NaN	NaN
jetz	NaN	NaN
will	NaN	NaN
dà	NaN	NaN
wieder	NaN	NaN
furt	NaN	NaN
…	NaN	NaN
mr	NaN	NaN
kämme	NaN	NaN
nitt	NaN	NaN
üs	NaN	NaN
dàre	NaN	NaN
Unglickszahl	NaN	NaN
üse	NaN	NaN
…	NaN	NaN
Herr	NaN	NaN
Ledig	NaN	NaN
,	NaN	NaN
zürne	NaN	NaN
Se	NaN	NaN
nitt	NaN	NaN
un	NaN	NaN
bliwe	NaN	NaN
Se	NaN	NaN
do	NaN	NaN
…	NaN	NaN
's	NaN	NaN
isch	NaN	NaN
g'wiss	NaN	NaN
alles	NaN	NaN
nur	NaN	NaN
züe	NaN	NaN
Ihrem	NaN	NaN
Beste	NaN	NaN
…	NaN	NaN
Ha	NaN	NaN
ha	NaN	NaN
ha	NaN	NaN
…	NaN	NaN
züe	NaN	NaN
mim	NaN	NaN
Beste	NaN	NaN
!	NaN	NaN
…	NaN	NaN
Ich	NaN	NaN
garantier	NaN	NaN
awer	NaN	NaN
derfir	NaN	NaN
,	NaN	NaN
ass	NaN	NaN
er	NaN	NaN
geht	NaN	NaN
…	NaN	NaN
ich	NaN	NaN
will	NaN	NaN
emol	NaN	NaN
sàh	NaN	NaN
,	NaN	NaN
eb	NaN	NaN
er	NaN	NaN
nitt	NaN	NaN
abmarschiert	NaN	NaN
!	NaN	NaN
.	NaN	NaN
Herr	NaN	NaN
Ledig	NaN	NaN
thien	NaN	NaN
Se	NaN	NaN
nur	NaN	NaN
das	NaN	NaN
nitt	NaN	NaN
!	NaN	NaN
…	NaN	NaN
was	NaN	NaN
isch	NaN	NaN
z'	NaN	NaN
mache	NaN	NaN
?	NaN	NaN
…	NaN	NaN
was	NaN	NaN
soll	NaN	NaN
i	NaN	NaN
afange	NaN	NaN
?	NaN	NaN
…	NaN	NaN
ich	NaN	NaN
ka	NaN	NaN
-n-	NaN	NaN
em	NaN	NaN
doch	NaN	NaN
d'	NaN	NaN
Ursach	NaN	NaN
nitt	NaN	NaN
sage	NaN	NaN
…	NaN	NaN
's	NaN	NaN
wàr	NaN	NaN
làcherlig	NaN	NaN
!	NaN	NaN
…	NaN	NaN
glaüwe	NaN	NaN
Se	NaN	NaN
mir	NaN	NaN
…	NaN	NaN
's	NaN	NaN
wird	NaN	NaN
sich	NaN	NaN
noch	NaN	NaN
alles	NaN	NaN
arrangiere	NaN	NaN
…	NaN	NaN
dà	NaN	NaN
Herr	NaN	NaN
trumpiert	NaN	NaN
sich	NaN	NaN
,	NaN	NaN
wenn	NaN	NaN
er	NaN	NaN
maint	NaN	NaN
,	NaN	NaN
ich	NaN	NaN
will	NaN	NaN
ne	NaN	NaN
hirothe	NaN	NaN
.	NaN	NaN
Ich	NaN	NaN
ha	NaN	NaN
ihn	NaN	NaN
jo	NaN	NaN
noch	NaN	NaN
gar	NaN	NaN
nie	NaN	NaN
g'sàh	NaN	NaN
,	NaN	NaN
Wie	NaN	NaN
will	NaN	NaN
ich	NaN	NaN
ihm	NaN	NaN
mi	NaN	NaN
Hand	NaN	NaN
denn	NaN	NaN
gà	NaN	NaN
,	NaN	NaN
Das	NaN	NaN
ka	NaN	NaN
jo	NaN	NaN
ganz	NaN	NaN
un	NaN	NaN
gar	NaN	NaN
nitt	NaN	NaN
si	NaN	NaN
!	NaN	NaN
Mir	NaN	NaN
hàn	NaN	NaN
uns	NaN	NaN
jo	NaN	NaN
längst	NaN	NaN
Treüe	NaN	NaN
g'schwore	NaN	NaN
Un	NaN	NaN
hàn	NaN	NaN
se	NaN	NaN
g'halte	NaN	NaN
bis	NaN	NaN
dohi	NaN	NaN
,	NaN	NaN
Ich	NaN	NaN
ha	NaN	NaN
ihn	NaN	NaN
jo	NaN	NaN
noch	NaN	NaN
gar	NaN	NaN
nie	NaN	NaN
g'sàh	NaN	NaN
,	NaN	NaN
Wie	NaN	NaN
will	NaN	NaN
ich	NaN	NaN
ihm	NaN	NaN
mi	NaN	NaN
Hand	NaN	NaN
denn	NaN	NaN
gà	NaN	NaN
,	NaN	NaN
Das	NaN	NaN
ka	NaN	NaN
jo	NaN	NaN
ganz	NaN	NaN
un	NaN	NaN
gar	NaN	NaN
nitt	NaN	NaN
si	NaN	NaN
Mir	NaN	NaN
hàn	NaN	NaN
jo	NaN	NaN
g'schwore	NaN	NaN
,	NaN	NaN
Ass	NaN	NaN
mir	NaN	NaN
uns	NaN	NaN
immer	NaN	NaN
wànn	NaN	NaN
versteh	NaN	NaN
,	NaN	NaN
In	NaN	NaN
keine	NaN	NaN
G'fohre	NaN	NaN
Soll	NaN	NaN
unser	NaN	NaN
Schwur	NaN	NaN
nie	NaN	NaN
untergeh	NaN	NaN
!	NaN	NaN
Allons	NaN	NaN
,	NaN	NaN
Herr	NaN	NaN
Ledig	NaN	NaN
,	NaN	NaN
kàmme	NaN	NaN
Se	NaN	NaN
,	NaN	NaN
mr	NaN	NaN
wànn	NaN	NaN
geh	NaN	NaN
lüege	NaN	NaN
,	NaN	NaN
eb	NaN	NaN
dr	NaN	NaN
Tisch	NaN	NaN
g'ristet	NaN	NaN
isch	NaN	NaN
Was	NaN	NaN
me	NaN	NaN
doch	NaN	NaN
im	NaN	NaN
e	NaN	NaN
Hüs	NaN	NaN
alles	NaN	NaN
erfahre	NaN	NaN
ka	NaN	NaN
in	NaN	NaN
ere	NaN	NaN
kurze	NaN	NaN
Zit	NaN	NaN
,	NaN	NaN
we	NaN	NaN
me	NaN	NaN
drin	NaN	NaN
d'	NaN	NaN
Chance	NaN	NaN
hat	NaN	NaN
wie	NaN	NaN
ich	NaN	NaN
,	NaN	NaN
e	NaN	NaN
-n-	NaN	NaN
alte	NaN	NaN
Liebschaft	NaN	NaN
wieder	NaN	NaN
az'knüpfe	NaN	NaN
vo	NaN	NaN
frieih're	NaN	NaN
Zite	NaN	NaN
!	NaN	NaN
…	NaN	NaN
Triff	NaN	NaN
ich	NaN	NaN
jetz	NaN	NaN
do	NaN	NaN
nitt	NaN	NaN
züefàllig	NaN	NaN
's	NaN	NaN
Trinele	NaN	NaN
a	NaN	NaN
,	NaN	NaN
wo	NaN	NaN
-n-	NaN	NaN
ich	NaN	NaN
als	NaN	NaN
eso	NaN	NaN
gern	NaN	NaN
g'sàh	NaN	NaN
ha	NaN	NaN
frieiher	NaN	NaN
un	NaN	NaN
erfahr	NaN	NaN
,	NaN	NaN
ass	NaN	NaN
es	NaN	NaN
d'	NaN	NaN
Schwester	NaN	NaN
isch	NaN	NaN
vo	NaN	NaN
dr	NaN	NaN
Madame	NaN	NaN
Frisch	NaN	NaN
…	NaN	NaN
's	NaN	NaN
isch	NaN	NaN
noch	NaN	NaN
allewil	NaN	NaN
schön	NaN	NaN
,	NaN	NaN
's	NaN	NaN
Trinele	NaN	NaN
!	NaN	NaN
…	NaN	NaN
un	NaN	NaN
ich	NaN	NaN
ha	NaN	NaN
's	NaN	NaN
décidément	NaN	NaN
noch	NaN	NaN
allewil	NaN	NaN
gern	NaN	NaN
,	NaN	NaN
un	NaN	NaN
es	NaN	NaN
glaüb	NaN	NaN
mich	NaN	NaN
…	NaN	NaN
natirlig	NaN	NaN
ha	NaN	NaN
-n-	NaN	NaN
ich	NaN	NaN
's	NaN	NaN
derno	NaN	NaN
glich	NaN	NaN
alles	NaN	NaN
üsg'frogt	NaN	NaN
iwer	NaN	NaN
d'	NaN	NaN
Madame	NaN	NaN
Frisch	NaN	NaN
un	NaN	NaN
do	NaN	NaN
ha	NaN	NaN
-n-	NaN	NaN
ich	NaN	NaN
sunderbare	NaN	NaN
Sache	NaN	NaN
-n-	NaN	NaN
erfahre	NaN	NaN
…	NaN	NaN
Schint	NaN	NaN
's	NaN	NaN
hat	NaN	NaN
se	NaN	NaN
sich	NaN	NaN
welle	NaN	NaN
verlowe	NaN	NaN
hit	NaN	NaN
am	NaN	NaN
Nachtesse	NaN	NaN
mit	NaN	NaN
ihrem	NaN	NaN
Liebhawer	NaN	NaN
,	NaN	NaN
hat	NaN	NaN
ne	NaN	NaN
awer	NaN	NaN
abdankt	NaN	NaN
grad	NaN	NaN
vor	NaN	NaN
ebb	NaN	NaN
mr	NaN	NaN
aku	NaN	NaN
sin	NaN	NaN
,	NaN	NaN
denn	NaN	NaN
me	NaN	NaN
hat	NaN	NaN
ne	NaN	NaN
g'sàh	NaN	NaN
,	NaN	NaN
un	NaN	NaN
mir	NaN	NaN
eigentlig	NaN	NaN
o	NaN	NaN
,	NaN	NaN
zornig	NaN	NaN
furtrenne	NaN	NaN
…	NaN	NaN
küm	NaN	NaN
si	NaN	NaN
mr	NaN	NaN
do	NaN	NaN
gsi	NaN	NaN
,	NaN	NaN
so	NaN	NaN
hat	NaN	NaN
se	NaN	NaN
ne	NaN	NaN
wieder	NaN	NaN
lo	NaN	NaN
z'	NaN	NaN
ruckriefe	NaN	NaN
un	NaN	NaN
jetz	NaN	NaN
,	NaN	NaN
wo	NaN	NaN
-n-	NaN	NaN
er	NaN	NaN
doch	NaN	NaN
do	NaN	NaN
isch	NaN	NaN
,	NaN	NaN
so	NaN	NaN
thüet	NaN	NaN
se	NaN	NaN
mir	NaN	NaN
wieder	NaN	NaN
Hoffnung	NaN	NaN
mache	NaN	NaN
…	NaN	NaN
do	NaN	NaN
isch	NaN	NaN
ebbes	NaN	NaN
nitt	NaN	NaN
recht	NaN	NaN
oder	NaN	NaN
das	NaN	NaN
müess	NaN	NaN
e	NaN	NaN
capriziose	NaN	NaN
Dame	NaN	NaN
si	NaN	NaN
…	NaN	NaN
décidément	NaN	NaN
ich	NaN	NaN
hiroth	NaN	NaN
glaüb	NaN	NaN
liewer	NaN	NaN
's	NaN	NaN
Trinele	NaN	NaN
…	NaN	NaN
's	NaN	NaN
hat	NaN	NaN
mr	NaN	NaN
o	NaN	NaN
g'sàit	NaN	NaN
,	NaN	NaN
ass	NaN	NaN
d'	NaN	NaN
Madame	NaN	NaN
Frisch	NaN	NaN
famos	NaN	NaN
awerglaüwisch	NaN	NaN
isch	NaN	NaN
…	NaN	NaN
se	NaN	NaN
thàt	NaN	NaN
unter	NaN	NaN
anderm	NaN	NaN
fest	NaN	NaN
behaüpte	NaN	NaN
,	NaN	NaN
ass	NaN	NaN
ihre	NaN	NaN
erste	NaN	NaN
Mann	NaN	NaN
g'storwe	NaN	NaN
-n-	NaN	NaN
isch	NaN	NaN
,	NaN	NaN
wil	NaN	NaN
se	NaN	NaN
-n-	NaN	NaN
emol	NaN	NaN
drizehne	NaN	NaN
am	NaN	NaN
Tisch	NaN	NaN
g'sesse	NaN	NaN
sin	NaN	NaN
…	NaN	NaN
halt	NaN	NaN
!	NaN	NaN
…	NaN	NaN
e	NaN	NaN
-n-	NaN	NaN
Idee	NaN	NaN
!	NaN	NaN
…	NaN	NaN
isch	NaN	NaN
's	NaN	NaN
ebbe	NaN	NaN
jetz	NaN	NaN
wieder	NaN	NaN
dr	NaN	NaN
Fall	NaN	NaN
un	NaN	NaN
macht	NaN	NaN
se	NaN	NaN
die	NaN	NaN
Manöver	NaN	NaN
,	NaN	NaN
fir	NaN	NaN
's	NaN	NaN
z'	NaN	NaN
verhiete	NaN	NaN
?	NaN	NaN
…	NaN	NaN
Voyons	NaN	NaN
,	NaN	NaN
mr	NaN	NaN
wànn	NaN	NaN
emol	NaN	NaN
zàhle	NaN	NaN
,	NaN	NaN
wie	NaN	NaN
viel	NaN	NaN
as	NaN	NaN
ig'lade	NaN	NaN
sin	NaN	NaN
dert	NaN	NaN
sin	NaN	NaN
se	NaN	NaN
schön	NaN	NaN
alle	NaN	NaN
binander	NaN	NaN
im	NaN	NaN
Garte	NaN	NaN
…	NaN	NaN
zwei	NaN	NaN
,	NaN	NaN
viere	NaN	NaN
,	NaN	NaN
die	NaN	NaN
drei	NaN	NaN
dert	NaN	NaN
uf	NaN	NaN
em	NaN	NaN
Bank	NaN	NaN
sin	NaN	NaN
siwene	NaN	NaN
,	NaN	NaN
dà	NaN	NaN
dicke	NaN	NaN
Herr	NaN	NaN
dert	NaN	NaN
unterm	NaN	NaN
Baüm	NaN	NaN
sin	NaN	NaN
achte	NaN	NaN
…	NaN	NaN
dert	NaN	NaN
e	NaN	NaN
Herr	NaN	NaN
un	NaN	NaN
e	NaN	NaN
Dame	NaN	NaN
,	NaN	NaN
wo	NaN	NaN
spaziere	NaN	NaN
gehn	NaN	NaN
,	NaN	NaN
sin	NaN	NaN
zehne	NaN	NaN
…	NaN	NaN
sie	NaN	NaN
un	NaN	NaN
ihr	NaN	NaN
Liebhawer	NaN	NaN
sin	NaN	NaN
zwölfe	NaN	NaN
,	NaN	NaN
ihre	NaN	NaN
-n-	NaN	NaN
Oncle	NaN	NaN
un	NaN	NaN
ich	NaN	NaN
sin	NaN	NaN
vierzehne	NaN	NaN
…	NaN	NaN
's	NaN	NaN
isch	NaN	NaN
ganz	NaN	NaN
das	NaN	NaN
…	NaN	NaN
also	NaN	NaN
vor	NaN	NaN
ebb	NaN	NaN
mir	NaN	NaN
aku	NaN	NaN
sin	NaN	NaN
,	NaN	NaN
sin	NaN	NaN
's	NaN	NaN
zwölfe	NaN	NaN
gsi	NaN	NaN
…	NaN	NaN
wo	NaN	NaN
se	NaN	NaN
g'hört	NaN	NaN
hat	NaN	NaN
,	NaN	NaN
ass	NaN	NaN
dr	NaN	NaN
Oncle	NaN	NaN
kunnt	NaN	NaN
,	NaN	NaN
denn	NaN	NaN
vo	NaN	NaN
mir	NaN	NaN
isch	NaN	NaN
kei	NaN	NaN
Red	NaN	NaN
gsi	NaN	NaN
uf	NaN	NaN
dr	NaN	NaN
Postkarte	NaN	NaN
,	NaN	NaN
so	NaN	NaN
hat	NaN	NaN
se	NaN	NaN
nit	NaN	NaN
bessers	NaN	NaN
wisse	NaN	NaN
z'	NaN	NaN
mache	NaN	NaN
,	NaN	NaN
as	NaN	NaN
ihre	NaN	NaN
Liebhawer	NaN	NaN
e	NaN	NaN
wenig	NaN	NaN
z'	NaN	NaN
misshandle	NaN	NaN
,	NaN	NaN
ass	NaN	NaN
er	NaN	NaN
blàit	NaN	NaN
hat	NaN	NaN
un	NaN	NaN
nitt	NaN	NaN
hat	NaN	NaN
welle	NaN	NaN
z'	NaN	NaN
Nacht	NaN	NaN
esse	NaN	NaN
…	NaN	NaN
ebber	NaN	NaN
anders	NaN	NaN
hatt	NaN	NaN
se	NaN	NaN
natirlig	NaN	NaN
nitt	NaN	NaN
känne	NaN	NaN
furtschicke	NaN	NaN
…	NaN	NaN
derno	NaN	NaN
sin	NaN	NaN
's	NaN	NaN
wieder	NaN	NaN
zwölfe	NaN	NaN
gsi	NaN	NaN
…	NaN	NaN
wo	NaN	NaN
awer	NaN	NaN
dr	NaN	NaN
Oncle	NaN	NaN
mich	NaN	NaN
presentiert	NaN	NaN
hat	NaN	NaN
,	NaN	NaN
so	NaN	NaN
hat	NaN	NaN
se	NaN	NaN
dr	NaN	NaN
Andre	NaN	NaN
gli	NaN	NaN
wieder	NaN	NaN
lo	NaN	NaN
hole	NaN	NaN
,	NaN	NaN
fir	NaN	NaN
ass	NaN	NaN
mr	NaN	NaN
vierzehne	NaN	NaN
sin	NaN	NaN
un	NaN	NaN
jetz	NaN	NaN
hat	NaN	NaN
se	NaN	NaN
im	NaN	NaN
Oncle	NaN	NaN
wohrschinlig	NaN	NaN
nur	NaN	NaN
g'sàit	NaN	NaN
,	NaN	NaN
ich	NaN	NaN
soll	NaN	NaN
dobliwe	NaN	NaN
,	NaN	NaN
fir	NaN	NaN
ass	NaN	NaN
se	NaN	NaN
nitt	NaN	NaN
wieder	NaN	NaN
drizehne	NaN	NaN
sin	NaN	NaN
…	NaN	NaN
ich	NaN	NaN
sieh	NaN	NaN
scho	NaN	NaN
,	NaN	NaN
ich	NaN	NaN
hiroth	NaN	NaN
liewer	NaN	NaN
's	NaN	NaN
Trinele	NaN	NaN
…	NaN	NaN
's	NaN	NaN
isch	NaN	NaN
besser	NaN	NaN
…	NaN	NaN
awer	NaN	NaN
possig	NaN	NaN
isch	NaN	NaN
's	NaN	NaN
doch	NaN	NaN
,	NaN	NaN
das	NaN	NaN
müess	NaN	NaN
me	NaN	NaN
g'steh	NaN	NaN
!	NaN	NaN
…	NaN	NaN
doch	NaN	NaN
still	NaN	NaN
,	NaN	NaN
's	NaN	NaN
kunnt	NaN	NaN
ebber	NaN	NaN
…	NaN	NaN
's	NaN	NaN
thàt	NaN	NaN
mich	NaN	NaN
Wunder	NaN	NaN
nàh	NaN	NaN
,	NaN	NaN
wenn	NaN	NaN
's	NaN	NaN
nitt	NaN	NaN
dr	NaN	NaN
Liebhawer	NaN	NaN
wàr	NaN	NaN
vo	NaN	NaN
dr	NaN	NaN
Madame	NaN	NaN
Frisch	NaN	NaN
,	NaN	NaN
wo	NaN	NaN
mir	NaN	NaN
kunnt	NaN	NaN
ku	NaN	NaN
Hàndel	NaN	NaN
süeche	NaN	NaN
!	NaN	NaN
Aha	NaN	NaN
,	NaN	NaN
do	NaN	NaN
isch	NaN	NaN
er	NaN	NaN
jo	NaN	NaN
!	NaN	NaN
…	NaN	NaN
ich	NaN	NaN
ha	NaN	NaN
-n-	NaN	NaN
en	NaN	NaN
lang	NaN	NaN
genüe	NaN	NaN
g'süecht	NaN	NaN
!	NaN	NaN
…	NaN	NaN
Sie	NaN	NaN
süeche	NaN	NaN
g'wiss	NaN	NaN
d'	NaN	NaN
Madame	NaN	NaN
Frisch	NaN	NaN
?	NaN	NaN
…	NaN	NaN
awer	NaN	NaN
Sie	NaN	NaN
verliere	NaN	NaN
-n-	NaN	NaN
Ihre	NaN	NaN
Zit	NaN	NaN
…	NaN	NaN
se	NaN	NaN
-n-	NaN	NaN
isch	NaN	NaN
nitt	NaN	NaN
do	NaN	NaN
…	NaN	NaN
un	NaN	NaN
iwerhaüpt	NaN	NaN
thàte	NaN	NaN
Sie	NaN	NaN
mr	NaN	NaN
Freid	NaN	NaN
mache	NaN	NaN
,	NaN	NaN
wenn	NaN	NaN
Sie	NaN	NaN
ihre	NaN	NaN
nimmig	NaN	NaN
wotte	NaN	NaN
nogeh	NaN	NaN
…	NaN	NaN
un	NaN	NaN
noch	NaN	NaN
viel	NaN	NaN
besser	NaN	NaN
wàr	NaN	NaN
's	NaN	NaN
,	NaN	NaN
wenn	NaN	NaN
Sie	NaN	NaN
uf	NaN	NaN
dr	NaN	NaN
Stell	NaN	NaN
das	NaN	NaN
Hüs	NaN	NaN
thàte	NaN	NaN
verlo	NaN	NaN
!	NaN	NaN
Z'	NaN	NaN
erst	NaN	NaN
müess	NaN	NaN
ich	NaN	NaN
Ihne	NaN	NaN
sage	NaN	NaN
,	NaN	NaN
ass	NaN	NaN
Sie	NaN	NaN
mir	NaN	NaN
do	NaN	NaN
keine	NaN	NaN
Ordre	NaN	NaN
z'	NaN	NaN
gà	NaN	NaN
hàn	NaN	NaN
…	NaN	NaN
un	NaN	NaN
züedem	NaN	NaN
,	NaN	NaN
wenn	NaN	NaN
ich	NaN	NaN
jetz	NaN	NaN
üs	NaN	NaN
dam	NaN	NaN
Hüs	NaN	NaN
gieng	NaN	NaN
,	NaN	NaN
so	NaN	NaN
miesste	NaN	NaN
Sie	NaN	NaN
o	NaN	NaN
drüs	NaN	NaN
…	NaN	NaN
drum	NaN	NaN
känne	NaN	NaN
Sie	NaN	NaN
froh	NaN	NaN
si	NaN	NaN
,	NaN	NaN
as	NaN	NaN
ich	NaN	NaN
nur	NaN	NaN
doblib	NaN	NaN
!	NaN	NaN
…	NaN	NaN
Wie	NaN	NaN
meine	NaN	NaN
Sie	NaN	NaN
das	NaN	NaN
?	NaN	NaN
…	NaN	NaN
Wà	NaN	NaN
mr	NaN	NaN
's	NaN	NaN
druf	NaN	NaN
aku	NaN	NaN
lo	NaN	NaN
?	NaN	NaN
…	NaN	NaN
Sie	NaN	NaN
werde	NaN	NaN
's	NaN	NaN
jetz	NaN	NaN
gli	NaN	NaN
sàh	NaN	NaN
!	NaN	NaN
Allons	NaN	NaN
,	NaN	NaN
allons	NaN	NaN
,	NaN	NaN
ihr	NaN	NaN
Herre	NaN	NaN
…	NaN	NaN
me	NaN	NaN
süecht	NaN	NaN
Se	NaN	NaN
,	NaN	NaN
fir	NaN	NaN
an	NaN	NaN
dr	NaN	NaN
Tisch	NaN	NaN
z'	NaN	NaN
geh	NaN	NaN
!	NaN	NaN
…	NaN	NaN
Verzeiht	NaN	NaN
Se	NaN	NaN
,	NaN	NaN
Madame	NaN	NaN
Frisch	NaN	NaN
…	NaN	NaN
unter	NaN	NaN
de	NaN	NaN
jetzige	NaN	NaN
Umstànde	NaN	NaN
un	NaN	NaN
in	NaN	NaN
dàre	NaN	NaN
Position	NaN	NaN
,	NaN	NaN
wo	NaN	NaN
-n-	NaN	NaN
ich	NaN	NaN
bi	NaN	NaN
,	NaN	NaN
ka	NaN	NaN
-n-	NaN	NaN
ich	NaN	NaN
unmöglig	NaN	NaN
bliwe	NaN	NaN
…	NaN	NaN
ich	NaN	NaN
müsss	NaN	NaN
also	NaN	NaN
…	NaN	NaN
Also	NaN	NaN
furt	NaN	NaN
wànn	NaN	NaN
Se	NaN	NaN
?	NaN	NaN
…	NaN	NaN
scho	NaN	NaN
wieder	NaN	NaN
drizehne	NaN	NaN
!	NaN	NaN
…	NaN	NaN
das	NaN	NaN
hàn	NaN	NaN
Sie	NaN	NaN
jetz	NaN	NaN
ag'stiftet	NaN	NaN
,	NaN	NaN
Herr	NaN	NaN
Ledig	NaN	NaN
!	NaN	NaN
…	NaN	NaN
tant	NaN	NaN
pis	NaN	NaN
fir	NaN	NaN
Sie	NaN	NaN
!	NaN	NaN
…	NaN	NaN
Ich	NaN	NaN
will	NaN	NaN
Sie	NaN	NaN
nitt	NaN	NaN
länger	NaN	NaN
ufhalte	NaN	NaN
…	NaN	NaN
wenn	NaN	NaN
Sie	NaN	NaN
denn	NaN	NaN
furt	NaN	NaN
wànn	NaN	NaN
,	NaN	NaN
so	NaN	NaN
gehn	NaN	NaN
Se	NaN	NaN
…	NaN	NaN
dr	NaN	NaN
Herr	NaN	NaN
Ledig	NaN	NaN
ka	NaN	NaN
Se	NaN	NaN
o	NaN	NaN
gli	NaN	NaN
begleite	NaN	NaN
,	NaN	NaN
wenn	NaN	NaN
er	NaN	NaN
will	NaN	NaN
!	NaN	NaN
…	NaN	NaN
Was	NaN	NaN
ha	NaN	NaN
-n-	NaN	NaN
ich	NaN	NaN
g'sàit	NaN	NaN
?	NaN	NaN
.	NaN	NaN
Ich	NaN	NaN
kumm	NaN	NaN
nitt	NaN	NaN
do	NaN	NaN
drüs	NaN	NaN
!	NaN	NaN
Sie	NaN	NaN
sin	NaN	NaN
mir	NaN	NaN
jetz	NaN	NaN
nitt	NaN	NaN
verleide	NaN	NaN
,	NaN	NaN
Doch	NaN	NaN
gehn	NaN	NaN
liewer	NaN	NaN
alle	NaN	NaN
beide	NaN	NaN
,	NaN	NaN
Thien	NaN	NaN
Sie	NaN	NaN
sich	NaN	NaN
nur	NaN	NaN
schön	NaN	NaN
begleite	NaN	NaN
,	NaN	NaN
Das	NaN	NaN
wird	NaN	NaN
's	NaN	NaN
allerbeste	NaN	NaN
si	NaN	NaN
;	NaN	NaN
Wànn	NaN	NaN
Sie	NaN	NaN
awer	NaN	NaN
sich	NaN	NaN
nitt	NaN	NaN
riwe	NaN	NaN
Un	NaN	NaN
wànn	NaN	NaN
beide	NaN	NaN
bi	NaN	NaN
mir	NaN	NaN
bliwe	NaN	NaN
,	NaN	NaN
Fir	NaN	NaN
mit	NaN	NaN
uns	NaN	NaN
do	NaN	NaN
d'	NaN	NaN
Zit	NaN	NaN
z'	NaN	NaN
vertriwe	NaN	NaN
,	NaN	NaN
Frei	NaN	NaN
ich	NaN	NaN
mich	NaN	NaN
druf	NaN	NaN
hi	NaN	NaN
.	NaN	NaN
Ich	NaN	NaN
bi	NaN	NaN
ihre	NaN	NaN
nitt	NaN	NaN
verleide	NaN	NaN
Un	NaN	NaN
doch	NaN	NaN
schickt	NaN	NaN
se	NaN	NaN
alle	NaN	NaN
beide	NaN	NaN
,	NaN	NaN
Se	NaN	NaN
sàit	NaN	NaN
,	NaN	NaN
ich	NaN	NaN
soll	NaN	NaN
ihn	NaN	NaN
begleite	NaN	NaN
,	NaN	NaN
Das	NaN	NaN
wird	NaN	NaN
's	NaN	NaN
allerbeste	NaN	NaN
si	NaN	NaN
;	NaN	NaN
Wànn	NaN	NaN
mir	NaN	NaN
awer	NaN	NaN
uns	NaN	NaN
nitt	NaN	NaN
riwe	NaN	NaN
Un	NaN	NaN
wànn	NaN	NaN
beide	NaN	NaN
bi	NaN	NaN
ihr'	NaN	NaN
bliwe	NaN	NaN
,	NaN	NaN
Fir	NaN	NaN
bi	NaN	NaN
ihre	NaN	NaN
d'	NaN	NaN
lit	NaN	NaN
z'	NaN	NaN
vertriwe	NaN	NaN
,	NaN	NaN
Freit	NaN	NaN
se	NaN	NaN
sich	NaN	NaN
druf	NaN	NaN
hi	NaN	NaN
.	NaN	NaN
Er	NaN	NaN
isch	NaN	NaN
ihre	NaN	NaN
nitt	NaN	NaN
verleide	NaN	NaN
Un	NaN	NaN
doch	NaN	NaN
müess	NaN	NaN
er	NaN	NaN
geh	NaN	NaN
;	NaN	NaN
Ich	NaN	NaN
ka	NaN	NaN
's	NaN	NaN
versteh	NaN	NaN
,	NaN	NaN
's	NaN	NaN
wird	NaN	NaN
's	NaN	NaN
beste	NaN	NaN
si	NaN	NaN
;	NaN	NaN
Nur	NaN	NaN
wenn	NaN	NaN
ich	NaN	NaN
do	NaN	NaN
will	NaN	NaN
bliwe	NaN	NaN
,	NaN	NaN
Wird	NaN	NaN
's	NaN	NaN
ihm	NaN	NaN
o	NaN	NaN
erlaübt	NaN	NaN
,	NaN	NaN
Nie	NaN	NaN
hätt	NaN	NaN
er	NaN	NaN
's	NaN	NaN
glaübt	NaN	NaN
Uf	NaN	NaN
mi	NaN	NaN
Wort	NaN	NaN
hi	NaN	NaN
.	NaN	NaN
Sin	NaN	NaN
die	NaN	NaN
Zwei	NaN	NaN
jetz	NaN	NaN
in	NaN	NaN
ere	NaN	NaN
Klemme	NaN	NaN
!	NaN	NaN
…	NaN	NaN
awer	NaN	NaN
ich	NaN	NaN
will	NaN	NaN
Mitleid	NaN	NaN
mit	NaN	NaN
ene	NaN	NaN
ha	NaN	NaN
…	NaN	NaN
Sie	NaN	NaN
hat	NaN	NaN
mich	NaN	NaN
nitt	NaN	NaN
ganz	NaN	NaN
güet	NaN	NaN
verstande	NaN	NaN
,	NaN	NaN
Madame	NaN	NaN
Frisch	NaN	NaN
…	NaN	NaN
ich	NaN	NaN
ha	NaN	NaN
nitt	NaN	NaN
g'sàit	NaN	NaN
,	NaN	NaN
ass	NaN	NaN
ich	NaN	NaN
furt	NaN	NaN
will	NaN	NaN
…	NaN	NaN
ich	NaN	NaN
wott	NaN	NaN
nur	NaN	NaN
in	NaN	NaN
andere	NaN	NaN
Cunditione	NaN	NaN
bliwe	NaN	NaN
…	NaN	NaN
wenn	NaN	NaN
Sie	NaN	NaN
mr	NaN	NaN
züem	NaN	NaN
Bispiel	NaN	NaN
d'	NaN	NaN
Hand	NaN	NaN
vom	NaN	NaN
Trinele	NaN	NaN
,	NaN	NaN
Ihre	NaN	NaN
jüngere	NaN	NaN
Schwester	NaN	NaN
,	NaN	NaN
wott	NaN	NaN
verspreche	NaN	NaN
,	NaN	NaN
..	NaN	NaN
Uf	NaN	NaN
eimol	NaN	NaN
,	NaN	NaN
eso	NaN	NaN
grad	NaN	NaN
ohne	NaN	NaN
witers	NaN	NaN
?	NaN	NaN
…	NaN	NaN
Verzeiht	NaN	NaN
Se	NaN	NaN
…	NaN	NaN
ich	NaN	NaN
ha	NaN	NaN
's	NaN	NaN
scho	NaN	NaN
lang	NaN	NaN
gern	NaN	NaN
…	NaN	NaN
mr	NaN	NaN
hàn	NaN	NaN
is	NaN	NaN
frieiher	NaN	NaN
scho	NaN	NaN
gern	NaN	NaN
g'sàh	NaN	NaN
,	NaN	NaN
sin	NaN	NaN
awer	NaN	NaN
derno	NaN	NaN
vonander	NaN	NaN
ku	NaN	NaN
,	NaN	NaN
wo	NaN	NaN
-n-	NaN	NaN
ich	NaN	NaN
züe	NaN	NaN
Ihrem	NaN	NaN
Oncle	NaN	NaN
gange	NaN	NaN
bi	NaN	NaN
,	NaN	NaN
ohne	NaN	NaN
Sie	NaN	NaN
z'	NaN	NaN
kenne	NaN	NaN
un	NaN	NaN
ohne	NaN	NaN
-n-	NaN	NaN
ass	NaN	NaN
ich	NaN	NaN
g'wisst	NaN	NaN
ha	NaN	NaN
,	NaN	NaN
ass	NaN	NaN
dr	NaN	NaN
Herr	NaN	NaN
Flink	NaN	NaN
dr	NaN	NaN
Oncle	NaN	NaN
isch	NaN	NaN
.	NaN	NaN
Aha	NaN	NaN
!	NaN	NaN
…	NaN	NaN
das	NaN	NaN
isch	NaN	NaN
die	NaN	NaN
Bekanntschaft	NaN	NaN
,	NaN	NaN
wo	NaN	NaN
Sie	NaN	NaN
g'sàh	NaN	NaN
hàn	NaN	NaN
im	NaN	NaN
Garte	NaN	NaN
…	NaN	NaN
ich	NaN	NaN
ha	NaN	NaN
nit	NaN	NaN
dergege	NaN	NaN
,	NaN	NaN
wenn	NaN	NaN
's	NaN	NaN
Trinele	NaN	NaN
z'	NaN	NaN
friede	NaN	NaN
-n-	NaN	NaN
isch	NaN	NaN
…	NaN	NaN
das	NaN	NaN
arrangiert	NaN	NaN
uns	NaN	NaN
jetz	NaN	NaN
alle	NaN	NaN
…	NaN	NaN
un	NaN	NaN
hoffentlig	NaN	NaN
wird	NaN	NaN
dr	NaN	NaN
Herr	NaN	NaN
Ledig	NaN	NaN
o	NaN	NaN
z'	NaN	NaN
friede	NaN	NaN
si	NaN	NaN
un	NaN	NaN
wird	NaN	NaN
is	NaN	NaN
d'	NaN	NaN
Freid	NaN	NaN
mache	NaN	NaN
doz'bliwe	NaN	NaN
?	NaN	NaN
…	NaN	NaN
Verzeiht	NaN	NaN
Se	NaN	NaN
mr	NaN	NaN
,	NaN	NaN
Madame	NaN	NaN
Frisch	NaN	NaN
…	NaN	NaN
ich	NaN	NaN
bi	NaN	NaN
halt	NaN	NaN
e	NaN	NaN
Hitzkopf	NaN	NaN
…	NaN	NaN
ich	NaN	NaN
will	NaN	NaN
gern	NaN	NaN
bliwe	NaN	NaN
…	NaN	NaN
awer	NaN	NaN
thàte	NaN	NaN
Se	NaN	NaN
mr	NaN	NaN
nur	NaN	NaN
sage	NaN	NaN
…	NaN	NaN
Also	NaN	NaN
isch	NaN	NaN
jetz	NaN	NaN
alles	NaN	NaN
wieder	NaN	NaN
in	NaN	NaN
Ordnung	NaN	NaN
!	NaN	NaN
…	NaN	NaN
nitt	NaN	NaN
ohne	NaN	NaN
Mieih	NaN	NaN
!	NaN	NaN
…	NaN	NaN
awer	NaN	NaN
jetz	NaN	NaN
an	NaN	NaN
dr	NaN	NaN
Tisch	NaN	NaN
,	NaN	NaN
un	NaN	NaN
flink	NaN	NaN
e	NaN	NaN
wenig	NaN	NaN
!	NaN	NaN
O	NaN	NaN
mine	NaN	NaN
liewe	NaN	NaN
Kinder	NaN	NaN
,	NaN	NaN
wie	NaN	NaN
isch	NaN	NaN
's	NaN	NaN
mir	NaN	NaN
uf	NaN	NaN
eimol	NaN	NaN
eso	NaN	NaN
schlecht	NaN	NaN
…	NaN	NaN
Nundebuckel	NaN	NaN
noch	NaN	NaN
emol	NaN	NaN
!	NaN	NaN
…	NaN	NaN
ich	NaN	NaN
weiss	NaN	NaN
gar	NaN	NaN
nitt	NaN	NaN
was	NaN	NaN
afange	NaN	NaN
!	NaN	NaN
…	NaN	NaN
's	NaN	NaN
isch	NaN	NaN
grad	NaN	NaN
ku	NaN	NaN
wie	NaN	NaN
a	NaN	NaN
mi	NaN	NaN
blose	NaN	NaN
!	NaN	NaN
…	NaN	NaN
ihr	NaN	NaN
werde	NaN	NaN
halt	NaN	NaN
miesse	NaN	NaN
-n-	NaN	NaN
ohne	NaN	NaN
mich	NaN	NaN
an	NaN	NaN
dr	NaN	NaN
Tisch	NaN	NaN
sitze	NaN	NaN
.	NaN	NaN
Was	NaN	NaN
fir	NaN	NaN
e	NaN	NaN
Fatalität	NaN	NaN
!	NaN	NaN
…	NaN	NaN
scho	NaN	NaN
wieder	NaN	NaN
drizehne	NaN	NaN
!	NaN	NaN
…	NaN	NaN
Wo	NaN	NaN
hàn	NaN	NaN
Se	NaN	NaN
-n-	NaN	NaN
eigentlig	NaN	NaN
weh	NaN	NaN
?	NaN	NaN
…	NaN	NaN
was	NaN	NaN
isch	NaN	NaN
denn	NaN	NaN
g'schàh	NaN	NaN
?	NaN	NaN
…	NaN	NaN
G'schwind	NaN	NaN
…	NaN	NaN
mr	NaN	NaN
wànn	NaN	NaN
en	NaN	NaN
ufs	NaN	NaN
Kanepee	NaN	NaN
fiehre	NaN	NaN
,	NaN	NaN
er	NaN	NaN
ka	NaN	NaN
sich	NaN	NaN
jo	NaN	NaN
nimmig	NaN	NaN
ufrecht	NaN	NaN
halte	NaN	NaN
.	NaN	NaN
Isch	NaN	NaN
jetz	NaN	NaN
das	NaN	NaN
nitt	NaN	NaN
züem	NaN	NaN
narràchtig	NaN	NaN
werde	NaN	NaN
mit	NaN	NaN
dàre	NaN	NaN
-n-	NaN	NaN
Unglickszahl	NaN	NaN
!	NaN	NaN
…	NaN	NaN
was	NaN	NaN
soll	NaN	NaN
ich	NaN	NaN
jetz	NaN	NaN
wieder	NaN	NaN
afange	NaN	NaN
…	NaN	NaN
ich	NaN	NaN
ka	NaN	NaN
doch	NaN	NaN
dr	NaN	NaN
Herr	NaN	NaN
Ledig	NaN	NaN
nitt	NaN	NaN
noch	NaN	NaN
emol	NaN	NaN
furtschicke	NaN	NaN
…	NaN	NaN
un	NaN	NaN
doch	NaN	NaN
will	NaN	NaN
ich	NaN	NaN
durchüs	NaN	NaN
nitt	NaN	NaN
drizehne	NaN	NaN
-n-	NaN	NaN
am	NaN	NaN
Tisch	NaN	NaN
ha	NaN	NaN
.	NaN	NaN
Madame	NaN	NaN
Frisch	NaN	NaN
,	NaN	NaN
me	NaN	NaN
wartet	NaN	NaN
jetz	NaN	NaN
nur	NaN	NaN
noch	NaN	NaN
uf	NaN	NaN
Sie	NaN	NaN
,	NaN	NaN
fir	NaN	NaN
an	NaN	NaN
dr	NaN	NaN
Tisch	NaN	NaN
z'	NaN	NaN
geh	NaN	NaN
…	NaN	NaN
dr	NaN	NaN
Oncle	NaN	NaN
isch	NaN	NaN
jetz	NaN	NaN
dowe	NaN	NaN
…	NaN	NaN
er	NaN	NaN
ligt	NaN	NaN
uf	NaN	NaN
em	NaN	NaN
Kanepee	NaN	NaN
!	NaN	NaN
.	NaN	NaN
Was	NaN	NaN
mache	NaN	NaN
!	NaN	NaN
…	NaN	NaN
was	NaN	NaN
afange	NaN	NaN
Ah	NaN	NaN
!	NaN	NaN
dà	NaN	NaN
Lumpemann	NaN	NaN
!	NaN	NaN
He	NaN	NaN
,	NaN	NaN
Lumpemann	NaN	NaN
:	NaN	NaN
…	NaN	NaN
wànn	NaN	NaN
Sie	NaN	NaN
viellicht	NaN	NaN
ku	NaN	NaN
mit	NaN	NaN
is	NaN	NaN
z'	NaN	NaN
Nacht	NaN	NaN
esse	NaN	NaN
?	NaN	NaN
…	NaN	NaN
was	NaN	NaN
,	NaN	NaN
er	NaN	NaN
will	NaN	NaN
nitt	NaN	NaN
emol	NaN	NaN
!	NaN	NaN
…	NaN	NaN
er	NaN	NaN
meint	NaN	NaN
alleweg	NaN	NaN
,	NaN	NaN
's	NaN	NaN
isch	NaN	NaN
G'schpass	NaN	NaN
…	NaN	NaN
aha	NaN	NaN
…	NaN	NaN
dert	NaN	NaN
kunnt	NaN	NaN
e	NaN	NaN
Kàmifeger	NaN	NaN
,	NaN	NaN
viellicht	NaN	NaN
ka	NaN	NaN
-n-	NaN	NaN
ich	NaN	NaN
dà	NaN	NaN
engàgiere	NaN	NaN
…	NaN	NaN
He	NaN	NaN
…	NaN	NaN
Kàmifeger	NaN	NaN
!	NaN	NaN
…	NaN	NaN
kämme	NaN	NaN
-n-	NaN	NaN
emol	NaN	NaN
do	NaN	NaN
…	NaN	NaN
Décidément	NaN	NaN
,	NaN	NaN
d'	NaN	NaN
Madame	NaN	NaN
Frisch	NaN	NaN
müess	NaN	NaN
g'schittelt	NaN	NaN
si	NaN	NaN
…	NaN	NaN
ich	NaN	NaN
will	NaN	NaN
mich	NaN	NaN
glaüb	NaN	NaN
üs	NaN	NaN
em	NaN	NaN
Staüb	NaN	NaN
mache	NaN	NaN
…	NaN	NaN
Er	NaN	NaN
hat	NaN	NaN
nitt	NaN	NaN
dr	NaN	NaN
Zit	NaN	NaN
,	NaN	NaN
sàit	NaN	NaN
er	NaN	NaN
!	NaN	NaN
…	NaN	NaN
was	NaN	NaN
lüege	NaN	NaN
Se	NaN	NaN
mich	NaN	NaN
eso	NaN	NaN
verstört	NaN	NaN
a	NaN	NaN
,	NaN	NaN
Herr	NaN	NaN
Ledig	NaN	NaN
…	NaN	NaN
dà	NaN	NaN
Kàmifeger	NaN	NaN
hätt	NaN	NaN
känne	NaN	NaN
-n-	NaN	NaN
in	NaN	NaN
eim	NaN	NaN
vo	NaN	NaN
-n-	NaN	NaN
uns	NaN	NaN
's	NaN	NaN
Lewe	NaN	NaN
rette	NaN	NaN
un	NaN	NaN
viellicht	NaN	NaN
grad	NaN	NaN
Ihne	NaN	NaN
!	NaN	NaN
's	NaN	NaN
isch	NaN	NaN
möglig	NaN	NaN
…	NaN	NaN
awer	NaN	NaN
einstwilewill	NaN	NaN
ich	NaN	NaN
mich	NaN	NaN
süeche	NaN	NaN
selwer	NaN	NaN
z'	NaN	NaN
rette	NaN	NaN
!	NaN	NaN
Madame	NaN	NaN
Frisch	NaN	NaN
,	NaN	NaN
dr	NaN	NaN
Oncle	NaN	NaN
isch	NaN	NaN
jetz	NaN	NaN
wieder	NaN	NaN
besser	NaN	NaN
un	NaN	NaN
wott	NaN	NaN
jetz	NaN	NaN
z'	NaN	NaN
Nacht	NaN	NaN
esse	NaN	NaN
…	NaN	NaN
me	NaN	NaN
wartet	NaN	NaN
nur	NaN	NaN
noch	NaN	NaN
uf	NaN	NaN
Sie	NaN	NaN
un	NaN	NaN
dr	NaN	NaN
Herr	NaN	NaN
Ledig	NaN	NaN
.	NaN	NaN
Oh	NaN	NaN
!	NaN	NaN
…	NaN	NaN
mr	NaN	NaN
sin	NaN	NaN
g'rettet	NaN	NaN
!	NaN	NaN
…	NaN	NaN
desto	NaN	NaN
besser	NaN	NaN
…	NaN	NaN
das	NaN	NaN
isch	NaN	NaN
mr	NaN	NaN
noch	NaN	NaN
liewer	NaN	NaN
as	NaN	NaN
dr	NaN	NaN
Kàmifeger	NaN	NaN
…	NaN	NaN
kämme	NaN	NaN
Se	NaN	NaN
jetz	NaN	NaN
,	NaN	NaN
Herr	NaN	NaN
Ledig	NaN	NaN
…	NaN	NaN
ich	NaN	NaN
glaüb	NaN	NaN
,	NaN	NaN
ass	NaN	NaN
mr	NaN	NaN
dasmol	NaN	NaN
unser	NaN	NaN
Nachtesse	NaN	NaN
verdient	NaN	NaN
hàn	NaN	NaN
.	NaN	NaN
Ich	NaN	NaN
verstand	NaN	NaN
allewil	NaN	NaN
weniger	NaN	NaN
…	NaN	NaN
Nundebuckel	NaN	NaN
noch	NaN	NaN
emol	NaN	NaN
…	NaN	NaN
ha	NaN	NaN
-n-	NaN	NaN
ich	NaN	NaN
e	NaN	NaN
-n-	NaN	NaN
Angst	NaN	NaN
g'ha	NaN	NaN
!	NaN	NaN
…	NaN	NaN
's	NaN	NaN
isch	NaN	NaN
mr	NaN	NaN
ganz	NaN	NaN
schwindlig	NaN	NaN
gsi	NaN	NaN
,	NaN	NaN
awer	NaN	NaN
jetz	NaN	NaN
geht	NaN	NaN
's	NaN	NaN
wieder	NaN	NaN
besser	NaN	NaN
…	NaN	NaN
à	NaN	NaN
propos	NaN	NaN
,	NaN	NaN
De	NaN	NaN
hasch	NaN	NaN
e	NaN	NaN
g'scheidte	NaN	NaN
Nase	NaN	NaN
g'ha	NaN	NaN
,	NaN	NaN
ass	NaN	NaN
De	NaN	NaN
dr	NaN	NaN
Herr	NaN	NaN
Krach	NaN	NaN
dert	NaN	NaN
nitt	NaN	NaN
hasch	NaN	NaN
lo	NaN	NaN
furtgeh	NaN	NaN
,	NaN	NaN
denn	NaN	NaN
grad	NaN	NaN
ha	NaN	NaN
-n-	NaN	NaN
i	NaN	NaN
g'achtet	NaN	NaN
am	NaN	NaN
Tisch	NaN	NaN
,	NaN	NaN
mr	NaN	NaN
wàre	NaN	NaN
sunscht	NaN	NaN
drizehne	NaN	NaN
gsi	NaN	NaN
!	NaN	NaN
Ah	NaN	NaN
!	NaN	NaN
…	NaN	NaN
jetz	NaN	NaN
geht	NaN	NaN
mr	NaN	NaN
e	NaN	NaN
Liecht	NaN	NaN
uf	NaN	NaN
!	NaN	NaN
…	NaN	NaN
jetz	NaN	NaN
,	NaN	NaN
jetz	NaN	NaN
verstand	NaN	NaN
i	NaN	NaN
's	NaN	NaN
!	NaN	NaN
…	NaN	NaN
Sie	NaN	NaN
hàn	NaN	NaN
Zit	NaN	NaN
brücht	NaN	NaN
derzüe	NaN	NaN
,	NaN	NaN
güeter	NaN	NaN
Frind	NaN	NaN
…	NaN	NaN
was	NaN	NaN
doch	NaN	NaN
dr	NaN	NaN
Awerglaüwe	NaN	NaN
nitt	NaN	NaN
mache	NaN	NaN
ka	NaN	NaN
!	NaN	NaN
…	NaN	NaN
also	NaN	NaN
,	NaN	NaN
merke	NaN	NaN
-n-	NaN	NaN
eüch	NaN	NaN
das	NaN	NaN
,	NaN	NaN
die	NaN	NaN
wo	NaN	NaN
wànn	NaN	NaN
glicklig	NaN	NaN
verlobt	NaN	NaN
si	NaN	NaN
,	NaN	NaN
die	NaN	NaN
solle	NaN	NaN
vor	NaN	NaN
allem	NaN	NaN
trachte	NaN	NaN
,	NaN	NaN
ass	NaN	NaN
se	NaN	NaN
nitt	NaN	NaN
drizehne	NaN	NaN
sin	NaN	NaN
am	NaN	NaN
Tisch	NaN	NaN
,	NaN	NaN
sunscht	NaN	NaN
…	NaN	NaN
Sunscht	NaN	NaN
hat	NaN	NaN
me	NaN	NaN
z'	NaN	NaN
riskiere	NaN	NaN
,	NaN	NaN
ass	NaN	NaN
e	NaN	NaN
Kàmifeger	NaN	NaN
kunnt	NaN	NaN
ku	NaN	NaN
nàwe	NaN	NaN
-n-	NaN	NaN
eim	NaN	NaN
sitze	NaN	NaN
!	NaN	NaN
…	NaN	NaN
Wenn	NaN	NaN
ihr	NaN	NaN
wànn	NaN	NaN
Gäst	NaN	NaN
ilade	NaN	NaN
,	NaN	NaN
So	NaN	NaN
gàn	NaN	NaN
schön	NaN	NaN
acht	NaN	NaN
,	NaN	NaN
Drizehne	NaN	NaN
bringe	NaN	NaN
Schade	NaN	NaN
,	NaN	NaN
's	NaN	NaN
isch	NaN	NaN
längst	NaN	NaN
üsg'macht	NaN	NaN
!	NaN	NaN
Wenn	NaN	NaN
dr	NaN	NaN
Vierzehnt	NaN	NaN
fehle	NaN	NaN
thüet	NaN	NaN
,	NaN	NaN
Isch	NaN	NaN
e	NaN	NaN
Lumpemann	NaN	NaN
o	NaN	NaN
güet	NaN	NaN
Od'r	NaN	NaN
e	NaN	NaN
Kàmifeger	NaN	NaN
Im	NaN	NaN
hoche	NaN	NaN
Hüet	NaN	NaN
!	NaN	NaN
